Address;Transferable;InTransit;StakedToSelf;PendingUnstakes;DelegatedToOthers;PendingRetractedDelegated;InSchedule;Releaseable;Staked;Unlocked;Total;UnlockedRatio;StakeRatio
00004707b35004e4b8e4f421ecb6419875ccac1622;0;0;0;0;1547500;0;10832500;0;1547500;1547500;12380000;0.125;0.125
00007191afc732273eff16baa3a3c7ae8a7eea6255;0;0;0;0;1250000;0;8750000;0;1250000;1250000;10000000;0.125;0.125
0000f871f03b7d23a21de01b0d5d3d21529b89d784;0;0;0;0;6178750;0;43251250;0;6178750;6178750;49430000;0.125;0.125
0001e52268cdee1d9e3f3894574e50220620dcfa94;0;0;0;0;56001125;0;840016875;0;56001125;56001125;896018000;0.0625;0.0625
0002169f1bf8f3037705dd2c874572961addc15d9f;0;0;0;0;32295562;0;450073438;0;32295562;32295562;482369000;0.06695198489123472;0.06695198489123472
00032e337076db13fbc19b89b21385f2e1134f146f;-1318330000;0;1318330000;0;0;0;1318333334;86666665;1318330000;86666665;1318333334;0.06573956886688265;0.9999974710493059
0003756b37ad7f0d51edb1aa3263d23d352c9eee37;-250000000;0;250000000;0;0;0;1856549295;120066411;250000000;120066411;1856549295;0.0646718141680154;0.13465842284570204
00038bb25c4e3f9f6f7e2d59d2b755355ef8439076;0;0;0;0;12928750;0;90501250;0;12928750;12928750;103430000;0.125;0.125
0004f24e1e2454cc88930d8572195b34301747a52d;4166666;0;100000000;0;0;0;1562500001;0;100000000;104166666;1666666667;0.0624999995875;0.059999999988
0005df53b17afcce35288a216eec6bbdb8f0541665;0;0;0;0;1478750;0;10351250;0;1478750;1478750;11830000;0.125;0.125
0006b6fd48ed680261135aa28135a0362293c723ff;1250;0;0;0;3930000;0;27518750;0;3930000;3931250;31450000;0.125;0.12496025437201908
0006f63457d7d9433974dd146f3c92b84ed5293429;-1698009000;0;1698009000;0;0;0;1790833492;117728622;1698009000;117728622;1790833492;0.06573956904755052;0.9481668773704172
00079ed702ed81122898099b2cad772cfba478e6a1;0;0;0;0;12500000;0;87500000;0;12500000;12500000;100000000;0.125;0.125
000aa459686bbcb9ca0a9a44bef0ad93c0cf3cb34c;1008750;0;0;0;2100000;0;21761250;0;2100000;3108750;24870000;0.125;0.08443908323281062
000b33e693fdb858373a0608829f4cd42b70b0f368;0;0;0;0;4755000;0;33285000;0;4755000;4755000;38040000;0.125;0.125
000b636d3f54d710a170c275b7cde513c0848bd0cc;97500;0;0;0;350000;0;3132500;0;350000;447500;3580000;0.125;0.09776536312849161
000b7fa7567bb18c50d5950395c6a8a58f29050592;0;0;0;0;8517500;0;59622500;0;8517500;8517500;68140000;0.125;0.125
000b9741970293ff9c5708c59052d41d2625a754ac;0;0;0;0;16715000;0;117005000;0;16715000;16715000;133720000;0.125;0.125
000cb2cb289f03783dcf99df2656f2cba5b92d3879;0;0;10000;0;19056666;0;240800000;0;19066666;19066666;259866666;0.07337095708920205;0.07337095708920205
000d3d44e8d051d4a18bd88676899e85fcd13cf51a;0;0;0;0;62892500;0;440247500;0;62892500;62892500;503140000;0.125;0.125
000de023c9f6ae09f1bde00f0e8d6859f02885388f;0;0;0;0;15666250;0;109663750;0;15666250;15666250;125330000;0.125;0.125
000e280cee4c1d2e68af0786dde5f660a6be89ef86;0;0;0;0;31661187;0;474917813;0;31661187;31661187;506579000;0.06249999901298712;0.06249999901298712
0010c669fa9d10bd561d90ded99df8589e1011591a;-5500000000;0;5500000000;0;0;0;6273333334;409166665;5500000000;409166665;6273333334;0.06522316657117713;0.8767268861980099
00116cc41ed0a6dc9a567fdb29cdf8be9e68636b6d;0;0;0;0;3432500;0;24027500;0;3432500;3432500;27460000;0.125;0.125
001210f372df2094f1e72ef90024e1002cf19d5e32;-5500000000;0;5500000000;0;0;0;5773333334;377916665;5500000000;377916665;5773333334;0.06545900663216409;0.95265588903549
00129ff2a896abc6e155c3a5a3e901dac9e90772c3;-250000000;0;250000000;0;0;0;10093333334;1261666666;250000000;1261666666;10093333334;0.12499999992569352;0.024768824304836935
0012a214d381a701d87711bc946b6fff4a1102afee;0;0;0;0;56001125;0;840016875;0;56001125;56001125;896018000;0.0625;0.0625
0012b463395b13012d25572c1237c77dc83518a8fe;0;0;0;0;30068562;0;451028438;0;30068562;30068562;481097000;0.06249999896070855;0.06249999896070855
0013153a0218b8df737a0851ccda76fc1f817d18d2;-2340635045;0;2515009000;0;0;0;2478122203;0;2515009000;174373955;2652496158;0.06573956930119708;0.9481668776087253
001446286d955bcc1bb924b17b5aab9e958e89bbde;0;0;0;0;2863750;0;20046250;0;2863750;2863750;22910000;0.125;0.125
001547ca35434ee1aab541f0117f59846f0c2d5633;0;0;0;0;3402500;0;23817500;0;3402500;3402500;27220000;0.125;0.125
00160fa6ffd4c7a4d49b43b6e7759aa663ad80d0dd;-250000000;0;250000000;0;0;0;531066230;37427153;250000000;37427153;531066230;0.07047549041105476;0.4707510775068488
0017026ebddd7fc980bc0bfa818bc13056cb47b49d;0;0;0;0;28000562;0;420008438;0;28000562;28000562;448009000;0.06249999888395099;0.06249999888395099
00187fd940298fd032f0472502ab68103091d1d517;0;0;0;0;28000562;0;420008438;0;28000562;28000562;448009000;0.06249999888395099;0.06249999888395099
0018bcbedac3e9978ade38f666e7b54eb7fe114ad2;-448009000;0;448009000;0;0;0;472500158;31061955;448009000;31061955;472500158;0.06573956531883318;0.9481668787082184
00191d8c2edaa9194eb4d591cc7364b51855b7fc00;0;0;0;0;3617500;0;25322500;0;3617500;3617500;28940000;0.125;0.125
0019e9a28c978dd65114cc4e0bcb876770805b0349;0;0;0;0;2807500;0;19652500;0;2807500;2807500;22460000;0.125;0.125
001a53b7275033cbae5172588df246ab8a11e23e92;-1396000000;0;1500000000;0;0;0;1478000000;0;1500000000;104000000;1582000000;0.06573957016434892;0.9481668773704172
001aa2b91b329f6364bb91bc4c55dbf28d50c787fd;0;0;0;0;21417500;0;149922500;0;21417500;21417500;171340000;0.125;0.125
001aa3232cd8d77fa8b54ed53acdb0b401100e1258;98750;0;0;0;3000000;0;21691250;0;3000000;3098750;24790000;0.125;0.12101653892698669
001b5a966673b3d9d87d84758e86a946ce33254d92;0;0;0;0;156250000;0;2343750000;0;156250000;156250000;2500000000;0.0625;0.0625
001bc1d4da9fceeebf17b9f2a4c9c7cc49665c65f1;0;0;0;0;28000562;0;420008438;0;28000562;28000562;448009000;0.06249999888395099;0.06249999888395099
001c0163e8aa581f85bdf2e18cd3c77927427cd9ec;-1437500000;0;1437500000;0;0;0;1516083334;99666664;1437500000;99666664;1516083334;0.06573956837652303;0.9481668769534802
001c55bce7420948369cce8f014b7ab2b37139f99d;0;0;0;0;12500000;0;187500000;0;12500000;12500000;200000000;0.0625;0.0625
001d112b141056df59222685dd37dc919f0efa4d59;-2055125777;0;2055125777;0;0;0;2055125778;171372845;2055125777;171372845;2055125778;0.08338800808910879;0.9999999995134118
001daf29ea3cdfc1b581fa4357fa0cc5116e70bc43;41250;0;0;0;3150000;0;22338750;0;3150000;3191250;25530000;0.125;0.12338425381903642
001ecfdd7a8768fc89540f57be69164a782b20ffbf;0;0;0;0;78125000;0;1171875000;0;78125000;78125000;1250000000;0.0625;0.0625
001f049a68c3075ff20ddeaafe0819daac3b64bf4c;0;0;0;0;56001125;0;840016875;0;56001125;56001125;896018000;0.0625;0.0625
001f0fec5969c071e988d4788d567de376b8de9830;500000;0;1166250;0;0;0;11663750;0;1166250;1666250;13330000;0.125;0.08749062265566392
00212ebd8b59f240fed393bface4379a8d9e3d4974;-528110000;0;528110000;0;0;0;528110000;66013750;528110000;66013750;528110000;0.125;1.0
002211b08201dd32ccf0fca91047c84475ee1b8d9a;-2909236936;0;2909236936;0;0;0;2909236936;206182927;2909236936;206182927;2909236936;0.07087182362103765;1.0
00226304336de6a1d06c695afd350815466f53590d;0;0;0;0;4800000;0;33600000;0;4800000;4800000;38400000;0.125;0.125
0022aa5a93dc352101c433667b50388d8ca2228f58;0;0;0;0;3350000;0;23450000;0;3350000;3350000;26800000;0.125;0.125
0022c56e1bd4c20c73569f66eb5845e6159080b0f0;66;0;9166666600;0;0;0;137500000001;0;9166666600;9166666666;146666666667;0.0624999999953125;0.0624999995453125
0022e47780cbb1b664611389f3b11ddbe951b38700;0;0;0;0;40627500;0;284392500;0;40627500;40627500;325020000;0.125;0.125
0022f95b126d0cae29113fe0b0012968168b6944c3;0;0;5338750;0;0;0;37371250;0;5338750;5338750;42710000;0.125;0.125
002319c23cec3792fc24fb574a41460b94ecd65292;0;0;0;0;12778750;0;89451250;0;12778750;12778750;102230000;0.125;0.125
0023d1b568e99095e1d6ebfce8a583efab67ce5968;-1250000000;0;1250000000;0;0;0;1318333334;86666665;1250000000;86666665;1318333334;0.06573956886688265;0.9481668768909396
00249d60d673df8bb1ac0fbf05c3f1aaf3a84cd2b9;0;0;0;0;3068750;0;21481250;0;3068750;3068750;24550000;0.125;0.125
002560b7de34b37cfbbd5748fb98e8c172e1d5093a;0;0;0;0;21144437;0;317166563;0;21144437;21144437;338311000;0.06249999852206993;0.06249999852206993
0027266a6440eac0597651df7fcfc2384dd149902c;0;0;0;0;159065812;0;2385987188;0;159065812;159065812;2545053000;0.062499999803540436;0.062499999803540436
00279af16da3223a6b335ba79bcf402cdabb58f526;32375;0;0;0;62200000;0;883635625;0;62200000;62232375;945868000;0.06579393213429358;0.06575970431392118
0027c5693ae004307b5d4a0daa0a783dc51b801bf7;-1250000000;0;1250000000;0;0;0;1250000000;78125000;1250000000;78125000;1250000000;0.0625;1.0
0028ae363f88638f25e22bc77a4367fc4cf80dcf80;0;0;0;0;1348750;0;9441250;0;1348750;1348750;10790000;0.125;0.125
0029989257513b82e30a4e10597a79482e9de20b85;-275120000;0;275120000;0;0;0;275120000;34390000;275120000;34390000;275120000;0.125;1.0
0029df0cf3c74e9bb22d481f574645daa2e1ef87fa;502500;0;0;0;13500000;5000000;133017500;0;13500000;19002500;152020000;0.125;0.08880410472306276
002a9aa5f7a98b3b6c9e50de94ce45e208f78f4cff;-255180000;0;255180000;0;0;0;255180000;21897500;255180000;21897500;255180000;0.08581197586017714;1.0
002b905e734975ef780c774f553dec1119a2c13b5f;-1250000000;0;1250000000;0;0;0;1318333334;86666665;1250000000;86666665;1318333334;0.06573956886688265;0.9481668768909396
002c30b8822473502012d2598aa75a60d98fe6b558;-250000000;0;250000000;0;0;0;464137323;30016601;250000000;30016601;464137323;0.0646718105020828;0.5386336922531869
002c4f1505c3f580bba8a809c6bdf40592ad9ffd13;-1137990000;0;1137990000;0;0;0;1178957640;147369704;1137990000;147369704;1178957640;0.1249999991517931;0.9652509652509652
002ca69e438fbdf90074db1908fd6a3ac2ec5a7df5;-3366999999;0;3366999999;0;0;0;3366999999;217749998;3366999999;217749998;3366999999;0.06467181409702162;1.0
002d6bca02ee31ebf862075b13ae35866a4ded44db;-1000000000;0;1000000000;0;0;0;1250000000;78125000;1000000000;78125000;1250000000;0.0625;0.8
002e418e4ff8ea1c6d2bb197b59e1f0fc2ebf7550c;-448009000;0;448009000;0;0;0;472500158;31061955;448009000;31061955;472500158;0.06573956531883318;0.9481668787082184
002f08736bc58103c1d09ef573b764621641af6f14;0;0;0;0;16643750;0;116506250;0;16643750;16643750;133150000;0.125;0.125
00300fe2d56402f9f3aa6cd0564e056b4a4ee8202c;0;0;0;0;13093750;0;91656250;0;13093750;13093750;104750000;0.125;0.125
00303090471738b78f6fc910e8e06d1b08bc144bd8;-1250000000;0;1250000000;0;0;0;1318333334;86666665;1250000000;86666665;1318333334;0.06573956886688265;0.9481668768909396
003058133c84fa602fe1c53fee1690c4f29f193019;0;0;0;0;4295000;0;30065000;0;4295000;4295000;34360000;0.125;0.125
0031020ab94157055e4dbf826d751472e48397f16f;-5500000000;0;5500000000;0;0;0;20180000001;2522499999;5500000000;2522499999;20180000001;0.12499999994425173;0.27254707629967556
0031b0636472b2f6107637bed28c146707eed0ae49;-218362500;0;250000000;0;0;0;221462500;0;250000000;31637500;253100000;0.125;0.9877518767285658
0031f29f99727cea6d917e2d4725d26f9f1a1c0828;-46910000;0;46910000;0;0;0;46910000;5863750;46910000;5863750;46910000;0.125;1.0
00325b43248386ad6b61e9ae4ff974c5515a68f978;-1039622000;0;1039622000;0;0;0;1096454670;72080457;1039622000;72080457;1096454670;0.06573956860432725;0.9481668767939125
0032fb5447c7d9bc485e5c74f6d37378501cad1003;0;0;0;0;2706250;0;18943750;0;2706250;2706250;21650000;0.125;0.125
003357f9ed428a04d840e39aa7f63d827617f46ebe;-274000000;0;274000000;0;0;0;274000000;17625000;274000000;17625000;274000000;0.06432481751824817;1.0
0033f7de239c0db8f45d53b0a98f00e6423dde79bb;0;0;0;0;3255000;0;22785000;0;3255000;3255000;26040000;0.125;0.125
00341498eeb456aa3640cbd9051edc0cec21f03578;0;0;0;0;125000000;0;1875000000;0;125000000;125000000;2000000000;0.0625;0.0625
0035ea8acd943be133e15d4a77f26b0bff1a184be3;0;0;0;0;31250000;0;468750000;0;31250000;31250000;500000000;0.0625;0.0625
00362761916bdee45e6908b126b87f57b220952fa2;-1250000000;0;1250000000;0;0;0;1318333334;86666665;1250000000;86666665;1318333334;0.06573956886688265;0.9481668768909396
00362cfffc8dae9e92a402632127f0ca6caf84f052;0;0;0;0;6328750;0;94931250;0;6328750;6328750;101260000;0.0625;0.0625
0036997527f23a4ddc38e3c7a78a19dbdc30897438;-1250000000;0;1250000000;0;0;0;1318333334;86666665;1250000000;86666665;1318333334;0.06573956886688265;0.9481668768909396
00385790e3944be9d9fb3a665e7d227d9889ea9925;-930000000;0;930000000;0;0;0;966933333;81977775;930000000;81977775;966933333;0.08478120693766589;0.9618036407066339
0038f20279b127950067cbfb5e08ac74831521ee74;-1250000000;0;1250000000;0;0;0;1318333334;86666665;1250000000;86666665;1318333334;0.06573956886688265;0.9481668768909396
0038fdc3067519647f32ecdfb4437cdcb221464995;0;0;0;0;28000562;0;420008438;0;28000562;28000562;448009000;0.06249999888395099;0.06249999888395099
003a47250d2dac46dcdfd81fcf1ba434da00645ab7;-250000000;0;250000000;0;0;0;407466666;25933332;250000000;25933332;407466666;0.06364528478999555;0.6135471214226883
003a83e0f374fdb6788e2f8e01c55430eb27de53ab;-1319230001;0;1417510000;0;0;0;1396710001;0;1417510000;98279999;1494990000;0.06573956949544812;0.9481735663783705
003aaa891767534e6c218ad69fc41d70526578b79d;0;0;0;0;13837500;0;96862500;0;13837500;13837500;110700000;0.125;0.125
003af46fb9a1ae7fef89da57e5d601a7eb38a1a137;125;0;6430000;0;0;0;96451875;0;6430000;6430125;102882000;0.0625;0.06249878501584339
003b550ca8ec20c93f9b57aeb7de1adee573176f5a;-5123083335;0;5501000000;0;0;0;5395416669;0;5501000000;377916665;5773333334;0.06545900663216409;0.9528290991971329
003b62392f196cc3369d2649f0dceef81210380162;-5500000000;0;5500000000;0;0;0;10273333334;659166665;5500000000;659166665;10273333334;0.06416288107954816;0.5353666450009495
003b85237cee0249077fca1d7bc201f5fd7da7a8dd;-2850000000;0;2850000000;0;0;0;4000000000;250000000;2850000000;250000000;4000000000;0.0625;0.7125
003bdb9add4126b7e59084b4ca095d6fce0523d381;0;0;0;0;111052500;0;777367500;0;111052500;111052500;888420000;0.125;0.125
003be3f896374676423d086a90323a1a316af42d22;0;0;0;0;342500;0;2397500;0;342500;342500;2740000;0.125;0.125
003cb71c0ccd86922901f6ee7dfb269bb8469c7577;-49526230;0;66040000;0;0;0;247706563;0;66040000;16513770;264220333;0.06249999692491493;0.24994291412084474
003d9c443841eebc6ddd70a7e53f4fe2eb2b7afead;-344140000;0;400000000;0;0;0;391020000;0;400000000;55860000;446880000;0.125;0.8950948800572861
003e14f0a73e1432929bad34910b518e3397ae0f53;0;0;0;0;8333333;0;125000000;0;8333333;8333333;133333333;0.06249999765624999;0.06249999765624999
003e543d89187f62df16d7d5a2245906227a33aaef;0;0;0;0;3131250;0;21918750;0;3131250;3131250;25050000;0.125;0.125
003e7acc5bbf87716c33f302b6aac12d741a39b54b;0;0;0;0;375000000;0;5625000000;0;375000000;375000000;6000000000;0.0625;0.0625
003e81f1fa97843437dad9e4ba826e28934ccc6875;-1940010000;0;1930040000;9970000;0;0;1954090000;129431250;1930040000;129431250;1954090000;0.06623607408051829;0.9876924808990374
003e8a0d56fe6b701fe71321d7b4dac0bc4efde848;0;0;0;0;3281250;0;22968750;0;3281250;3281250;26250000;0.125;0.125
003ee3fa369a9fec862be367d491201faa8875e534;-1698000000;0;1698000000;0;0;0;1790833492;117728622;1698000000;117728622;1790833492;0.06573956904755052;0.9481618517775633
003f7c99487893feb1e62a0b26969025dc3bbc05e0;-250000000;0;250000000;0;0;0;472500158;31061955;250000000;31061955;472500158;0.06573956531883318;0.5291003521738505
003fe1caea11d44587ecc1f0d47163fa537e41d577;0;0;0;0;10001250;0;70008750;0;10001250;10001250;80010000;0.125;0.125
004006e393c8d4af9c3d2f88d192d3218aba31196b;-2916666667;0;2916666667;0;0;0;3076111111;202222219;2916666667;202222219;3076111111;0.06573956911922484;0.9481668775130275
00404aadb526f6d53615c2fb061f1c438c1b1b9342;0;0;0;0;12525000;0;87675000;0;12525000;12525000;100200000;0.125;0.125
0040bfb43e1432084def40dc42f50c246e05e4daab;0;0;0;0;2022500;0;14157500;0;2022500;2022500;16180000;0.125;0.125
0040cae91f00265d2d22d6d979c1e309d49481dde6;0;0;0;0;800000;0;5600000;0;800000;800000;6400000;0.125;0.125
004112ed071df0e31e09fe4a0a3cffc5fba627a5d9;0;0;0;0;3223750;0;22566250;0;3223750;3223750;25790000;0.125;0.125
0041aa4c20595a3c860887e58df4b546227b00de10;-2804620000;0;2804620000;0;0;0;2804626000;175289125;2804620000;175289125;2804626000;0.0625;0.9999978606773238
004248828eae4533cb52d369c7838fc83700500542;0;0;0;0;1666250;0;11663750;0;1666250;1666250;13330000;0.125;0.125
0042bdbb4cfeef2bb8dddd876b74a41dcfa4631627;0;0;0;0;1148750;0;8041250;0;1148750;1148750;9190000;0.125;0.125
0042fb45e5711609d4928f440b904a7097d9e4ac08;-10000000;0;10000000;0;0;0;10000000;1250000;10000000;1250000;10000000;0.125;1.0
004336fe935b0975a028e65a959234fac580f03ff0;537866;0;8000000;0;800;0;128080001;0;8000800;8538666;136618667;0.06249999496774478;0.05856300735242864
00435995cf0fe2d4df013fb48a38b459cd9e018768;0;0;7526250;0;0;0;52683750;0;7526250;7526250;60210000;0.125;0.125
00435b8be8d13c913c1a9a00c6632f403ef4abc526;-180920125;0;250000000;0;0;0;931568125;0;250000000;69079875;1000648000;0.06903514022913153;0.2498381049080196
0043b74fd4e244fe2693765c156c59f7c8b13a04e3;0;0;0;0;3376250;0;23633750;0;3376250;3376250;27010000;0.125;0.125
0044405eefbacbb584f94ba6f08048f78f4a158a9d;0;0;0;0;3126250;0;21883750;0;3126250;3126250;25010000;0.125;0.125
0044e24a7255d455eb312b19719ee80f70099da4dd;-16180000;0;16180000;0;3352500;0;23467500;0;19532500;3352500;26820000;0.125;0.7282811334824758
004608f9647ac7f1cda974d90510c09c4db64bc3b4;0;0;0;0;1245000;0;8715000;0;1245000;1245000;9960000;0.125;0.125
00460de8e68bfb92bfb32c6bbf48554ba5f66bfc9c;0;0;0;5000000;250522624;0;3711856876;0;250522624;255522624;3967379500;0.06440589411726305;0.06314561639490247
004646f1e6b45cae73fcbe30b5ce1891e4572e1909;0;0;0;0;84001687;0;1260025313;0;84001687;84001687;1344027000;0.062499999627983666;0.062499999627983666
0046e748d60608b62f50bb4b8e734306a414f6ab54;-250000000;0;250000000;0;0;0;1250000000;78125000;250000000;78125000;1250000000;0.0625;0.2
00476a2e6cb857f19befd052d72daf939dad8aab2d;16250;0;0;0;8700000;0;61013750;0;8700000;8716250;69730000;0.125;0.12476695826760362
00476c389ad5e893120ba2caf03b01eb5e31d74945;0;0;0;0;6262500;0;43837500;0;6262500;6262500;50100000;0.125;0.125
0047b1d23d1a14e3c4e7d0f36358646ed2fa462d71;0;0;0;0;58709250;0;880638750;0;58709250;58709250;939348000;0.0625;0.0625
0047cfa5bf098fe72a4d26b35aa766810acd813dfa;-49342500;0;56400000;0;0;0;49402500;0;56400000;7057500;56460000;0.125;0.9989373007438895
0048070764e394a8d915b458059e398030e0430cfa;0;0;0;0;12593750;0;188906250;0;12593750;12593750;201500000;0.0625;0.0625
004814a6ad50026b138242c0ba29dad11ae32a2efc;0;0;0;0;7358221;0;110373316;0;7358221;7358221;117731537;0.0624999994691312;0.0624999994691312
00489b6260e9db67bebdb40d137fef3a7c66b70c2b;13800;0;0;0;35700485;0;535714286;0;35700485;35714285;571428571;0.062499998796875;0.062475848796856887
0048fa9cc711b0f341ee32d2915d4c65c3ef0251c8;0;0;0;0;10503750;0;73526250;0;10503750;10503750;84030000;0.125;0.125
004927076e817474824aef45851548cdb204db6a39;0;0;0;0;7807500;0;54652500;0;7807500;7807500;62460000;0.125;0.125
0049a1dad7cfdc5b03a3c666f7a750e69a764e9637;4625;0;0;0;8360000;0;125469375;0;8360000;8364625;133834000;0.0625;0.062465442264297566
0049c00463b97db1c72797ba4059806aa2d247b23a;-400000000;0;400000000;0;0;0;407466666;34266665;400000000;34266665;407466666;0.08409685468602233;0.9816753942763013
0049d84cfb76b1bb13240256b0a11b98e7bc38c0dc;-149601333;0;149601333;0;0;0;149601333;9350083;149601333;9350083;149601333;0.06249999791111487;1.0
0049fcdd002f93ab6cab97815d43728425dba16697;-4800000;0;4800000;0;0;0;4840000;605000;4800000;605000;4840000;0.125;0.9917355371900827
004a7d4922c6bd581d5ae912ce85466815d5388623;2895000;0;0;0;500000;0;23765000;0;500000;3395000;27160000;0.125;0.018409425625920472
004b15bef2c6559de77f599e2fd758bc65b653451d;-1401760714;0;1401760714;0;0;0;1401760714;99345338;1401760714;99345338;1401760714;0.07087182356289091;1.0
004b46f553f8e23c5f135f204b010e4f3cadde9034;13750;0;0;0;360000;0;2616250;0;360000;373750;2990000;0.125;0.12040133779264214
004b92f8e8e5be575c6d57fefc9b09b852819be082;-940000000;0;940000000;0;0;0;980484903;63409736;940000000;63409736;980484903;0.06467181269796665;0.9587093050835073
004bb18e20c423acb76b84cdb7c6a43a24be7097a1;-1148018000;0;1148018000;0;0;0;1210776318;79595913;1148018000;79595913;1210776318;0.06573956875162469;0.9481668768483461
004bfe0cb16d63233ffb94aa74b737eb187819709b;-1177870000;0;1177870000;0;0;0;1177870000;147233750;1177870000;147233750;1177870000;0.125;1.0
004c0627dbc8ed242586ed33462e760f28cac3070b;0;0;0;0;69922500;0;489457500;0;69922500;69922500;559380000;0.125;0.125
004c0ac99f066f00b45f2c3c1d9c8cab47cb80a782;0;0;0;0;6098750;0;42691250;0;6098750;6098750;48790000;0.125;0.125
004c2118d2012c41b06f5bafcc1297731afe1a6232;-579468000;0;630248562;0;0;0;579468438;0;630248562;50780562;630249000;0.08057222145532957;0.9999993050365807
004ccae3c2b313f9c688dbde0e018c8a5c41b38103;10000;0;0;0;330000;0;2380000;0;330000;340000;2720000;0.125;0.1213235294117647
004d8603f590cac4ceb828f1ae24da1f4848065ba2;-250000000;0;250000000;0;0;0;3718133334;236641666;250000000;236641666;3718133334;0.06364528776740205;0.0672380405817905
004daf5f8f41f205ca0fdaaa822aa143c6a3ad0949;0;0;0;0;21552562;0;323288438;0;21552562;21552562;344841000;0.062499998550056404;0.062499998550056404
004dc529187c40295c4e197654f35c8847317d4968;5000;0;0;0;7260000;0;50855000;0;7260000;7265000;58120000;0.125;0.12491397109428769
004ec47f8f66685783e6d8a3c34646e025d366d707;0;0;0;0;3352500;0;23467500;0;3352500;3352500;26820000;0.125;0.125
004f1ee37f9f372a7f8cf805ffb6c6bf0c3a5eca05;17500;0;500000;100000;0;0;4322500;0;500000;617500;4940000;0.125;0.10121457489878542
004f9dac9fcb9efb800f0286d42866cf58782c6ab5;-250000000;0;250000000;0;0;0;297590000;37198750;250000000;37198750;297590000;0.125;0.8400819920024194
005053703c4a32a217b9081d5fd620a2a9670e3538;-3766666667;0;3766666667;0;0;0;4039244449;266711108;3766666667;266711108;4039244449;0.0660299497511298;0.932517631591353
0051f0e0597ecf60cc375fdea3cc7bbd13f39e12a9;5000;0;4530000;0;0;0;31745000;0;4530000;4535000;36280000;0.125;0.12486218302094818
0052021bdabe4c59479e06483414579975be775006;0;0;0;0;8257500;0;57802500;0;8257500;8257500;66060000;0.125;0.125
00533bf14e0b9496c0764032abb1609f472603c540;-21752500;0;24860000;0;0;0;21752500;0;24860000;3107500;24860000;0.125;1.0
0053b1f0a09fa6b0fef5191c041fd3dea69e1bf0be;0;0;0;0;5005000;0;35035000;0;5005000;5005000;40040000;0.125;0.125
00555208300e1e3e45476a39616125e40edc011d8c;0;0;0;0;646250;0;4523750;0;646250;646250;5170000;0.125;0.125
0055c38f55cc3df675e65aeacf78c058846f1d6c1e;0;0;0;0;85450000;0;598150000;0;85450000;85450000;683600000;0.125;0.125
0055fb41197c659249c737d5295497346b886bbde5;0;0;0;0;1947500;0;13632500;0;1947500;1947500;15580000;0.125;0.125
005606414027a97673f1c82b9f6a19920750e5deb8;0;0;0;0;11915000;0;83405000;0;11915000;11915000;95320000;0.125;0.125
00564540d3b42fa0863c367f304eea192ec5c2edb4;0;0;0;0;97432000;0;1358820000;0;97432000;97432000;1456252000;0.06690600253252871;0.06690600253252871
0056511d5cbc65d768e37fb8105fbbb83e0063c8dc;0;0;0;0;4358750;0;30511250;0;4358750;4358750;34870000;0.125;0.125
0056a72697cf468bf297083f5dab03250f23bba974;0;0;0;0;62500000;0;937500000;0;62500000;62500000;1000000000;0.0625;0.0625
0056b011bed290bbf0f328b9a9892943c4a6a214d9;0;0;0;0;16666666;0;250000001;0;16666666;16666666;266666667;0.062499997421875;0.062499997421875
00575288e1667f516fac124679c84e01bd5bb0726e;0;0;0;0;12278750;0;85951250;0;12278750;12278750;98230000;0.125;0.125
00577840e07cf6e6fa14546084ea022887781fcccd;0;0;0;0;1901250;0;13308750;0;1901250;1901250;15210000;0.125;0.125
0059a7f72215cc58a46599c66d19b584072b7125ae;0;0;0;0;5463750;0;38246250;0;5463750;5463750;43710000;0.125;0.125
0059c4b7f630662f3aeb045101436111c767683e74;-125110000;0;125110000;0;0;0;125110000;15638750;125110000;15638750;125110000;0.125;1.0
0059ddee2a742fe86d081bcafc964dcfa92f73f6e4;0;0;0;0;8333333;0;125000000;0;8333333;8333333;133333333;0.06249999765624999;0.06249999765624999
005a49ac1bfae72e07305261ec737fa9fd7fca2975;0;0;0;0;28000562;0;420008438;0;28000562;28000562;448009000;0.06249999888395099;0.06249999888395099
005a8073383c865a2ecae13844e9d584966dc3d492;3750;0;0;0;2790000;0;19556250;0;2790000;2793750;22350000;0.125;0.12483221476510067
005a97296c37a98149f7aeabdd7918b679810ed1e0;0;0;0;0;500000;0;3500000;0;500000;500000;4000000;0.125;0.125
005b0b38e19158f341b9a5548724831869d59b1cb4;-5000000000;0;5000000000;0;0;0;5273333334;346666665;5000000000;346666665;5273333334;0.06573956983998236;0.9481668772505478
005cb2a38a54d01a19cdc9c6f72f77fbee6cb1a048;-2500000000;0;2500000000;0;0;0;2500000000;156250000;2500000000;156250000;2500000000;0.0625;1.0
005d0873215bd74b030cdf3737f0adf5f51c60ca1d;-250000000;0;250000000;0;0;0;335666666;26333332;250000000;26333332;335666666;0.07845084027497684;0.7447864960174508
005dc22421d1f634a69848ea8087d1cc7b29cf9b1f;0;0;0;0;3131250;0;21918750;0;3131250;3131250;25050000;0.125;0.125
005e1e2efa72a5b2bab7d961b807216d32845a6b8a;-24223750;0;22830000;5000000;0;0;25243750;0;22830000;3606250;28850000;0.125;0.7913344887348354
005f5fafdea0c8df1c7e59c86c107f38492f5f9c17;-3222500;0;0;0;6445000;0;22557500;0;6445000;3222500;25780000;0.125;0.25
00604acb4ac4a48485514c4eb56e1d2a26c768a606;-323200000;0;323200000;0;0;0;323200000;40400000;323200000;40400000;323200000;0.125;1.0
0061aff734946314fe0902995774e313cd70bbd2bd;-5700000;0;5700000;0;0;0;5720000;715000;5700000;715000;5720000;0.125;0.9965034965034965
0061d79ea33fec9323d6443dafd57244d5250b64da;0;0;3050000;0;0;0;21350000;0;3050000;3050000;24400000;0.125;0.125
0061e08db72944aeef5bc112184c9460ef4ddafe50;0;0;0;0;3118750;0;21831250;0;3118750;3118750;24950000;0.125;0.125
0062a8a1dd01517b5da75e75842c80cc17cc9fb5b6;21150;0;0;10000;11291600;0;169841250;0;11291600;11322750;181164000;0.0625;0.06232805634673556
0062d94eaeed9a9ede50e487cebacacad599a331a6;0;0;0;0;3960000;0;27720000;0;3960000;3960000;31680000;0.125;0.125
0062ea27ae2f820f0a2230928cb8d1674455d769a7;46250;0;0;0;5900000;0;41623750;0;5900000;5946250;47570000;0.125;0.12402774858103847
0063828892b720fc5cd3b2b30682619cd0d310a81d;0;0;0;0;443750;0;3106250;0;443750;443750;3550000;0.125;0.125
00645db784d2dffd521d30ab9894f75afbaca01c4a;-1231333335;0;1318000000;0;0;0;1231666669;0;1318000000;86666665;1318333334;0.06573956886688265;0.9997471549938067
0064c70ed8d46a777e1b38d87dc60af98e153f144a;-775040000;0;775040000;0;0;0;775040000;96880000;775040000;96880000;775040000;0.125;1.0
0065e7d784dbf2bbf4b853b86501ff75372b1002fc;62500;0;0;0;6000000;0;42437500;0;6000000;6062500;48500000;0.125;0.12371134020618557
0065f5c1a7d82c4edadf3a88f22e82d319b764e00b;1666666;0;0;0;40000000;0;625000001;0;40000000;41666666;666666667;0.06249999896875;0.05999999997
0066728aca0394a0ccb4c7a9912977d6c829f13957;0;0;0;0;250000000;0;3750000000;0;250000000;250000000;4000000000;0.0625;0.0625
006679b71f43483a402f79719f1ba6a9b8a2ced062;-251020000;0;251020000;0;0;0;251020000;31377500;251020000;31377500;251020000;0.125;1.0
0066f578f1296b45a50bb24132596bf93f4a951ed4;0;0;0;0;2500000000;0;37500000000;0;2500000000;2500000000;40000000000;0.0625;0.0625
00674cd03a0af9ba19cb2b69e0d768d07d1a3b0e0f;-1714285714;0;1714285714;0;0;0;1808000000;118857141;1714285714;118857141;1808000000;0.06573956913716814;0.9481668772123893
0068332380f49ff88c8c17831a880d04282fe7e32c;-1311460000;0;1311460000;0;0;0;1334793334;88724166;1311460000;88724166;1334793334;0.06647033944507248;0.9825191410492915
00684b231fbb7e4619c3d4b8068d78e29a31154d14;-250000000;0;250000000;0;0;0;928274649;60033205;250000000;60033205;928274649;0.06467181352487845;0.2693168452562147
0069545a15074c4034131dab8fd7e2012d6d4f2881;-2000000000;0;2000000000;0;0;0;2000000000;125000000;2000000000;125000000;2000000000;0.0625;1.0
00695eef3559e82351f6d0f924832326ece7080f71;0;0;0;0;10916666;0;163750001;0;10916666;10916666;174666667;0.06249999606393131;0.06249999606393131
006999fe111da45365b4f28b363eb48c2add343d63;0;0;0;0;1786250;0;12503750;0;1786250;1786250;14290000;0.125;0.125
006af52e3758cff9b9b78a61a13efdacf2e237f0c0;-255000000;0;255000000;0;0;0;258590000;32323750;255000000;32323750;258590000;0.125;0.986117019219614
006b5e85264328f0435a8a8f72a470acefc769c1d2;-5500000000;0;5500000000;0;0;0;5773333334;377916665;5500000000;377916665;5773333334;0.06545900663216409;0.95265588903549
006c300d3d47c5454eff96bd7e228f3225f1ffb8d7;412500;0;0;0;3000000;0;23887500;0;3000000;3412500;27300000;0.125;0.10989010989010989
006c346a51cf9bc4aa3ba23e544af58625bc717609;0;0;0;0;4898750;0;34291250;0;4898750;4898750;39190000;0.125;0.125
006c5c707279939a5fc59e6e4a40f7b1aec95296db;-473299000;0;473299000;0;0;0;489427323;33177851;473299000;33177851;489427323;0.0677891270896619;0.9670465414535101
006c6546e22aa72b7b2ea90b1ceefe6bb2e0e6f791;-2016030000;0;2016030000;0;0;0;2327842640;164978454;2016030000;164978454;2327842640;0.07087182405078721;0.8660508083140878
006d65b13b337004ce821791a861dd6c156cb58029;33750;0;0;3000000;16450000;0;286386250;0;16450000;19483750;305870000;0.0636994474776866;0.05378101807957629
006d794d9adffa1adce3ba1da53271726997c6fa2f;5166666;0;0;0;74000000;0;1187500001;0;74000000;79166666;1266666667;0.06249999945723684;0.058421052616204984
006dc7878b6ce3f0119ac88f968117f0c127acd13e;0;0;0;0;14347500;0;100432500;0;14347500;14347500;114780000;0.125;0.125
006e47d23e14ddba263eb9ace6bfb3d1f023470eb6;0;0;1250000;0;0;0;8750000;0;1250000;1250000;10000000;0.125;0.125
006e54c37cafc6f9b373224ac2a60825294018f075;-13170000;0;17560000;0;0;0;30730000;0;17560000;4390000;35120000;0.125;0.5
006ef7f7ea6fcf74d2d5d96977e343cee36e49ab38;0;0;0;0;316410000;0;4714870000;0;316410000;316410000;5031280000;0.0628885691116376;0.0628885691116376
006f718b15aa61709eceae53494e70d129f9ba24a0;0;0;0;0;15662500;0;109637500;0;15662500;15662500;125300000;0.125;0.125
007211e1a0d842e1ab5a1b4368eb90c77c98aa8116;0;0;0;0;47916666;0;718750001;0;47916666;47916666;766666667;0.06249999910326087;0.06249999910326087
007220ad46981310195f88ccbf59c071a1d6d7c1bf;0;0;0;0;6768750;0;101531250;0;6768750;6768750;108300000;0.0625;0.0625
00725b17e7326f9ff75f3cfd04b6e61f38fc85b3c9;0;0;0;0;3140000;0;21980000;0;3140000;3140000;25120000;0.125;0.125
007286ffaae3590759da37a64278018cbc016154a2;3750;0;0;0;1560000;0;10946250;0;1560000;1563750;12510000;0.125;0.12470023980815348
0073e61dbb60b448d615a3699ccb72de476817c51d;-250000000;0;250000000;0;0;0;456371834;29045915;250000000;29045915;456371834;0.06364528403389592;0.5477989248565239
0073f36afe58f3c929933519b6cf8fd4edd914e759;-250000000;0;250000000;0;0;0;548009000;34250562;250000000;34250562;548009000;0.06249999908760623;0.4561968872773987
0073f8b94806c0b92915ab9cc9d6135abae30ea52e;10000000;0;0;0;43571428;0;803571429;0;43571428;53571428;857142857;0.06249999934375;0.05083333267513889
007411a0e69c28923472c92446946b0b6132f0526b;0;0;0;0;1596250;0;11173750;0;1596250;1596250;12770000;0.125;0.125
0074b305fa9f68ad4a01ab574486aafe1314f80399;0;0;0;0;2176250;0;15233750;0;2176250;2176250;17410000;0.125;0.125
007500a11dbbd1a8ffaf4877fab8386cfc97caa736;-1562500000;0;1562500000;0;0;0;1562500000;97656250;1562500000;97656250;1562500000;0.0625;1.0
00771c50c7ef5ab971bf508460871bb1be28464700;14416666;0;1000000;0;20000000;0;531250000;0;21000000;35416666;566666666;0.062499998897058824;0.03705882357301038
00780477026d1230c093deec2bf28b67f4be57c9cf;4003687;0;0;0;2340000;0;95155313;0;2340000;6343687;101499000;0.062499995073843094;0.023054414329205214
0078b61333aa7fc97c78e208d79257876789c88798;0;0;0;0;145286839;0;2179302590;0;145286839;145286839;2324589429;0.06249999986556766;0.06249999986556766
0079a5784a6f6fe9ab8daec76a087905402709c2aa;5000;0;0;0;390000;0;2765000;0;390000;395000;3160000;0.125;0.12341772151898735
007a0ab56fb0dd11c333d7b34498a60f2b1de76429;0;0;0;0;906150000;100000;13593750000;0;906150000;906250000;14500000000;0.0625;0.06249310344827586
007a2a9a4eff7cc34bb4150b83c15d5f792d2158aa;-3279077780;0;5000000000;0;0;0;18793477781;0;5000000000;1720922220;20514400001;0.08388849880650233;0.2437312326832015
007a4fbe9a8d86bcfe494fd7b5452ea2e6f804f5f5;423750;0;0;0;3000000;0;23966250;0;3000000;3423750;27390000;0.125;0.10952902519167579
007a51261f99cb7b9d5cd9f724fe7778f239861904;-2500000000;0;2500000000;0;0;0;3305151857;206571991;2500000000;206571991;3305151857;0.062499999981090126;0.7563948974705158
007a78c50966d78295d41c1018f677c18aa17ed8ad;-6250000;0;0;0;12500000;0;93750000;0;12500000;6250000;100000000;0.0625;0.125
007c1a889769cf5e245f45a5de7eeaef38c05ae8d2;0;0;0;0;13750000;0;96250000;0;13750000;13750000;110000000;0.125;0.125
007c39e4eae5ea4e27a8877cca97f01ea799a19e62;0;0;0;0;3068750;0;21481250;0;3068750;3068750;24550000;0.125;0.125
007c4f4f5ccb2d726eaaeaf8f7994af98f15e01c5c;-500000000;0;500000000;0;0;0;500910000;62613750;500000000;62613750;500910000;0.125;0.9981833063823841
007cc0b170027526f161e7116911c4ffd2dd1ec38f;0;0;0;0;7646250;0;53523750;0;7646250;7646250;61170000;0.125;0.125
007cfa6d2a423fab07b79ed8bf55d30fd4307ba33e;321250;0;0;0;38000000;0;574818750;0;38000000;38321250;613140000;0.0625;0.06197605767035261
007d84e3ec27e1520793c1b3c360f53788881d2214;0;0;0;0;31481250;0;472218750;0;31481250;31481250;503700000;0.0625;0.0625
007e0bae44fbc450426a1f0ee13b28ed5aa933adb0;0;0;0;0;62796250;0;439573750;0;62796250;62796250;502370000;0.125;0.125
00803c974202d4dd8db22bd3833b8d123f89ea199b;-1344027000;0;1344027000;0;0;0;1417500476;93185870;1344027000;93185870;1417500476;0.06573956875341465;0.9481668773704172
008096bad17b2006bd1276900650728b77afec9748;0;0;0;0;15499250;0;232488750;0;15499250;15499250;247988000;0.0625;0.0625
0081603bb0a13a6ce956394972da3b05ddf076be97;0;0;0;0;613750;0;4296250;0;613750;613750;4910000;0.125;0.125
008196a5dd0831fbec1207faee2bee4a04eb1439a5;-250000000;0;250000000;0;0;0;366237333;22889833;250000000;22889833;366237333;0.062499999146728165;0.6826174654346339
0081a333ca572de57720c74541b3f65b9334d67f2e;0;0;0;0;6138750;0;42971250;0;6138750;6138750;49110000;0.125;0.125
0081f748b7fbe7d3b6b599d1cdced6eb47caf4a44a;0;0;0;0;2893867;0;35398019;0;2893867;2893867;38291886;0.07557389573341987;0.07557389573341987
00822c2dc5f01e0f270c13cda29383eeb31a38b689;5000;0;0;0;19020000;0;285375000;0;19020000;19025000;304400000;0.0625;0.062483574244415245
0082629d25f92e67e3745b01d3c43f85774ba1dff5;-198200002;0;250000000;0;0;0;362600001;0;250000000;51799998;414399999;0.1249999954753861;0.6032818547376493
00828dd350085ea2aa54c780c200f7a95d9bd00f12;0;0;0;0;16381250;0;114668750;0;16381250;16381250;131050000;0.125;0.125
0083a7d2405ab67ecf2ae6d62b4b10000b827b51f6;0;0;0;0;36277083;0;544156250;0;36277083;36277083;580433333;0.06249999946160914;0.06249999946160914
0083f136357ad6873194dd6c971a832b4c7ce942e8;-142700000;0;142700000;0;13110375;0;142705625;0;155810375;13110375;155816000;0.08414010756276634;0.9999638997278841
0084edb623a13be32834db996523d9b8191e7f848d;-5500000000;0;5500000000;0;0;0;5773333334;377916665;5500000000;377916665;5773333334;0.06545900663216409;0.95265588903549
00850054fc265ea06507e4055c26b8e8c10cb7285a;-2583183333;0;2583183333;0;0;0;2599275689;171585501;2583183333;171585501;2599275689;0.06601281338726052;0.993808907586024
00855902d298ddcbbaa55e52bbc1f98ee39e00c951;0;0;0;0;9375000;0;115625000;0;9375000;9375000;125000000;0.075;0.075
00857de08e31ae766b410d5d44aa6541f4b7ce3d20;0;0;0;0;28000562;0;420008438;0;28000562;28000562;448009000;0.06249999888395099;0.06249999888395099
0085a81dfa2b292cb9d29a4f9927ea4064cc56c660;0;0;0;0;7500000;0;112500000;0;7500000;7500000;120000000;0.0625;0.0625
0085e8dc36a7c06d74d1f44ff6102b40aebe308411;0;0;0;0;16766250;0;117363750;0;16766250;16766250;134130000;0.125;0.125
0086364335e8f9814e8438a503dbe7d1c30ad890fa;0;0;0;0;42510000;0;297570000;0;42510000;42510000;340080000;0.125;0.125
0086b9b81da108879123f1bdadd12438b2228f1b25;-2499940000;0;2499940000;0;0;0;2610692966;199714683;2499940000;199714683;2610692966;0.07649872489831498;0.957577176848302
008769a4de5e4cd742cc39d7d01cd5789bf79f2f23;-5500000000;0;5500000000;0;0;0;5773333334;377916665;5500000000;377916665;5773333334;0.06545900663216409;0.95265588903549
0087c2e18fe56380bfb0b9e6ce2f2ce32968f8be75;0;0;0;0;79090000;0;553630000;0;79090000;79090000;632720000;0.125;0.125
0087e83fc9df70ba11b1ffdf8e5d5bcbc2599029da;-1670002667;0;1670002667;0;0;0;1761296147;115786849;1670002667;115786849;1761296147;0.06573956866777839;0.9481668769017071
0088165dfdd32d3b221e7997d9c982280f9790e14b;-5500000000;0;5500000000;0;0;0;5773333334;377916665;5500000000;377916665;5773333334;0.06545900663216409;0.95265588903549
00888fcb0ac44babd37eec3f356e44f8136449092f;-3070003571;0;3070003571;0;0;0;3287687932;219085766;3070003571;219085766;3287687932;0.06663824868156616;0.9337880098408318
0089b1a0f65c3e711ce1351a1dd1d7fd17a8e418d5;320000;0;0;0;19000000;0;185390000;0;19000000;19320000;204710000;0.09437741194861023;0.09281422500122125
008a71dac5fcfaf42c74c45cd3aaad058fb948d922;0;0;0;0;153000562;0;2295008438;0;153000562;153000562;2448009000;0.06249999979575239;0.06249999979575239
008b0fa9021b4d5e4e76b863eb58da571cb8bc5042;-350000000;0;350000000;0;0;0;472500158;31061955;350000000;31061955;472500158;0.06573956531883318;0.7407404930433907
008c80f5e31067a7617c0c53e2dc8a42a2c76b57fd;0;0;0;0;4337500;0;30362500;0;4337500;4337500;34700000;0.125;0.125
008d3d1df0c6e4d1443d91cc02a403e36d1b225563;-1247740893;0;1247740893;0;0;0;1360724818;91519571;1247740893;91519571;1360724818;0.06725795678108959;0.9169678369164572
008ef60f792c22d86c63c3cf362e2eebbdee482c3f;0;0;0;0;380000;0;2660000;0;380000;380000;3040000;0.125;0.125
0090c55c6f7b632c2b57fc7b38ffbca67560a262e1;0;0;0;0;226000562;0;420008438;0;226000562;226000562;646009000;0.3498411972588617;0.3498411972588617
0090c62209b6e5a881fa9658fa29f5a9bfe74507da;0;0;0;0;35941250;0;251588750;0;35941250;35941250;287530000;0.125;0.125
009266bd90ff4c680da459eb550fe8adefb057ee19;0;0;0;0;4295000;0;30065000;0;4295000;4295000;34360000;0.125;0.125
0092ec3baff84fd5f5f7a45350c5c7a72be48a14d8;0;0;0;0;15673750;0;109716250;0;15673750;15673750;125390000;0.125;0.125
0093de7b8a76d7a514b522fe0baa3c8461e2781189;0;0;0;0;31250000;0;468750000;0;31250000;31250000;500000000;0.0625;0.0625
009401267cc328c21b5348a040d264b54172504f95;3380000;0;0;0;2000000;0;37660000;0;2000000;5380000;43040000;0.125;0.046468401486988845
00949c86e5daac44b02ea75db26acb60bc2accad83;0;0;0;0;8916916;0;133753751;0;8916916;8916916;142670667;0.06249999518120988;0.06249999518120988
00951233c1edb8a905705f83e47d1a9bd0ce1c04ea;0;0;0;0;56857625;0;852864375;0;56857625;56857625;909722000;0.0625;0.0625
00953d7b03a2aecf2aa94d522dc11c63e83e2f3a7e;0;0;0;0;142857142;0;2142857144;0;142857142;142857142;2285714286;0.0624999996171875;0.0624999996171875
00959095b44083c071c9bc578cd9dac2a09c984ec4;0;0;0;0;43540562;0;528788438;0;43540562;43540562;572329000;0.07607610657506435;0.07607610657506435
0096399fcc8b88aa236783bb358eb445d4e4dcbc8a;0;0;0;0;4603750;0;32226250;0;4603750;4603750;36830000;0.125;0.125
009669a5e23d4d50f858edcf125a523ef1ec1cd6e3;500;0;0;0;5772000;0;40407500;0;5772000;5772500;46180000;0.125;0.12498917280207882
0096ebab4a1234956d9b99f918d5db0a2019e4a035;0;0;18107500;0;0;0;126752500;0;18107500;18107500;144860000;0.125;0.125
0097604cdb055a69f522460b7e2d91f81c4b0c988f;-1406250000;0;254843750;1151406250;0;0;1406250000;87890625;254843750;87890625;1406250000;0.0625;0.18122222222222223
00983564123f8f57a65c593d69eca6c521aa90148a;-230761280;0;250000000;0;0;0;236749497;0;250000000;19238720;255988217;0.07515470917163347;0.9766074506468397
00983abd8d9dd3c0bf9195a279d7a22424c0d9852d;28750;0;0;0;4250000;0;29951250;0;4250000;4278750;34230000;0.125;0.12416009348524686
00992216695dd6022f4f15ef12a1f6bb0deb33b799;10000;0;7780000;0;0;0;104530000;0;7780000;7790000;112320000;0.0693554131054131;0.06926638176638177
009a015cf857dc0d4275447c704cd9ba33c47536d7;0;0;0;0;6233750;0;43636250;0;6233750;6233750;49870000;0.125;0.125
009a016a43a36d00df85b4a75a0cea44c9e160fe2d;0;0;0;0;6227500;0;43592500;0;6227500;6227500;49820000;0.125;0.125
009a712e49e18072b7343c7438adabccf99a599ee3;3750;0;0;0;2280000;0;15986250;0;2280000;2283750;18270000;0.125;0.12479474548440066
009af7d53a9a17587c0b04af596bf619f18bfddd8c;0;0;4468750;0;0;0;31281250;0;4468750;4468750;35750000;0.125;0.125
009b966b1edcee9dd021c98cfb296088a21a201ac5;0;0;0;0;100000000;0;1500000000;0;100000000;100000000;1600000000;0.0625;0.0625
009bf346d5b79388bb5b4801646a276a1f51007a79;0;0;0;0;12422500;0;86957500;0;12422500;12422500;99380000;0.125;0.125
009d2e5ae513415892adb225867801faa38f165dc3;291666;0;0;0;207000000;0;3109375001;0;207000000;207291666;3316666667;0.06249999979271357;0.06241206029523497
009dd560e0420b6f28965f666b81d22080d533f6db;-593915688;0;650000000;0;0;0;616594688;0;650000000;56084312;672679000;0.08337455457952456;0.9662855537336531
009df375ee901d99f8a3eee4dba59de9acbb8bd9f6;16250;0;0;0;1100000;0;7813750;0;1100000;1116250;8930000;0.125;0.12318029115341546
009e1ad336657569acc9ddd2584f81ca72f7afb2b5;0;0;0;0;12647500;0;88532500;0;12647500;12647500;101180000;0.125;0.125
009ebdd90e6e0a4f7a8cfdc66179d8b3b386badff5;0;0;0;0;437500000;0;6562500000;0;437500000;437500000;7000000000;0.0625;0.0625
009ef85210e6e76693649ed08ecb5d036011a743dd;-14000000000;0;14000000000;0;0;0;14180000001;897499999;14000000000;897499999;14180000001;0.06329337087000753;0.9873060648104862
009f1b1ae52e1c0287aa656ca0713efc99329dd620;-250000000;0;250000000;0;0;0;509326729;34709715;250000000;34709715;509326729;0.06814822985659565;0.49084406092498634
009fe2ecbcd0073b4afc91f805cbbdcd37f42235d9;0;0;0;0;3185000;0;22295000;0;3185000;3185000;25480000;0.125;0.125
009fe99ea19d35f382b6091995fcc138deb5e6a32e;5163333;0;0;0;16000000;0;247210000;0;16000000;21163333;268373333;0.07885780887179279;0.059618442045432284
00a0ea7251b606d22fa28c0ebc227b9b45d7315920;-250000000;0;250000000;0;0;0;250000000;31250000;250000000;31250000;250000000;0.125;1.0
00a146f5cca89e84dfb701a00ee95519c6ed010882;0;0;0;0;13305666;0;175775001;0;13305666;13305666;189080667;0.07037031448593314;0.07037031448593314
00a14a47eb479014049cfc536a6f43887fb4ddbdbb;-156250000;0;250000000;0;0;0;1406250000;0;250000000;93750000;1500000000;0.0625;0.16666666666666666
00a1867413280e5220f9218f74943f843b203f251a;0;0;0;0;3131250;0;21918750;0;3131250;3131250;25050000;0.125;0.125
00a1bf93e9ecc06ac98fcf7090ae2dcb3955bd15bb;0;0;0;0;28000562;0;420008438;0;28000562;28000562;448009000;0.06249999888395099;0.06249999888395099
00a28862bf5ce379b3dd0e2b65c3247725459f8a5b;0;0;0;0;171875000;0;2578125000;0;171875000;171875000;2750000000;0.0625;0.0625
00a2df0b8eba964217008c1b2e54e476fd67362781;-2500000000;0;2500000000;0;0;0;3333333333;208333333;2500000000;208333333;3333333333;0.06249999990625;0.750000000075
00a327e0bdf695cc2d749d97bc9fe2ee08ee89e2a9;8264206860;0;250000000;0;0;0;127713102900;0;250000000;8514206860;136227309760;0.0625;0.0018351680029535951
00a561d0208cffc300ff3e8e084a0e903ac73631ce;-259264029;0;300000000;0;0;0;474040697;0;300000000;40735971;514776668;0.07913328931217217;0.5827769956349304
00a56faad71ae09a7d7422897e8628442d27a458c9;-300000000;0;300000000;0;0;0;300000000;18750000;300000000;18750000;300000000;0.0625;1.0
00a65dc475af4440feb95e47cc36a028463ebab1ff;0;0;0;0;28000562;0;420008438;0;28000562;28000562;448009000;0.06249999888395099;0.06249999888395099
00a787ae5e9e9b4c0abce39bc498f3e719e20d61bb;58750;0;0;0;900000;0;6711250;0;900000;958750;7670000;0.125;0.11734028683181226
00a7cd3060573227a8673616587be7a5d5407f62e3;510000;0;0;100000;2002500;0;18287500;0;2002500;2612500;20900000;0.125;0.0958133971291866
00a874eb73a598cc405972669b4b9247c9dac67e16;5750000;0;0;0;10000000;0;110250000;0;10000000;15750000;126000000;0.125;0.07936507936507936
00a8a9a7c2589e602105287477570847f0032147dc;0;0;0;0;9551250;0;66858750;0;9551250;9551250;76410000;0.125;0.125
00a8e1442de4b2255a02b5e794df3eb346bbf5bcc5;-250000000;0;250000000;0;0;0;251390000;31423750;250000000;31423750;251390000;0.125;0.9944707426707506
00ab5b9198f329edfd8efb8b8b196cbcde74599b48;-3081797333;0;3081797333;0;0;0;3338255100;220162063;3081797333;220162063;3338255100;0.06595123991572722;0.9231761026890964
00ab9f6b4cb7521f29a2914887b71d90957a37cc16;0;0;0;0;33847500;0;236232500;0;33847500;33847500;270080000;0.12532397808056872;0.12532397808056872
00ac88287b451f428df99f694d2a760b19adb9e77b;2607500;0;0;0;510000;0;21822500;0;510000;3117500;24940000;0.125;0.02044907778668805
00ad5db8f0c8726b088ece10794f3eadb48e270e02;0;0;0;0;906250000;0;13593750000;0;906250000;906250000;14500000000;0.0625;0.0625
00add78c95d7769da4a78cd05818ae8550ac33c7c9;-1008980000;0;1008980000;0;0;0;1041244649;74154455;1008980000;74154455;1041244649;0.07121712949134205;0.9690133831362431
00ae3ef49b1cfb17edd28437aaae1e5d7e2b4619be;-293240000;0;293240000;0;0;0;293240000;36655000;293240000;36655000;293240000;0.125;1.0
00aeb30f0c95adf763d21227eb0f40b9ee5ac899be;0;0;0;0;1780000;0;12460000;0;1780000;1780000;14240000;0.125;0.125
00aecaa587bd7b5ad5229a01549f0a971645e45e67;0;0;0;0;79236250;0;554653750;0;79236250;79236250;633890000;0.125;0.125
00aed8e1dc9a1cd9e55c661b52c4b72a697c2dd451;0;0;0;0;12772500;0;89407500;0;12772500;12772500;102180000;0.125;0.125
00af30468f11657c54ef9dd6ddaa3e0f326334f1f2;33333;0;0;0;20800000;0;312500000;0;20800000;20833333;333333333;0.0624999990625;0.0624000000624
00af9ef8da2344028f58fd249d4c3b1f3f6a5482f5;200000000;0;0;0;514285714;0;10714285715;0;514285714;714285714;11428571429;0.06249999997265625;0.0449999999733125
00b04ced8f4f349111178fa245761ba98ba3bb9c95;-783085417;0;250000000;750000000;0;0;2785185417;0;250000000;216914583;3002100000;0.07225428300189866;0.08327504080477
00b09ac0eef8be2d5520555fdb142af58846cb20e2;-2750563817;0;3120000000;0;0;0;2810057795;0;3120000000;369436183;3179493978;0.1161933897520343;0.9812882243490131
00b0b064e4880325ad339018265744c2cd8028e969;2333333;0;0;0;6000000;0;125000000;0;6000000;8333333;133333333;0.06249999765624999;0.0450000001125
00b1c98d1b6b0f55c7dc74428f4ed83cd7b08c1269;-300000000;0;300000000;0;0;0;305600000;38200000;300000000;38200000;305600000;0.125;0.981675392670157
00b21737c18facf1dbadd51607296636673a2a9b4c;10000;0;0;0;3950000;0;27720000;0;3950000;3960000;31680000;0.125;0.12468434343434344
00b21cb974c720f6c9d5504e3bf24665e45a788cb2;-250000000;0;250000000;0;0;0;1038772000;67346500;250000000;67346500;1038772000;0.06483280257842915;0.2406687896862834
00b35c475557dca47664a3436fc6cca48f03a27fe3;0;0;0;0;6491250;0;45438750;0;6491250;6491250;51930000;0.125;0.125
00b4b756b1ef697f11b324a9c67346e31292eda0df;0;0;0;0;6263750;0;43846250;0;6263750;6263750;50110000;0.125;0.125
00b4ea334212ab90793cf66609f0e3fb50652be010;0;0;0;0;780000;0;5460000;0;780000;780000;6240000;0.125;0.125
00b4ef08393daef3506b89499b7cc9e5645b5538ee;0;0;0;0;4603750;0;32226250;0;4603750;4603750;36830000;0.125;0.125
00b4f0ca31a0cc4e56eb835b5cf729a7dba330ddf5;-3500000000;0;3500000000;0;0;0;3798666667;308166664;3500000000;308166664;3798666667;0.0811249554158367;0.9213759212950705
00b4f4d043656c019ad00965c8be3a932e9d601a51;-3368124159;0;3661355475;0;0;0;3761074759;0;3661355475;293231316;4054306075;0.07232589512867502;0.9030782104925317
00b59b2d4211a7720f1e7024b20d237450e7bd1146;-109095000;0;109090000;5000;0;0;124680000;15585000;109090000;15585000;124680000;0.125;0.8749598973371832
00b5daabf9a664fa3c56e81b8795bfa4bb2a1f446c;-1250000000;0;1250000000;0;0;0;1318333334;86666665;1250000000;86666665;1318333334;0.06573956886688265;0.9481668768909396
00b7f1f50232353a573d20dba8e0cf4649bba867d9;0;0;0;0;12533750;0;87736250;0;12533750;12533750;100270000;0.125;0.125
00b878b938b37354bf4d453ad71de96d7b535e3fc6;-2500000000;0;2500000000;0;0;0;2742033491;180260101;2500000000;180260101;2742033491;0.06573956940776111;0.9117321171333571
00b8d4eaf07a2730198c8d6efc88940433e7d26a8d;-1516666667;0;1516666667;0;0;0;1599577779;105155553;1516666667;105155553;1599577779;0.06573956851647413;0.9481668768543202
00b9e0cd10605f7ce71c8fba99c8537abec9a46e19;-1960000000;0;1960000000;0;0;0;2003377779;168477776;1960000000;168477776;2003377779;0.08409685770004739;0.978347678877794
00bab91a09d27e81762b529f834fd956b3e0144b7a;0;0;0;0;3460000;0;24220000;0;3460000;3460000;27680000;0.125;0.125
00bb0be266879971b7eabc5752aaf087cf991af00d;0;0;0;0;28000562;0;420008438;0;28000562;28000562;448009000;0.06249999888395099;0.06249999888395099
00bbe1d64ff5c1610ca92a9b1dff6804fe2ccf7f48;-124770000;0;124770000;0;0;0;124850000;15606250;124770000;15606250;124850000;0.125;0.9993592310772927
00bc65232bd889b7e40e486ea58bf7d59eb391a0a5;0;0;0;0;1245000;0;8715000;0;1245000;1245000;9960000;0.125;0.125
00bd2d60545c98bb267fc9dbb5774a7b2e9766df61;-1166666667;0;1166666667;0;0;0;1230444445;80888887;1166666667;80888887;1230444445;0.06573956859953965;0.948166877213217
00be15cbd68e9147517051d10b92b1dee2a8ba0198;0;0;0;0;4721250;0;33048750;0;4721250;4721250;37770000;0.125;0.125
00be2512f20d0cb1888fb092489d8fae9f1608c41b;0;0;0;0;6302500;0;44117500;0;6302500;6302500;50420000;0.125;0.125
00be773eda360041ff684d943c43f572d414497513;-1333333333;0;1333333333;0;0;0;1406222221;92444442;1333333333;92444442;1406222221;0.06573956848318073;0.9481668779574776
00bec046271df26d10fdea6a3b877a729a71d83775;0;0;0;0;3706250;0;25943750;0;3706250;3706250;29650000;0.125;0.125
00beed4b54e2c8eb24ddebe0f74ba00a2332b0366b;0;0;0;0;613750;0;4296250;0;613750;613750;4910000;0.125;0.125
00bf515c7bc2349e96f80e4921eebe4b81aa94eba7;0;0;0;0;3272500;0;22907500;0;3272500;3272500;26180000;0.125;0.125
00c02d11f4805cc882aeade494bc67ae1b3c791d21;-554369000;0;554369000;0;0;0;595061406;39734610;554369000;39734610;595061406;0.06677396584513162;0.9316164590919547
00c02e09264e9429e1fb44c094857cd9bff4020c24;-1451850000;0;1451850000;0;0;0;1531217800;100661599;1451850000;100661599;1531217800;0.06573956951127397;0.9481668773704172
00c139ff8f7cd73ea7d19f49210839655745af93f6;0;0;0;0;310987500;0;2176912500;0;310987500;310987500;2487900000;0.125;0.125
00c1533d7112da2a15383d839d243d6d02e2954921;0;0;0;0;84221000;0;1263315000;0;84221000;84221000;1347536000;0.0625;0.0625
00c2c37ad8dfe1ce3939b06ba0868828cea7fe2e49;-250100000;0;250100000;0;0;0;254130000;31766250;250100000;31766250;254130000;0.125;0.9841419745799393
00c3a7159620a092d4fa591c5ad17ae80cddf6e268;-2010000000;0;2010000000;0;0;0;2033146000;191353750;2010000000;191353750;2033146000;0.09411707275326021;0.9886156724603152
00c3b14a5f66a049ba970d5cc28f0e5dfe19107e62;0;0;0;0;4191250;0;29338750;0;4191250;4191250;33530000;0.125;0.125
00c447a87c9815429396a1f4672603fdf39dff0730;0;0;0;0;3020000;0;21140000;0;3020000;3020000;24160000;0.125;0.125
00c453d4fea90b7acb0049ccbebc96098bec8b4039;0;0;0;0;21805000;0;327075000;0;21805000;21805000;348880000;0.0625;0.0625
00c45a55cf8de7d1ce6dd3a5658fda74c9dc376c22;0;0;0;0;3128750;0;21901250;0;3128750;3128750;25030000;0.125;0.125
00c4c1ad0ecb6b0db9322af0a76502429b8d87ae0c;-250000000;0;250000000;0;0;0;472500158;31061955;250000000;31061955;472500158;0.06573956531883318;0.5291003521738505
00c51ebe02bcdadeac72b8c19b7b19b87a5eab3eaa;0;0;1093080;0;0;0;16396211;0;1093080;1093080;17489291;0.06249996069023038;0.06249996069023038
00c578d6b2994533ea89e8fd90b08a4a8a983f68fb;0;0;0;0;8333333;0;125000000;0;8333333;8333333;133333333;0.06249999765624999;0.06249999765624999
00c61384983cbcf0d7cde9911e34fab111546b56c8;0;0;0;0;3125000;0;21875000;0;3125000;3125000;25000000;0.125;0.125
00c71d1b9673625b3d17ec454bb47d2a4d2ba54dbd;0;0;0;0;1042857142;0;15642857144;0;1042857142;1042857142;16685714286;0.062499999947559934;0.062499999947559934
00c744ad30409887487ae610d0694ac7d67ff2d64f;-250000000;0;250000000;0;0;0;2064644400;258080549;250000000;258080549;2064644400;0.12499999951565509;0.12108622676137354
00c7915f11747847628884ee036558dcfc0b65d0aa;1977500;0;0;0;5000000;0;48842500;0;5000000;6977500;55820000;0.125;0.08957362952346828
00c7d598e3ffb4bbbcdeb997f32e02e1b5a484d774;-1225000000;0;1225000000;0;0;0;1291966666;84933331;1225000000;84933331;1291966666;0.065739568392239;0.94816687785968
00c94a1520c04e233eae0e55d08868ca46a6b589d1;0;0;0;0;10000000;0;150000000;0;10000000;10000000;160000000;0.0625;0.0625
00ca4be5d52674f3fc5048128b111f0b9866375255;0;0;0;0;3202500;0;22417500;0;3202500;3202500;25620000;0.125;0.125
00cb940e655ad4df1379826749014b82e52ba5e2b5;0;0;0;0;5000000;1250000;43750000;0;5000000;6250000;50000000;0.125;0.1
00ccc8109ba1ee9504a09348f1154fb53815e5ddb4;-250000000;0;250000000;0;0;0;250910000;31363750;250000000;31363750;250910000;0.125;0.9963732015463712
00cf3ab49abbf6d95b7c5cbb34de69f67a287434e9;0;0;0;0;4435000;0;31045000;0;4435000;4435000;35480000;0.125;0.125
00cfd53c4bdb671689b75699ffc8ad2d2765b191fe;-2310000000;0;2310000000;0;0;0;2550660200;173908650;2310000000;173908650;2550660200;0.06818181818181818;0.9056478789295415
00cfd9783430ca486182267435dd6dc6d1a5524d44;0;0;0;0;25432931;2825881;423882188;0;25432931;28258812;452141000;0.062499998894150276;0.056249999447075136
00cfeecc6d19cd106c14c04ce533620a2712b3a00c;0;0;0;0;50162187;0;752432813;0;50162187;50162187;802595000;0.06249999937702079;0.06249999937702079
00d01e90f71e84e5f63d3607f097c43a30b575c816;104680;0;0;0;7200007;0;109570313;0;7200007;7304687;116875000;0.06249999572192513;0.06160433796791444
00d0d42ed20328110b70cc049c425388b58366d693;0;0;0;0;35344312;0;530164688;0;35344312;35344312;565509000;0.062499999115840775;0.062499999115840775
00d1912d0791256aeff5c22de228d65a09cb58667e;0;0;0;0;34886250;0;244203750;0;34886250;34886250;279090000;0.125;0.125
00d3bcaad520cf34b11e951d7e8b647a37f82fe288;-5074041668;0;5453000000;0;0;0;5124375002;0;5453000000;378958332;5503333334;0.06885978169971414;0.9908540277418711
00d48ca32da7b6f4a03a56f7ca1031b723b61aefa1;-5500000000;0;5500000000;0;0;0;5773333334;377916665;5500000000;377916665;5773333334;0.06545900663216409;0.95265588903549
00d494fd3591fd3d9c0ffc4eaa8c79698917da66c2;0;0;0;0;78125000;0;1171875000;0;78125000;78125000;1250000000;0.0625;0.0625
00d4c2f1385403f7ac748a5a2ba5df56a1473cb1ad;0;0;0;0;2516250;0;17613750;0;2516250;2516250;20130000;0.125;0.125
00d4cd15f43ee2a9067ce3957f4aec1ab464ae7839;0;0;0;0;25000000;0;375000000;0;25000000;25000000;400000000;0.0625;0.0625
00d52235b604dab92de67da8605b79858ac3a2f218;0;0;0;0;1883750;0;13186250;0;1883750;1883750;15070000;0.125;0.125
00d5abc335c54cfaf7116ebea2132c89115eff6142;0;0;0;0;4633750;0;32436250;0;4633750;4633750;37070000;0.125;0.125
00d72ef3a5a298539780aed09861a7f9d3b7a83dad;0;0;0;0;3127500;0;21892500;0;3127500;3127500;25020000;0.125;0.125
00d82d1af87114ca1d65a446dc599c9c395abfe499;-1161615000;0;250000000;1077560000;0;0;1161615000;0;250000000;165945000;1327560000;0.125;0.18831540570671004
00d89c9b5506dbea48a07e8526f75261cce9e1f1b7;0;0;0;0;12758750;0;89311250;0;12758750;12758750;102070000;0.125;0.125
00d8de5e00d4dc39eafbfaadbee2ec22a20bb489a3;0;0;0;0;17857142;0;267857144;0;17857142;17857142;285714286;0.0624999969375;0.0624999969375
00d932c0c9ff1077a84fd1b2d8601cedc6bac6f8c8;1084500;0;0;0;6145500;0;50610000;0;6145500;7230000;57840000;0.125;0.10625
00d9b7e9a1b70afc38227df3c2aa2ad8b42f0386a0;0;0;0;0;7398750;0;51791250;0;7398750;7398750;59190000;0.125;0.125
00daabf55e460aab3dacaf339950d5134d2d7e1c54;-90000000;0;90000000;0;6316124;0;94741868;0;96316124;6316124;101057992;0.06249999505234578;0.9530777536129948
00dac63fbb760d82c1c05cdf7c5074ed622fcd358d;0;0;0;0;125000000;0;1875000000;0;125000000;125000000;2000000000;0.0625;0.0625
00dae0d98dbbe72eb56a8efbcc957d08dfa817dfbe;-3737598823;0;4293623000;0;0;0;3892169252;0;4293623000;556024177;4448193429;0.12499999963468315;0.9652509650339668
00dcf971b2265105e66684ef63b9f734dec4e34a6a;0;0;0;0;8608333;0;129125000;0;8608333;8608333;137733333;0.062499997731122935;0.062499997731122935
00dd4c6e697ea7697949866b93c71c48ed687e2f41;0;0;0;0;2836250;0;19853750;0;2836250;2836250;22690000;0.125;0.125
00dd4f4e815374cc0eeebfa046d649ef89ddb3e12c;0;0;0;0;7768750;0;54381250;0;7768750;7768750;62150000;0.125;0.125
00dd51fb618eb72dd50e5850a9a6a2b248cb70c24c;-13714280000;0;13714280000;0;0;0;13714285714;857142857;13714280000;857142857;13714285714;0.062499999990885416;0.9999995833541666
00dd5889a75c371712c694f13044bbc485798f93e3;0;0;0;0;41905833;0;628587500;0;41905833;41905833;670493333;0.062499999533925266;0.062499999533925266
00dd611213e24915ed39104d8540f002056f20be9e;6617;0;0;0;680430000;0;9468344147;0;680430000;680436617;10148780764;0.06704614404655003;0.06704549204704842
00de10ecf29b07d150f553de1755bb9582f2f5856c;0;0;0;0;3187500;0;22312500;0;3187500;3187500;25500000;0.125;0.125
00deed6ecc35c5285f376008f6844390eb4f721277;0;0;0;0;125002187;0;1875032813;0;125002187;125002187;2000035000;0.06249999975000437;0.06249999975000437
00df78980bcf8a4d4a11b17464fe26fc32871ab1a7;0;0;0;0;6753750;0;47276250;0;6753750;6753750;54030000;0.125;0.125
00e01535db644fccbe194a356406b6c5071c405584;-5201668000;0;5201668000;0;0;0;5995168134;424291765;5201668000;424291765;5995168134;0.0707722878685824;0.8676433894322537
00e06f0b314305921db0827e30167309478342f0d6;0;0;0;0;1870000;0;13090000;0;1870000;1870000;14960000;0.125;0.125
00e23e556c3b644e178d76cf2fba7515b691c3bf04;0;0;0;0;642500;0;4497500;0;642500;642500;5140000;0.125;0.125
00e2a66feb5d154263be9311df2056b22e492946d5;0;0;0;0;6461250;0;45228750;0;6461250;6461250;51690000;0.125;0.125
00e2aa4548e1d4b122832cabcdfca21cc1177614fc;-1250000000;0;1250000000;0;0;0;1318333334;86666665;1250000000;86666665;1318333334;0.06573956886688265;0.9481668768909396
00e46ada75a810bf6ff0f28e47f2c435c6b8ee9ad9;-5122083335;0;5499900000;100000;0;0;5395416669;0;5499900000;377916665;5773333334;0.06545900663216409;0.9526385680193258
00e4e6c50539fbb1319183539370f008400c3d7fc6;-1231663335;0;1318300000;30000;0;0;1231666669;0;1318300000;86666665;1318333334;0.06573956886688265;0.9999747150442606
00e522ea0b460584691c6588acccc5b0203bbcd54c;-2714444448;0;2916666667;0;0;0;2873888892;0;2916666667;202222219;3076111111;0.06573956911922484;0.9481668775130275
00e5b875c196bac31f345b4c317b641b9345656886;-445000000;0;434000000;11000000;0;0;448009000;28000562;434000000;28000562;448009000;0.06249999888395099;0.9687305388954239
00e6a53d215fafbce407ea14729aec6fdfcc280a8c;0;0;0;0;5000000;31423750;254966250;0;5000000;36423750;291390000;0.125;0.017159133806925426
00e73ad9a447cb725783d0131765b70c44db624e58;-1250000000;0;1250000000;0;0;0;1318333334;86666665;1250000000;86666665;1318333334;0.06573956886688265;0.9481668768909396
00e761a2804893619f53a109ff04c93e6d6bd03972;-252750000;0;252750000;0;0;0;252750000;31593750;252750000;31593750;252750000;0.125;1.0
00e7e18b7b33dc24b9d88158043f6e0a1a69b52f79;-1250000000;0;1250000000;0;0;0;1318333334;86666665;1250000000;86666665;1318333334;0.06573956886688265;0.9481668768909396
00e8a99474b9109d58fde61fb675e2f9464d704750;0;0;0;0;6443750;0;45106250;0;6443750;6443750;51550000;0.125;0.125
00e95783aaf01659a4462b069c0024adf307867675;0;0;0;0;8778708;0;131680623;0;8778708;8778708;140459331;0.06249999866509403;0.06249999866509403
00eae26c14b21808e4a9b5c33be9443c92d18097bb;-4763281000;0;4763281000;0;0;0;5023673694;330254147;4763281000;330254147;5023673694;0.06573956970860537;0.9481668774962437
00eb103b89a0b1d40df1c8902e63df8be6731be25c;0;0;0;0;527500;0;3692500;0;527500;527500;4220000;0.125;0.125
00eb39fa1b00ac977c93cdd06bd8c6e0b030dfc9df;-1001000000;0;1001000000;0;0;0;1001058000;69131125;1001000000;69131125;1001058000;0.06905806157085803;0.9999420612991455
00eb9be72269d40ffc199bc089f35f4faeff024bea;0;0;0;0;20833333;0;312500000;0;20833333;20833333;333333333;0.0624999990625;0.0624999990625
00ec90d639f295627e4a4be29cdbd05a726d9402fc;0;0;0;0;1718750;0;12031250;0;1718750;1718750;13750000;0.125;0.125
00ecb988b7c624f21cb7128033758df32fb54747a7;0;0;0;0;6180000;0;43260000;0;6180000;6180000;49440000;0.125;0.125
00ed458d9f727b468c4ad042aa18f5a6973d889c67;0;0;0;0;9375000;0;140625000;0;9375000;9375000;150000000;0.0625;0.0625
00ed7d6295501ae86f1deda943ac05ecde1f0a97b1;0;0;0;0;4270000;0;29890000;0;4270000;4270000;34160000;0.125;0.125
00eda7b0f41d0a6e6ddf5723603a49039ced9e76d5;-2750000000;0;2750000000;0;0;0;2900333334;190666665;2750000000;190666665;2900333334;0.06573956957459152;0.9481668771524728
00edf6c851ed71d03bcc0e7e52df90a8d58236cec1;0;0;0;0;140002812;0;2100042188;0;140002812;140002812;2240045000;0.062499999776790195;0.062499999776790195
00eea6aeb7910576a371adbd01b32ec2a0c4ca7c0c;0;0;0;0;1751250;0;12258750;0;1751250;1751250;14010000;0.125;0.125
00eec031fab956a8264ee64bbd14883962d2aec0b7;0;0;0;0;109541500;0;1088222500;0;109541500;109541500;1197764000;0.09145499447303475;0.09145499447303475
00eecb2100435327cd6e5a57b43faed31040afe05c;0;0;0;0;6552030;0;98280451;0;6552030;6552030;104832481;0.062499999403810735;0.062499999403810735
00ef7a8be9d4bb67f1856ec238c8ae9122b58aaa7c;-1500000000;0;1500000000;0;0;0;1582000000;104000000;1500000000;104000000;1582000000;0.06573957016434892;0.9481668773704172
00f08ab2ecb39b35e6ead7b4603a3744c46abb1407;-1000000000;0;1000000000;0;0;0;1910509334;121594915;1000000000;121594915;1910509334;0.06364528706353863;0.5234206304066139
00f1233d3a7046f203ff22056a01318b62b71602a9;0;0;0;0;3120000;0;21840000;0;3120000;3120000;24960000;0.125;0.125
00f21c74882af0c66edafc76758bfb7e8ed4389ab2;2067500;0;0;0;10000000;0;84472500;0;10000000;12067500;96540000;0.125;0.10358400662937642
00f2a586b5ec895dbbba033afc3554a05e4ed0ad83;9875;0;8830000;0;0;0;132598125;0;8830000;8839875;141438000;0.0625;0.06243018142224862
00f3e45a321f4bbf71982963db9b8f02b6423f4216;0;0;2741250;0;0;0;19188750;0;2741250;2741250;21930000;0.125;0.125
00f53af333517cd1ab97107ff1f98a8528c10b6cab;0;0;0;0;2300000;0;16100000;0;2300000;2300000;18400000;0.125;0.125
00f5591948acef6203971826ec8869f93562968c96;-252500000;0;252500000;0;0;0;255420000;31927500;252500000;31927500;255420000;0.125;0.9885678490329654
00f5832b99e879e327e2425872c1e72ca0989fdbd5;0;0;0;0;9376250;0;65633750;0;9376250;9376250;75010000;0.125;0.125
00f58c1bbbf2b9a06cf6ea0e23701341ace184bf4d;0;0;0;0;3386250;0;23703750;0;3386250;3386250;27090000;0.125;0.125
00f5ec0728aa1bb85965744d86ef0dd5627b58230e;0;0;0;0;7155000;0;107325000;0;7155000;7155000;114480000;0.0625;0.0625
00f5f50f29b54f0c28a6c64ce31acbc9e24f124317;0;0;0;0;56592562;0;848888438;0;56592562;56592562;905481000;0.0624999994478073;0.0624999994478073
00f63b1a5ff831ce6a8c8cf0419fccf7e8d2a20e95;-3876866669;0;4300000000;0;0;0;4111933335;0;4300000000;423133331;4535066666;0.09330256028478855;0.9481668775098002
00f66b5e6e16b78a0ab30bd24531668d589c7f3f98;0;0;0;0;12425000;0;186375000;0;12425000;12425000;198800000;0.0625;0.0625
00f6c13954f07c9cd31c67ebcd0173085492d243de;66666666;0;0;0;100000000;0;2500000001;0;100000000;166666666;2666666667;0.0624999997421875;0.0374999999953125
00f6dbe4acecec6b4fb239055e7f80556e493a7071;-369740000;0;369740000;0;0;0;369740000;46217500;369740000;46217500;369740000;0.125;1.0
00f79f0f4bbdbc45b9765db725c716c203e69f5c4f;0;0;0;0;275000000;0;4125000000;0;275000000;275000000;4400000000;0.0625;0.0625
00f98356b23d4ba5308776928b8f942de09c086cfa;36250000;0;0;0;120000000;0;2343750000;0;120000000;156250000;2500000000;0.0625;0.048
00f9bbefae773b5a9aec5a01e0005139af1dddf7ed;-5372083335;0;5750000000;0;0;0;5395416669;0;5750000000;377916665;5773333334;0.06545900663216409;0.9959584294461942
00fa192ab17c256904bcfcdc5ba036c4a6ec695daa;-250000000;0;250000000;0;0;0;250530000;31316250;250000000;31316250;250530000;0.125;0.9978844848920289
00fb15db4b494414cba7fca9f7f40de6f9c3f0da51;-1250000000;0;1250000000;0;0;0;1318333334;86666665;1250000000;86666665;1318333334;0.06573956886688265;0.9481668768909396
00fb9e9e330174586912a2ebb10659ec0e765dd180;0;0;0;0;13750000;0;206250000;0;13750000;13750000;220000000;0.0625;0.0625
00fc2158411c6283ac1202c3d5e66dfa6230aabd37;0;0;0;0;1565000;0;10955000;0;1565000;1565000;12520000;0.125;0.125
00fc28a78dea16c765b3d5b52f34faa94861d52f9b;-4396018000;0;4396018000;0;0;0;4636333650;304790579;4396018000;304790579;4636333650;0.0657395696705305;0.9481668775067558
00fcdd97a29405d585b450d52bb5fc4a9c9ffbc1e1;0;0;0;0;15625000;0;234375000;0;15625000;15625000;250000000;0.0625;0.0625
00fd79226ee6c4322305758a32ff1c4f7dc2d67894;0;0;0;0;15443375;0;231650625;0;15443375;15443375;247094000;0.0625;0.0625
00fdd3675c42e9a57c6c9ec43e7eee90c3a1fb0062;0;0;0;0;3697500;0;25882500;0;3697500;3697500;29580000;0.125;0.125
00fe0813844b18103c12cd2b3448d9060b958d194f;-2289605458;0;2553266667;0;0;0;2563850706;0;2553266667;263661209;2827511915;0.09324848733661305;0.9030082785698889
00fe34a7bc8d4907b46e06cc25f71ba43da2700212;0;0;0;0;12530000;0;87710000;0;12530000;12530000;100240000;0.125;0.125
00ff1dded9dc1d57802f93092a41581d6fe28388d2;1812;0;0;0;31910000;0;447387188;0;31910000;31911812;479299000;0.06658017646604729;0.06657639594491122
00ff4fc197e9d4b52c9920e3020a0a4b7626886a01;-1250000000;0;1250000000;0;0;0;1295000000;83749999;1250000000;83749999;1295000000;0.0646718138996139;0.9652509652509652
00ff581c3520a683a5c1bc301e7699d492b8b042ce;4000000;0;0;0;21950000;0;389250000;0;21950000;25950000;415200000;0.0625;0.05286608863198459
00ff71ded534c1b41dc963e0aea18d994fb79930e9;0;0;0;0;11250000;0;168750000;0;11250000;11250000;180000000;0.0625;0.0625
