Identity;WeeklyRewardInQuarter;SumOfRewardable;RewardableForHolder;Rewards
00004707b35004e4b8e4f421ecb6419875ccac1622;493220000;1.5644838214929073E10;192098.31730769228;6056.101748120859
00007191afc732273eff16baa3a3c7ae8a7eea6255;493220000;1.5644838214929073E10;144230.76923076922;4547.026886613446
0000f871f03b7d23a21de01b0d5d3d21529b89d784;493220000;1.5644838214929073E10;741450.0;23374.992056551473
0001e52268cdee1d9e3f3894574e50220620dcfa94;493220000;1.5644838214929073E10;3230161.0441706716;101834.22853715214
0002169f1bf8f3037705dd2c874572961addc15d9f;493220000;1.5644838214929073E10;1995509.0860759618;62910.52537029051
0002f8598a27beb72c752dfcf91d62bee9ac475c6a;493220000;1.5644838214929073E10;360934.40504807676;11378.837212131535
00032e337076db13fbc19b89b21385f2e1134f146f;493220000;1.5644838214929073E10;7.998312952128983E7;2521552.3868342806
0003756b37ad7f0d51edb1aa3263d23d352c9eee37;493220000;1.5644838214929073E10;1.3058731707003115E7;411690.2689592483
00038bb25c4e3f9f6f7e2d59d2b755355ef8439076;493220000;1.5644838214929073E10;1604905.408653846;50596.33310243462
0005df53b17afcce35288a216eec6bbdb8f0541665;493220000;1.5644838214929073E10;177734.3750000001;5603.26334048303
0006b45dfc3ad91041aa2d848f910cf3d9ba6e3418;493220000;1.5644838214929073E10;288545.643028846;9096.705258280144
0006b6fd48ed680261135aa28135a0362293c723ff;493220000;1.5644838214929073E10;453367.0673076921;14292.874228901934
0006f63457d7d9433974dd146f3c92b84ed5293429;493220000;1.5644838214929073E10;7.266447999185544E7;2290824.25329161
00079ed702ed81122898099b2cad772cfba478e6a1;493220000;1.5644838214929073E10;1551682.6923076923;48918.43092181632
000aa459686bbcb9ca0a9a44bef0ad93c0cf3cb34c;493220000;1.5644838214929073E10;262500.0;8275.58893363647
000b33e693fdb858373a0608829f4cd42b70b0f368;493220000;1.5644838214929073E10;582830.4086538461;18374.34240016225
000b636d3f54d710a170c275b7cde513c0848bd0cc;493220000;1.5644838214929073E10;42900.24038461538;1352.4752555324476
000b7fa7567bb18c50d5950395c6a8a58f29050592;493220000;1.5644838214929073E10;982583.7139423073;30976.98632179955
000b9741970293ff9c5708c59052d41d2625a754ac;493220000;1.5644838214929073E10;2074910.096153846;65413.72582865278
000cb2cb289f03783dcf99df2656f2cba5b92d3879;493220000;1.5644838214929073E10;1297104.7868916944;40892.594362544
000d3d44e8d051d4a18bd88676899e85fcd13cf51a;493220000;1.5644838214929073E10;0.0;0.0
000de023c9f6ae09f1bde00f0e8d6859f02885388f;493220000;1.5644838214929073E10;1920245.4026442308;60537.75849138631
000e280cee4c1d2e68af0786dde5f660a6be89ef86;493220000;1.5644838214929073E10;1786649.8872295672;56326.01918110421
000e9e7c4f29cd3e130639b2c0b1b0367ebe875923;493220000;1.5644838214929073E10;194889.66346153844;6144.1018751331185
0010c669fa9d10bd561d90ded99df8589e1011591a;493220000;1.5644838214929073E10;3.238204791092463E8;1.0208781612957481E7
00116cc41ed0a6dc9a567fdb29cdf8be9e68636b6d;493220000;1.5644838214929073E10;412560.09615384636;13006.39149025055
001210f372df2094f1e72ef90024e1002cf19d5e32;493220000;1.5644838214929073E10;3.060208560053671E8;9647629.750171337
0012a214d381a701d87711bc946b6fff4a1102afee;493220000;1.5644838214929073E10;3246988.305288463;102364.7256643514
0012b463395b13012d25572c1237c77dc83518a8fe;493220000;1.5644838214929073E10;1698584.6039663467;53549.6683863969
0013153a0218b8df737a0851ccda76fc1f817d18d2;493220000;1.5644838214929073E10;1.5179080667957318E8;4785365.028515156
001446286d955bcc1bb924b17b5aab9e958e89bbde;493220000;1.5644838214929073E10;323204.4771634614;10189.361502916963
001547ca35434ee1aab541f0117f59846f0c2d5633;493220000;1.5644838214929073E10;392514.3629807691;12374.428642198176
0017026ebddd7fc980bc0bfa818bc13056cb47b49d;493220000;1.5644838214929073E10;1615417.009615385;50927.72239230933
00187fd940298fd032f0472502ab68103091d1d517;493220000;1.5644838214929073E10;1615080.4644050477;50917.11245014425
0018bcbedac3e9978ade38f666e7b54eb7fe114ad2;493220000;1.5644838214929073E10;2.7186384848238587E7;857079.4117930114
00191d8c2edaa9194eb4d591cc7364b51855b7fc00;493220000;1.5644838214929073E10;417403.8461538461;13159.095809859311
0019e9a28c978dd65114cc4e0bcb876770805b0349;493220000;1.5644838214929073E10;350937.5;11063.67425294495
001a53b7275033cbae5172588df246ab8a11e23e92;493220000;1.5644838214929073E10;9.102402022756003E7;2869628.0932963737
001aa2b91b329f6364bb91bc4c55dbf28d50c787fd;493220000;1.5644838214929073E10;2658653.1249999995;83816.83954144007
001aa3232cd8d77fa8b54ed53acdb0b401100e1258;493220000;1.5644838214929073E10;346081.73076923063;10910.59101442896
001b5a966673b3d9d87d84758e86a946ce33254d92;493220000;1.5644838214929073E10;9014423.076923076;284189.18041334033
001bc1d4da9fceeebf17b9f2a4c9c7cc49665c65f1;493220000;1.5644838214929073E10;1737919.466177885;54789.74134039279
001c55bce7420948369cce8f014b7ab2b37139f99d;493220000;1.5644838214929073E10;721003.6057692304;22730.397946726993
001c7bf916cb56e4bc233defb6c05c94b87efad397;493220000;1.5644838214929073E10;1145625.0;36117.0345603706
001d112b141056df59222685dd37dc919f0efa4d59;493220000;1.5644838214929073E10;1.581903183845649E8;4987116.374216135
001daf29ea3cdfc1b581fa4357fa0cc5116e70bc43;493220000;1.5644838214929073E10;372997.5961538461;11759.142015252475
001ecfdd7a8768fc89540f57be69164a782b20ffbf;493220000;1.5644838214929073E10;4849008.413461538;152870.09663067598
001f049a68c3075ff20ddeaafe0819daac3b64bf4c;493220000;1.5644838214929073E10;3028907.0012019216;95489.4828958501
002211b08201dd32ccf0fca91047c84475ee1b8d9a;493220000;1.5644838214929073E10;1.8635764555769232E8;5875121.025812519
00226304336de6a1d06c695afd350815466f53590d;493220000;1.5644838214929073E10;576923.0769230772;18188.107546453793
0022aa5a93dc352101c433667b50388d8ca2228f58;493220000;1.5644838214929073E10;415850.9615384615;13110.139487046772
0022e47780cbb1b664611389f3b11ddbe951b38700;493220000;1.5644838214929073E10;5043279.086538461;158994.68418208737
002319c23cec3792fc24fb574a41460b94ecd65292;493220000;1.5644838214929073E10;1566318.4194711538;49379.83763324361
0023d1b568e99095e1d6ebfce8a583efab67ce5968;493220000;1.5644838214929073E10;7.583754591157925E7;2390858.4979048115
00249d60d673df8bb1ac0fbf05c3f1aaf3a84cd2b9;493220000;1.5644838214929073E10;354012.77043269214;11160.625391842954
002560b7de34b37cfbbd5748fb98e8c172e1d5093a;493220000;1.5644838214929073E10;1219617.1966766827;38449.71648034396
0027266a6440eac0597651df7fcfc2384dd149902c;493220000;1.5644838214929073E10;9808611.863110377;309226.8182426348
00279af16da3223a6b335ba79bcf402cdabb58f526;493220000;1.5644838214929073E10;3934983.2488010214;124054.4907726576
0027a25bfcaace720f8ce75f0133deda2b1a613a9b;493220000;1.5644838214929073E10;2565541.7788251205;80881.40629953216
0028ae363f88638f25e22bc77a4367fc4cf80dcf80;493220000;1.5644838214929073E10;152220.7031249999;4798.917966672808
0029df0cf3c74e9bb22d481f574645daa2e1ef87fa;493220000;1.5644838214929073E10;1559471.1538461535;49163.97037369344
002b905e734975ef780c774f553dec1119a2c13b5f;493220000;1.5644838214929073E10;7.585334869255689E7;2391356.6972167324
002c30b8822473502012d2598aa75a60d98fe6b558;493220000;1.5644838214929073E10;1.3991497464392908E7;441096.69173841027
002ca69e438fbdf90074db1908fd6a3ac2ec5a7df5;493220000;1.5644838214929073E10;2.009999981538461E8;6336736.610982552
002cfc3b6c0b1667f5d1eb13911495e59d02b50cd8;493220000;1.5644838214929073E10;1080481.5835336533;34063.31975500614
002e418e4ff8ea1c6d2bb197b59e1f0fc2ebf7550c;493220000;1.5644838214929073E10;2.716939335770844E7;856543.7371606408
002f08736bc58103c1d09ef573b764621641af6f14;493220000;1.5644838214929073E10;1920032.6021634606;60531.04973213399
002f333cff5f5f39264eaef4aa8bfcf529877c833d;493220000;1.5644838214929073E10;181404.50721153838;5718.968123396512
00300fe2d56402f9f3aa6cd0564e056b4a4ee8202c;493220000;1.5644838214929073E10;1573287.2596153854;49599.53765754031
00303090471738b78f6fc910e8e06d1b08bc144bd8;493220000;1.5644838214929073E10;6.637168010598732E7;2092437.1100646423
003058133c84fa602fe1c53fee1690c4f29f193019;493220000;1.5644838214929073E10;533158.173076923;16808.372864736084
0031020ab94157055e4dbf826d751472e48397f16f;493220000;1.5644838214929073E10;6.338221151019396E8;1.9981909644311134E7
00325b43248386ad6b61e9ae4ff974c5515a68f978;493220000;1.5644838214929073E10;6.308704780760114E7;1988885.6178757297
0032d633536f15d39cb397d53fdcab77eeb8b81daa;493220000;1.5644838214929073E10;418488.82211538457;13193.30081961386
0032fb5447c7d9bc485e5c74f6d37378501cad1003;493220000;1.5644838214929073E10;312194.56129807676;9842.262310932787
003357f9ed428a04d840e39aa7f63d827617f46ebe;493220000;1.5644838214929073E10;1.6269230769230768E7;512904.63280999666
0033f7de239c0db8f45d53b0a98f00e6423dde79bb;493220000;1.5644838214929073E10;375498.6778846152;11837.99125065542
00341498eeb456aa3640cbd9051edc0cec21f03578;493220000;1.5644838214929073E10;7662259.615384617;241560.80335133933
0035ea8acd943be133e15d4a77f26b0bff1a184be3;493220000;1.5644838214929073E10;1878004.8076923087;59206.079252779266
00362cfffc8dae9e92a402632127f0ca6caf84f052;493220000;1.5644838214929073E10;395546.875;12470.031777083766
0036997527f23a4ddc38e3c7a78a19dbdc30897438;493220000;1.5644838214929073E10;6.479140200822565E7;2042617.1788726246
003829a72b9c512c378256d603245d0cb4bc71120e;493220000;1.5644838214929073E10;352697.47596153844;11119.159348528849
00385790e3944be9d9fb3a665e7d227d9889ea9925;493220000;1.5644838214929073E10;7.278140534033471E7;2294510.4480342255
0038f20279b127950067cbfb5e08ac74831521ee74;493220000;1.5644838214929073E10;7.574272922571357E7;2387869.302033291
0038fdc3067519647f32ecdfb4437cdcb221464995;493220000;1.5644838214929073E10;1682726.0516826937;53049.71082532226
003a47250d2dac46dcdfd81fcf1ba434da00645ab7;493220000;1.5644838214929073E10;1.4687373413075894E7;463034.9138340472
003a83e0f374fdb6788e2f8e01c55430eb27de53ab;493220000;1.5644838214929073E10;8.601830506660861E7;2711817.6514262557
003aaa891767534e6c218ad69fc41d70526578b79d;493220000;1.5644838214929073E10;1695759.0144230763;53460.588700472
003b550ca8ec20c93f9b57aeb7de1adee573176f5a;493220000;1.5644838214929073E10;3.462403802726296E8;1.0915592607094312E7
003b62392f196cc3369d2649f0dceef81210380162;493220000;1.5644838214929073E10;0.0;0.0
003b85237cee0249077fca1d7bc201f5fd7da7a8dd;493220000;1.5644838214929073E10;1.6527944711538455E8;5210608.622878593
003bdb9add4126b7e59084b4ca095d6fce0523d381;493220000;1.5644838214929073E10;1.324978239182692E7;417713.34299007326
003be3f896374676423d086a90323a1a316af42d22;493220000;1.5644838214929073E10;42516.105769230766;1340.365007257767
003e14f0a73e1432929bad34910b518e3397ae0f53;493220000;1.5644838214929073E10;480769.193509616;15156.755114062895
003e543d89187f62df16d7d5a2245906227a33aaef;493220000;1.5644838214929073E10;361222.80649038445;11387.929371310223
003e7acc5bbf87716c33f302b6aac12d741a39b54b;493220000;1.5644838214929073E10;2.327524038461538E7;733776.4638272446
003e8a0d56fe6b701fe71321d7b4dac0bc4efde848;493220000;1.5644838214929073E10;370323.76802884595;11674.846767855532
003e8f727dec29146d477396f32ce385ea05a4068f;493220000;1.5644838214929073E10;365548.8281249998;11524.311758990587
003ee3fa369a9fec862be367d491201faa8875e534;493220000;1.5644838214929073E10;1.0718222321077017E8;3379032.4582308717
003f7c99487893feb1e62a0b26969025dc3bbc05e0;493220000;1.5644838214929073E10;1.611883572721391E7;508163.27073232614
003fe1caea11d44587ecc1f0d47163fa537e41d577;493220000;1.5644838214929073E10;1241501.3221153845;39139.63658054523
004006e393c8d4af9c3d2f88d192d3218aba31196b;493220000;1.5644838214929073E10;1.843657788009478E8;5812325.328710069
00404aadb526f6d53615c2fb061f1c438c1b1b9342;493220000;1.5644838214929073E10;1444891.2259615378;45551.71748524089
0040bfb43e1432084def40dc42f50c246e05e4daab;493220000;1.5644838214929073E10;233316.76682692298;7355.556775560856
0040cae91f00265d2d22d6d979c1e309d49481dde6;493220000;1.5644838214929073E10;92288.4615384615;2909.4909371810554
004112ed071df0e31e09fe4a0a3cffc5fba627a5d9;493220000;1.5644838214929073E10;371971.1538461538;11726.782340576074
004248828eae4533cb52d369c7838fc83700500542;493220000;1.5644838214929073E10;206839.30288461538;6520.826841878115
0042bdbb4cfeef2bb8dddd876b74a41dcfa4631627;493220000;1.5644838214929073E10;142599.6394230769;4495.6038017149185
004336fe935b0975a028e65a959234fac580f03ff0;493220000;1.5644838214929073E10;45.1442271343941;1.4232193009179548
0043b74fd4e244fe2693765c156c59f7c8b13a04e3;493220000;1.5644838214929073E10;419109.49519230763;13212.868191982587
0044405eefbacbb584f94ba6f08048f78f4a158a9d;493220000;1.5644838214929073E10;360646.0036057691;11369.745052952843
0044e24a7255d455eb312b19719ee80f70099da4dd;493220000;1.5644838214929073E10;386746.3341346152;12192.58545862436
004608f9647ac7f1cda974d90510c09c4db64bc3b4;493220000;1.5644838214929073E10;149239.30288461532;4704.926184440168
00460de8e68bfb92bfb32c6bbf48554ba5f66bfc9c;493220000;1.5644838214929073E10;1.5514551533964336E7;489112.57518022094
004646f1e6b45cae73fcbe30b5ce1891e4572e1909;493220000;1.5644838214929073E10;4845241.508575719;152751.34098729637
00476a2e6cb857f19befd052d72daf939dad8aab2d;493220000;1.5644838214929073E10;1003637.0192307688;31640.713941843976
00476c389ad5e893120ba2caf03b01eb5e31d74945;493220000;1.5644838214929073E10;722445.6129807689;22775.858742620447
0047a52232a88a791c1b0c0efc7efc02f50687e46b;493220000;1.5644838214929073E10;502106.9110576921;15829.44913010068
0047b1d23d1a14e3c4e7d0f36358646ed2fa462d71;493220000;1.5644838214929073E10;3643925.084134615;114878.57562386578
0048070764e394a8d915b458059e398030e0430cfa;493220000;1.5644838214929073E10;771821.2890625;24332.47892765966
00489b6260e9db67bebdb40d137fef3a7c66b70c2b;493220000;1.5644838214929073E10;2059214.2333769514;64918.89722560384
0048fa9cc711b0f341ee32d2915d4c65c3ef0251c8;493220000;1.5644838214929073E10;1211718.6598557688;38200.70678926939
004927076e817474824aef45851548cdb204db6a39;493220000;1.5644838214929073E10;900677.7043269227;28394.813115051362
0049a1dad7cfdc5b03a3c666f7a750e69a764e9637;493220000;1.5644838214929073E10;482207.2115384613;15202.090146771015
0049c00463b97db1c72797ba4059806aa2d247b23a;493220000;1.5644838214929073E10;3.2338475121186595E7;1019504.4832136005
004a7d4922c6bd581d5ae912ce85466815d5388623;493220000;1.5644838214929073E10;61286.05769230769;1932.1075079034965
004af9754a4e879f2ca2b6fb3b289148b3fc384b4f;493220000;1.5644838214929073E10;236777.5841346153;7464.662685705146
004b15bef2c6559de77f599e2fd758bc65b653451d;493220000;1.5644838214929073E10;9.741574585807692E7;3071133.9748001685
004b46f553f8e23c5f135f204b010e4f3cadde9034;493220000;1.5644838214929073E10;41529.80769230767;1309.270921731475
004b76cddad2858fc97e83ff3cbe45643c5cb85c1d;493220000;1.5644838214929073E10;3253825.060022958;102580.2615570096
004b92f8e8e5be575c6d57fefc9b09b852819be082;493220000;1.5644838214929073E10;5.8441678495482154E7;1842435.458363248
004bb18e20c423acb76b84cdb7c6a43a24be7097a1;493220000;1.5644838214929073E10;7.255299442062968E7;2287309.5532554346
004c0627dbc8ed242586ed33462e760f28cac3070b;493220000;1.5644838214929073E10;8570548.737980768;270195.57444276445
004c0ac99f066f00b45f2c3c1d9c8cab47cb80a782;493220000;1.5644838214929073E10;757065.985576923;23867.30244675418
004c2118d2012c41b06f5bafcc1297731afe1a6232;493220000;1.5644838214929073E10;4.97942126328966E7;1569814.9905673924
004ccae3c2b313f9c688dbde0e018c8a5c41b38103;493220000;1.5644838214929073E10;38068.99038461537;1200.1650115871853
004d8603f590cac4ceb828f1ae24da1f4848065ba2;493220000;1.5644838214929073E10;1.49933610605899E7;472681.49665155716
004daf5f8f41f205ca0fdaaa822aa143c6a3ad0949;493220000;1.5644838214929073E10;1243157.9644050482;39191.86397330461
004dc529187c40295c4e197654f35c8847317d4968;493220000;1.5644838214929073E10;901217.3076923076;28411.824679390917
004ec47f8f66685783e6d8a3c34646e025d366d707;493220000;1.5644838214929073E10;386770.3725961537;12193.343296438798
005053703c4a32a217b9081d5fd620a2a9670e3538;493220000;1.5644838214929073E10;2.4383421330960602E8;7687130.351645448
0052021bdabe4c59479e06483414579975be775006;493220000;1.5644838214929073E10;952589.9639423073;30031.401767215706
0053b1f0a09fa6b0fef5191c041fd3dea69e1bf0be;493220000;1.5644838214929073E10;621293.7499999999;19586.939741095248
0053d2c4ec47753e60fb1b46033fa1f8ed75d76ebe;493220000;1.5644838214929073E10;3411839.532752402;107561.83421176841
00555208300e1e3e45476a39616125e40edc011d8c;493220000;1.5644838214929073E10;74551.77283653842;2350.323147691571
0055c38f55cc3df675e65aeacf78c058846f1d6c1e;493220000;1.5644838214929073E10;9857561.298076918;310770.00072765147
0055fb41197c659249c737d5295497346b886bbde5;493220000;1.5644838214929073E10;224664.7235576922;7082.792000200131
005606414027a97673f1c82b9f6a19920750e5deb8;493220000;1.5644838214929073E10;1479063.9423076923;46629.04835467532
00564540d3b42fa0863c367f304eea192ec5c2edb4;493220000;1.5644838214929073E10;5885711.264216946;185553.24573231727
0056511d5cbc65d768e37fb8105fbbb83e0063c8dc;493220000;1.5644838214929073E10;504288.4615384616;15898.224806355254
0056a72697cf468bf297083f5dab03250f23bba974;493220000;1.5644838214929073E10;3526893.028846152;111189.01683671935
0056b011bed290bbf0f328b9a9892943c4a6a214d9;493220000;1.5644838214929073E10;1034455.0441556507;32612.284631462586
00575288e1667f516fac124679c84e01bd5bb0726e;493220000;1.5644838214929073E10;1416483.68389423;44656.13980613985
00577840e07cf6e6fa14546084ea022887781fcccd;493220000;1.5644838214929073E10;219329.2968749999;6914.587055394352
0059a7f72215cc58a46599c66d19b584072b7125ae;493220000;1.5644838214929073E10;630301.3521634613;19870.913885028738
0059ddee2a742fe86d081bcafc964dcfa92f73f6e4;493220000;1.5644838214929073E10;470252.36740159296;14825.20109594276
005a49ac1bfae72e07305261ec737fa9fd7fca2975;493220000;1.5644838214929073E10;1682726.0516826937;53049.71082532226
005a8073383c865a2ecae13844e9d584966dc3d492;493220000;1.5644838214929073E10;314881.00961538445;9926.955423182304
005a97296c37a98149f7aeabdd7918b679810ed1e0;493220000;1.5644838214929073E10;57680.28846153844;1818.4318357381596
005b0b38e19158f341b9a5548724831869d59b1cb4;493220000;1.5644838214929073E10;3.223767367152981E8;1.0163266113611273E7
005ceecceb06faf5125a0c6f5d2f4139b243c4d4ea;493220000;1.5644838214929073E10;788760.147799832;24866.494287336216
005d0873215bd74b030cdf3737f0adf5f51c60ca1d;493220000;1.5644838214929073E10;1.923554256742221E7;606420.7360131525
005dc22421d1f634a69848ea8087d1cc7b29cf9b1f;493220000;1.5644838214929073E10;361222.80649038445;11387.929371310223
005ed2db9c00aa2b6413d885354faa477948e82522;493220000;1.5644838214929073E10;1046076.4723557688;32978.66239377096
005f5fafdea0c8df1c7e59c86c107f38492f5f9c17;493220000;1.5644838214929073E10;743498.9182692304;23439.58636266488
0061e08db72944aeef5bc112184c9460ef4ddafe50;493220000;1.5644838214929073E10;359780.799278846;11342.468575416771
00625dbe1f50e8fe30838f47b0f77d681ff97d933a;493220000;1.5644838214929073E10;0.0;0.0
0062a8a1dd01517b5da75e75842c80cc17cc9fb5b6;493220000;1.5644838214929073E10;670925.0048076921;21151.617314615363
0062d94eaeed9a9ede50e487cebacacad599a331a6;493220000;1.5644838214929073E10;475961.5384615387;15005.188725824377
0062ea27ae2f820f0a2230928cb8d1674455d769a7;493220000;1.5644838214929073E10;680769.2307692308;21461.96690481546
0063506c57f7f946e7a7889faa6f24d89f2b2211e0;493220000;1.5644838214929073E10;372596.15384615405;11746.486123751407
0063828892b720fc5cd3b2b30682619cd0d310a81d;493220000;1.5644838214929073E10;53335.33653846157;1681.4526507789315
00645db784d2dffd521d30ab9894f75afbaca01c4a;493220000;1.5644838214929073E10;8.16460160877118E7;2573976.636994183
0065e7d784dbf2bbf4b853b86501ff75372b1002fc;493220000;1.5644838214929073E10;750000.0;23644.539810389917
0065f5c1a7d82c4edadf3a88f22e82d319b764e00b;493220000;1.5644838214929073E10;2307692.2696153848;72752.42898540002
0066728aca0394a0ccb4c7a9912977d6c829f13957;493220000;1.5644838214929073E10;1.4420072115384609E7;454607.9589345399
006679b71f43483a402f79719f1ba6a9b8a2ced062;493220000;1.5644838214929073E10;3.0762018269230757E7;969805.0208196914
0066f578f1296b45a50bb24132596bf93f4a951ed4;493220000;1.5644838214929073E10;1.4263822115384609E8;4496820.131407087
00674cd03a0af9ba19cb2b69e0d768d07d1a3b0e0f;493220000;1.5644838214929073E10;1.105291656737403E8;3484548.3439759137
0068332380f49ff88c8c17831a880d04282fe7e32c;493220000;1.5644838214929073E10;8.549678384231488E7;2695376.1456265543
0068c3ea65dcb35509fc23603a17621d35b522e4a6;493220000;1.5644838214929073E10;1629976.3989002402;51386.72247172363
00695eef3559e82351f6d0f924832326ece7080f71;493220000;1.5644838214929073E10;616030.5726224481;19421.01253171836
006999fe111da45365b4f28b363eb48c2add343d63;493220000;1.5644838214929073E10;206062.83052884607;6496.347733174575
006b5e85264328f0435a8a8f72a470acefc769c1d2;493220000;1.5644838214929073E10;3.575320589166777E8;1.1271574667394746E7
006c300d3d47c5454eff96bd7e228f3225f1ffb8d7;493220000;1.5644838214929073E10;360576.92307692324;11367.56721653362
006c346a51cf9bc4aa3ba23e544af58625bc717609;493220000;1.5644838214929073E10;565122.6262019228;17816.085910644615
006c5c707279939a5fc59e6e4a40f7b1aec95296db;493220000;1.5644838214929073E10;2.899947547948586E7;914239.0032735061
006c6546e22aa72b7b2ea90b1ceefe6bb2e0e6f791;493220000;1.5644838214929073E10;1.4274233909164602E8;4500102.559040802
006d65b13b337004ce821791a861dd6c156cb58029;493220000;1.5644838214929073E10;1191302.166770197;37557.05534453559
006d794d9adffa1adce3ba1da53271726997c6fa2f;493220000;1.5644838214929073E10;4269230.732155871;134591.99467493276
006dc7878b6ce3f0119ac88f968117f0c127acd13e;493220000;1.5644838214929073E10;1655135.8774038453;52179.90152650649
006ef7f7ea6fcf74d2d5d96977e343cee36e49ab38;493220000;1.5644838214929073E10;1.9512080655033648E7;615138.890441976
006f718b15aa61709eceae53494e70d129f9ba24a0;493220000;1.5644838214929073E10;1944258.4134615383;61294.79394503584
0071afa38f24c7bd5422a1101ca160636407250431;493220000;1.5644838214929073E10;153306.24999999997;4833.140975075452
007211e1a0d842e1ab5a1b4368eb90c77c98aa8116;493220000;1.5644838214929073E10;2974058.409540265;93760.32328373296
007220ad46981310195f88ccbf59c071a1d6d7c1bf;493220000;1.5644838214929073E10;390423.45252403826;12308.510488152668
00725b17e7326f9ff75f3cfd04b6e61f38fc85b3c9;493220000;1.5644838214929073E10;362307.6923076923;11422.131539172975
007286ffaae3590759da37a64278018cbc016154a2;493220000;1.5644838214929073E10;179962.4999999999;5673.507327503058
0072b3f9582ab37e395611a096a3623e86567ec930;493220000;1.5644838214929073E10;2794033.1730769216;88084.83812315644
0073e61dbb60b448d615a3699ccb72de476817c51d;493220000;1.5644838214929073E10;1.5911321008473981E7;501621.150694342
0073f8b94806c0b92915ab9cc9d6135abae30ea52e;493220000;1.5644838214929073E10;2601236.2034562505;82006.71062513179
007411a0e69c28923472c92446946b0b6132f0526b;493220000;1.5644838214929073E10;191550.0;6038.815467573585
0074b305fa9f68ad4a01ab574486aafe1314f80399;493220000;1.5644838214929073E10;251105.76923076922;7916.373809594008
00771c50c7ef5ab971bf508460871bb1be28464700;493220000;1.5644838214929073E10;1249999.9779411764;39407.56565522221
00780477026d1230c093deec2bf28b67f4be57c9cf;493220000;1.5644838214929073E10;134971.8643617178;4255.130160244246
0078b61333aa7fc97c78e208d79257876789c88798;493220000;1.5644838214929073E10;8731180.20958534;275259.65074297227
0079a5784a6f6fe9ab8daec76a087905402709c2aa;493220000;1.5644838214929073E10;44990.62499999998;1418.3768318757645
007a0ab56fb0dd11c333d7b34498a60f2b1de76429;493220000;1.5644838214929073E10;5.227788461538461E7;1648115.3653219093
007a2a9a4eff7cc34bb4150b83c15d5f792d2158aa;493220000;1.5644838214929073E10;4.0331009041587675E8;1.2714775318360206E7
007a4fbe9a8d86bcfe494fd7b5452ea2e6f804f5f5;493220000;1.5644838214929073E10;338942.30769230775;10685.5131835416
007a78c50966d78295d41c1018f677c18aa17ed8ad;493220000;1.5644838214929073E10;748422.4759615383;23594.806703817576
007b2225dd08ccb73842e97ff02ccd2e4a5d20b6c3;493220000;1.5644838214929073E10;66764.93389423074;2104.8348498669193
007c1a889769cf5e245f45a5de7eeaef38c05ae8d2;493220000;1.5644838214929073E10;1586207.932692307;50006.8754827994
007c39e4eae5ea4e27a8877cca97f01ea799a19e62;493220000;1.5644838214929073E10;360286.80889423063;11358.421061410641
007c4f4f5ccb2d726eaaeaf8f7994af98f15e01c5c;493220000;1.5644838214929073E10;5.887019230769231E7;1855944.8075527216
007cc0b170027526f161e7116911c4ffd2dd1ec38f;493220000;1.5644838214929073E10;949164.3028846153;29923.40419487504
007cfa6d2a423fab07b79ed8bf55d30fd4307ba33e;493220000;1.5644838214929073E10;2283653.8461538474;71994.59237137961
007d84e3ec27e1520793c1b3c360f53788881d2214;493220000;1.5644838214929073E10;1891145.2824519228;59620.3465575541
007e0bae44fbc450426a1f0ee13b28ed5aa933adb0;493220000;1.5644838214929073E10;7795188.341346153;245751.5214219286
00803c974202d4dd8db22bd3833b8d123f89ea199b;493220000;1.5644838214929073E10;8.8304780898692E7;2783901.2098758426
008096bad17b2006bd1276900650728b77afec9748;493220000;1.5644838214929073E10;894187.5;28190.202588937376
008137ac5c10e66293299230dba5a8017b71225283;493220000;1.5644838214929073E10;2048221.1538461535;64572.32881679753
0081a333ca572de57720c74541b3f65b9334d67f2e;493220000;1.5644838214929073E10;752439.5733173076;23721.44992828518
0081f748b7fbe7d3b6b599d1cdced6eb47caf4a44a;493220000;1.5644838214929073E10;217186.72044260034;6847.040077057452
00822c2dc5f01e0f270c13cda29383eeb31a38b689;493220000;1.5644838214929073E10;1097079.086538461;34586.573515739794
00828dd350085ea2aa54c780c200f7a95d9bd00f12;493220000;1.5644838214929073E10;1889750.450721153;59576.37301837146
0083a7d2405ab67ecf2ae6d62b4b10000b827b51f6;493220000;1.5644838214929073E10;2092908.6165865383;65981.14813918466
0083f136357ad6873194dd6c971a832b4c7ce942e8;493220000;1.5644838214929073E10;1095471.4586388227;34535.89135324207
0084edb623a13be32834db996523d9b8191e7f848d;493220000;1.5644838214929073E10;3.600245364769025E8;1.1350152647260398E7
00850054fc265ea06507e4055c26b8e8c10cb7285a;493220000;1.5644838214929073E10;1.7052319930641064E8;5375923.432793974
00855902d298ddcbbaa55e52bbc1f98ee39e00c951;493220000;1.5644838214929073E10;698257.2115384615;22013.293914817343
00857de08e31ae766b410d5d44aa6541f4b7ce3d20;493220000;1.5644838214929073E10;1682726.0516826937;53049.71082532226
0085a81dfa2b292cb9d29a4f9927ea4064cc56c660;493220000;1.5644838214929073E10;450721.15384615405;14209.459020667024
0085e8dc36a7c06d74d1f44ff6102b40aebe308411;493220000;1.5644838214929073E10;2055074.7295673075;64788.39500877399
0086364335e8f9814e8438a503dbe7d1c30ad890fa;493220000;1.5644838214929073E10;4903978.124999998;154603.07467445836
0086b9b81da108879123f1bdadd12438b2228f1b25;493220000;1.5644838214929073E10;1.9124222232229358E8;6029112.452169213
008769a4de5e4cd742cc39d7d01cd5789bf79f2f23;493220000;1.5644838214929073E10;3.339919930701112E8;1.0529449301996958E7
0087c2e18fe56380bfb0b9e6ce2f2ce32968f8be75;493220000;1.5644838214929073E10;9123868.02884615;287639.5477770621
0087e83fc9df70ba11b1ffdf8e5d5bcbc2599029da;493220000;1.5644838214929073E10;7.811643144417165E7;2462702.7641697484
0088165dfdd32d3b221e7997d9c982280f9790e14b;493220000;1.5644838214929073E10;3.254067925848927E8;1.0258791815793052E7
00888fcb0ac44babd37eec3f356e44f8136449092f;493220000;1.5644838214929073E10;1.9663252841637218E8;6199047.528211385
0088b63e4b50cc6e3e7f088cadcadf978ec345d061;493220000;1.5644838214929073E10;721003.6057692304;22730.397946726993
0089b1a0f65c3e711ce1351a1dd1d7fd17a8e418d5;493220000;1.5644838214929073E10;1724202.7182919185;54357.306418447704
008a71dac5fcfaf42c74c45cd3aaad058fb948d922;493220000;1.5644838214929073E10;8633865.820222352;272191.71213841625
008aaac20888644972b3bb1b210753f9ca50817d39;493220000;1.5644838214929073E10;446718.75;14083.279024563495
008c80f5e31067a7617c0c53e2dc8a42a2c76b57fd;493220000;1.5644838214929073E10;531656.5504807692;16761.032631062833
008d3d1df0c6e4d1443d91cc02a403e36d1b225563;493220000;1.5644838214929073E10;8.057974341495368E7;2540361.2681145025
008ef60f792c22d86c63c3cf362e2eebbdee482c3f;493220000;1.5644838214929073E10;43837.01923076921;1382.0081951610014
0090c55c6f7b632c2b57fc7b38ffbca67560a262e1;493220000;1.5644838214929073E10;7.851693891070074E7;2475329.183818689
0090c62209b6e5a881fa9658fa29f5a9bfe74507da;493220000;1.5644838214929073E10;4284481.580528846;135072.79373026214
009266bd90ff4c680da459eb550fe8adefb057ee19;493220000;1.5644838214929073E10;495473.67788461514;15620.329468990793
0092ec3baff84fd5f5f7a45350c5c7a72be48a14d8;493220000;1.5644838214929073E10;1921164.6935096153;60566.740104004864
0092fc5b169870d9d56478b8b8ef077e14f22acfe3;493220000;1.5644838214929073E10;288401.4423076922;9092.1591786908
0093de7b8a76d7a514b522fe0baa3c8461e2781189;493220000;1.5644838214929073E10;1914813.701923076;60366.518406133684
009401267cc328c21b5348a040d264b54172504f95;493220000;1.5644838214929073E10;230721.15384615373;7273.727342952638
00949c86e5daac44b02ea75db26acb60bc2accad83;493220000;1.5644838214929073E10;514330.24741211213;16214.802680831175
00951233c1edb8a905705f83e47d1a9bd0ce1c04ea;493220000;1.5644838214929073E10;3280247.596153846;103413.25983359391
00953d7b03a2aecf2aa94d522dc11c63e83e2f3a7e;493220000;1.5644838214929073E10;8755150.992744891;276015.35492524185
00959095b44083c071c9bc578cd9dac2a09c984ec4;493220000;1.5644838214929073E10;3072884.6928234915;96875.92593627045
0096399fcc8b88aa236783bb358eb445d4e4dcbc8a;493220000;1.5644838214929073E10;571484.735576923;18016.658108504947
009669a5e23d4d50f858edcf125a523ef1ec1cd6e3;493220000;1.5644838214929073E10;665861.2499999997;20991.977111761313
00983564123f8f57a65c593d69eca6c521aa90148a;493220000;1.5644838214929073E10;1.5168243706851786E7;478194.8562404712
00983abd8d9dd3c0bf9195a279d7a22424c0d9852d;493220000;1.5644838214929073E10;517716.3461538461;16321.553009498963
009a015cf857dc0d4275447c704cd9ba33c47536d7;493220000;1.5644838214929073E10;745451.1117788459;23501.13131887246
009a016a43a36d00df85b4a75a0cea44c9e160fe2d;493220000;1.5644838214929073E10;173040.86538461532;5455.29550721448
009a712e49e18072b7343c7438adabccf99a599ee3;493220000;1.5644838214929073E10;274038.4615384617;8639.351084565551
009b966b1edcee9dd021c98cfb296088a21a201ac5;493220000;1.5644838214929073E10;5798076.923076925;182790.48084186058
009bf346d5b79388bb5b4801646a276a1f51007a79;493220000;1.5644838214929073E10;1433066.7668269225;45178.93895891458
009d2e5ae513415892adb225867801faa38f165dc3;493220000;1.5644838214929073E10;1.243990380489588E7;392181.0676697088
009dd560e0420b6f28965f666b81d22080d533f6db;493220000;1.5644838214929073E10;5.36265135055502E7;1690632.3112991923
009df375ee901d99f8a3eee4dba59de9acbb8bd9f6;493220000;1.5644838214929073E10;132211.53846153853;4168.107979395661
009e1ad336657569acc9ddd2584f81ca72f7afb2b5;493220000;1.5644838214929073E10;1569992.548076923;49495.668406693745
009ebdd90e6e0a4f7a8cfdc66179d8b3b386badff5;493220000;1.5644838214929073E10;2.734375E7;862040.5139204657
009ef85210e6e76693649ed08ecb5d036011a743dd;493220000;1.5644838214929073E10;8.349856234004837E8;2.632380108479464E7
009f1b1ae52e1c0287aa656ca0713efc99329dd620;493220000;1.5644838214929073E10;1.5723238225086654E7;495691.64288174117
009fe2ecbcd0073b4afc91f805cbbdcd37f42235d9;493220000;1.5644838214929073E10;395368.74999999994;12464.416198878796
009fe99ea19d35f382b6091995fcc138deb5e6a32e;493220000;1.5644838214929073E10;1252989.923119809;39501.82682563163
00a0ea7251b606d22fa28c0ebc227b9b45d7315920;493220000;1.5644838214929073E10;2.9435096153846156E7;927972.4037763608
00a146f5cca89e84dfb701a00ee95519c6ed010882;493220000;1.5644838214929073E10;864298.9854136506;27247.935691590235
00a1867413280e5220f9218f74943f843b203f251a;493220000;1.5644838214929073E10;361222.80649038445;11387.929371310223
00a1bf93e9ecc06ac98fcf7090ae2dcb3955bd15bb;493220000;1.5644838214929073E10;1581762.4885817314;49866.728175802906
00a28862bf5ce379b3dd0e2b65c3247725459f8a5b;493220000;1.5644838214929073E10;1.0667818509615384E7;336314.2125874872
00a561d0208cffc300ff3e8e084a0e903ac73631ce;493220000;1.5644838214929073E10;2.0539653958584387E7;647534.2209538418
00a65dc475af4440feb95e47cc36a028463ebab1ff;493220000;1.5644838214929073E10;1615417.009615385;50927.72239230933
00a787ae5e9e9b4c0abce39bc498f3e719e20d61bb;493220000;1.5644838214929073E10;103824.51923076919;3273.1773043286876
00a7cd3060573227a8673616587be7a5d5407f62e3;493220000;1.5644838214929073E10;240685.09615384627;7587.851117036191
00a874eb73a598cc405972669b4b9247c9dac67e16;493220000;1.5644838214929073E10;1153605.7692307688;36368.6367147632
00a8a9a7c2589e602105287477570847f0032147dc;493220000;1.5644838214929073E10;1101837.710336538;34736.594142188194
00ab5b9198f329edfd8efb8b8b196cbcde74599b48;493220000;1.5644838214929073E10;1.9132705751869652E8;6031786.971074108
00ab9f6b4cb7521f29a2914887b71d90957a37cc16;493220000;1.5644838214929073E10;3914787.339893413;123417.793476427
00ac88287b451f428df99f694d2a760b19adb9e77b;493220000;1.5644838214929073E10;61298.07692307695;1932.4864268107153
00ad5db8f0c8726b088ece10794f3eadb48e270e02;493220000;1.5644838214929073E10;5.624849759615384E7;1773293.1209158415
00add78c95d7769da4a78cd05818ae8550ac33c7c9;493220000;1.5644838214929073E10;6.6315405393985055E7;2090662.9905069678
00ade0c0ac27ed13d3153a93f67a3448532674fb7d;493220000;1.5644838214929073E10;338581.73076923063;10674.14561632506
00aeb30f0c95adf763d21227eb0f40b9ee5ac899be;493220000;1.5644838214929073E10;205341.82692307682;6473.617335227848
00aecaa587bd7b5ad5229a01549f0a971645e45e67;493220000;1.5644838214929073E10;9140739.51322115;288171.4390890155
00aed8e1dc9a1cd9e55c661b52c4b72a697c2dd451;493220000;1.5644838214929073E10;1473442.9687499993;46451.84124393128
00af30468f11657c54ef9dd6ddaa3e0f326334f1f2;493220000;1.5644838214929073E10;1173749.9823937495;37003.70424820463
00af83d3a69a3cf191d11a252ae9696f6932928904;493220000;1.5644838214929073E10;795033.3834134615;25064.26464627811
00af9ef8da2344028f58fd249d4c3b1f3f6a5482f5;493220000;1.5644838214929073E10;3.1356627715800695E7;988550.7097944339
00b09ac0eef8be2d5520555fdb142af58846cb20e2;493220000;1.5644838214929073E10;3.540247233612915E8;1.1161002220504446E7
00b0ad1e398131a0843105d5dd2efa98f44fde7e5d;493220000;1.5644838214929073E10;57680.28846153844;1818.4318357381596
00b0b064e4880325ad339018265744c2cd8028e969;493220000;1.5644838214929073E10;371358.15915099153;11707.457037278313
00b1c98d1b6b0f55c7dc74428f4ed83cd7b08c1269;493220000;1.5644838214929073E10;3.6259615384615384E7;1143122.5592946203
00b21737c18facf1dbadd51607296636673a2a9b4c;493220000;1.5644838214929073E10;484064.90384615364;15260.655853070597
00b2e5260709aad12ce12fe44d23508064ab844072;493220000;1.5644838214929073E10;1066250.3004807688;33614.663570077
00b35c475557dca47664a3436fc6cca48f03a27fe3;493220000;1.5644838214929073E10;805788.8221153845;25403.34117769921
00b3e0a7734f2a30f739e1a193511db01d96c37d04;493220000;1.5644838214929073E10;681060.9374999998;21471.163266693635
00b4b756b1ef697f11b324a9c67346e31292eda0df;493220000;1.5644838214929073E10;726354.0865384619;22899.077487464085
00b4ea334212ab90793cf66609f0e3fb50652be010;493220000;1.5644838214929073E10;90000.0;2837.3447772467903
00b4ef08393daef3506b89499b7cc9e5645b5538ee;493220000;1.5644838214929073E10;520135.21634615393;16397.810439576548
00b4f0ca31a0cc4e56eb835b5cf729a7dba330ddf5;493220000;1.5644838214929073E10;2.7689351369191885E8;8729359.610303095
00b4f4d043656c019ad00965c8be3a932e9d601a51;493220000;1.5644838214929073E10;3.564760932299146E7;1123828.4237102645
00b5daabf9a664fa3c56e81b8795bfa4bb2a1f446c;493220000;1.5644838214929073E10;7.530025135834035E7;2373919.7212995277
00b68eb221da8747ad6f00257ecfb98b00c4425329;493220000;1.5644838214929073E10;519300.0;16371.47936471398
00b7f1f50232353a573d20dba8e0cf4649bba867d9;493220000;1.5644838214929073E10;1453432.9326923082;45821.0037850334
00b8d4eaf07a2730198c8d6efc88940433e7d26a8d;493220000;1.5644838214929073E10;7.284218108095078E7;2296426.467258896
00b9e0cd10605f7ce71c8fba99c8537abec9a46e19;493220000;1.5644838214929073E10;1.3462160290733045E8;4244087.799041171
00bab91a09d27e81762b529f834fd956b3e0144b7a;493220000;1.5644838214929073E10;401226.92307692324;12649.101274256751
00bb0be266879971b7eabc5752aaf087cf991af00d;493220000;1.5644838214929073E10;1737919.466177885;54789.74134039279
00bc65232bd889b7e40e486ea58bf7d59eb391a0a5;493220000;1.5644838214929073E10;154547.59615384613;4872.275719812904
00bd2d60545c98bb267fc9dbb5774a7b2e9766df61;493220000;1.5644838214929073E10;7.069321367670943E7;2228678.006804476
00be15cbd68e9147517051d10b92b1dee2a8ba0198;493220000;1.5644838214929073E10;567457.932692308;17889.708907019784
00be2512f20d0cb1888fb092489d8fae9f1608c41b;493220000;1.5644838214929073E10;727060.036057692;22921.333289479502
00bec046271df26d10fdea6a3b877a729a71d83775;493220000;1.5644838214929073E10;429782.4519230771;13549.344392402916
00beed4b54e2c8eb24ddebe0f74ba00a2332b0366b;493220000;1.5644838214929073E10;70802.55408653842;2232.125078368591
00bf515c7bc2349e96f80e4921eebe4b81aa94eba7;493220000;1.5644838214929073E10;406230.5288461538;12806.84521533151
00c02d11f4805cc882aeade494bc67ae1b3c791d21;493220000;1.5644838214929073E10;3.416992308147671E7;1077242.8088239166
00c132508031ada1dab33362e7e3ed2c5c36ba21c8;493220000;1.5644838214929073E10;390312.5;12305.01259299042
00c139ff8f7cd73ea7d19f49210839655745af93f6;493220000;1.5644838214929073E10;3.860431370192307E7;1217041.6429038679
00c1533d7112da2a15383d839d243d6d02e2954921;493220000;1.5644838214929073E10;5227370.721153846;164798.36682665168
00c37206d1774ceb68cc125864022c32ac393f22f5;493220000;1.5644838214929073E10;259561.29807692295;8182.943260821718
00c3a7159620a092d4fa591c5ad17ae80cddf6e268;493220000;1.5644838214929073E10;1.7098538198077872E8;5390494.2283189995
00c3b14a5f66a049ba970d5cc28f0e5dfe19107e62;493220000;1.5644838214929073E10;502950.0;15856.02839684748
00c447a87c9815429396a1f4672603fdf39dff0730;493220000;1.5644838214929073E10;340838.94230769214;10745.306587100558
00c453d4fea90b7acb0049ccbebc96098bec8b4039;493220000;1.5644838214929073E10;1257718.6899038455;39650.90617827057
00c45a55cf8de7d1ce6dd3a5658fda74c9dc376c22;493220000;1.5644838214929073E10;383422.29567307676;12087.791645644209
00c4c1ad0ecb6b0db9322af0a76502429b8d87ae0c;493220000;1.5644838214929073E10;1.5167508363705784E7;478171.6737734179
00c578d6b2994533ea89e8fd90b08a4a8a983f68fb;493220000;1.5644838214929073E10;517227.5240174285;16306.142376879327
00c61384983cbcf0d7cde9911e34fab111546b56c8;493220000;1.5644838214929073E10;360501.8028846152;11365.198973363496
00c71d1b9673625b3d17ec454bb47d2a4d2ba54dbd;493220000;1.5644838214929073E10;6.0465659240228385E7;1906243.5827560679
00c7915f11747847628884ee036558dcfc0b65d0aa;493220000;1.5644838214929073E10;600961.5384615387;18945.945360889367
00c7d598e3ffb4bbbcdeb997f32e02e1b5a484d774;493220000;1.5644838214929073E10;6.969026360811871E7;2197058.949704974
00c94a1520c04e233eae0e55d08868ca46a6b589d1;493220000;1.5644838214929073E10;576923.0769230769;18188.107546453783
00ca4be5d52674f3fc5048128b111f0b9866375255;493220000;1.5644838214929073E10;397541.10576923075;12532.90200216934
00cb940e655ad4df1379826749014b82e52ba5e2b5;493220000;1.5644838214929073E10;749999.9999999999;23644.539810389913
00cd1fe739b204551d1a07e0721c598935188486bb;493220000;1.5644838214929073E10;404098.73798076925;12739.63826335283
00cd5e9f783fcbe37ae2910213aa08822ffb1c3266;493220000;1.5644838214929073E10;43837.01923076921;1382.0081951610014
00cf3ab49abbf6d95b7c5cbb34de69f67a287434e9;493220000;1.5644838214929073E10;543607.3317307692;17137.793595104013
00cfd53c4bdb671689b75699ffc8ad2d2765b191fe;493220000;1.5644838214929073E10;1.4529375E8;4580538.474767786
00cfd9783430ca486182267435dd6dc6d1a5524d44;493220000;1.5644838214929073E10;1466978.7705462736;46248.05058823763
00cfeecc6d19cd106c14c04ce533620a2712b3a00c;493220000;1.5644838214929073E10;3113431.864014423;98154.21820750069
00d01e90f71e84e5f63d3607f097c43a30b575c816;493220000;1.5644838214929073E10;415298.45225824806;13092.721050151284
00d0d42ed20328110b70cc049c425388b58366d693;493220000;1.5644838214929073E10;2120658.6900000004;66855.99842660579
00d1912d0791256aeff5c22de228d65a09cb58667e;493220000;1.5644838214929073E10;4240194.771634616;133676.6054422958
00d3bcaad520cf34b11e951d7e8b647a37f82fe288;493220000;1.5644838214929073E10;3.466083596386534E8;1.0927193544120114E7
00d48ca32da7b6f4a03a56f7ca1031b723b61aefa1;493220000;1.5644838214929073E10;3.323303413632946E8;1.0477063982086519E7
00d494fd3591fd3d9c0ffc4eaa8c79698917da66c2;493220000;1.5644838214929073E10;4408616.28605769;138986.2710458992
00d4c2f1385403f7ac748a5a2ba5df56a1473cb1ad;493220000;1.5644838214929073E10;312353.72596153844;9847.280144561624
00d4cd15f43ee2a9067ce3957f4aec1ab464ae7839;493220000;1.5644838214929073E10;1442007.2115384608;45460.795893453986
00d4d9d9ae9c01f4661d19b3d63f7e21ae27fe9572;493220000;1.5644838214929073E10;456683.6838942306;14397.43405945688
00d52235b604dab92de67da8605b79858ac3a2f218;493220000;1.5644838214929073E10;233838.58173076922;7372.0075399177185
00d5abc335c54cfaf7116ebea2132c89115eff6142;493220000;1.5644838214929073E10;556941.105769231;17558.154863204218
00d5bdcf82749c811edffae84acf943dd722510c94;493220000;1.5644838214929073E10;417557.81249999994;13163.94976106077
00d72ef3a5a298539780aed09861a7f9d3b7a83dad;493220000;1.5644838214929073E10;360790.2043269229;11374.291132542186
00d86b62452eadae13bf13566dcb9e319ceeee1894;493220000;1.5644838214929073E10;394915.8033473581;12450.136578664966
00d89c9b5506dbea48a07e8526f75261cce9e1f1b7;493220000;1.5644838214929073E10;1471856.760817307;46401.834368448486
00d8de5e00d4dc39eafbfaadbee2ec22a20bb489a3;493220000;1.5644838214929073E10;1019823.0472642449;32150.995520790126
00d932c0c9ff1077a84fd1b2d8601cedc6bac6f8c8;493220000;1.5644838214929073E10;738641.8269230772;23286.461443069118
00d9b7e9a1b70afc38227df3c2aa2ad8b42f0386a0;493220000;1.5644838214929073E10;918440.985576923;28954.819262623078
00daabf55e460aab3dacaf339950d5134d2d7e1c54;493220000;1.5644838214929073E10;356420.67106370407;11236.536994948854
00dac63fbb760d82c1c05cdf7c5074ed622fcd358d;493220000;1.5644838214929073E10;1442007.2115384608;45460.795893453986
00dae0d98dbbe72eb56a8efbcc957d08dfa817dfbe;493220000;1.5644838214929073E10;4.95418037013662E8;1.5618575331939677E7
00db7e737804963aa68aa6f5e0920238014d4e2229;493220000;1.5644838214929073E10;40520.40264423075;1277.4483646060573
00dba8ea0786edfd8a49409c1ad229ad16a5519b80;493220000;1.5644838214929073E10;4574218.75;144207.06311440933
00dceb3a572e5d0800a10c814373dd7a799309c3f9;493220000;1.5644838214929073E10;381122.5060096152;12015.288354639888
00dcf971b2265105e66684ef63b9f734dec4e34a6a;493220000;1.5644838214929073E10;496531.11258789105;15653.66621157545
00dd4c6e697ea7697949866b93c71c48ed687e2f41;493220000;1.5644838214929073E10;327191.43629807676;10315.05458822471
00dd4f4e815374cc0eeebfa046d649ef89ddb3e12c;493220000;1.5644838214929073E10;964370.7932692306;30402.80481790884
00dd5889a75c371712c694f13044bbc485798f93e3;493220000;1.5644838214929073E10;2600982.2115174276;81998.70326178643
00dd611213e24915ed39104d8540f002056f20be9e;493220000;1.5644838214929073E10;4.1189783767485365E7;1298551.3094288802
00de10ecf29b07d150f553de1755bb9582f2f5856c;493220000;1.5644838214929073E10;367711.8389423075;11592.502952830766
00deed6ecc35c5285f376008f6844390eb4f721277;493220000;1.5644838214929073E10;7247722.9287980795;228492.0977661893
00df78980bcf8a4d4a11b17464fe26fc32871ab1a7;493220000;1.5644838214929073E10;811748.7980769235;25591.23569622131
00e01535db644fccbe194a356406b6c5071c405584;493220000;1.5644838214929073E10;3.3273645037233245E8;1.0489866996261925E7
00e037842c74b82774d486dba00150c94f8d19359e;493220000;1.5644838214929073E10;178232.09134615376;5618.954372430913
00e06f0b314305921db0827e30167309478342f0d6;493220000;1.5644838214929073E10;232131.73076923075;7318.197265903721
00e23e556c3b644e178d76cf2fba7515b691c3bf04;493220000;1.5644838214929073E10;74119.1706730769;2336.684908923535
00e2a66feb5d154263be9311df2056b22e492946d5;493220000;1.5644838214929073E10;745373.5276442304;23498.685397326368
00e2b875c8176d8a4aabf55d996264c4f2dc552083;493220000;1.5644838214929073E10;2911520.7331730756;91788.75717904857
00e46ada75a810bf6ff0f28e47f2c435c6b8ee9ad9;493220000;1.5644838214929073E10;3.323242989934516E8;1.0476873490014117E7
00e4e6c50539fbb1319183539370f008400c3d7fc6;493220000;1.5644838214929073E10;7.998130942018795E7;2521495.0062303306
00e522ea0b460584691c6588acccc5b0203bbcd54c;493220000;1.5644838214929073E10;1.6592920092085287E8;5231092.795839057
00e6a53d215fafbce407ea14729aec6fdfcc280a8c;493220000;1.5644838214929073E10;1.3658097644131603E7;430585.91130781657
00e761a2804893619f53a109ff04c93e6d6bd03972;493220000;1.5644838214929073E10;2.9163461538461536E7;919408.8364732387
00e7e18b7b33dc24b9d88158043f6e0a1a69b52f79;493220000;1.5644838214929073E10;7.580594034962405E7;2389862.099280972
00e8a99474b9109d58fde61fb675e2f9464d704750;493220000;1.5644838214929073E10;747227.1634615387;23557.123218494784
00e95783aaf01659a4462b069c0024adf307867675;493220000;1.5644838214929073E10;0.0;0.0
00eae26c14b21808e4a9b5c33be9443c92d18097bb;493220000;1.5644838214929073E10;2.890486553918543E8;9112563.2527365
00eb103b89a0b1d40df1c8902e63df8be6731be25c;493220000;1.5644838214929073E10;60852.70432692305;1918.4455867037584
00eb9be72269d40ffc199bc089f35f4faeff024bea;493220000;1.5644838214929073E10;1293068.870171274;40765.357837787466
00ec90d639f295627e4a4be29cdbd05a726d9402fc;493220000;1.5644838214929073E10;198275.99158653838;6250.859435349925
00ecb988b7c624f21cb7128033758df32fb54747a7;493220000;1.5644838214929073E10;712928.365384615;22475.817489723653
00ed458d9f727b468c4ad042aa18f5a6973d889c67;493220000;1.5644838214929073E10;540752.7043269229;17047.798460045247
00ed6af636838e62de986c3cfbd0001befd95048a6;493220000;1.5644838214929073E10;646866.4362980772;20393.14560673992
00ed7d6295501ae86f1deda943ac05ecde1f0a97b1;493220000;1.5644838214929073E10;530054.8076923076;16710.53600289245
00eda7b0f41d0a6e6ddf5723603a49039ced9e76d5;493220000;1.5644838214929073E10;1.5992414521511215E8;5041777.090908396
00edf6c851ed71d03bcc0e7e52df90a8d58236cec1;493220000;1.5644838214929073E10;8397530.272509424;264740.9851164048
00eea6aeb7910576a371adbd01b32ec2a0c4ca7c0c;493220000;1.5644838214929073E10;217390.74519230766;6853.472172146466
00eec031fab956a8264ee64bbd14883962d2aec0b7;493220000;1.5644838214929073E10;9176603.64267373;289302.0935378242
00eecb2100435327cd6e5a57b43faed31040afe05c;493220000;1.5644838214929073E10;393751.79912860604;12413.440119878638
00ef1799a8a4e9d9f49d601580c26b2c72306c147f;493220000;1.5644838214929073E10;1615417.009615385;50927.72239230933
00ef7a8be9d4bb67f1856ec238c8ae9122b58aaa7c;493220000;1.5644838214929073E10;8.150442477876109E7;2569512.821872463
00f08ab2ecb39b35e6ead7b4603a3744c46abb1407;493220000;1.5644838214929073E10;5.867605888127004E7;1849824.5468466298
00f0e9ff67e35b9e673f7ee87d4ec091edd118ec9d;493220000;1.5644838214929073E10;2.7544070474008426E7;868355.8278171703
00f1233d3a7046f203ff22056a01318b62b71602a9;493220000;1.5644838214929073E10;352124.9999999998;11101.11144097806
00f21c74882af0c66edafc76758bfb7e8ed4389ab2;493220000;1.5644838214929073E10;1153605.7692307688;36368.6367147632
00f347198e230cad780d44b0b31c0b1a755ca141c2;493220000;1.5644838214929073E10;1.4420072115384609E7;454607.9589345399
00f3e45a321f4bbf71982963db9b8f02b6423f4216;493220000;1.5644838214929073E10;340284.0144230769;10727.811901154317
00f44bb892452154921adcb7291e7b6d4d3e68b513;493220000;1.5644838214929073E10;368432.84254807676;11615.233350777495
00f53af333517cd1ab97107ff1f98a8528c10b6cab;493220000;1.5644838214929073E10;265329.3269230768;8364.786444395535
00f545920937d58b8d26071539c9cb6d8bb9ee30b3;493220000;1.5644838214929073E10;1623494.0946634626;51182.361004270904
00f5832b99e879e327e2425872c1e72ca0989fdbd5;493220000;1.5644838214929073E10;1058208.9843749995;33361.15261168928
00f58c1bbbf2b9a06cf6ea0e23701341ace184bf4d;493220000;1.5644838214929073E10;390639.7536057691;12315.329607536687
00f5ec0728aa1bb85965744d86ef0dd5627b58230e;493220000;1.5644838214929073E10;429987.980769231;13555.823905716341
00f5f50f29b54f0c28a6c64ce31acbc9e24f124317;493220000;1.5644838214929073E10;3400995.2824519253;107219.95780117712
00f63b1a5ff831ce6a8c8cf0419fccf7e8d2a20e95;493220000;1.5644838214929073E10;2.99116183967796E8;9429952.693011291
00f66b5e6e16b78a0ab30bd24531668d589c7f3f98;493220000;1.5644838214929073E10;761479.266826923;24006.43578570094
00f6c13954f07c9cd31c67ebcd0173085492d243de;493220000;1.5644838214929073E10;6009615.359825724;189459.4528273734
00f6e5cb01d2bb9d520e01ec7fa522acd3d3110c6b;493220000;1.5644838214929073E10;1.1206801986335631E7;353306.23428409285
00f79f0f4bbdbc45b9765db725c716c203e69f5c4f;493220000;1.5644838214929073E10;1.7068509615384612E7;538102.7401399794
00f910caa11b18e223a77662357f40822071610a43;493220000;1.5644838214929073E10;373334.85576923075;11769.774479789006
00f98356b23d4ba5308776928b8f942de09c086cfa;493220000;1.5644838214929073E10;7155288.461538461;225578.003844893
00f9bbefae773b5a9aec5a01e0005139af1dddf7ed;493220000;1.5644838214929073E10;3.3983609765260744E8;1.0713690853272842E7
00fadb0912153099487ffc49e4b24e4d024f6e64a8;493220000;1.5644838214929073E10;159600.0;5031.558071650975
00fb9e9e330174586912a2ebb10659ec0e765dd180;493220000;1.5644838214929073E10;826322.1153846158;26050.67487122288
00fbebd01d5b00a3687985d46d004c7dc044be9ddf;493220000;1.5644838214929073E10;169724.24879807685;5350.735676659534
00fc2158411c6283ac1202c3d5e66dfa6230aabd37;493220000;1.5644838214929073E10;180539.30288461532;5691.69164586044
00fc28a78dea16c765b3d5b52f34faa94861d52f9b;493220000;1.5644838214929073E10;2.6370246440788472E8;8313497.89038688
00fcdd97a29405d585b450d52bb5fc4a9c9ffbc1e1;493220000;1.5644838214929073E10;901254.507211538;28412.997433408746
00fd79226ee6c4322305758a32ff1c4f7dc2d67894;493220000;1.5644838214929073E10;871474.1060697112;27474.138926252333
00fdd3675c42e9a57c6c9ec43e7eee90c3a1fb0062;493220000;1.5644838214929073E10;458987.7403846153;14470.071866673265
00fe0813844b18103c12cd2b3448d9060b958d194f;493220000;1.5644838214929073E10;2.196364147437279E8;6924269.269625847
00fe34a7bc8d4907b46e06cc25f71ba43da2700212;493220000;1.5644838214929073E10;1555406.7307692305;49035.83515602867
00ff1dded9dc1d57802f93092a41581d6fe28388d2;493220000;1.5644838214929073E10;1960736.1337539412;61814.2714296201
00ff4fc197e9d4b52c9920e3020a0a4b7626886a01;493220000;1.5644838214929073E10;7.306671281927533E7;2303505.066759577
00ff581c3520a683a5c1bc301e7699d492b8b042ce;493220000;1.5644838214929073E10;1319110.5769230775;41586.350067152154
00ff71ded534c1b41dc963e0aea18d994fb79930e9;493220000;1.5644838214929073E10;703125.0;22166.756072240547
