00803c974202d4dd8db22bd3833b8d123f89ea199b 851.2171 PT17531H38M24S PT2191H27M18S 2022-08-31T00:00:00Z
0082629d25f92e67e3745b01d3c43f85774ba1dff5 253.3333 PT17531H38M24S PT2191H27M18S 2022-08-31T00:00:00Z
0084edb623a13be32834db996523d9b8191e7f848d 3166.6667 PT17531H38M24S PT2191H27M18S 2022-08-31T00:00:00Z
00850054fc265ea06507e4055c26b8e8c10cb7285a 1553.6828 PT17531H38M24S PT2191H27M18S 2022-08-31T00:00:00Z
0086b9b81da108879123f1bdadd12438b2228f1b25 1283.1023 PT17531H38M24S PT2191H27M18S 2022-08-31T00:00:00Z
0087e83fc9df70ba11b1ffdf8e5d5bcbc2599029da 1057.6684 PT17531H38M24S PT2191H27M18S 2022-08-31T00:00:00Z
008769a4de5e4cd742cc39d7d01cd5789bf79f2f23 3166.6667 PT17531H38M24S PT2191H27M18S 2022-08-31T00:00:00Z
00888fcb0ac44babd37eec3f356e44f8136449092f 1944.3356 PT17531H38M24S PT2191H27M18S 2022-08-31T00:00:00Z
0088165dfdd32d3b221e7997d9c982280f9790e14b 3166.6667 PT17531H38M24S PT2191H27M18S 2022-08-31T00:00:00Z
008b0fa9021b4d5e4e76b863eb58da571cb8bc5042 283.739 PT17531H38M24S PT2191H27M18S 2022-08-31T00:00:00Z
008d3d1df0c6e4d1443d91cc02a403e36d1b225563 790.2359 PT17531H38M24S PT2191H27M18S 2022-08-31T00:00:00Z
00983564123f8f57a65c593d69eca6c521aa90148a 159.155 PT17531H38M24S PT2191H27M18S 2022-08-31T00:00:00Z
009ef85210e6e76693649ed08ecb5d036011a743dd 3166.6667 PT17531H38M24S PT2191H27M18S 2022-08-31T00:00:00Z
009f1b1ae52e1c0287aa656ca0713efc99329dd620 293.4221 PT17531H38M24S PT2191H27M18S 2022-08-31T00:00:00Z
00a561d0208cffc300ff3e8e084a0e903ac73631ce 295.5556 PT17531H38M24S PT2191H27M18S 2022-08-31T00:00:00Z
00ab5b9198f329edfd8efb8b8b196cbcde74599b48 1951.805 PT17531H38M24S PT2191H27M18S 2022-08-31T00:00:00Z
00add78c95d7769da4a78cd05818ae8550ac33c7c9 567.4781 PT17531H38M24S PT2191H27M18S 2022-08-31T00:00:00Z
00b09ac0eef8be2d5520555fdb142af58846cb20e2 1976.7796 PT17531H38M24S PT2191H27M18S 2022-08-31T00:00:00Z
00b1c98d1b6b0f55c7dc74428f4ed83cd7b08c1269 190 PT17531H38M24S PT2191H27M18S 2022-08-31T00:00:00Z
00b21cb974c720f6c9d5504e3bf24665e45a788cb2 682.1 PT17531H38M24S PT2191H27M18S 2022-08-31T00:00:00Z
00b4f0ca31a0cc4e56eb835b5cf729a7dba330ddf5 2322.2222 PT17531H38M24S PT2191H27M18S 2022-08-31T00:00:00Z
00b4f4d043656c019ad00965c8be3a932e9d601a51 2318.8585 PT17531H38M24S PT2191H27M18S 2022-08-31T00:00:00Z
00b5daabf9a664fa3c56e81b8795bfa4bb2a1f446c 791.6667 PT17531H38M24S PT2191H27M18S 2022-08-31T00:00:00Z
00b8d4eaf07a2730198c8d6efc88940433e7d26a8d 960.5556 PT17531H38M24S PT2191H27M18S 2022-08-31T00:00:00Z
00b878b938b37354bf4d453ad71de96d7b535e3fc6 1646.6067 PT17531H38M24S PT2191H27M18S 2022-08-31T00:00:00Z
00b9e0cd10605f7ce71c8fba99c8537abec9a46e19 1245.5556 PT17531H38M24S PT2191H27M18S 2022-08-31T00:00:00Z
00bd2d60545c98bb267fc9dbb5774a7b2e9766df61 738.8889 PT17531H38M24S PT2191H27M18S 2022-08-31T00:00:00Z
00be773eda360041ff684d943c43f572d414497513 844.4444 PT17531H38M24S PT2191H27M18S 2022-08-31T00:00:00Z
00c02d11f4805cc882aeade494bc67ae1b3c791d21 351.1004 PT17531H38M24S PT2191H27M18S 2022-08-31T00:00:00Z
00c02e09264e9429e1fb44c094857cd9bff4020c24 919.505 PT17531H38M24S PT2191H27M18S 2022-08-31T00:00:00Z
00c4c1ad0ecb6b0db9322af0a76502429b8d87ae0c 283.739 PT17531H38M24S PT2191H27M18S 2022-08-31T00:00:00Z
00c7d598e3ffb4bbbcdeb997f32e02e1b5a484d774 775.8333 PT17531H38M24S PT2191H27M18S 2022-08-31T00:00:00Z
00c744ad30409887487ae610d0694ac7d67ff2d64f 1262.17 PT17531H38M24S PT2191H27M18S 2022-08-31T00:00:00Z
00d3bcaad520cf34b11e951d7e8b647a37f82fe288 3166.6667 PT17531H38M24S PT2191H27M18S 2022-08-31T00:00:00Z
00d48ca32da7b6f4a03a56f7ca1031b723b61aefa1 3166.6667 PT17531H38M24S PT2191H27M18S 2022-08-31T00:00:00Z
00dae0d98dbbe72eb56a8efbcc957d08dfa817dfbe 2719.2946 PT17531H38M24S PT2191H27M18S 2022-08-31T00:00:00Z
00e01535db644fccbe194a356406b6c5071c405584 3166.6667 PT17531H38M24S PT2191H27M18S 2022-08-31T00:00:00Z
00e2aa4548e1d4b122832cabcdfca21cc1177614fc 791.6667 PT17531H38M24S PT2191H27M18S 2022-08-31T00:00:00Z
00e4e6c50539fbb1319183539370f008400c3d7fc6 791.6667 PT17531H38M24S PT2191H27M18S 2022-08-31T00:00:00Z
00e46ada75a810bf6ff0f28e47f2c435c6b8ee9ad9 3166.6667 PT17531H38M24S PT2191H27M18S 2022-08-31T00:00:00Z
00e522ea0b460584691c6588acccc5b0203bbcd54c 1847.2222 PT17531H38M24S PT2191H27M18S 2022-08-31T00:00:00Z
00e7e18b7b33dc24b9d88158043f6e0a1a69b52f79 791.6667 PT17531H38M24S PT2191H27M18S 2022-08-31T00:00:00Z
00e73ad9a447cb725783d0131765b70c44db624e58 791.6667 PT17531H38M24S PT2191H27M18S 2022-08-31T00:00:00Z
00eae26c14b21808e4a9b5c33be9443c92d18097bb 3016.7446 PT17531H38M24S PT2191H27M18S 2022-08-31T00:00:00Z
00eda7b0f41d0a6e6ddf5723603a49039ced9e76d5 1741.6667 PT17531H38M24S PT2191H27M18S 2022-08-31T00:00:00Z
00ef7a8be9d4bb67f1856ec238c8ae9122b58aaa7c 950 PT17531H38M24S PT2191H27M18S 2022-08-31T00:00:00Z
00f08ab2ecb39b35e6ead7b4603a3744c46abb1407 1187.8167 PT17531H38M24S PT2191H27M18S 2022-08-31T00:00:00Z
00f63b1a5ff831ce6a8c8cf0419fccf7e8d2a20e95 2723.3333 PT17531H38M24S PT2191H27M18S 2022-08-31T00:00:00Z
00f9bbefae773b5a9aec5a01e0005139af1dddf7ed 3166.6667 PT17531H38M24S PT2191H27M18S 2022-08-31T00:00:00Z
00fb15db4b494414cba7fca9f7f40de6f9c3f0da51 791.6667 PT17531H38M24S PT2191H27M18S 2022-08-31T00:00:00Z
00fc28a78dea16c765b3d5b52f34faa94861d52f9b 2784.1447 PT17531H38M24S PT2191H27M18S 2022-08-31T00:00:00Z
00fe0813844b18103c12cd2b3448d9060b958d194f 1617.0689 PT17531H38M24S PT2191H27M18S 2022-08-31T00:00:00Z
00032e337076db13fbc19b89b21385f2e1134f146f 791.6667 PT17531H38M24S PT2191H27M18S 2022-08-31T00:00:00Z
0003756b37ad7f0d51edb1aa3263d23d352c9eee37 1134.9561 PT17531H38M24S PT2191H27M18S 2022-08-31T00:00:00Z
0006f63457d7d9433974dd146f3c92b84ed5293429 1075.4057 PT17531H38M24S PT2191H27M18S 2022-08-31T00:00:00Z
0010c669fa9d10bd561d90ded99df8589e1011591a 3166.6667 PT17531H38M24S PT2191H27M18S 2022-08-31T00:00:00Z
00129ff2a896abc6e155c3a5a3e901dac9e90772c3 3166.6667 PT17531H38M24S PT2191H27M18S 2022-08-31T00:00:00Z
001210f372df2094f1e72ef90024e1002cf19d5e32 3166.6667 PT17531H38M24S PT2191H27M18S 2022-08-31T00:00:00Z
0013153a0218b8df737a0851ccda76fc1f817d18d2 1592.839 PT17531H38M24S PT2191H27M18S 2022-08-31T00:00:00Z
00160fa6ffd4c7a4d49b43b6e7759aa663ad80d0dd 293.4221 PT17531H38M24S PT2191H27M18S 2022-08-31T00:00:00Z
0018bcbedac3e9978ade38f666e7b54eb7fe114ad2 283.739 PT17531H38M24S PT2191H27M18S 2022-08-31T00:00:00Z
001a53b7275033cbae5172588df246ab8a11e23e92 950 PT17531H38M24S PT2191H27M18S 2022-08-31T00:00:00Z
001c0163e8aa581f85bdf2e18cd3c77927427cd9ec 910.4167 PT17531H38M24S PT2191H27M18S 2022-08-31T00:00:00Z
001d112b141056df59222685dd37dc919f0efa4d59 866.5811 PT17531H38M24S PT2191H27M18S 2022-08-31T00:00:00Z
002211b08201dd32ccf0fca91047c84475ee1b8d9a 1595.7131 PT17531H38M24S PT2191H27M18S 2022-08-31T00:00:00Z
0023d1b568e99095e1d6ebfce8a583efab67ce5968 791.6667 PT17531H38M24S PT2191H27M18S 2022-08-31T00:00:00Z
002b905e734975ef780c774f553dec1119a2c13b5f 791.6667 PT17531H38M24S PT2191H27M18S 2022-08-31T00:00:00Z
002ca69e438fbdf90074db1908fd6a3ac2ec5a7df5 2058.3333 PT17531H38M24S PT2191H27M18S 2022-08-31T00:00:00Z
002c30b8822473502012d2598aa75a60d98fe6b558 283.739 PT17531H38M24S PT2191H27M18S 2022-08-31T00:00:00Z
002c4f1505c3f580bba8a809c6bdf40592ad9ffd13 720.727 PT17531H38M24S PT2191H27M18S 2022-08-31T00:00:00Z
002e418e4ff8ea1c6d2bb197b59e1f0fc2ebf7550c 283.739 PT17531H38M24S PT2191H27M18S 2022-08-31T00:00:00Z
00303090471738b78f6fc910e8e06d1b08bc144bd8 791.6667 PT17531H38M24S PT2191H27M18S 2022-08-31T00:00:00Z
0031020ab94157055e4dbf826d751472e48397f16f 3166.6667 PT17531H38M24S PT2191H27M18S 2022-08-31T00:00:00Z
00325b43248386ad6b61e9ae4ff974c5515a68f978 658.4273 PT17531H38M24S PT2191H27M18S 2022-08-31T00:00:00Z
0036997527f23a4ddc38e3c7a78a19dbdc30897438 791.6667 PT17531H38M24S PT2191H27M18S 2022-08-31T00:00:00Z
00362761916bdee45e6908b126b87f57b220952fa2 791.6667 PT17531H38M24S PT2191H27M18S 2022-08-31T00:00:00Z
0038f20279b127950067cbfb5e08ac74831521ee74 791.6667 PT17531H38M24S PT2191H27M18S 2022-08-31T00:00:00Z
00385790e3944be9d9fb3a665e7d227d9889ea9925 591.1111 PT17531H38M24S PT2191H27M18S 2022-08-31T00:00:00Z
003a83e0f374fdb6788e2f8e01c55430eb27de53ab 897.75 PT17531H38M24S PT2191H27M18S 2022-08-31T00:00:00Z
003a47250d2dac46dcdfd81fcf1ba434da00645ab7 253.3333 PT17531H38M24S PT2191H27M18S 2022-08-31T00:00:00Z
003b550ca8ec20c93f9b57aeb7de1adee573176f5a 3166.6667 PT17531H38M24S PT2191H27M18S 2022-08-31T00:00:00Z
003b62392f196cc3369d2649f0dceef81210380162 3166.6667 PT17531H38M24S PT2191H27M18S 2022-08-31T00:00:00Z
003ee3fa369a9fec862be367d491201faa8875e534 1075.4057 PT17531H38M24S PT2191H27M18S 2022-08-31T00:00:00Z
003f7c99487893feb1e62a0b26969025dc3bbc05e0 283.739 PT17531H38M24S PT2191H27M18S 2022-08-31T00:00:00Z
004006e393c8d4af9c3d2f88d192d3218aba31196b 1847.2222 PT17531H38M24S PT2191H27M18S 2022-08-31T00:00:00Z
0049c00463b97db1c72797ba4059806aa2d247b23a 253.3333 PT17531H38M24S PT2191H27M18S 2022-08-31T00:00:00Z
00493b51fdfb17da025623ccafad0478f0f5ffccae 253.3333 PT17531H38M24S PT2191H27M18S 2022-08-31T00:00:00Z
004b92f8e8e5be575c6d57fefc9b09b852819be082 599.3955 PT17531H38M24S PT2191H27M18S 2022-08-31T00:00:00Z
004bb18e20c423acb76b84cdb7c6a43a24be7097a1 727.0781 PT17531H38M24S PT2191H27M18S 2022-08-31T00:00:00Z
004b15bef2c6559de77f599e2fd758bc65b653451d 768.8641 PT17531H38M24S PT2191H27M18S 2022-08-31T00:00:00Z
004d8603f590cac4ceb828f1ae24da1f4848065ba2 2311.6667 PT17531H38M24S PT2191H27M18S 2022-08-31T00:00:00Z
005053703c4a32a217b9081d5fd620a2a9670e3538 2385.5556 PT17531H38M24S PT2191H27M18S 2022-08-31T00:00:00Z
005b0b38e19158f341b9a5548724831869d59b1cb4 3166.6667 PT17531H38M24S PT2191H27M18S 2022-08-31T00:00:00Z
005d0873215bd74b030cdf3737f0adf5f51c60ca1d 158.3333 PT17531H38M24S PT2191H27M18S 2022-08-31T00:00:00Z
00645db784d2dffd521d30ab9894f75afbaca01c4a 791.6667 PT17531H38M24S PT2191H27M18S 2022-08-31T00:00:00Z
00674cd03a0af9ba19cb2b69e0d768d07d1a3b0e0f 1085.7143 PT17531H38M24S PT2191H27M18S 2022-08-31T00:00:00Z
0068332380f49ff88c8c17831a880d04282fe7e32c 791.6667 PT17531H38M24S PT2191H27M18S 2022-08-31T00:00:00Z
00684b231fbb7e4619c3d4b8068d78e29a31154d14 567.4781 PT17531H38M24S PT2191H27M18S 2022-08-31T00:00:00Z
006b5e85264328f0435a8a8f72a470acefc769c1d2 3166.6667 PT17531H38M24S PT2191H27M18S 2022-08-31T00:00:00Z
006c5c707279939a5fc59e6e4a40f7b1aec95296db 283.739 PT17531H38M24S PT2191H27M18S 2022-08-31T00:00:00Z
006c6546e22aa72b7b2ea90b1ceefe6bb2e0e6f791 1276.819 PT17531H38M24S PT2191H27M18S 2022-08-31T00:00:00Z
0073e61dbb60b448d615a3699ccb72de476817c51d 283.739 PT17531H38M24S PT2191H27M18S 2022-08-31T00:00:00Z
007a2a9a4eff7cc34bb4150b83c15d5f792d2158aa 3166.6667 PT17531H38M24S PT2191H27M18S 2022-08-31T00:00:00Z
