Identity;WeeklyRewardInQuarter;SumOfRewardable;RewardableForHolder;Rewards
00004707b35004e4b8e4f421ecb6419875ccac1622;2143128461;1.3582602451077448E11;1.0078199154667608E7;159018.68233124167
0000503d867c0d88f573bec12fc53d7972555f8d62;2143128461;1.3582602451077448E11;5.756530844885795E7;908293.1739138463
00007191afc732273eff16baa3a3c7ae8a7eea6255;2143128461;1.3582602451077448E11;7490940.020759109;118195.66107420955
0000f871f03b7d23a21de01b0d5d3d21529b89d784;2143128461;1.3582602451077448E11;3.720498102006179E7;587038.1173435154
00012b872108a70912350c62c0b213e136a58721bd;2143128461;1.3582602451077448E11;3.615708841447779E8;5705039.628971386
00015b98c59f8f8e69a71a575716e43f89acaa9f82;2143128461;1.3582602451077448E11;4.938063808529664E7;779151.5012246039
0001651bd5d906974cae0fa5a9b6df2a5b036a14ee;2143128461;1.3582602451077448E11;2420438.6289620586;38190.8469493703
00017b55a55733b7f3b2afa1602277b7839bc10499;2143128461;1.3582602451077448E11;1.4601464046058908E7;230388.93527281837
0001ce2900f5e2770e0ecd7f879a90b33e044cf767;2143128461;1.3582602451077448E11;5.32755571928858E7;840607.4116278779
0001e2eb3e9a8715b3681904db7a3343dd4430d395;2143128461;1.3582602451077448E11;2165975.180384291;34175.800047309465
0001e52268cdee1d9e3f3894574e50220620dcfa94;2143128461;1.3582602451077448E11;1.5439094458314997E8;2436054.7152035306
0001f34f2955daec1e46537cc8f8b56503a4a7ec30;2143128461;1.3582602451077448E11;1.765898395022222E7;278631.9575528866
0001f7d443ce0e4dbf9693010f0a084dee99c4b229;2143128461;1.3582602451077448E11;2.5259434666666664E7;398555.53115013795
000262371407b1b8ef32a243082ea9f529a88b9c44;2143128461;1.3582602451077448E11;1.8197667270335206E8;2871315.625362345
0002a10869a1d354758aaedc3df43173db801d52e2;2143128461;1.3582602451077448E11;7512627.576456153;118537.85777790657
000305c89fe90d3670bcff971e3fca67f3da4daaaa;2143128461;1.3582602451077448E11;7.50764572531547E7;1184592.5173015893
00032794ecd33f4b59ad4c8c1a900f733b7b206904;2143128461;1.3582602451077448E11;1.1228709769326667E8;1771719.9317015859
00032e337076db13fbc19b89b21385f2e1134f146f;2143128461;1.3582602451077448E11;3.108133760558071E8;4904163.209399215
0003756b37ad7f0d51edb1aa3263d23d352c9eee37;2143128461;1.3582602451077448E11;3.607484462926898E7;569206.280825855
00038bb25c4e3f9f6f7e2d59d2b755355ef8439076;2143128461;1.3582602451077448E11;7.392243457166806E7;1166383.7913800164
0003ce741008fcb045d293fb44f11cbe9b624840ec;2143128461;1.3582602451077448E11;2.5321805298733544E7;399539.645035489
000418db8ccf62894e3cfe403b0d5799bcad8dc6e9;2143128461;1.3582602451077448E11;2.1371996055615342E8;3372176.516256326
000452e43950ac8200f020cb7c051c4730de4d7b5e;2143128461;1.3582602451077448E11;6932757.403652116;109388.3867873694
0004bd4547cb76b6a1dd53710c5f8779eed721b5e2;2143128461;1.3582602451077448E11;4.325596136024395E7;682513.4007489217
00052d6d88a06101cdc37e040392eb756522567147;2143128461;1.3582602451077448E11;5212424.0;82244.13742090587
0006b6fd48ed680261135aa28135a0362293c723ff;2143128461;1.3582602451077448E11;2.381445461867054E7;375755.93970518635
0006f63457d7d9433974dd146f3c92b84ed5293429;2143128461;1.3582602451077448E11;3.710122294221159E8;5854009.723965118
00071e21ed8adfeff1b62666f96782661fcba8155c;2143128461;1.3582602451077448E11;2.2597233574166212E7;356550.0395604874
0007588055ed0ac6aeb03f7906fe78749c1e322f22;2143128461;1.3582602451077448E11;5522815.811531192;87141.64898210949
000759846264478efa7ae7f188df07ca55fbcf3347;2143128461;1.3582602451077448E11;1.0505189863231575E7;165755.94747171854
00079ed702ed81122898099b2cad772cfba478e6a1;2143128461;1.3582602451077448E11;8.689508635002871E7;1371072.5418678992
0008535fd0be60d8138bd1922db4224b59fee680b8;2143128461;1.3582602451077448E11;5.719270547564872E7;902414.0646679259
000881ec6e589ee0ccdab26ac3164b4b1733d775b3;2143128461;1.3582602451077448E11;6.913850551748328E7;1090900.6536797378
000896acde8cdb88a2ece5353eaaa4b21af927b8f7;2143128461;1.3582602451077448E11;2.288062035349482E7;361021.4527115223
00096c682f83de60573239341d599a57ad88c753da;2143128461;1.3582602451077448E11;5176627.506950566;81679.32310542726
000aa459686bbcb9ca0a9a44bef0ad93c0cf3cb34c;2143128461;1.3582602451077448E11;8001515.696035927;126251.77009397432
000acd3c8ff13a445983a0d22b67fa4029989c8465;2143128461;1.3582602451077448E11;5.620328644839354E7;886802.5345152685
000aceb31e26d2c6120ae1ddb598ee4dd3930f379f;2143128461;1.3582602451077448E11;4698729.508104712;74138.81820976753
000b33e693fdb858373a0608829f4cd42b70b0f368;2143128461;1.3582602451077448E11;3.1927833163606808E7;503772.73572898784
000b636d3f54d710a170c275b7cde513c0848bd0cc;2143128461;1.3582602451077448E11;254497.12339754635;4015.5782395931415
000b89b5c7a8bce42fe4243ba4ec30d66a3fe5d061;2143128461;1.3582602451077448E11;1.8229650769555074E8;2876362.1359782126
000b9741970293ff9c5708c59052d41d2625a754ac;2143128461;1.3582602451077448E11;1.2312798786331072E7;194277.27203676748
000cb2cb289f03783dcf99df2656f2cba5b92d3879;2143128461;1.3582602451077448E11;7.850823775096467E7;1238740.8035615461
000d3d44e8d051d4a18bd88676899e85fcd13cf51a;2143128461;1.3582602451077448E11;6.138065294124465E7;968493.5176963068
000dccc9738ad43478bbf8a4aa58b9bbe8f8a73c26;2143128461;1.3582602451077448E11;2.824459627719297E7;445656.8494081573
000ddc65b7b7d2a897635d1bd98bb9408f19ebd858;2143128461;1.3582602451077448E11;67659.29932640525;1067.5610256577509
000df3cbe7f3793ee856f9c0374748f61e9250d995;2143128461;1.3582602451077448E11;3.30999185270607E7;522266.4633499439
000e63b4edf168c06ee54ad78010b503a8b56cbdeb;2143128461;1.3582602451077448E11;1.5065414091861377E7;237709.3626446925
000e9e7c4f29cd3e130639b2c0b1b0367ebe875923;2143128461;1.3582602451077448E11;8467445.095879456;133603.4286676382
000f0ed10e03d86f0ffa7483124a0e5b3cf9d7448f;2143128461;1.3582602451077448E11;1.162936807674044E8;1834937.7299731113
000f4268ba45041bd7538d18f863b4b1140e97cb44;2143128461;1.3582602451077448E11;2.5743359374334887E7;406191.12836150004
00109d3769b9c273018f4de74a59a9056049d3f555;2143128461;1.3582602451077448E11;1.4758833312992668E7;232871.9833931415
0010b150e9cbefe117a3917eaff52c632f935ac042;2143128461;1.3582602451077448E11;2193142.0;34604.451217237955
0010c669fa9d10bd561d90ded99df8589e1011591a;2143128461;1.3582602451077448E11;1.5300561072104921E9;2.414196250019492E7
001142a37aa9fafb342d95cb61c712602532f60bd3;2143128461;1.3582602451077448E11;1.3457089149176948E7;212332.43674541634
0011438fac8d47d0d5b3478cdc2515831473ddf23b;2143128461;1.3582602451077448E11;7689542.542717352;121329.3073600973
00116cc41ed0a6dc9a567fdb29cdf8be9e68636b6d;2143128461;1.3582602451077448E11;2106.492293472346;33.237250396441034
001266d590d12a2fc00d0f7e7394f9e66cef4a583d;2143128461;1.3582602451077448E11;8.863563832054524E7;1398535.8095244425
0012a214d381a701d87711bc946b6fff4a1102afee;2143128461;1.3582602451077448E11;1.4138658506787962E8;2230865.6647646637
0012b463395b13012d25572c1237c77dc83518a8fe;2143128461;1.3582602451077448E11;4.817561349017663E7;760138.0425350151
0013153a0218b8df737a0851ccda76fc1f817d18d2;2143128461;1.3582602451077448E11;3.1338271017424524E8;4944703.401125185
00131bb42695e57c0aa7becdad60430cac2ce85811;2143128461;1.3582602451077448E11;2.0147241085780126E8;3178928.775769241
001446286d955bcc1bb924b17b5aab9e958e89bbde;2143128461;1.3582602451077448E11;1.9955794339388873E7;314872.1385658638
001547ca35434ee1aab541f0117f59846f0c2d5633;2143128461;1.3582602451077448E11;1.776452442280052E7;280297.22598273744
00160fa6ffd4c7a4d49b43b6e7759aa663ad80d0dd;2143128461;1.3582602451077448E11;9.44548674223236E7;1490354.4102235402
0016eda591187bf7a1d9c693eb0d0642cba3d17161;2143128461;1.3582602451077448E11;1.0831326497560246E8;1709018.8843348967
0017026ebddd7fc980bc0bfa818bc13056cb47b49d;2143128461;1.3582602451077448E11;7.237183242881328E7;1141917.6436295456
00186b1022b20980b81cbbcefa1d768c8a7e36e4c3;2143128461;1.3582602451077448E11;9.99302866958606E7;1576748.2137916791
0018bcbedac3e9978ade38f666e7b54eb7fe114ad2;2143128461;1.3582602451077448E11;9.643403297597426E7;1521582.637968092
0018e3c6327648e0ae3f513fc77287f23e19a78e7a;2143128461;1.3582602451077448E11;7.208078285150382E7;1137325.3231597343
00191d8c2edaa9194eb4d591cc7364b51855b7fc00;2143128461;1.3582602451077448E11;2.138474190056916E7;337418.7617087584
0019e9a28c978dd65114cc4e0bcb876770805b0349;2143128461;1.3582602451077448E11;3681005.844796518;58080.68387118978
0019ec0aed9fe789a9620e32d9dda8521c6d564581;2143128461;1.3582602451077448E11;1.4238458204690546E8;2246612.54197355
001a53b7275033cbae5172588df246ab8a11e23e92;2143128461;1.3582602451077448E11;3.3702163239433527E8;5317689.706067221
001a8f875c3b01ba0fe44d8f7db7decb0c8c5ada3b;2143128461;1.3582602451077448E11;2929835.8017048887;46228.360988305394
001aa2b91b329f6364bb91bc4c55dbf28d50c787fd;2143128461;1.3582602451077448E11;7.21524858896337E7;1138456.688244664
001b5a966673b3d9d87d84758e86a946ce33254d92;2143128461;1.3582602451077448E11;1.9594041397613022E7;309164.22634386685
001bc1d4da9fceeebf17b9f2a4c9c7cc49665c65f1;2143128461;1.3582602451077448E11;7.33696872992259E7;1157662.2785802586
001c55bce7420948369cce8f014b7ab2b37139f99d;2143128461;1.3582602451077448E11;2.600776834292194E7;410363.1004704063
001c7bf916cb56e4bc233defb6c05c94b87efad397;2143128461;1.3582602451077448E11;5.564975825501597E7;878068.6999687139
001d112b141056df59222685dd37dc919f0efa4d59;2143128461;1.3582602451077448E11;1.561856919174372E8;2464373.103423085
001da977086819ab273cd3fed706ce6eec5976f28a;2143128461;1.3582602451077448E11;9.633976851962869E7;1520095.2879555852
001daf29ea3cdfc1b581fa4357fa0cc5116e70bc43;2143128461;1.3582602451077448E11;2460176.4792073127;38817.84989778395
001dd0db367fc3f7c67f260825d2508e673341502f;2143128461;1.3582602451077448E11;2147255.956826158;33880.43911835823
001e3cc5c5ce71e598dadb6712935cd6c572131be0;2143128461;1.3582602451077448E11;7.15683267072494E7;1129239.5431943578
001f049a68c3075ff20ddeaafe0819daac3b64bf4c;2143128461;1.3582602451077448E11;1.4628788498782918E8;2308200.736538834
001f0fec5969c071e988d4788d567de376b8de9830;2143128461;1.3582602451077448E11;9820744.516807089;154956.4390034061
001f296817e16efaa140b6fee684f3a96d4a8528fe;2143128461;1.3582602451077448E11;2757883.617866481;43515.21657844334
001f6ce7a29bddb52b4873cdb03bd15214e4a67556;2143128461;1.3582602451077448E11;0.0;0.0
001fbe3c1fa246ef337457c134b13d51f2df964c34;2143128461;1.3582602451077448E11;8.997980616430956E7;1419744.737435778
002043214eff85403fc9029d73785c6136f4e842e7;2143128461;1.3582602451077448E11;8.548075775393301E7;1348756.5838000958
00205c4c84530297df43ff741aea85a557f82fa8ea;2143128461;1.3582602451077448E11;3.1937599844735557E8;5039268.391298046
0020e11def65edd308768051dc0ebad1f537069fef;2143128461;1.3582602451077448E11;2.1506068844170228E7;339333.1166849432
002211b08201dd32ccf0fca91047c84475ee1b8d9a;2143128461;1.3582602451077448E11;8.556216228293076E8;1.350041023682495E7
00226304336de6a1d06c695afd350815466f53590d;2143128461;1.3582602451077448E11;2.6287034406074107E7;414769.4949760878
0022aa5a93dc352101c433667b50388d8ca2228f58;2143128461;1.3582602451077448E11;1.5300714690435821E7;241422.0488659934
0022c56e1bd4c20c73569f66eb5845e6159080b0f0;2143128461;1.3582602451077448E11;2.393956165285513E8;3777299.387719928
0022f95b126d0cae29113fe0b0012968168b6944c3;2143128461;1.3582602451077448E11;1.1733058176272841E7;185129.84534966204
002319c23cec3792fc24fb574a41460b94ecd65292;2143128461;1.3582602451077448E11;8.68925712423056E7;1371032.8572863673
0023d1b568e99095e1d6ebfce8a583efab67ce5968;2143128461;1.3582602451077448E11;3.5749206195391333E8;5640682.007108524
00274b7e9713baebbd45efe8715c3abd55ded2d056;2143128461;1.3582602451077448E11;3931152.2908361694;62027.61502710424
0027a25bfcaace720f8ce75f0133deda2b1a613a9b;2143128461;1.3582602451077448E11;3.999014026539109E7;630983.7019145269
0027a2c65eef277c18d698a3ed15d91f39757e5ac9;2143128461;1.3582602451077448E11;2.197945336097051E7;346802.4056861164
00281de2d74669bdd1447e6a546d9e2c64e93bccdf;2143128461;1.3582602451077448E11;1.9410683201767463E7;306271.1123806951
0028ae363f88638f25e22bc77a4367fc4cf80dcf80;2143128461;1.3582602451077448E11;1.7163456003064774E7;270813.2788379708
0029255bb866e8d834cd62210074dfad0b1fb82f16;2143128461;1.3582602451077448E11;2.5613149811388716E8;4041366.1913729636
00292777552fd768721c4c38f6af0566c52dcaf8e7;2143128461;1.3582602451077448E11;2.31465101621804E7;365216.79022902955
00293471d309399e77cc36d62fd8edc6b6f85042a5;2143128461;1.3582602451077448E11;1.855445957116921E7;292761.20337522094
002952575a6f2dde86345a7fcaba24fa875a3e4480;2143128461;1.3582602451077448E11;7.790492586322807E7;1229221.4578976715
002992d8ae09c4179748fe3f937addde0a69423404;2143128461;1.3582602451077448E11;2205640.3305646786;34801.65589906993
0029df0cf3c74e9bb22d481f574645daa2e1ef87fa;2143128461;1.3582602451077448E11;2.1921168119759556E7;345882.7530661906
0029f80452925b6e566e40b3475a6b0957c5d3175b;2143128461;1.3582602451077448E11;7.669176113521262E7;1210079.5602690252
002a2d9df13c0e70cc3da78c3700dfe6d50aaaef39;2143128461;1.3582602451077448E11;4560999.241755224;71965.64370349841
002a9aa5f7a98b3b6c9e50de94ce45e208f78f4cff;2143128461;1.3582602451077448E11;8.871024331408766E7;1399712.9630601464
002b796d39db81814b825c4307780e4c8438a2ed5b;2143128461;1.3582602451077448E11;3887823.4880164424;61343.952298709744
002b905e734975ef780c774f553dec1119a2c13b5f;2143128461;1.3582602451077448E11;2.939998972887969E8;4638872.0400243765
002b9317ecac737c4a97828990903e855fe9774145;2143128461;1.3582602451077448E11;8869953.912746912;139954.40672459852
002bd6b7e8fd7b3a62871282457664cb4735e1c79c;2143128461;1.3582602451077448E11;1.0233821865042474E7;161474.17244061962
002c30b8822473502012d2598aa75a60d98fe6b558;2143128461;1.3582602451077448E11;4.7712737864036426E7;752834.5678742692
002ca69e438fbdf90074db1908fd6a3ac2ec5a7df5;2143128461;1.3582602451077448E11;7.319856376845076E8;1.1549622090577062E7
002cfc3b6c0b1667f5d1eb13911495e59d02b50cd8;2143128461;1.3582602451077448E11;3.120042773921268E7;492295.3824506316
002e080909fd41b16f3127bc0e3cf8d269c2f1c586;2143128461;1.3582602451077448E11;6631469.060104817;104634.51413042108
002e418e4ff8ea1c6d2bb197b59e1f0fc2ebf7550c;2143128461;1.3582602451077448E11;1.0342373401631287E8;1631869.508892763
002f7818149d551406b316db8816169f0c105032cb;2143128461;1.3582602451077448E11;6097777.777777777;96213.67592461807
002f964ac64c1a177b3161321383f280890516b947;2143128461;1.3582602451077448E11;1.4600885691044077E8;2303798.097087204
002fa4650d61984323e94c5eabdd443ebc90fa40a7;2143128461;1.3582602451077448E11;3.780577128695101E7;596517.6756586449
00300fe2d56402f9f3aa6cd0564e056b4a4ee8202c;2143128461;1.3582602451077448E11;8.558668500359763E7;1350427.954985179
00303090471738b78f6fc910e8e06d1b08bc144bd8;2143128461;1.3582602451077448E11;2.7295973346683884E8;4306890.1972710835
003058133c84fa602fe1c53fee1690c4f29f193019;2143128461;1.3582602451077448E11;3163833.113463947;49920.48332225876
003083f5e465e029a964c278aee1dded6a893b6a52;2143128461;1.3582602451077448E11;4.982544821402983E8;7861699.297626015
00308b727e1f5c8b337d1d31b56d75ebcee61959e1;2143128461;1.3582602451077448E11;6.261619144324927E7;987988.43951151
0030feaf18b7b89a3c97a49b03320f8debd85ce86e;2143128461;1.3582602451077448E11;757418.5080662313;11950.914174007452
0031020ab94157055e4dbf826d751472e48397f16f;2143128461;1.3582602451077448E11;1.646064441947801E9;2.5972397903014354E7
0031042a6b5ccb3910230fb4c690e3e2d881af769b;2143128461;1.3582602451077448E11;2.0735116642273497E7;327168.6613686173
0031ecaae407f72e762100c33fdeae558250000155;2143128461;1.3582602451077448E11;3.338769004977375E7;526807.0610948388
00325b43248386ad6b61e9ae4ff974c5515a68f978;2143128461;1.3582602451077448E11;3.0944550680879474E8;4882580.309327172
0032fb5447c7d9bc485e5c74f6d37378501cad1003;2143128461;1.3582602451077448E11;1.6057831705261227E7;253368.2059343759
0032ff50889a154c4687e8b8f8c169420687d880de;2143128461;1.3582602451077448E11;0.0;0.0
003357f9ed428a04d840e39aa7f63d827617f46ebe;2143128461;1.3582602451077448E11;5.5882453618099935E7;881740.2795291422
0033ccca69d00692eaa29f6b04e6bff972f9a3b6f3;2143128461;1.3582602451077448E11;2.671077224030825E7;421455.43469802715
0033f7de239c0db8f45d53b0a98f00e6423dde79bb;2143128461;1.3582602451077448E11;1.969836212297569E7;310810.2490144277
00341498eeb456aa3640cbd9051edc0cec21f03578;2143128461;1.3582602451077448E11;2.2169802908818865E8;3498058.32569894
00349883b786a0cbf13a054af5f11dbda9759c3a51;2143128461;1.3582602451077448E11;6.719644554427388E7;1060257.895662302
0034cecabd9edea244833769c97e6d638309b5c8e2;2143128461;1.3582602451077448E11;3863400.8383647315;60958.599964721194
0034fd670576673a2ca9d277db12ddabab06e59a97;2143128461;1.3582602451077448E11;3697328.7847669856;58338.23508307207
00350c4134bd65c62226189384ba8b6f3a14de40ab;2143128461;1.3582602451077448E11;2.0541140170808993E7;324108.00713643106
00354118be770a154befce6ea8a73b14dae0a3da55;2143128461;1.3582602451077448E11;1459273.0066071982;23025.11263282129
0035ea8acd943be133e15d4a77f26b0bff1a184be3;2143128461;1.3582602451077448E11;376600.08131917025;5942.17754364153
0035fe43ed1bf4dc2deac361c646f84d7bc79d0e25;2143128461;1.3582602451077448E11;1.6345622442274507E7;257909.10685175794
00361ad21315abd3a52d5af77a9a9fe2e306ed3391;2143128461;1.3582602451077448E11;1.848707076566107E7;291697.9103313622
003626c7027842b5f56f266e9eef34d4f241045064;2143128461;1.3582602451077448E11;8292243.363885479;130839.0113212187
00362761916bdee45e6908b126b87f57b220952fa2;2143128461;1.3582602451077448E11;2.1400220044345495E8;3376629.83319234
00362cfffc8dae9e92a402632127f0ca6caf84f052;2143128461;1.3582602451077448E11;1.4224453660419317E7;224440.28374990862
003654e3ae062ee03be48c42f0871b38a7cd68e6cc;2143128461;1.3582602451077448E11;8569396.488739062;135212.06686832913
0036997527f23a4ddc38e3c7a78a19dbdc30897438;2143128461;1.3582602451077448E11;2.976183949797368E8;4695966.440125153
00371ed7606ed1a3b311eabf2aead54a6ebbc42ea7;2143128461;1.3582602451077448E11;1.3184130142283767E7;208025.55801237453
00377c518e4d281f2081026d7154947b2e969087db;2143128461;1.3582602451077448E11;6.268645408369245E7;989097.0773076992
0038202c32e4d45ee0e5943249828d7482f4f9560e;2143128461;1.3582602451077448E11;5.469816451493333E7;863053.9954227618
00382605a05c191d49ce518b4cf0dbc01b694c9f60;2143128461;1.3582602451077448E11;6600933.7263333155;104152.71292106119
003829a72b9c512c378256d603245d0cb4bc71120e;2143128461;1.3582602451077448E11;1.740544088736668E7;274631.4329402287
003850392a48c23a688c681f8bb65fa232d2f3e03a;2143128461;1.3582602451077448E11;5348454.800969591;84390.49694354236
00385790e3944be9d9fb3a665e7d227d9889ea9925;2143128461;1.3582602451077448E11;3.38516015035049E8;5341268.795424164
0038eed148fdaabc14d0bb159a7da149d1b5a95fc4;2143128461;1.3582602451077448E11;6.204890393532191E7;979037.5038702152
0038f20279b127950067cbfb5e08ac74831521ee74;2143128461;1.3582602451077448E11;3.2310988788826704E8;5098183.498030114
0038fdc3067519647f32ecdfb4437cdcb221464995;2143128461;1.3582602451077448E11;123.32536793762118;1.9458870782855529
003902e42db4dcd268c38bd8fee1df34059171bcb1;2143128461;1.3582602451077448E11;3601868.555397049;56832.017587616545
003a81ac2e0355368028dfa76a104673d4a80fdfa2;2143128461;1.3582602451077448E11;2.1725064750582375E7;342788.53961707157
003a83e0f374fdb6788e2f8e01c55430eb27de53ab;2143128461;1.3582602451077448E11;3.958657046917418E8;6246159.832141697
003aaa891767534e6c218ad69fc41d70526578b79d;2143128461;1.3582602451077448E11;8.39962323544298E7;1325333.0267445748
003af46fb9a1ae7fef89da57e5d601a7eb38a1a137;2143128461;1.3582602451077448E11;1.673489343238321E7;264051.2120996181
003b550ca8ec20c93f9b57aeb7de1adee573176f5a;2143128461;1.3582602451077448E11;1.568788654309463E9;2.4753103291172292E7
003b85237cee0249077fca1d7bc201f5fd7da7a8dd;2143128461;1.3582602451077448E11;7.013402501112509E8;1.1066084399304856E7
003be3f896374676423d086a90323a1a316af42d22;2143128461;1.3582602451077448E11;252296.3447474465;3980.8532936309925
003c25775e57ab62595468008399f8d90e351d2e0c;2143128461;1.3582602451077448E11;1.1689478693173157E7;184442.22726702283
003c39b2d0d3b7dac083125945be807e1de4ad3909;2143128461;1.3582602451077448E11;3.6443884581971407E8;5750291.71017417
003ce0624f3062ef13e8cbff694ac92adb857f28aa;2143128461;1.3582602451077448E11;1.1204149040669091E7;176784.46215908363
003d4009fad039382f064b5ac7fa7361a6ef8d3517;2143128461;1.3582602451077448E11;2.3358066265958007E7;368554.8243704035
003d6697d40115fd03decf3dedf9039612793d41f0;2143128461;1.3582602451077448E11;0.0;0.0
003ddd6e16df72813fded7203c35e7a9bc4f8f46bf;2143128461;1.3582602451077448E11;8096573.657356779;127751.64041032299
003e14f0a73e1432929bad34910b518e3397ae0f53;2143128461;1.3582602451077448E11;2.148778706419894E7;339044.6579516826
003e4508bc6a4f9d20e7e17a046868cc0107833f45;2143128461;1.3582602451077448E11;6061013.759455591;95633.59552919466
003e6cf81b794d6a7f69c2093a24fd69b806660c98;2143128461;1.3582602451077448E11;1.7564241036725324E7;277137.0582129066
003e7acc5bbf87716c33f302b6aac12d741a39b54b;2143128461;1.3582602451077448E11;8.325063271976393E8;1.313568596449872E7
003e8a0d56fe6b701fe71321d7b4dac0bc4efde848;2143128461;1.3582602451077448E11;2.2858999243261945E7;360680.3044163749
003e8d1a82929d306a418cf271396e57c0ee6434d9;2143128461;1.3582602451077448E11;1.8676577940995447E7;294688.04585572635
003e8f727dec29146d477396f32ce385ea05a4068f;2143128461;1.3582602451077448E11;2.1588976863609765E7;340641.27936397324
003ee3fa369a9fec862be367d491201faa8875e534;2143128461;1.3582602451077448E11;3.8196086302055016E7;602676.2540359327
003f74c99f5b6ce2000d130c1250c1993606e93851;2143128461;1.3582602451077448E11;1.0149496992006333E8;1601436.5396284715
003f7c99487893feb1e62a0b26969025dc3bbc05e0;2143128461;1.3582602451077448E11;4.705867386162712E7;742514.4308907433
003fe1caea11d44587ecc1f0d47163fa537e41d577;2143128461;1.3582602451077448E11;6.677291119286132E7;1053575.1665903674
003ff71fbda67a5d9df51d49c5f5d2a599c622d0a5;2143128461;1.3582602451077448E11;1.233388517365534E8;1946099.832162125
004006e393c8d4af9c3d2f88d192d3218aba31196b;2143128461;1.3582602451077448E11;7.481288986447159E8;1.1804338240459135E7
00404aadb526f6d53615c2fb061f1c438c1b1b9342;2143128461;1.3582602451077448E11;9.233654013578674E7;1456930.4216039665
0040bfb43e1432084def40dc42f50c246e05e4daab;2143128461;1.3582602451077448E11;1.0583830679128673E7;166996.78015715108
0040ca40b2256c956d14158ec6188ee469441b0521;2143128461;1.3582602451077448E11;8910526.584513968;140594.58188923265
004121528010e5bc4ff46dfb0f8b67c74b73544191;2143128461;1.3582602451077448E11;5.879385990364427E7;927677.8507314076
004176e032dd83ff89080e0c217ff7bf6cfae5045c;2143128461;1.3582602451077448E11;4628379.033148112;73028.79451830333
00419b02a8c38343e11101639b09e9d267953dd5bc;2143128461;1.3582602451077448E11;6.216486252987251E7;980867.1544484018
0042bdbb4cfeef2bb8dddd876b74a41dcfa4631627;2143128461;1.3582602451077448E11;6665672.274343195;105174.18892511504
004336fe935b0975a028e65a959234fac580f03ff0;2143128461;1.3582602451077448E11;2.0653362175449856E7;325878.6999985875
00435b8be8d13c913c1a9a00c6632f403ef4abc526;2143128461;1.3582602451077448E11;9068843.171983846;143092.57728943063
0044688dc81f373e40022b0eb7291f143c362f77b1;2143128461;1.3582602451077448E11;2819167.2471145308;44482.17920955861
004486fa40c87d50565ecc641a9245b900bc4cd2e4;2143128461;1.3582602451077448E11;0.0;0.0
0044b9d97051379b20f5e51c84deb930cf7343be05;2143128461;1.3582602451077448E11;1.2779705674987953E7;201644.3538999206
00455a86385e4530068253bdd4764273d6b87dbd0e;2143128461;1.3582602451077448E11;8.703690631283054E7;1373310.2455753684
0045f9b28c4b1ecbdfcb52e1e92f6f1b2b2f319635;2143128461;1.3582602451077448E11;2602.419836449074;41.06223412673432
004608f9647ac7f1cda974d90510c09c4db64bc3b4;2143128461;1.3582602451077448E11;6387713.757578331;100788.42551635923
00460de8e68bfb92bfb32c6bbf48554ba5f66bfc9c;2143128461;1.3582602451077448E11;5.63466071323231E8;8890639.17323797
00463da0a411bb84771b7bacdabd62e7ee331c2d2a;2143128461;1.3582602451077448E11;2.1183583604641974E8;3342447.8918971727
004685041187517df45e49906d2dc2335d153f5463;2143128461;1.3582602451077448E11;2.1209967231670953E7;334661.0827696396
00476a2e6cb857f19befd052d72daf939dad8aab2d;2143128461;1.3582602451077448E11;5.294333801799339E7;835365.4974102871
00476c389ad5e893120ba2caf03b01eb5e31d74945;2143128461;1.3582602451077448E11;6506440.2094953805;102661.74868173533
0047b1d23d1a14e3c4e7d0f36358646ed2fa462d71;2143128461;1.3582602451077448E11;1.6601983303192145E8;2619540.9203996444
0048070764e394a8d915b458059e398030e0430cfa;2143128461;1.3582602451077448E11;3.156141158283825E7;497991.15947143186
0048131385447eae82f8c9899e5f2fd5b63465708e;2143128461;1.3582602451077448E11;4942106.841393077;77978.94304307003
004814a6ad50026b138242c0ba29dad11ae32a2efc;2143128461;1.3582602451077448E11;1.251206731568788E7;197421.4269082981
00488bec2fe110c0a922786432623069e744d978de;2143128461;1.3582602451077448E11;8.441771734859414E7;1331983.4200703867
00489b6260e9db67bebdb40d137fef3a7c66b70c2b;2143128461;1.3582602451077448E11;4.026546461804435E7;635327.902212687
0048fa9cc711b0f341ee32d2915d4c65c3ef0251c8;2143128461;1.3582602451077448E11;6.7007261050461434E7;1057272.8515624711
004927076e817474824aef45851548cdb204db6a39;2143128461;1.3582602451077448E11;2.1810838771426167E7;344141.92344720906
00496728751f132621158594d20331a783c4da3e21;2143128461;1.3582602451077448E11;2.2349364608137514E7;352639.04358156427
0049a1dad7cfdc5b03a3c666f7a750e69a764e9637;2143128461;1.3582602451077448E11;1.8921244727921978E7;298548.51630984084
0049c00463b97db1c72797ba4059806aa2d247b23a;2143128461;1.3582602451077448E11;7.038457906355748E7;1110561.8024964652
0049d84cfb76b1bb13240256b0a11b98e7bc38c0dc;2143128461;1.3582602451077448E11;2.4441210183640413E7;385645.1910045242
004a291e78ad5ac1f06e9e9a17b5257c4d92ad4a05;2143128461;1.3582602451077448E11;9137701.952028118;144179.06429981143
004af9754a4e879f2ca2b6fb3b289148b3fc384b4f;2143128461;1.3582602451077448E11;8745297.836674282;137987.5230921718
004b15bef2c6559de77f599e2fd758bc65b653451d;2143128461;1.3582602451077448E11;6.535930888977747E7;1031270.6683236614
004b76cddad2858fc97e83ff3cbe45643c5cb85c1d;2143128461;1.3582602451077448E11;2.6077705521291393E8;4114666.0296917614
004b92f8e8e5be575c6d57fefc9b09b852819be082;2143128461;1.3582602451077448E11;1.7248607388958663E8;2721568.384338589
004bb18e20c423acb76b84cdb7c6a43a24be7097a1;2143128461;1.3582602451077448E11;2.595218328851666E8;4094860.5269895555
004bf2131fe1a04cdd16c5a8105e13dbd020cac119;2143128461;1.3582602451077448E11;0.0;0.0
004c0627dbc8ed242586ed33462e760f28cac3070b;2143128461;1.3582602451077448E11;3.643459440298139E8;5748825.860969424
004c0ac99f066f00b45f2c3c1d9c8cab47cb80a782;2143128461;1.3582602451077448E11;4.22958741441831E7;667364.6820464977
004c2118d2012c41b06f5bafcc1297731afe1a6232;2143128461;1.3582602451077448E11;4.987441325126976E7;786942.5237134352
004c341b491c8a4a29e2ae8264c0ba11904210f442;2143128461;1.3582602451077448E11;2.4368244444444445E8;3844939.0241375505
004c9b07a5290c2882ae5e33fc9b6caacba31fa999;2143128461;1.3582602451077448E11;7.310473333333333E7;1153481.707241265
004cd0949afd2f52963adb5687eba6fc2ad275c438;2143128461;1.3582602451077448E11;1.7062917806606404E7;269226.93873103167
004d8603f590cac4ceb828f1ae24da1f4848065ba2;2143128461;1.3582602451077448E11;6.514139923095618E8;1.027832384729418E7
004daf5f8f41f205ca0fdaaa822aa143c6a3ad0949;2143128461;1.3582602451077448E11;4.87157370336116E7;768660.372055893
004dc529187c40295c4e197654f35c8847317d4968;2143128461;1.3582602451077448E11;5347926.249534858;84382.15720432847
004df997534cb3f9d18b2171c554f44187677b6013;2143128461;1.3582602451077448E11;3.44158378916924E7;543029.6731463076
004ec47f8f66685783e6d8a3c34646e025d366d707;2143128461;1.3582602451077448E11;2.2174054649468385E7;349872.9185825164
004f1aeb4d2eff932aa9f0bd825f8a46f4951b906d;2143128461;1.3582602451077448E11;7.09342611635689E7;1119234.951528691
004f1ee37f9f372a7f8cf805ffb6c6bf0c3a5eca05;2143128461;1.3582602451077448E11;1505044.8968851757;23747.32357230676
004fb4a22692a8d4856d2075769547b3c4937e62bb;2143128461;1.3582602451077448E11;2.2475794721060045E7;354633.9188222088
004ffa7ea02038f317760cb71803d028d2d56ff8d6;2143128461;1.3582602451077448E11;1.4534506221196108E7;229332.44244924508
005053703c4a32a217b9081d5fd620a2a9670e3538;2143128461;1.3582602451077448E11;1.0904424815393932E9;1.7205526891388625E7
005128fc0e7ef4b47ba36003d15955e388bdeccc6b;2143128461;1.3582602451077448E11;2850784.735685934;44981.0551787757
005137378867ccb2b788719257b0c890268d08cbfe;2143128461;1.3582602451077448E11;2532436.5562006524;39958.00421030447
0051504254719d611f9ac23ca0d822e014da64e85b;2143128461;1.3582602451077448E11;1.6769021001413088E7;264589.6933277635
0051e3238844a394e10cf0b53e2252eac3e53f2b4e;2143128461;1.3582602451077448E11;2203414.536614679;34766.53624965261
0052021bdabe4c59479e06483414579975be775006;2143128461;1.3582602451077448E11;1.841462123439134E7;290554.7667179823
0053874db2bcac6da323ff439f6653924a85e68cc9;2143128461;1.3582602451077448E11;8.707207696910721E7;1373865.1851366938
0053b1f0a09fa6b0fef5191c041fd3dea69e1bf0be;2143128461;1.3582602451077448E11;3.2935631850963168E7;519674.26901475765
0053ba94ed78e411a5270852016924d6f17f9b4d25;2143128461;1.3582602451077448E11;2.0540724949794088E7;324101.45557918824
0053bd7bd542d88e371bf4f31e2947e657063b2125;2143128461;1.3582602451077448E11;4.580683875654037E7;722762.3734197723
0054a7f9d721969f16beea44089355da89752cf23f;2143128461;1.3582602451077448E11;1.0821591251728568E7;170748.2810339368
005590fa495f29385777451123b3a538488b3db698;2143128461;1.3582602451077448E11;7.614520068779126E7;1201455.666175499
0055c38f55cc3df675e65aeacf78c058846f1d6c1e;2143128461;1.3582602451077448E11;1.5361900870832587E7;242387.4739021785
0055cd569388f730236fdbeba9dd40e7cfbaf80f59;2143128461;1.3582602451077448E11;0.758027232267458;0.011960518917761438
005606414027a97673f1c82b9f6a19920750e5deb8;2143128461;1.3582602451077448E11;8778305.257284917;138508.33007882728
0056511d5cbc65d768e37fb8105fbbb83e0063c8dc;2143128461;1.3582602451077448E11;3.2064867811141096E7;505934.93442641455
0056a72697cf468bf297083f5dab03250f23bba974;2143128461;1.3582602451077448E11;1.7240538488588887E8;2720295.234359141
0056b011bed290bbf0f328b9a9892943c4a6a214d9;2143128461;1.3582602451077448E11;3.906592469198164E7;616400.9832742114
0056e2139d4b8fa3899ddc155015bc254868dd5f29;2143128461;1.3582602451077448E11;3.0039315650153805E7;473974.7964404311
0057027cec1230d2b24b31064235a8d984e0e0bac0;2143128461;1.3582602451077448E11;5.93169979911936E7;935932.1755450676
00575f9968d82494b474672caea6399a909562334b;2143128461;1.3582602451077448E11;9843866.855095364;155321.27439816168
00580cda3b45cb18a26dee16414facdd5f0e6215b5;2143128461;1.3582602451077448E11;2.251106143018034E8;3551903.7395158294
0058bf32fdf49b2a32340a2e7841cb5b4dfc3cc753;2143128461;1.3582602451077448E11;5180737.561891361;81744.1735326677
0059a7f72215cc58a46599c66d19b584072b7125ae;2143128461;1.3582602451077448E11;3.6286618979422726E7;572547.7585637112
0059ddee2a742fe86d081bcafc964dcfa92f73f6e4;2143128461;1.3582602451077448E11;1043983.8079421732;16472.479553773195
0059f49f2c738dfc9f8079dd8b6209eb0fef10d78a;2143128461;1.3582602451077448E11;1.2761426667331815E7;201355.9389095842
005a97296c37a98149f7aeabdd7918b679810ed1e0;2143128461;1.3582602451077448E11;3006983.3257609;47445.63179554311
005b27a7a99357ee02f8cbd40f6bf069aaab70a3b2;2143128461;1.3582602451077448E11;9607096.009476714;151585.38991057506
005b559b16afddaadad4c8befd0ab813b105c947ec;2143128461;1.3582602451077448E11;2.2231256218130935E7;350775.47249481786
005c14d980973c264bb900d104ba926f47d96b0e58;2143128461;1.3582602451077448E11;4273419.731816658;67428.0756286787
005c79fc2d54ca89f63d07af8bb57081c1e5691317;2143128461;1.3582602451077448E11;1.756482471335444E7;277146.2677439989
005cc9223af28ed7f5dd5b76991e74c71687d11cad;2143128461;1.3582602451077448E11;7.348235283426464E7;1159439.9696787428
005ceecceb06faf5125a0c6f5d2f4139b243c4d4ea;2143128461;1.3582602451077448E11;3.0597568793376856E7;482783.18352231267
005d0873215bd74b030cdf3737f0adf5f51c60ca1d;2143128461;1.3582602451077448E11;1.1016754278891353E8;1738276.5731365927
005e0d493f7ba7c7e73b83cca1db088027b40e1738;2143128461;1.3582602451077448E11;1.63052146751746E8;2572715.3363241954
005e1e2efa72a5b2bab7d961b807216d32845a6b8a;2143128461;1.3582602451077448E11;2.581304352395071E7;407290.63845067605
005e1efaca0ea84d640ea57680d2556ee363a31f94;2143128461;1.3582602451077448E11;2.731518929567258E8;4309922.1822924465
005e54d2555f464a722277c1f97cefcbd2c76f0acc;2143128461;1.3582602451077448E11;1.7223994356279295E7;271768.482144726
005ed2db9c00aa2b6413d885354faa477948e82522;2143128461;1.3582602451077448E11;6.941322518920572E7;1095235.3130308124
00604acb4ac4a48485514c4eb56e1d2a26c768a606;2143128461;1.3582602451077448E11;2.7317850643413055E8;4310342.102562349
0061aff734946314fe0902995774e313cd70bbd2bd;2143128461;1.3582602451077448E11;3826045.094776803;60369.1830429386
0061b27421833ce6c95743568e00b7bb4b93e28bbb;2143128461;1.3582602451077448E11;3933833.419969087;62069.91917443586
0061da6ef7632cee1d8d1567f46b385a8af1e43db4;2143128461;1.3582602451077448E11;1.4064386541929471E8;2219146.6762780356
0061e08db72944aeef5bc112184c9460ef4ddafe50;2143128461;1.3582602451077448E11;1.8438110890306022E7;290925.3978272354
006250425bf281a77a8b8b13dc975e930da8cdea20;2143128461;1.3582602451077448E11;5809851.889105235;91670.6425192349
00625dbe1f50e8fe30838f47b0f77d681ff97d933a;2143128461;1.3582602451077448E11;1.9567151301694584E8;3087399.4145377013
0062a8a1dd01517b5da75e75842c80cc17cc9fb5b6;2143128461;1.3582602451077448E11;1.8205955808412217E7;287262.34308375407
0062d94eaeed9a9ede50e487cebacacad599a331a6;2143128461;1.3582602451077448E11;1.3247266002451278E7;209021.74603541408
0062ea27ae2f820f0a2230928cb8d1674455d769a7;2143128461;1.3582602451077448E11;4.064474712311549E7;641312.4043307833
0063506c57f7f946e7a7889faa6f24d89f2b2211e0;2143128461;1.3582602451077448E11;5992727.42898654;94556.1409040402
0063828892b720fc5cd3b2b30682619cd0d310a81d;2143128461;1.3582602451077448E11;332943.30298127874;5253.339859490055
0063f7338f217086fadbf98b9ab80142949595fb96;2143128461;1.3582602451077448E11;3.2772633917376235E7;517102.40907986986
00645db784d2dffd521d30ab9894f75afbaca01c4a;2143128461;1.3582602451077448E11;5.929126370171336E7;935526.1275258653
0064ad102872415691ff678186f72b2d75fbc38928;2143128461;1.3582602451077448E11;2.0190505105782922E7;318575.51813081827
0064ba590621892e12a65b617f2bedf3c223710eb7;2143128461;1.3582602451077448E11;5345105.423251379;84337.64884804375
006531c0b0a372e801628f985816d69b225b5a5f38;2143128461;1.3582602451077448E11;2.7664021251448575E7;436496.25690830156
00654f3bc844e5c54a06ed119005446482ffb32f0e;2143128461;1.3582602451077448E11;2260214.3834785824;35662.75160184984
0065775c573d6e19edbf5725ac2711c7bbdb23e706;2143128461;1.3582602451077448E11;4.525479014101952E7;714051.8843655592
0065a7065035426750e2cc1ff68d3b0100863be079;2143128461;1.3582602451077448E11;2.9766257510756556E7;469666.3535469742
0065e7d784dbf2bbf4b853b86501ff75372b1002fc;2143128461;1.3582602451077448E11;6535517.612741011;103120.54596077034
0065fbc739da6805ec80683614f503242ca0364643;2143128461;1.3582602451077448E11;2.4339933333333336E7;384047.19606124796
006628964455ece1c66aace59cd2b5366b0b707453;2143128461;1.3582602451077448E11;7.592414291795048E7;1197967.7101687077
00664b2904a285323f9ec2b274509591fd546c0ed8;2143128461;1.3582602451077448E11;2.1640827280773386E7;341459.4002295314
006679b71f43483a402f79719f1ba6a9b8a2ced062;2143128461;1.3582602451077448E11;2.1772594838897553E8;3435384.9225235633
0066f578f1296b45a50bb24132596bf93f4a951ed4;2143128461;1.3582602451077448E11;2.1439651285664E10;3.3828514844426537E8
00674cd03a0af9ba19cb2b69e0d768d07d1a3b0e0f;2143128461;1.3582602451077448E11;4.540890865770811E8;7164836.405821758
00675134055e64b29dfda8c64f4988baeec6648225;2143128461;1.3582602451077448E11;1.3580933759833052E9;2.142865166855055E7
0067e0a9d19fa3e0d5bb4d7484b35129061ea20ac4;2143128461;1.3582602451077448E11;607218.5266799125;9580.986495492829
0068332380f49ff88c8c17831a880d04282fe7e32c;2143128461;1.3582602451077448E11;2.2209211682461488E8;3504276.4318910944
00695eef3559e82351f6d0f924832326ece7080f71;2143128461;1.3582602451077448E11;2.977485331507407E7;469801.9822892893
006975dad2ddd5ed2381037916ee642be9e0217965;2143128461;1.3582602451077448E11;0.0;0.0
0069ab8f6c8d3dc67c84d149f0907c9b6561748eac;2143128461;1.3582602451077448E11;1.7876494968400963E7;282063.95120299136
0069b7aba7d8d358f3f9274c80d61d5052c88c4304;2143128461;1.3582602451077448E11;1.369955793570795E8;2161582.2609020798
006a967608e02b6bf9ea81df8d2401a908dfe55f4a;2143128461;1.3582602451077448E11;2739869.4314197297;43230.98006474981
006b5e85264328f0435a8a8f72a470acefc769c1d2;2143128461;1.3582602451077448E11;1.5242514600613425E9;2.4050373980570547E7
006b732117e299581ec277c37857d6e4644eb7576a;2143128461;1.3582602451077448E11;2.1043185638480085E8;3320295.224304064
006c300d3d47c5454eff96bd7e228f3225f1ffb8d7;2143128461;1.3582602451077448E11;2.042638226999074E7;322297.30168249423
006c346a51cf9bc4aa3ba23e544af58625bc717609;2143128461;1.3582602451077448E11;2.9324817814150732E7;462701.1053110877
006c5c707279939a5fc59e6e4a40f7b1aec95296db;2143128461;1.3582602451077448E11;1.4570162537865844E8;2298950.4499426237
006c6546e22aa72b7b2ea90b1ceefe6bb2e0e6f791;2143128461;1.3582602451077448E11;1.898336473731419E7;299528.67574987124
006d499c6e563a91cefece50e79f37220651a99da5;2143128461;1.3582602451077448E11;2.1596308517359894E7;340756.96172951907
006d794d9adffa1adce3ba1da53271726997c6fa2f;2143128461;1.3582602451077448E11;2.0690084337778682E8;3264581.199699798
006dab14da3815c50fea37170c30351d3c1ac9594a;2143128461;1.3582602451077448E11;5.2654959511159375E7;830815.3223774631
006dcd2720dbf7a87a6e9baa7fb8dd0cfb8f6615ee;2143128461;1.3582602451077448E11;298060.34515658737;4702.93974296431
006e793e96657fda16272eec30c871e5de4b7bb6ca;2143128461;1.3582602451077448E11;2.221270603573282E8;3504827.7877874
006eb8b0b81908f533b34d62422da540f38b2285c1;2143128461;1.3582602451077448E11;2408240.892787722;37998.38519066722
006ef7f7ea6fcf74d2d5d96977e343cee36e49ab38;2143128461;1.3582602451077448E11;1.7445424166411382E8;2752623.083824972
006f718b15aa61709eceae53494e70d129f9ba24a0;2143128461;1.3582602451077448E11;8.658278193036604E7;1366144.852254028
006fa02ba5bcf019792463e58b6f9260fb7cdf8ee4;2143128461;1.3582602451077448E11;1.939496048E7;306023.03170082835
006faa67c7d674231cf6abb4dcf2a9fa14fa46093a;2143128461;1.3582602451077448E11;1230824.8418098858;19420.547413425495
006fd5cd64898387c84ab5b779f1ad386a533d0a4f;2143128461;1.3582602451077448E11;3759.230574681948;59.31495135104379
00705e1aad7e3509f3360e2b4f8da35c6409bbee04;2143128461;1.3582602451077448E11;1.7910698708111644E7;282603.6342888405
0071afa38f24c7bd5422a1101ca160636407250431;2143128461;1.3582602451077448E11;909339.4509029649;14347.996011512978
0071f26dcad0013cef17490a35c6761585ccf14ad7;2143128461;1.3582602451077448E11;1.058498102999649E8;1670149.3094742736
007211e1a0d842e1ab5a1b4368eb90c77c98aa8116;2143128461;1.3582602451077448E11;1.3281826673780924E8;2095670.6096033084
007220ad46981310195f88ccbf59c071a1d6d7c1bf;2143128461;1.3582602451077448E11;177.24571423463547;2.796668283082875
007286ffaae3590759da37a64278018cbc016154a2;2143128461;1.3582602451077448E11;8418076.632548569;132824.46926555494
00728da1a50b4f492b031a1e6dc984ac930a87a661;2143128461;1.3582602451077448E11;7513001.769578066;118543.76197728491
0072b3f9582ab37e395611a096a3623e86567ec930;2143128461;1.3582602451077448E11;1.346610851661747E8;2124747.4867077544
0073e61dbb60b448d615a3699ccb72de476817c51d;2143128461;1.3582602451077448E11;4.618231406110249E7;728686.8036937797
0073f36afe58f3c929933519b6cf8fd4edd914e759;2143128461;1.3582602451077448E11;8.218858175829145E7;1296811.0446422393
0073f8b94806c0b92915ab9cc9d6135abae30ea52e;2143128461;1.3582602451077448E11;7.059295493524669E7;1113849.6574035885
0074043255f1530bac32e180d4cfebccde623f1cf0;2143128461;1.3582602451077448E11;491685.770908995;7758.05500675759
007411a0e69c28923472c92446946b0b6132f0526b;2143128461;1.3582602451077448E11;1510996.8892636292;23841.236975955755
00748ce632c3a6b161a3301e126ebe57b8f1302ea8;2143128461;1.3582602451077448E11;1.436006355343029E7;226580.0019839642
0074b305fa9f68ad4a01ab574486aafe1314f80399;2143128461;1.3582602451077448E11;1.278437914948122E7;201718.0942323374
00758f4c1d33884c9d56ba69d15f295addab3d10e1;2143128461;1.3582602451077448E11;3682434.019091015;58103.21829335836
00762c040f54f97db847059c95cec0a03955d1b85b;2143128461;1.3582602451077448E11;8.94303477034837E7;1411075.11709038
0076db1c3a250a8a294928c2911f3d5ae62f338ec9;2143128461;1.3582602451077448E11;7.185742651952027E7;1133801.0993319175
007707a6acc37b8b0498d08ae1d0550b8a588c6aa0;2143128461;1.3582602451077448E11;4423477.377402102;69795.75746434418
00771c50c7ef5ab971bf508460871bb1be28464700;2143128461;1.3582602451077448E11;5.339392057694672E7;842475.0061336796
007724f99f66606de0a6d26559260e0336e5851f25;2143128461;1.3582602451077448E11;3.729147629617175E7;588402.8814867714
00773788290cacf4fe755c4f3d67ebbdad94b6d18b;2143128461;1.3582602451077448E11;3.501713015864165E7;552517.1522602672
007804dc4012893f0a0e6238748981d48893069bfc;2143128461;1.3582602451077448E11;7154000.0;112879.25907584658
00782a958916eb9f9a0f5915a5a6a99fab5ba13af3;2143128461;1.3582602451077448E11;9.008083523282215E7;1421338.82275851
007878abf6c038bb08544c5e20957f6d31e1831bcf;2143128461;1.3582602451077448E11;2.1670828147386223E8;3419327.6835853476
0078b61333aa7fc97c78e208d79257876789c88798;2143128461;1.3582602451077448E11;2.3409240725809455E8;3693622.796557876
0078f00fca629e074ea0bbf19218fd332d17eb3a14;2143128461;1.3582602451077448E11;3.930638551240209E7;620195.0899621943
0079d0ee60d19e27ecb515dfb486911742a1f5b590;2143128461;1.3582602451077448E11;3343663.4791358383;52757.93348110439
0079de0384110176359931f71231fb8d7d359f00d1;2143128461;1.3582602451077448E11;2.5121537072244424E8;3963797.1646091174
007a0ab56fb0dd11c333d7b34498a60f2b1de76429;2143128461;1.3582602451077448E11;2.925953346503238E8;4616710.173941562
007a2a9a4eff7cc34bb4150b83c15d5f792d2158aa;2143128461;1.3582602451077448E11;8.588073362156038E7;1355067.5957634724
007a3866451dbbdd00faf9456f992e76374ff52e4e;2143128461;1.3582602451077448E11;2.1703878109662227E7;342454.24658808473
007a4fbe9a8d86bcfe494fd7b5452ea2e6f804f5f5;2143128461;1.3582602451077448E11;2206108.1504653883;34809.03738687717
007a62fb67ba47c4e6ca2f95db585b0fe52132919e;2143128461;1.3582602451077448E11;8.49174719588809E7;1339868.7891127279
007ab2079d19d913861c3234a9b54b68b112e2c43d;2143128461;1.3582602451077448E11;1.410264690479201E7;222518.35806838179
007b2225dd08ccb73842e97ff02ccd2e4a5d20b6c3;2143128461;1.3582602451077448E11;3152147.320390001;49736.09924846778
007c39e4eae5ea4e27a8877cca97f01ea799a19e62;2143128461;1.3582602451077448E11;2.0069785284892283E7;316670.74262929405
007c4f4f5ccb2d726eaaeaf8f7994af98f15e01c5c;2143128461;1.3582602451077448E11;4.654066176894382E8;7343409.864939835
007cc0ffad255d2ff183c1962705c63ea7baf6401e;2143128461;1.3582602451077448E11;1.917957564726148E7;302624.58602907835
007ced19cf219d5ceca0e40ec72e9482c11a1da0b4;2143128461;1.3582602451077448E11;4033283.6370095457;63639.09261788835
007cf52836951cab8ea0d6a23544702f628f499ae5;2143128461;1.3582602451077448E11;5843291.399663658;92198.26722928435
007cfa6d2a423fab07b79ed8bf55d30fd4307ba33e;2143128461;1.3582602451077448E11;377772.860164274;5960.682213350105
007cfd88d07979a7ac3ce9fd7c11862f6d5a61c0fa;2143128461;1.3582602451077448E11;1.7962204484536048E7;283416.31724675396
007d84e3ec27e1520793c1b3c360f53788881d2214;2143128461;1.3582602451077448E11;3910836.76067706;61707.0668034401
007ddf310d3e586bf369dd637663276075e1930c83;2143128461;1.3582602451077448E11;1.0983071053103209E7;173296.18714728378
007e0bae44fbc450426a1f0ee13b28ed5aa933adb0;2143128461;1.3582602451077448E11;4.3129228925447667E8;6805137.553280827
007e2aad6eea9b4dceaff704d3d206d8202bdb603b;2143128461;1.3582602451077448E11;3.006831448381581E7;474432.35401071777
007e733e2f15ffef4d05de565bdc27b158af3e9cad;2143128461;1.3582602451077448E11;4.397495665396368E7;693858.0549331688
007e8d6a90e99beb2de56cf1fe340736af55192e0b;2143128461;1.3582602451077448E11;1.5692872745264502E7;247609.70761210562
007f3f1349bfbb03171ef978f09f88a2ba33bba01f;2143128461;1.3582602451077448E11;2628712.8;41477.09717461477
007f43de8770983945e66469ced04a5b6b7f248a25;2143128461;1.3582602451077448E11;8.2945814712512245E9;1.3087590310582663E8
007f65b762645069d1bdf4e83ffb07fa1148b9e10a;2143128461;1.3582602451077448E11;1.7903979452763364E7;282497.6146403564
007fe5a37361761a361376c2b174283987b45c16d2;2143128461;1.3582602451077448E11;1.0995394337537862E7;173490.62986693217
00803c974202d4dd8db22bd3833b8d123f89ea199b;2143128461;1.3582602451077448E11;3.145071478902706E8;4962445.32120652
008040a0ad5d63f1a07c032bcc9744cbc71727ae08;2143128461;1.3582602451077448E11;7.338724826071277E7;1157939.3638921538
00806cf029df867445509a856da46602adda7d3f73;2143128461;1.3582602451077448E11;6.913125397885242E7;1090786.2354091462
008096bad17b2006bd1276900650728b77afec9748;2143128461;1.3582602451077448E11;3.954045198966323E7;623888.3036227662
008108ce010ea881db64a963f75dd0bd58cd866cc2;2143128461;1.3582602451077448E11;1467562.9160067819;23155.914817729157
008137ac5c10e66293299230dba5a8017b71225283;2143128461;1.3582602451077448E11;1.0986511259908596E8;1733504.683878848
008148efe190c847f9dad2e8191bed23a5fcbdc2d6;2143128461;1.3582602451077448E11;1465436.9402281574;23122.37014751609
0081603bb0a13a6ce956394972da3b05ddf076be97;2143128461;1.3582602451077448E11;450726.1371609802;7111.774169534505
00816362a309834d9d64e78980bb675fe80e53df03;2143128461;1.3582602451077448E11;2.149008902236095E8;3390809.7935673585
008196a5dd0831fbec1207faee2bee4a04eb1439a5;2143128461;1.3582602451077448E11;5.1695342096010365E7;815674.0164201945
0081a333ca572de57720c74541b3f65b9334d67f2e;2143128461;1.3582602451077448E11;3.78108822495664E7;596598.3188894513
0081ec2575f63d14f427855579585aa837768ea0cf;2143128461;1.3582602451077448E11;1.0562522107603899E8;1666605.6324833345
00821365f05dca5211ed65d4c237daf79fa251e8e3;2143128461;1.3582602451077448E11;1.555194244456574E8;2453860.4142197245
00822c2dc5f01e0f270c13cda29383eeb31a38b689;2143128461;1.3582602451077448E11;2.0694792484991077E8;3265324.073852657
0082865cdb46a9aeeb24e48834c4ed9178d27bceb1;2143128461;1.3582602451077448E11;1.9000924864551762E8;2998057.478985789
0083f136357ad6873194dd6c971a832b4c7ce942e8;2143128461;1.3582602451077448E11;4676636.103408354;73790.21782500549
0084233a55687ee683409bf6a28137eb1e0599e334;2143128461;1.3582602451077448E11;7.652131727745962E7;1207390.2149549092
0084edb623a13be32834db996523d9b8191e7f848d;2143128461;1.3582602451077448E11;1.0249459765133693E9;1.6172091476320826E7
00850054fc265ea06507e4055c26b8e8c10cb7285a;2143128461;1.3582602451077448E11;5.61093719781178E8;8853207.067516083
00852d3c4da576244d29e5faf9583497eaed161684;2143128461;1.3582602451077448E11;2.7475847093333337E7;433527.1543719206
00855902d298ddcbbaa55e52bbc1f98ee39e00c951;2143128461;1.3582602451077448E11;3.980542040239702E7;628069.1029109816
00857de08e31ae766b410d5d44aa6541f4b7ce3d20;2143128461;1.3582602451077448E11;7.23822107360103E7;1142081.3975611727
008589da40c3710374507916e6760b4ece69899f68;2143128461;1.3582602451077448E11;7.073943427800177E7;1116160.879053031
0085a81dfa2b292cb9d29a4f9927ea4064cc56c660;2143128461;1.3582602451077448E11;1.9749410920008987E7;311615.72153131786
0085b2bc04a6fd0a51d11c6cc7e0b618543cb3bfcf;2143128461;1.3582602451077448E11;7306191.4318069825;115280.60881865682
0086243a5f7465be25768c6afbc37a7eae10b932e5;2143128461;1.3582602451077448E11;9.999987771782316E8;1.5778462544678695E7
0086364335e8f9814e8438a503dbe7d1c30ad890fa;2143128461;1.3582602451077448E11;2.28607327403555E8;3607076.5636878344
008642c480aee423a95dbe328ee878856ce9f935fb;2143128461;1.3582602451077448E11;5027648.137596017;79328.65483168834
008690b01f8da3cb9ddbca0bf2cd0157cde5ac055f;2143128461;1.3582602451077448E11;7.612335327908425E8;1.2011109472339876E7
0086b9b81da108879123f1bdadd12438b2228f1b25;2143128461;1.3582602451077448E11;2.38472298390249E7;376273.08292431524
00870090a090138d8d7a2f7ee2e1926b0c3d4d2cb9;2143128461;1.3582602451077448E11;1.9404535084754072E7;306174.1044280556
0087134cde483ce0b7f162e5716c71733518d25a5a;2143128461;1.3582602451077448E11;1.0866360938958673E8;1714546.7873083248
0087c2e18fe56380bfb0b9e6ce2f2ce32968f8be75;2143128461;1.3582602451077448E11;4.871518649138618E8;7686516.853353875
0087c57d1b4a8b9aac3c528e22e1286a2425d2a7a5;2143128461;1.3582602451077448E11;1.2215296043999998E7;192738.8267876488
0088165dfdd32d3b221e7997d9c982280f9790e14b;2143128461;1.3582602451077448E11;7.138308399779937E8;1.1263166944675026E7
00888fcb0ac44babd37eec3f356e44f8136449092f;2143128461;1.3582602451077448E11;8.737362687201346E8;1.3786231848032372E7
0088b63e4b50cc6e3e7f088cadcadf978ec345d061;2143128461;1.3582602451077448E11;3.2848381379198074E7;518297.58903057233
0088fe87134b8a8826f237dc69951eba1d1933f74b;2143128461;1.3582602451077448E11;1.2632325553204867E8;1993189.1932494398
0089df38fa28a7b21ee74f37869ed1df997f15c028;2143128461;1.3582602451077448E11;2.9433780984045595E8;4644203.787083883
008a71dac5fcfaf42c74c45cd3aaad058fb948d922;2143128461;1.3582602451077448E11;2.2219890940875244E8;3505961.456740443
008aaac20888644972b3bb1b210753f9ca50817d39;2143128461;1.3582602451077448E11;2.3332715372601874E7;368154.8257599825
008ab7319e3272eee8bf5779939289eef215950d37;2143128461;1.3582602451077448E11;1.0182848724548481E7;160669.89366906096
008b4c2150c028e19691e7ddcbcd05a4b40762fdf2;2143128461;1.3582602451077448E11;1.8316597916424375E7;289008.107575647
008b5870b2e2ce1bf2461a7beaa79234bc0376a0bf;2143128461;1.3582602451077448E11;1.0510299667154446E8;1658365.7242011614
008b8abc011a2cfaedb8d20a743e2fa6507ae901a4;2143128461;1.3582602451077448E11;2.2913328646221468E8;3615375.399142927
008bb5aef7a1eb91ca6e9ea276cfdf6271ba73a0b0;2143128461;1.3582602451077448E11;8375192.447066615;132147.82192374978
008be84c3d4985e5ed4d010d2fc345d89cfb5b0a5a;2143128461;1.3582602451077448E11;1.975605456398057E7;311720.5481470679
008c024fc8ceb706aa08d1378b4a0c2e40b1425664;2143128461;1.3582602451077448E11;5705449.133330653;90023.32553330935
008c28bf39f42caa606acb4944d84c986fc70290b4;2143128461;1.3582602451077448E11;4874275.453757471;76908.66672515086
008c339a579abc43130f39e614cd3b428380b06eb7;2143128461;1.3582602451077448E11;1.1081332255386521E8;1748465.9974298442
008c80f5e31067a7617c0c53e2dc8a42a2c76b57fd;2143128461;1.3582602451077448E11;4235574.30538255;66830.9322550008
008ce4ac46d34ed522fa3eea48df2c36b461b34bfe;2143128461;1.3582602451077448E11;1.9207538949905396E7;303065.8044920024
008d3d1df0c6e4d1443d91cc02a403e36d1b225563;2143128461;1.3582602451077448E11;5222015.563989369;82395.47773911925
008d537edae634401fcd00a2b7180ff077a43527ca;2143128461;1.3582602451077448E11;1.4679043239419635E7;231613.017166341
008df0146c11b18bb474c0917a65cb909a298e8278;2143128461;1.3582602451077448E11;3230815.1368105705;50977.35796116957
008e0774d18e361ef15d17c24d6a799fbf7a667a10;2143128461;1.3582602451077448E11;2.0629410801900648E7;325500.7836860234
008e50a18d1cd826843dba0fe4234e337f19168346;2143128461;1.3582602451077448E11;7.655798579171953E7;1207968.7884412203
008ef60f792c22d86c63c3cf362e2eebbdee482c3f;2143128461;1.3582602451077448E11;720394.9345971564;11366.738392412632
008f25a19f539b8609da03ef5dcf6d7e21605b1cec;2143128461;1.3582602451077448E11;2229525.3909131535;35178.52589000056
008f3c862afe8d64433832c24e7299f09001fd6f48;2143128461;1.3582602451077448E11;1.9969961740991924E7;315095.6786547626
008f3db408fb67fa5d9c9470f39453e709265ec620;2143128461;1.3582602451077448E11;4687681.851889313;73964.5029668099
008fe038c5f7ebba8b6e429b5cee352e9e52351c52;2143128461;1.3582602451077448E11;2.788860385543945E7;440039.8294467156
00903907d17b5e4ef609176a619f5f0ccfc3b34166;2143128461;1.3582602451077448E11;4.2358784747297786E7;668357.3158552202
0090c55c6f7b632c2b57fc7b38ffbca67560a262e1;2143128461;1.3582602451077448E11;4818401.029726837;76027.05314032172
0090c62209b6e5a881fa9658fa29f5a9bfe74507da;2143128461;1.3582602451077448E11;2.3204274815896088E8;3661282.287686157
0091b0dcccd7195d07546e1d9a95cb5fae6f4f7bcd;2143128461;1.3582602451077448E11;7254170.859164945;114459.80315797265
0092c5792a7552669f35090b7f6dc2f66e1c32fd99;2143128461;1.3582602451077448E11;1.2474511335923128E8;1968288.5056363598
0092ce530e70b52baf24fdbb95c90f407cd0eaa719;2143128461;1.3582602451077448E11;1.380773967321571E9;2.178651696707802E7
0092ec3baff84fd5f5f7a45350c5c7a72be48a14d8;2143128461;1.3582602451077448E11;1.0827605569851711E8;1708431.7784321648
0092fc5b169870d9d56478b8b8ef077e14f22acfe3;2143128461;1.3582602451077448E11;1.3021368602009848E7;205457.428005083
0093de7b8a76d7a514b522fe0baa3c8461e2781189;2143128461;1.3582602451077448E11;1.8291166679657513E8;2886068.4126817905
0094182c7d9eb84e5683e75eb47195aae2e9748354;2143128461;1.3582602451077448E11;2.6071397038123935E7;411367.0646820871
009504c1c6b8710e7cbf05104c6778e2eeb734cb52;2143128461;1.3582602451077448E11;1.3533200651769236E7;213533.36070680394
00951233c1edb8a905705f83e47d1a9bd0ce1c04ea;2143128461;1.3582602451077448E11;947.3455637295257;14.947674772515944
00959095b44083c071c9bc578cd9dac2a09c984ec4;2143128461;1.3582602451077448E11;1.9247202229410034E8;3036916.3082733955
0095b14bfa7b44f73907fe46a96210ba4a64a7ab63;2143128461;1.3582602451077448E11;2.0647778897363003E7;325790.6043466923
0095c0ddbb3a80032e024410b4a2fd3f51d754f0ba;2143128461;1.3582602451077448E11;1.5090028665313017E8;2380977.432448727
009669a5e23d4d50f858edcf125a523ef1ec1cd6e3;2143128461;1.3582602451077448E11;3.130196750755973E7;493897.5258414267
0096e627d12e1d5ccfca8ff78ac02449e3668c3ebb;2143128461;1.3582602451077448E11;1.6319404454636684E7;257495.4268099607
00973bbe1778557d99d7dabce6ec8217ce0808b70b;2143128461;1.3582602451077448E11;10347.311857518274;163.2648722258016
009770be684ff67b92e6b8c8bf25994c9c30115baa;2143128461;1.3582602451077448E11;3.651077550086246E7;576084.6081663301
0097dcda27b298d270ed311852a012ab8ca0e30be1;2143128461;1.3582602451077448E11;1.8124250666666668E7;285973.1599885731
009811cfd3a95e441af057731b5deee0116c4b14dd;2143128461;1.3582602451077448E11;3319106.667297478;52370.46427149032
00983abd8d9dd3c0bf9195a279d7a22424c0d9852d;2143128461;1.3582602451077448E11;2.235400732370498E7;352712.2985848289
00986fdaff74d68238d417bb8c0f8fe5e6f2cf251f;2143128461;1.3582602451077448E11;6.482913508308935E7;1022905.3305433461
009990900643298f27edb177d5e8b81ebbde7ffa3c;2143128461;1.3582602451077448E11;5.459052683616242E8;8613556.362630883
0099ba5ab6024ddd90840090d1105ed5fdd7cb853e;2143128461;1.3582602451077448E11;1.2665417602745205E7;199841.06162762982
009a015cf857dc0d4275447c704cd9ba33c47536d7;2143128461;1.3582602451077448E11;2.4007621892713394E7;378803.826030551
009a016a43a36d00df85b4a75a0cea44c9e160fe2d;2143128461;1.3582602451077448E11;4673645.567640459;73743.03171070303
009a0d5bce9d74287eff6868aed231dcef4e3cef1f;2143128461;1.3582602451077448E11;1.3531640839816544E7;213508.74924223623
009a10b43ad264215ebab2a92a40201b13c0b62d0d;2143128461;1.3582602451077448E11;8.306946351421401E9;1.3107100214303255E8
009a1291962dae65be24b19eb21c6642ff09c07e2c;2143128461;1.3582602451077448E11;2.1264060954361465E7;335514.59959071304
009ab8bdec5013bba802658345e3f9e1bb59304c54;2143128461;1.3582602451077448E11;7317333.333333333;115456.4111095417
009af7d53a9a17587c0b04af596bf619f18bfddd8c;2143128461;1.3582602451077448E11;2.3527982749546006E7;371235.8485208349
009b142a9268a15326188079c7f7f2d86f1231de13;2143128461;1.3582602451077448E11;3.237941565878815E7;510898.02192799427
009d2e5ae513415892adb225867801faa38f165dc3;2143128461;1.3582602451077448E11;2.6056714446258925E7;411135.3956729963
009d70b474adcbfbff832a67d5e464fcba7fd7f40a;2143128461;1.3582602451077448E11;2.135663219401842E8;3369752.3321444937
009dd560e0420b6f28965f666b81d22080d533f6db;2143128461;1.3582602451077448E11;1.109979397465025E8;1751378.9764510295
009ddf8a4688747f9566a32af5c8a038d0ee713225;2143128461;1.3582602451077448E11;3725253.9417009177;58778.851664603935
009e5662211136296c1b9189026584ba7efee099f7;2143128461;1.3582602451077448E11;1.9294308594148077E7;304434.8977478577
009ebdd90e6e0a4f7a8cfdc66179d8b3b386badff5;2143128461;1.3582602451077448E11;8.19244993371678E8;1.2926442249565538E7
009ef85210e6e76693649ed08ecb5d036011a743dd;2143128461;1.3582602451077448E11;2.9764987271597857E9;4.696463111014776E7
009f1b1ae52e1c0287aa656ca0713efc99329dd620;2143128461;1.3582602451077448E11;4.182329954974586E7;659908.1723906207
009facd6d3b7407d9743e73f09e8ad5245eaf0901f;2143128461;1.3582602451077448E11;2.467963221448956E7;389407.128688283
009faf479970921eb7595e1a3362df880673d3dad4;2143128461;1.3582602451077448E11;1.877229992381799E7;296198.39342328004
009fbe903620ca4ff34a634aaeb5ffdb6036539b04;2143128461;1.3582602451077448E11;239445.70979466665;3778.0897834095827
009fe2ecbcd0073b4afc91f805cbbdcd37f42235d9;2143128461;1.3582602451077448E11;2.03984656422028E7;321856.8196779375
009fe99ea19d35f382b6091995fcc138deb5e6a32e;2143128461;1.3582602451077448E11;6.0510709354079485E7;954767.1286053105
00a0921d7f1ef7efc538d604ea81ffffba71c3233e;2143128461;1.3582602451077448E11;4547453.166666667;71751.90720372458
00a0d4795404137823f62c9cf2fac3ba50f7dd4c43;2143128461;1.3582602451077448E11;7.197630453205125E7;1135676.8138936881
00a1074b13fcbc29c219a52d6f12af4d8fddc0b09c;2143128461;1.3582602451077448E11;1.0884352905505076E8;1717385.6464823189
00a146f5cca89e84dfb701a00ee95519c6ed010882;2143128461;1.3582602451077448E11;3.182638674113031E7;502172.0651943161
00a14a47eb479014049cfc536a6f43887fb4ddbdbb;2143128461;1.3582602451077448E11;2.591514440813555E8;4089016.3539752723
00a1867413280e5220f9218f74943f843b203f251a;2143128461;1.3582602451077448E11;6157972.3096863665;97163.45425314184
00a1ae0209acc8848013e68be3354cc64a7bbe3977;2143128461;1.3582602451077448E11;3919985.3500703378;61851.41765503394
00a1bf93e9ecc06ac98fcf7090ae2dcb3955bd15bb;2143128461;1.3582602451077448E11;7.860274706963612E7;1240232.017129815
00a28862bf5ce379b3dd0e2b65c3247725459f8a5b;2143128461;1.3582602451077448E11;4.4322601119306636E8;6993433.568159941
00a2bfbd9d9c8aaf65adeb422631ec91cf924e2dc2;2143128461;1.3582602451077448E11;1.6984155923642984E8;2679841.957910918
00a32433ea7bad4c8110d784e89a9711f02a5cac45;2143128461;1.3582602451077448E11;1848056.1553779398;29159.52048499014
00a327e0bdf695cc2d749d97bc9fe2ee08ee89e2a9;2143128461;1.3582602451077448E11;5.271962706239302E9;8.318356781601726E7
00a42c3b3f60c4023c756750b6d59f117dd118295b;2143128461;1.3582602451077448E11;5.1950920846516736E7;819706.6610934808
00a4d4590fcb6b946c7e040e9d3432a0d3f5c0c949;2143128461;1.3582602451077448E11;5.358069330992663E7;845421.9963090143
00a561d0208cffc300ff3e8e084a0e903ac73631ce;2143128461;1.3582602451077448E11;5459202.104273409;86137.92125743428
00a565524c5479842d692e49a74f94785401952741;2143128461;1.3582602451077448E11;1.681994088782882E7;265393.1318308155
00a56faad71ae09a7d7422897e8628442d27a458c9;2143128461;1.3582602451077448E11;3.868250726351336E7;610351.2383423876
00a618ffbd39178b90f7c44dd5089ff588818f2e73;2143128461;1.3582602451077448E11;1.7846952310527038E7;281597.8129122534
00a65dc475af4440feb95e47cc36a028463ebab1ff;2143128461;1.3582602451077448E11;5.827911378766488E7;919555.9384887569
00a6d31084268ab9e20811c4b7fdebafb1851be5e5;2143128461;1.3582602451077448E11;1.9115109821753166E9;3.016074131720625E7
00a7a1ed2dc69fe47f46f3c0c08622e86a8ab22476;2143128461;1.3582602451077448E11;2.042385032933603E7;322257.35150285665
00a83b632f1fa16b752fa69d3498d2e6f542cf298c;2143128461;1.3582602451077448E11;2.2905374159320828E7;361412.0301871928
00a90afd1ac71001aed439c5c78b81b8b81648007c;2143128461;1.3582602451077448E11;2.0579355922510378E7;324710.9936806132
00a9b7c1358bf834b85bbece695737fcd41582ad03;2143128461;1.3582602451077448E11;2.262713239766659E7;357021.79760409397
00aaa42a08592f8657138b1ef1aa2b7cafb2cd4439;2143128461;1.3582602451077448E11;2738094.296452792;43202.971129912294
00ab9f6b4cb7521f29a2914887b71d90957a37cc16;2143128461;1.3582602451077448E11;1.2993760675859453E8;2050218.1684370793
00ac711e46567cbde5ce7b7176521d5e287f96193d;2143128461;1.3582602451077448E11;4350717.553214251;68647.71789979101
00ac88287b451f428df99f694d2a760b19adb9e77b;2143128461;1.3582602451077448E11;389008.8721905142;6137.969425048356
00acb67deb8768cb62372591efb2cd6c2e2ea75618;2143128461;1.3582602451077448E11;2.192934770098452E7;346011.81443999894
00acd32dd6f90fc0b877fc3fac3d86d8e777e97179;2143128461;1.3582602451077448E11;7088.679117420731;111.84859471636543
00add78c95d7769da4a78cd05818ae8550ac33c7c9;2143128461;1.3582602451077448E11;7.350116500969392E7;1159736.797247105
00ade0c0ac27ed13d3153a93f67a3448532674fb7d;2143128461;1.3582602451077448E11;1.9223351123189606E7;303315.29658100166
00adf37a93e51f6b70dff6dd91a5d90e9f341feaf9;2143128461;1.3582602451077448E11;5.426297015856849E7;856187.2891744456
00ae9d0c61cd4a2e842797b65bec78e7bf659ea642;2143128461;1.3582602451077448E11;1.5153127941116117E7;239093.35402218282
00aeb30f0c95adf763d21227eb0f40b9ee5ac899be;2143128461;1.3582602451077448E11;8277395.151933241;130604.72907858943
00aecaa587bd7b5ad5229a01549f0a971645e45e67;2143128461;1.3582602451077448E11;4.797771836185005E8;7570155.578466974
00aed8e1dc9a1cd9e55c661b52c4b72a697c2dd451;2143128461;1.3582602451077448E11;3731000.429326538;58869.52251524254
00af21e245541c7df4e3c69035b7bd32e3127723e7;2143128461;1.3582602451077448E11;1.2297797092344211E8;1940405.680806423
00af30468f11657c54ef9dd6ddaa3e0f326334f1f2;2143128461;1.3582602451077448E11;4.8243888495377295E7;761215.3184646278
00af83d3a69a3cf191d11a252ae9696f6932928904;2143128461;1.3582602451077448E11;4.4723629281000376E7;705670.9723821861
00af9ef8da2344028f58fd249d4c3b1f3f6a5482f5;2143128461;1.3582602451077448E11;708.9454766327143;11.186083327854863
00b09ac0eef8be2d5520555fdb142af58846cb20e2;2143128461;1.3582602451077448E11;1.4602900131516578E9;2.304115945211314E7
00b0ad1e398131a0843105d5dd2efa98f44fde7e5d;2143128461;1.3582602451077448E11;1849615.0083205374;29184.116817834507
00b0b064e4880325ad339018265744c2cd8028e969;2143128461;1.3582602451077448E11;8051250.956079146;127036.5169913217
00b21737c18facf1dbadd51607296636673a2a9b4c;2143128461;1.3582602451077448E11;2893852.9169490994;45660.60569467315
00b2e5260709aad12ce12fe44d23508064ab844072;2143128461;1.3582602451077448E11;2.1172133755536325E7;334064.1279535451
00b33c83eaa40aa5e9dd699190c4d8f515077b674e;2143128461;1.3582602451077448E11;2.1566911673920497E7;340293.12416918814
00b35c475557dca47664a3436fc6cca48f03a27fe3;2143128461;1.3582602451077448E11;4781660.445164513;75447.34249405269
00b38951b436d5fcdf69b8fab89d91343c623f6806;2143128461;1.3582602451077448E11;2.572247555046397E7;405861.613325825
00b3c7d72e7f19a8a3de46dfe850ad663ccf80f702;2143128461;1.3582602451077448E11;4.5192004639823996E7;713061.2244751962
00b4146862cd1c6cf00fcb857180f32350803b9826;2143128461;1.3582602451077448E11;682712.5412874175;10772.167433926756
00b4ea334212ab90793cf66609f0e3fb50652be010;2143128461;1.3582602451077448E11;535366.7284547985;8447.274202101986
00b4ea43d2ce9949df03741a757ceab5c6310c2535;2143128461;1.3582602451077448E11;5094547.507946359;80384.22533179839
00b4ef08393daef3506b89499b7cc9e5645b5538ee;2143128461;1.3582602451077448E11;3281830.1988207214;51782.298190609625
00b4f0ca31a0cc4e56eb835b5cf729a7dba330ddf5;2143128461;1.3582602451077448E11;6.904607455589775E8;1.0894422334310038E7
00b50a758e96a5421d804fef336c214b673409df42;2143128461;1.3582602451077448E11;0.0;0.0
00b52c5192820dd2f30dae6bfec29953ab6d4fce6a;2143128461;1.3582602451077448E11;6.247594710867587E7;985775.5968254278
00b5787ce59988e97f4eecba542145e079cc09e090;2143128461;1.3582602451077448E11;1.8841075326125166E8;2972835.6485955035
00b5daabf9a664fa3c56e81b8795bfa4bb2a1f446c;2143128461;1.3582602451077448E11;2.6306893608659628E8;4150828.4304341944
00b5ffff62f8d57310260341b5cb3bac9993d39d47;2143128461;1.3582602451077448E11;2.2704815110888205E7;358247.5128838616
00b60bce10208d795a17c5e8ee7431dfa11a8516e1;2143128461;1.3582602451077448E11;1.4337151831038368E8;2262184.8978830418
00b68eb221da8747ad6f00257ecfb98b00c4425329;2143128461;1.3582602451077448E11;2.8741186891248323E7;453492.2953934226
00b74cc6bab60b82db1b9c3ab30c5890d4b90f24bc;2143128461;1.3582602451077448E11;9668175.629316488;152549.1335829469
00b76bb2a448a1a312934d8dae3210b2a87e76976e;2143128461;1.3582602451077448E11;2.23202568475392E7;352179.7673095913
00b78b3a71a0c68a3328549e0f0de79ba9af063782;2143128461;1.3582602451077448E11;1.879286527470295E7;296522.88343873015
00b87446a29c44c687a9d84defb4e32a0833f2ca19;2143128461;1.3582602451077448E11;2.3718218438123353E7;374237.47887817264
00b878b938b37354bf4d453ad71de96d7b535e3fc6;2143128461;1.3582602451077448E11;4.320464874813397E7;681703.7656306354
00b90dac72c5ad4b39c8a25ebb5906ffd580984de0;2143128461;1.3582602451077448E11;5.730719127870466E7;904220.4768322615
00b9e0cd10605f7ce71c8fba99c8537abec9a46e19;2143128461;1.3582602451077448E11;9.923250899868026E7;1565738.341069095
00ba3ad531c6e637f00d2f561cd082880b20074165;2143128461;1.3582602451077448E11;6.342036053334252E8;1.000677006894991E7
00bab91a09d27e81762b529f834fd956b3e0144b7a;2143128461;1.3582602451077448E11;1.1842336577227728E7;186854.0926145182
00bb0be266879971b7eabc5752aaf087cf991af00d;2143128461;1.3582602451077448E11;7.440662741787983E7;1174023.6194105183
00bc12e360f691aa37cffafc405befca70d1e75215;2143128461;1.3582602451077448E11;2.9861269279034432E7;471165.49500723317
00bc65232bd889b7e40e486ea58bf7d59eb391a0a5;2143128461;1.3582602451077448E11;4440961.367550241;70071.62828536896
00bd2d60545c98bb267fc9dbb5774a7b2e9766df61;2143128461;1.3582602451077448E11;3.224086906295453E8;5087119.669817852
00bd6755aaf19a40c0af51714e77b54a9342c4cdb1;2143128461;1.3582602451077448E11;7619199.466666666;120219.40041213568
00be15cbd68e9147517051d10b92b1dee2a8ba0198;2143128461;1.3582602451077448E11;2.8338763455886804E7;447142.6645270031
00be33473d3969ae619a931af176df9f730607b3a9;2143128461;1.3582602451077448E11;1.786517095963045E7;281885.27553626173
00be773eda360041ff684d943c43f572d414497513;2143128461;1.3582602451077448E11;4.27789500129509E8;6749868.858686853
00bf515c7bc2349e96f80e4921eebe4b81aa94eba7;2143128461;1.3582602451077448E11;1.3518385021386767E7;213299.59255188156
00c02d11f4805cc882aeade494bc67ae1b3c791d21;2143128461;1.3582602451077448E11;1.6862957145023957E8;2660718.630637486
00c02e09264e9429e1fb44c094857cd9bff4020c24;2143128461;1.3582602451077448E11;1.8554335735630488E8;2927592.494384222
00c0aa1158cc9718917158977432c0469e9f9bb12f;2143128461;1.3582602451077448E11;1.736575636256772E7;274005.27138640103
00c0ba1cd12676ddf3befafd665434de75644d780b;2143128461;1.3582602451077448E11;1.847926111229509E7;291574.6858575586
00c139ff8f7cd73ea7d19f49210839655745af93f6;2143128461;1.3582602451077448E11;2.0355105271462805E9;3.211726588556864E7
00c1533d7112da2a15383d839d243d6d02e2954921;2143128461;1.3582602451077448E11;1.734616897696135E8;2736962.121783384
00c153479a4e6133fd988b44b09ce7841a2bb9b88d;2143128461;1.3582602451077448E11;1.0933520849319598E7;172514.36015676783
00c17ffa6c6d829b5b90d1fea02c6a61c430d30bc5;2143128461;1.3582602451077448E11;5.586014082381731E8;8813882.175097775
00c199e61b223c02e0ef22241a93856817b28e651b;2143128461;1.3582602451077448E11;2018764.2776389548;31853.03549184678
00c30663ad7ef0e2f691d3d3f5f9bab11ed8979b60;2143128461;1.3582602451077448E11;4.9432817712344986E8;7799748.165223493
00c3a7159620a092d4fa591c5ad17ae80cddf6e268;2143128461;1.3582602451077448E11;2.465576548492979E8;3890305.4792936905
00c3b14a5f66a049ba970d5cc28f0e5dfe19107e62;2143128461;1.3582602451077448E11;2.9124595772833575E7;459541.9054684075
00c3ce22be28b0adf4ba2e578ac21feea1aee93fc5;2143128461;1.3582602451077448E11;4884101.6097399825;77063.70854886761
00c441c9e6c6855e82647bd659c0bfd70e4f5a297f;2143128461;1.3582602451077448E11;4.237783030094097E7;668657.8257774919
00c452668dd1c61ed774f8a043a68ef106925f5334;2143128461;1.3582602451077448E11;2.5606093333333336E7;404025.27862645255
00c453d4fea90b7acb0049ccbebc96098bec8b4039;2143128461;1.3582602451077448E11;4.599925617699286E7;725798.4281938794
00c45a55cf8de7d1ce6dd3a5658fda74c9dc376c22;2143128461;1.3582602451077448E11;1.7779629804454595E7;280535.5659728367
00c4c1ad0ecb6b0db9322af0a76502429b8d87ae0c;2143128461;1.3582602451077448E11;1.103124134137958E8;1740562.4116602947
00c51ebe02bcdadeac72b8c19b7b19b87a5eab3eaa;2143128461;1.3582602451077448E11;2835535.5388476714;44740.446003404606
00c60c1a85efcf3631c0a0dc9fc738c9fdc1818ac8;2143128461;1.3582602451077448E11;1.623967948532122E7;256237.48782950584
00c62a9bc02c9b1c3d35efc3f9ed85a770b56b84a7;2143128461;1.3582602451077448E11;4335105.594470878;68401.38489228825
00c744ad30409887487ae610d0694ac7d67ff2d64f;2143128461;1.3582602451077448E11;2.9241567545954275E8;4613875.424662623
00c774fff889a942b555d39d0df927d88cc1da3039;2143128461;1.3582602451077448E11;2.3640876233466458E7;373017.1363066095
00c7d598e3ffb4bbbcdeb997f32e02e1b5a484d774;2143128461;1.3582602451077448E11;2.5601061057224657E7;403945.8769492632
00c9153c54cedb2ec1425a8c58abd546976b709c53;2143128461;1.3582602451077448E11;2.687314769168985E7;424017.47280874295
00c94a1520c04e233eae0e55d08868ca46a6b589d1;2143128461;1.3582602451077448E11;2.5379005205948345E7;400442.17273266736
00c950e7d858976e709d22a3c04de052ed13e2c443;2143128461;1.3582602451077448E11;9647482.26677711;152222.6237379325
00ca4be5d52674f3fc5048128b111f0b9866375255;2143128461;1.3582602451077448E11;1.9845818950487275E7;313136.89388934843
00cc0417e2d76d4773ee5792392843a85589db14bb;2143128461;1.3582602451077448E11;8.240498163656507E7;1300225.5061915305
00cd5e9f783fcbe37ae2910213aa08822ffb1c3266;2143128461;1.3582602451077448E11;1994115.7927783097;31464.119821115462
00ce9b4a5f03f9569530a782d20f48b582bfb73b4b;2143128461;1.3582602451077448E11;9682179.662421262;152770.0959649626
00cf3ab49abbf6d95b7c5cbb34de69f67a287434e9;2143128461;1.3582602451077448E11;3.0956340901667297E7;488444.0627172951
00cf5765d2858b9baadbfe002439d39fc2f7752df3;2143128461;1.3582602451077448E11;5.689983641822777E7;897793.035564219
00cf9e75dbaf25af120fe2d0c7e527947b29b74725;2143128461;1.3582602451077448E11;1.1275E8;1779023.8273415854
00cfc8bd7b41a84788de70e842ab6959262fec33ef;2143128461;1.3582602451077448E11;1.1892432175498573E7;187644.52510204603
00cfd53c4bdb671689b75699ffc8ad2d2765b191fe;2143128461;1.3582602451077448E11;2.7516456407494985E7;434167.9076979124
00cfeecc6d19cd106c14c04ce533620a2712b3a00c;2143128461;1.3582602451077448E11;275.6184792634166;4.34884116953677
00d0105d2e717229b47b71b82e713fb97a1c143270;2143128461;1.3582602451077448E11;1.5049333553528273E7;237455.63616264312
00d01e90f71e84e5f63d3607f097c43a30b575c816;2143128461;1.3582602451077448E11;1.4744708042382333E7;232649.10806734613
00d029980f44a2b4aec0b4da2c390d373ea15eed1a;2143128461;1.3582602451077448E11;2.9905463399701875E7;471862.8111375728
00d0858cad38d2b16f99770238c15bc79a74aa60ae;2143128461;1.3582602451077448E11;6.643615413735248E7;1048261.6515058832
00d0d42ed20328110b70cc049c425388b58366d693;2143128461;1.3582602451077448E11;9.224171049093522E7;1455434.1537748831
00d12c001dd117c56877593424fe621e42693f7732;2143128461;1.3582602451077448E11;1.5248657596157435E8;2406006.669493334
00d163d76f4ee87d21c88c5c245577aaa98f7e660f;2143128461;1.3582602451077448E11;1.6766841445238812E7;264555.30324025074
00d1912d0791256aeff5c22de228d65a09cb58667e;2143128461;1.3582602451077448E11;2.396509057077485E8;3781327.463397571
00d206b9c77cd3965f9f298a67629f2fa7f1f71b3b;2143128461;1.3582602451077448E11;2.70489576676497E8;4267914.873215317
00d395db7ec582d9ca7c6e0bb037137c2dfe3c7529;2143128461;1.3582602451077448E11;7252.0;114.42555029606366
00d3bcaad520cf34b11e951d7e8b647a37f82fe288;2143128461;1.3582602451077448E11;1.891315510759829E7;298420.8743824795
00d48ca32da7b6f4a03a56f7ca1031b723b61aefa1;2143128461;1.3582602451077448E11;2.2280595846710625E8;3515539.7692830306
00d494fd3591fd3d9c0ffc4eaa8c79698917da66c2;2143128461;1.3582602451077448E11;9779476.355177287;154305.2900646034
00d4c2f1385403f7ac748a5a2ba5df56a1473cb1ad;2143128461;1.3582602451077448E11;1853549.4740917583;29246.196714551683
00d4cd15f43ee2a9067ce3957f4aec1ab464ae7839;2143128461;1.3582602451077448E11;9.499255190555376E7;1498838.2550772724
00d4f5c69d23a1919d4021a3a79769d52a32bc381c;2143128461;1.3582602451077448E11;2054017.019950451;32409.2702461819
00d52235b604dab92de67da8605b79858ac3a2f218;2143128461;1.3582602451077448E11;1.2728697213573504E7;200839.51781785995
00d555eafd5cc47260b59831ef186e0746361d20d6;2143128461;1.3582602451077448E11;1.6656968759183623E7;262821.67905873235
00d5abc335c54cfaf7116ebea2132c89115eff6142;2143128461;1.3582602451077448E11;3.002690520533075E7;473778.9784621773
00d5bdcf82749c811edffae84acf943dd722510c94;2143128461;1.3582602451077448E11;1.9879142086417817E7;313662.68238444533
00d6660f20517c70d9ce09ad2cc4efd97edfbbc6cb;2143128461;1.3582602451077448E11;1.1040670129792318E8;1742050.1313276317
00d72ef3a5a298539780aed09861a7f9d3b7a83dad;2143128461;1.3582602451077448E11;1.6520405117251936E7;260666.91211465237
00d73b71d9b3140493898a07e8d8807bb59bd65289;2143128461;1.3582602451077448E11;2.0951551578200977E7;330583.67607446335
00d82d1af87114ca1d65a446dc599c9c395abfe499;2143128461;1.3582602451077448E11;2.543029931269225E8;4012515.1586437123
00d852b81a4311c8e7689aee1d48183d1a11e9e5bb;2143128461;1.3582602451077448E11;2.121149049175901E7;334685.11750127503
00d86581012fb24bac86646469874e30c4d75aad53;2143128461;1.3582602451077448E11;2.0280534510455105E7;319996.04545740975
00d86b62452eadae13bf13566dcb9e319ceeee1894;2143128461;1.3582602451077448E11;1.5280022475653268E7;241095.55713083924
00d8de5e00d4dc39eafbfaadbee2ec22a20bb489a3;2143128461;1.3582602451077448E11;4.7045918617308505E7;742313.1724999107
00d9b7e9a1b70afc38227df3c2aa2ad8b42f0386a0;2143128461;1.3582602451077448E11;5450984.895684616;86008.26618094917
00d9e0d62e471bae1d22c8bf69891e018f9b1bb467;2143128461;1.3582602451077448E11;0.0;0.0
00da020bf4a271401be020e491ea441a9527b2c071;2143128461;1.3582602451077448E11;4218634.115695508;66563.64177967547
00daabf55e460aab3dacaf339950d5134d2d7e1c54;2143128461;1.3582602451077448E11;1.4339417777457763E7;226254.24298273062
00dac63fbb760d82c1c05cdf7c5074ed622fcd358d;2143128461;1.3582602451077448E11;1.358595134211886E8;2143656.8651647754
00dae0d98dbbe72eb56a8efbcc957d08dfa817dfbe;2143128461;1.3582602451077448E11;6.927266868908055E8;1.093017544846241E7
00db4a89cd0231136c59ea80488449877e52a8384d;2143128461;1.3582602451077448E11;2.2365966529298004E7;352900.99669308675
00db7e737804963aa68aa6f5e0920238014d4e2229;2143128461;1.3582602451077448E11;2130356.16444957;33613.7860512622
00dba8ea0786edfd8a49409c1ad229ad16a5519b80;2143128461;1.3582602451077448E11;1.635801438252616E8;2581046.32855968
00dcf971b2265105e66684ef63b9f734dec4e34a6a;2143128461;1.3582602451077448E11;2.2694030149628993E7;358077.3425684994
00dd51fb618eb72dd50e5850a9a6a2b248cb70c24c;2143128461;1.3582602451077448E11;2.2602605311067486E9;3.566347974136277E7
00dd611213e24915ed39104d8540f002056f20be9e;2143128461;1.3582602451077448E11;1.3271003960652297E9;2.093962949777826E7
00dd8e8efaf383ac92ccbbf10b80e4b3defee9b7a0;2143128461;1.3582602451077448E11;5.8565252663199276E7;924070.7755397939
00de288fa2f6118117fd5a66f80ee523b2fdf03d3d;2143128461;1.3582602451077448E11;5823160.180338977;91880.62715077396
00de53d14bc1811ead882312913ef639cf4a45bcf1;2143128461;1.3582602451077448E11;1.918947225974415E7;302780.7395494033
00e01535db644fccbe194a356406b6c5071c405584;2143128461;1.3582602451077448E11;1.3640583408379781E9;2.152276975817998E7
00e037842c74b82774d486dba00150c94f8d19359e;2143128461;1.3582602451077448E11;7092208.1597164925;111904.27764613798
00e0f2f83d361743b236aea3b27f2b9ab29cefcf86;2143128461;1.3582602451077448E11;3.731391075117317E7;588756.863127578
00e20b4042fcd389ae4a8ecc6204b14839f469e037;2143128461;1.3582602451077448E11;2.149818585238846E7;339208.735042278
00e2a66feb5d154263be9311df2056b22e492946d5;2143128461;1.3582602451077448E11;2.564485575913768E7;404636.89085804
00e2a7b16267ff68f8fa8c8dece20a7def96e25508;2143128461;1.3582602451077448E11;0.0;0.0
00e2b875c8176d8a4aabf55d996264c4f2dc552083;2143128461;1.3582602451077448E11;56502.23490769237;891.5194873510973
00e3ce432f24d301fbb4ce706334eccde1edc9249c;2143128461;1.3582602451077448E11;1.9619104254947856E7;309559.68018315674
00e44c8e1464ec47d90b9d403625c9e58cbe295eea;2143128461;1.3582602451077448E11;1.79179631167683E7;282718.25562890025
00e46ada75a810bf6ff0f28e47f2c435c6b8ee9ad9;2143128461;1.3582602451077448E11;5.8761418555821575E7;927165.9755139562
00e4b041adf21c946885d3a6633cb03652c236b129;2143128461;1.3582602451077448E11;7435381.3486015955;117319.02957457605
00e4e6c50539fbb1319183539370f008400c3d7fc6;2143128461;1.3582602451077448E11;4.101576295060931E7;647166.4708268574
00e522ea0b460584691c6588acccc5b0203bbcd54c;2143128461;1.3582602451077448E11;6.079887958132709E8;9593140.173024628
00e526fcf4a28ae3ac2b034792d82694090801e703;2143128461;1.3582602451077448E11;7.19121165045298E7;1134664.0242671627
00e53a66dbb7bb3b286869b34ec2e63122fe750ead;2143128461;1.3582602451077448E11;728988.4507548247;11502.331031039123
00e55aa3a69fdb2105de9a6b5f1c08088f68b2ac50;2143128461;1.3582602451077448E11;1.4289186563881377E7;225461.67069156724
00e6a53d215fafbce407ea14729aec6fdfcc280a8c;2143128461;1.3582602451077448E11;6.828358737514265E7;1077411.3432970275
00e6a70b4b85e2fd678b5223dae1e701b334d6faf7;2143128461;1.3582602451077448E11;2.3473186654347397E7;370371.2493278983
00e737ec7b32186837e9efa9b2c223c3332546fed7;2143128461;1.3582602451077448E11;6.667177244415235E7;1051979.350680649
00e761a2804893619f53a109ff04c93e6d6bd03972;2143128461;1.3582602451077448E11;1.9387754605146667E8;3059093.3393532126
00e783ac0501fd88ec9444f145ecb8ba2d8dd056cd;2143128461;1.3582602451077448E11;1.15195395625082E7;181760.8457800989
00e7e18b7b33dc24b9d88158043f6e0a1a69b52f79;2143128461;1.3582602451077448E11;1.7217654907357764E8;2716684.552650487
00e8a99474b9109d58fde61fb675e2f9464d704750;2143128461;1.3582602451077448E11;3.374758832307025E7;532485.709463917
00eae26c14b21808e4a9b5c33be9443c92d18097bb;2143128461;1.3582602451077448E11;1.2774674412092714E9;2.015649682097011E7
00eb39fa1b00ac977c93cdd06bd8c6e0b030dfc9df;2143128461;1.3582602451077448E11;1.3786026829052916E9;2.175225739534856E7
00eb9be72269d40ffc199bc089f35f4faeff024bea;2143128461;1.3582602451077448E11;5.404217447192426E7;852703.4684426113
00ebbc29bca33c7a1c659a546caf60574c4c6c36e0;2143128461;1.3582602451077448E11;1.8908074435127873E7;298340.70908417535
00ebbde1133624b2ee723ec96547b37b40e158e58c;2143128461;1.3582602451077448E11;4.700995163830646E8;7417456.681749251
00ec90d639f295627e4a4be29cdbd05a726d9402fc;2143128461;1.3582602451077448E11;1.1513931355869891E7;181672.35679350726
00ecb988b7c624f21cb7128033758df32fb54747a7;2143128461;1.3582602451077448E11;4.23369755122313E7;668013.1992358023
00ed458d9f727b468c4ad042aa18f5a6973d889c67;2143128461;1.3582602451077448E11;2.6321126117822897E7;415307.4104307748
00ed6af636838e62de986c3cfbd0001befd95048a6;2143128461;1.3582602451077448E11;4.0195244774382755E7;634219.9396847385
00ed7d6295501ae86f1deda943ac05ecde1f0a97b1;2143128461;1.3582602451077448E11;3144952.3437497453;49622.57344021784
00eda7b0f41d0a6e6ddf5723603a49039ced9e76d5;2143128461;1.3582602451077448E11;7.672068283179659E8;1.2105359007333271E7
00eec031fab956a8264ee64bbd14883962d2aec0b7;2143128461;1.3582602451077448E11;5.825855855404541E8;9192316.081083968
00eecb2100435327cd6e5a57b43faed31040afe05c;2143128461;1.3582602451077448E11;1.3827372601430608E7;218174.94747206435
00ef1799a8a4e9d9f49d601580c26b2c72306c147f;2143128461;1.3582602451077448E11;6.411220126649627E7;1011593.2033385031
00ef683cf1e97f4787a3056e934cffa156cd936c9f;2143128461;1.3582602451077448E11;6097505.555555556;96209.3806712286
00ef7a8be9d4bb67f1856ec238c8ae9122b58aaa7c;2143128461;1.3582602451077448E11;3.473165633901287E8;5480128.087817588
00f09e30bd1e8711b35742ce923e3732366ebc7fe0;2143128461;1.3582602451077448E11;7432593.319568182;117275.03870910587
00f0e9ff67e35b9e673f7ee87d4ec091edd118ec9d;2143128461;1.3582602451077448E11;1.2435744457584898E9;1.9621716807782345E7
00f1233d3a7046f203ff22056a01318b62b71602a9;2143128461;1.3582602451077448E11;2.1470918910648033E7;338778.50409722293
00f21c74882af0c66edafc76758bfb7e8ed4389ab2;2143128461;1.3582602451077448E11;7.502439804927498E7;1183771.102098623
00f2224da26e66314628e7d50c5a2446c8752b350d;2143128461;1.3582602451077448E11;1.6921265655814266E8;2669918.828423097
00f2a3bf6f35250faab57662b8cf410bd374afda90;2143128461;1.3582602451077448E11;2.870292004946821E7;452888.50272536115
00f2f757b418ddd41cc74929334f047a388142cfb2;2143128461;1.3582602451077448E11;2.027855851144797E7;319964.86719296186
00f3a778fbcf663e4f0d47b41aa4ec51e0f9d39d60;2143128461;1.3582602451077448E11;3.7290848161050826E8;5883929.7046817355
00f3e45a321f4bbf71982963db9b8f02b6423f4216;2143128461;1.3582602451077448E11;6356025.808049505;100288.43778020509
00f50760cc3c263fbfc96c4f078482f3c93106adb7;2143128461;1.3582602451077448E11;1875729.1850843315;29596.158881641157
00f545920937d58b8d26071539c9cb6d8bb9ee30b3;2143128461;1.3582602451077448E11;5.6421818807793126E7;890250.6433792778
00f5591948acef6203971826ec8869f93562968c96;2143128461;1.3582602451077448E11;2136522.757130648;33711.0855218888
00f58c1bbbf2b9a06cf6ea0e23701341ace184bf4d;2143128461;1.3582602451077448E11;1.2938071882871924E7;204143.13223492116
00f593c82c1080637b0f695d0a5743613af620b254;2143128461;1.3582602451077448E11;1.3903054327825902E7;219369.09021753285
00f5b42c979d22d23d65633f10f1c5be3a43041b7f;2143128461;1.3582602451077448E11;1.5289920637082834E7;241251.73509119466
00f5ec0728aa1bb85965744d86ef0dd5627b58230e;2143128461;1.3582602451077448E11;900006.239364022;14200.732102746691
00f5f50f29b54f0c28a6c64ce31acbc9e24f124317;2143128461;1.3582602451077448E11;1.2979288567691429E8;2047934.6894780744
00f635dcaee8eadf03d9cc0f63c5529a9a3f6111d3;2143128461;1.3582602451077448E11;1095402.9392319745;17283.795383003897
00f66b5e6e16b78a0ab30bd24531668d589c7f3f98;2143128461;1.3582602451077448E11;1.8265012486201547E7;288194.1678017217
00f685027dbe0a92b22f7c0e9f5dfcaa32d92ee837;2143128461;1.3582602451077448E11;3.1817704261465337E7;502035.0688466052
00f6c13954f07c9cd31c67ebcd0173085492d243de;2143128461;1.3582602451077448E11;3.4562128700765556E8;5453379.200204736
00f6dbe4acecec6b4fb239055e7f80556e493a7071;2143128461;1.3582602451077448E11;2.6458909758629325E8;4174814.271049434
00f6e5cb01d2bb9d520e01ec7fa522acd3d3110c6b;2143128461;1.3582602451077448E11;941.9120171199029;14.861941656014924
00f79f0f4bbdbc45b9765db725c716c203e69f5c4f;2143128461;1.3582602451077448E11;5.82802611346655E8;9195740.418825692
00f7db7a1ad63e28f77cc893c8d3a1c253c8abb8c4;2143128461;1.3582602451077448E11;7421601.283569137;117101.60106872185
00f854d4943716b4e7b75091e58930c5bd1ba1754a;2143128461;1.3582602451077448E11;2.0274043207763515E7;319893.62255577935
00f8da2cc8b24fe7506e8673c5f00078656938435c;2143128461;1.3582602451077448E11;72520.0;1144.2555029606367
00f910caa11b18e223a77662357f40822071610a43;2143128461;1.3582602451077448E11;2.0046488192110077E7;316303.1498739296
00f9629f3f42e0dfaa9fca359e88a2ce622e5017b7;2143128461;1.3582602451077448E11;2.0831596818691686E7;328690.9720800503
00f96b168869db5416759fe61cb0507d38987f2740;2143128461;1.3582602451077448E11;6.457354389847559E8;1.018872489678722E7
00f9bbefae773b5a9aec5a01e0005139af1dddf7ed;2143128461;1.3582602451077448E11;1.71316007176137E9;2.703106507950064E7
00fa8713e2703636d5f5fc6fb760de3cb28f5f2bee;2143128461;1.3582602451077448E11;5852992.841300571;92351.34124996401
00fadb0912153099487ffc49e4b24e4d024f6e64a8;2143128461;1.3582602451077448E11;8194310.998919248;129293.7872791536
00fafaf3e6fe89a141e3fb2e64afd2888e71707690;2143128461;1.3582602451077448E11;5862458.029755132;92500.68755409656
00fbebd01d5b00a3687985d46d004c7dc044be9ddf;2143128461;1.3582602451077448E11;7451643.468512112;117575.62113824695
00fc2158411c6283ac1202c3d5e66dfa6230aabd37;2143128461;1.3582602451077448E11;8085712.973363665;127580.27530517905
00fc28a78dea16c765b3d5b52f34faa94861d52f9b;2143128461;1.3582602451077448E11;1.4136859419157627E9;2.2305817960496448E7
00fc813b57536a7fdff0002ae6b5937d685b8805dc;2143128461;1.3582602451077448E11;1.2245366346386015E8;1932132.9050773832
00fcaee938ebf463ff856a69b66cdf25d2ce4bf379;2143128461;1.3582602451077448E11;3.395438928E7;535748.7146071105
00fd562412392806c5d687fdaef05f7e7c2a93a9cf;2143128461;1.3582602451077448E11;1.0947641001703593E8;1727371.547247219
00fd79226ee6c4322305758a32ff1c4f7dc2d67894;2143128461;1.3582602451077448E11;4.344061782730209E7;685426.9994608433
00fd7e31fdc870320e01f611638446bd623a626deb;2143128461;1.3582602451077448E11;2344.6522666037094;36.99505320725902
00fdd3675c42e9a57c6c9ec43e7eee90c3a1fb0062;2143128461;1.3582602451077448E11;2.2420569630435325E7;353762.5507327323
00fe0813844b18103c12cd2b3448d9060b958d194f;2143128461;1.3582602451077448E11;5.371506601228794E8;8475421.935528727
00fe34a7bc8d4907b46e06cc25f71ba43da2700212;2143128461;1.3582602451077448E11;8.734002222775273E7;1378092.9545340647
00fe99083a319caf9ceea1d68b1a48ada78da808a6;2143128461;1.3582602451077448E11;1.9808225640274197E7;312543.7285268854
00ff0c9b6623b49b664bc384a8bfb4418ace76b67b;2143128461;1.3582602451077448E11;3.672323634590865E7;579436.9177513793
00ff1dded9dc1d57802f93092a41581d6fe28388d2;2143128461;1.3582602451077448E11;3.384869269567302E7;534080.9829708681
00ff4fc197e9d4b52c9920e3020a0a4b7626886a01;2143128461;1.3582602451077448E11;3.3498934272034604E7;528562.3260354697
00ff71ded534c1b41dc963e0aea18d994fb79930e9;2143128461;1.3582602451077448E11;2.899859920022534E7;457553.8708357385
00ff789ef75e05c667667d1f60ef5d3b9dd656251e;2143128461;1.3582602451077448E11;3393989.4362526527;53552.00068149981
