Identity;WeeklyRewardInQuarter;SumOfRewardable;RewardableForHolder;Rewards
00004707b35004e4b8e4f421ecb6419875ccac1622;1300482307;1.3724574679811906E11;4535402.999395913;42975.54928609235
0000503d867c0d88f573bec12fc53d7972555f8d62;1300482307;1.3724574679811906E11;4.620598432353944E7;437828.2496336414
00007191afc732273eff16baa3a3c7ae8a7eea6255;1300482307;1.3724574679811906E11;3621582.085102043;34316.57107707124
0000f871f03b7d23a21de01b0d5d3d21529b89d784;1300482307;1.3724574679811906E11;1.8132326674484596E7;171814.21337301898
00017b55a55733b7f3b2afa1602277b7839bc10499;1300482307;1.3724574679811906E11;6477809.104675059;61380.963164891895
0001ce2900f5e2770e0ecd7f879a90b33e044cf767;1300482307;1.3724574679811906E11;2.454502066412798E7;232578.17341036387
0001e52268cdee1d9e3f3894574e50220620dcfa94;1300482307;1.3724574679811906E11;1.1056202856071585E8;1047638.7452701024
0001f34f2955daec1e46537cc8f8b56503a4a7ec30;1300482307;1.3724574679811906E11;7155407.04;67801.59292361235
000262371407b1b8ef32a243082ea9f529a88b9c44;1300482307;1.3724574679811906E11;2.859552709549812E8;2709590.4911163384
0002a10869a1d354758aaedc3df43173db801d52e2;1300482307;1.3724574679811906E11;3545225.3501859843;33593.04714212054
0002f8598a27beb72c752dfcf91d62bee9ac475c6a;1300482307;1.3724574679811906E11;4590530.8823102405;43497.91765105091
000305c89fe90d3670bcff971e3fca67f3da4daaaa;1300482307;1.3724574679811906E11;5.625590987951772E7;533057.0685743243
00032794ecd33f4b59ad4c8c1a900f733b7b206904;1300482307;1.3724574679811906E11;8.929887925451565E7;846158.1886122136
00032e337076db13fbc19b89b21385f2e1134f146f;1300482307;1.3724574679811906E11;1.5742479198416544E7;149169.0354235213
0003756b37ad7f0d51edb1aa3263d23d352c9eee37;1300482307;1.3724574679811906E11;2.4662298709279242E8;2336894.502715923
00038bb25c4e3f9f6f7e2d59d2b755355ef8439076;1300482307;1.3724574679811906E11;2.9973336563055232E7;284014.58545266726
000418db8ccf62894e3cfe403b0d5799bcad8dc6e9;1300482307;1.3724574679811906E11;1.749077467618588E8;1657351.3957822064
0004bd4547cb76b6a1dd53710c5f8779eed721b5e2;1300482307;1.3724574679811906E11;1.8600033274259504E7;176246.00213197476
0004f24e1e2454cc88930d8572195b34301747a52d;1300482307;1.3724574679811906E11;1.3415810591486798E8;1271225.135592391
0005df53b17afcce35288a216eec6bbdb8f0541665;1300482307;1.3724574679811906E11;4360098.718810271;41314.440504496815
0006b6fd48ed680261135aa28135a0362293c723ff;1300482307;1.3724574679811906E11;1.1124398642259674E7;105410.06878379855
0006f63457d7d9433974dd146f3c92b84ed5293429;1300482307;1.3724574679811906E11;2.582796542401E8;2447348.121405908
00071e21ed8adfeff1b62666f96782661fcba8155c;1300482307;1.3724574679811906E11;1.664850517E7;157754.15207168923
0007588055ed0ac6aeb03f7906fe78749c1e322f22;1300482307;1.3724574679811906E11;2508172.223195139;23766.372913341427
00079ed702ed81122898099b2cad772cfba478e6a1;1300482307;1.3724574679811906E11;3.8551426814168796E7;365296.9192202246
0008260d4ee7a08c16e25b35706814d96005b1e82f;1300482307;1.3724574679811906E11;0.0;0.0
00086a9c130366759950c327738f32cb484f16dd9c;1300482307;1.3724574679811906E11;6.962874054346555E7;659772.3226255308
000881ec6e589ee0ccdab26ac3164b4b1733d775b3;1300482307;1.3724574679811906E11;4.934714690733159E7;467592.5699053722
0009d811aa4a43df2680c7ad6bf2ec2cb841ebf3d4;1300482307;1.3724574679811906E11;8961241.539251741;84912.91236654956
000aa459686bbcb9ca0a9a44bef0ad93c0cf3cb34c;1300482307;1.3724574679811906E11;1528673.717976945;14485.061794513622
000aceb31e26d2c6120ae1ddb598ee4dd3930f379f;1300482307;1.3724574679811906E11;3019498.3444686383;28611.481700583176
000b33e693fdb858373a0608829f4cd42b70b0f368;1300482307;1.3724574679811906E11;1.3154632551197741E7;124647.701564719
000b636d3f54d710a170c275b7cde513c0848bd0cc;1300482307;1.3724574679811906E11;128765.98642162354;1220.1317052909842
000b89b5c7a8bce42fe4243ba4ec30d66a3fe5d061;1300482307;1.3724574679811906E11;3.075940250985075E7;291463.01194158767
000b9741970293ff9c5708c59052d41d2625a754ac;1300482307;1.3724574679811906E11;6069851.234420754;57515.32794744851
000cb2cb289f03783dcf99df2656f2cba5b92d3879;1300482307;1.3724574679811906E11;4.382976877119501E7;415312.2419938001
000d3d44e8d051d4a18bd88676899e85fcd13cf51a;1300482307;1.3724574679811906E11;1.8051779713336003E8;1710509.8463697338
000ddc65b7b7d2a897635d1bd98bb9408f19ebd858;1300482307;1.3724574679811906E11;3531714.057542918;33465.01988126229
000de023c9f6ae09f1bde00f0e8d6859f02885388f;1300482307;1.3724574679811906E11;6.2919663582927845E7;596199.963648792
000df3cbe7f3793ee856f9c0374748f61e9250d995;1300482307;1.3724574679811906E11;1.463612180232558E7;138685.6634254711
000e280cee4c1d2e68af0786dde5f660a6be89ef86;1300482307;1.3724574679811906E11;6.38755955039129E7;605257.9678415647
000e9e7c4f29cd3e130639b2c0b1b0367ebe875923;1300482307;1.3724574679811906E11;4650963.291546083;44070.5494506811
000f0ed10e03d86f0ffa7483124a0e5b3cf9d7448f;1300482307;1.3724574679811906E11;4.520261133805881E7;428320.71409697575
000f4268ba45041bd7538d18f863b4b1140e97cb44;1300482307;1.3724574679811906E11;1.105675469637583E7;104769.10353095902
00109d3769b9c273018f4de74a59a9056049d3f555;1300482307;1.3724574679811906E11;6140098.264708594;58180.958920647325
0010b70ee116a311eb261dda30b59b13760bfeff35;1300482307;1.3724574679811906E11;5.734796512216017E8;5434049.194509867
0010c669fa9d10bd561d90ded99df8589e1011591a;1300482307;1.3724574679811906E11;9.023313950469205E8;8550108.412723722
001142a37aa9fafb342d95cb61c712602532f60bd3;1300482307;1.3724574679811906E11;1196885.6776521613;11341.179479885152
0011438fac8d47d0d5b3478cdc2515831473ddf23b;1300482307;1.3724574679811906E11;3748052.333549195;35514.94934601202
00116cc41ed0a6dc9a567fdb29cdf8be9e68636b6d;1300482307;1.3724574679811906E11;9889736.619787743;93710.93673192218
001210f372df2094f1e72ef90024e1002cf19d5e32;1300482307;1.3724574679811906E11;3.8330688073680095E7;363205.29282616754
001266d590d12a2fc00d0f7e7394f9e66cef4a583d;1300482307;1.3724574679811906E11;5.906893048318932E7;559712.0550467467
00129ff2a896abc6e155c3a5a3e901dac9e90772c3;1300482307;1.3724574679811906E11;1.9414163063813164E9;1.8396034965542518E7
0012a214d381a701d87711bc946b6fff4a1102afee;1300482307;1.3724574679811906E11;1.1120722811952178E8;1053752.3817964536
0012b463395b13012d25572c1237c77dc83518a8fe;1300482307;1.3724574679811906E11;2.228109983892516E7;211126.2228303882
0013153a0218b8df737a0851ccda76fc1f817d18d2;1300482307;1.3724574679811906E11;3.212620415955862E8;3044142.428838339
00131bb42695e57c0aa7becdad60430cac2ce85811;1300482307;1.3724574679811906E11;1.5884603173768377E8;1505157.4174890884
001446286d955bcc1bb924b17b5aab9e958e89bbde;1300482307;1.3724574679811906E11;8433793.098372094;79915.03533777947
001484e1b40ebaef37ad83ca5a145d4540dcb2a909;1300482307;1.3724574679811906E11;2951630.6815503323;27968.396600302993
001547ca35434ee1aab541f0117f59846f0c2d5633;1300482307;1.3724574679811906E11;8558837.578657625;81099.90363419776
00160fa6ffd4c7a4d49b43b6e7759aa663ad80d0dd;1300482307;1.3724574679811906E11;2.2579369998916574E7;213952.50397078277
0016eda591187bf7a1d9c693eb0d0642cba3d17161;1300482307;1.3724574679811906E11;8.077100524715604E7;765351.6826065329
0017026ebddd7fc980bc0bfa818bc13056cb47b49d;1300482307;1.3724574679811906E11;5.4268595056037046E7;514226.11878775596
00186b1022b20980b81cbbcefa1d768c8a7e36e4c3;1300482307;1.3724574679811906E11;4.35632223604416E7;412786.56160467264
0018ba5cc0217a9e76782f9e99f21e295dd21a05de;1300482307;1.3724574679811906E11;0.0;0.0
0018bcbedac3e9978ade38f666e7b54eb7fe114ad2;1300482307;1.3724574679811906E11;7.758271840062137E7;735140.8328695414
0018e3c6327648e0ae3f513fc77287f23e19a78e7a;1300482307;1.3724574679811906E11;5.550269843656233E7;525919.9573862138
00191d8c2edaa9194eb4d591cc7364b51855b7fc00;1300482307;1.3724574679811906E11;1.0186127181440149E7;96519.40759811027
0019e9a28c978dd65114cc4e0bcb876770805b0349;1300482307;1.3724574679811906E11;8587669.045454593;81373.09834754265
0019ec0aed9fe789a9620e32d9dda8521c6d564581;1300482307;1.3724574679811906E11;9.986665084281223E7;946293.8962433761
001a53b7275033cbae5172588df246ab8a11e23e92;1300482307;1.3724574679811906E11;2.2932296652729532E8;2172966.867936399
001a8f875c3b01ba0fe44d8f7db7decb0c8c5ada3b;1300482307;1.3724574679811906E11;352147.5939766273;3336.800783290283
001aa2b91b329f6364bb91bc4c55dbf28d50c787fd;1300482307;1.3724574679811906E11;6.1537253893808365E7;583100.837565346
001b5a966673b3d9d87d84758e86a946ce33254d92;1300482307;1.3724574679811906E11;1.9427154943493877E7;184083.45518003055
001bc1d4da9fceeebf17b9f2a4c9c7cc49665c65f1;1300482307;1.3724574679811906E11;5.5139883917705916E7;522482.0813608859
001c55bce7420948369cce8f014b7ab2b37139f99d;1300482307;1.3724574679811906E11;2.152648578699542E7;203975.82111636104
001c7bf916cb56e4bc233defb6c05c94b87efad397;1300482307;1.3724574679811906E11;2.379756726373266E7;225495.62298385825
001d112b141056df59222685dd37dc919f0efa4d59;1300482307;1.3724574679811906E11;4.368424002557637E8;4139332.7351388554
001da977086819ab273cd3fed706ce6eec5976f28a;1300482307;1.3724574679811906E11;7.020744677232511E7;665255.8966461492
001daf29ea3cdfc1b581fa4357fa0cc5116e70bc43;1300482307;1.3724574679811906E11;971867.9239673342;9209.006977239611
001dd0db367fc3f7c67f260825d2508e673341502f;1300482307;1.3724574679811906E11;1039026.9193905328;9845.377045830768
001ecfdd7a8768fc89540f57be69164a782b20ffbf;1300482307;1.3724574679811906E11;9495888.765575945;89979.00202355001
001f049a68c3075ff20ddeaafe0819daac3b64bf4c;1300482307;1.3724574679811906E11;1.1132126835153642E8;1054832.9785178907
001f296817e16efaa140b6fee684f3a96d4a8528fe;1300482307;1.3724574679811906E11;1394555.7081224814;13214.216592131204
002043214eff85403fc9029d73785c6136f4e842e7;1300482307;1.3724574679811906E11;6.628875989270688E8;6281240.869361351
00205c4c84530297df43ff741aea85a557f82fa8ea;1300482307;1.3724574679811906E11;2.3274472657823676E8;2205390.0104298005
0020e11def65edd308768051dc0ebad1f537069fef;1300482307;1.3724574679811906E11;7257575.436445838;68769.69718193822
0021d63fb6946ad9116785e3ec9840ac47952ebfc8;1300482307;1.3724574679811906E11;2303620.2968771923;21828.125883868433
002211b08201dd32ccf0fca91047c84475ee1b8d9a;1300482307;1.3724574679811906E11;5.747460030366279E8;5446048.605553921
00226304336de6a1d06c695afd350815466f53590d;1300482307;1.3724574679811906E11;1.390589978700173E7;131766.3902730038
0022aa5a93dc352101c433667b50388d8ca2228f58;1300482307;1.3724574679811906E11;9515673.48523341;90166.47360983775
0022e47780cbb1b664611389f3b11ddbe951b38700;1300482307;1.3724574679811906E11;1.4742209857238378E7;139690.9086998553
0022f95b126d0cae29113fe0b0012968168b6944c3;1300482307;1.3724574679811906E11;5763488.372093024;54612.36380266417
002319c23cec3792fc24fb574a41460b94ecd65292;1300482307;1.3724574679811906E11;3.724634167241727E7;352930.4876507786
0023d1b568e99095e1d6ebfce8a583efab67ce5968;1300482307;1.3724574679811906E11;2.5244842117116275E8;2392093.8376771673
00249d60d673df8bb1ac0fbf05c3f1aaf3a84cd2b9;1300482307;1.3724574679811906E11;7738054.841657471;73322.51561116605
0027266a6440eac0597651df7fcfc2384dd149902c;1300482307;1.3724574679811906E11;3.2164524071826917E8;3047773.460697127
00274b7e9713baebbd45efe8715c3abd55ded2d056;1300482307;1.3724574679811906E11;2632207.329008816;24941.676806691445
0027a25bfcaace720f8ce75f0133deda2b1a613a9b;1300482307;1.3724574679811906E11;0.0;0.0
0027a2c65eef277c18d698a3ed15d91f39757e5ac9;1300482307;1.3724574679811906E11;1.4599629754013043E7;138339.88030079292
00281de2d74669bdd1447e6a546d9e2c64e93bccdf;1300482307;1.3724574679811906E11;6868028.122263475;65078.51256126861
0028ae363f88638f25e22bc77a4367fc4cf80dcf80;1300482307;1.3724574679811906E11;1.0359656258653266E7;98163.69530778806
0029255bb866e8d834cd62210074dfad0b1fb82f16;1300482307;1.3724574679811906E11;0.0;0.0
00292777552fd768721c4c38f6af0566c52dcaf8e7;1300482307;1.3724574679811906E11;9480549.90161813;89833.65747443287
00293471d309399e77cc36d62fd8edc6b6f85042a5;1300482307;1.3724574679811906E11;8368669.95966407;79297.95618128897
002952575a6f2dde86345a7fcaba24fa875a3e4480;1300482307;1.3724574679811906E11;6.111191860465116E7;579070.5413194061
0029989257513b82e30a4e10597a79482e9de20b85;1300482307;1.3724574679811906E11;8.22208190443314E7;779089.5013415968
0029df0cf3c74e9bb22d481f574645daa2e1ef87fa;1300482307;1.3724574679811906E11;1.1469453564156001E7;108679.66242395344
0029f80452925b6e566e40b3475a6b0957c5d3175b;1300482307;1.3724574679811906E11;3.6713003250243485E7;347876.7996650915
002a2d9df13c0e70cc3da78c3700dfe6d50aaaef39;1300482307;1.3724574679811906E11;1908014.387493364;18079.532592630905
002b265da2bf8b7c73ca780696652170a3cd25c88b;1300482307;1.3724574679811906E11;8440170.684624221;79975.4666318323
002b796d39db81814b825c4307780e4c8438a2ed5b;1300482307;1.3724574679811906E11;0.0;0.0
002b905e734975ef780c774f553dec1119a2c13b5f;1300482307;1.3724574679811906E11;2.562819675633219E8;2428418.8923500814
002b9317ecac737c4a97828990903e855fe9774145;1300482307;1.3724574679811906E11;3529214.916705723;33441.33908592038
002bd6b7e8fd7b3a62871282457664cb4735e1c79c;1300482307;1.3724574679811906E11;5000428.445882966;47381.932577158936
002c30b8822473502012d2598aa75a60d98fe6b558;1300482307;1.3724574679811906E11;3.4481349912876524E7;326730.60207200877
002ca69e438fbdf90074db1908fd6a3ac2ec5a7df5;1300482307;1.3724574679811906E11;6.246746236272134E8;5919150.97270037
002cfc3b6c0b1667f5d1eb13911495e59d02b50cd8;1300482307;1.3724574679811906E11;3.40085678586823E7;322250.7204662705
002e418e4ff8ea1c6d2bb197b59e1f0fc2ebf7550c;1300482307;1.3724574679811906E11;8.017369318671454E7;759691.8076414856
002e86446bdeb027345541e463c8dca1562b45346f;1300482307;1.3724574679811906E11;8.988594444457512E8;8517209.685929365
002f08736bc58103c1d09ef573b764621641af6f14;1300482307;1.3724574679811906E11;4.244915583561733E7;402230.14118250774
002f964ac64c1a177b3161321383f280890516b947;1300482307;1.3724574679811906E11;1.235462162724202E8;1170671.3840496216
002fa4650d61984323e94c5eabdd443ebc90fa40a7;1300482307;1.3724574679811906E11;1.6587328772209303E7;157174.4705530348
00300fe2d56402f9f3aa6cd0564e056b4a4ee8202c;1300482307;1.3724574679811906E11;3.733246712808055E7;353746.5758275376
00303090471738b78f6fc910e8e06d1b08bc144bd8;1300482307;1.3724574679811906E11;2.1684543276607463E8;2054735.066441439
003058133c84fa602fe1c53fee1690c4f29f193019;1300482307;1.3724574679811906E11;1559677.5604731063;14778.841015771246
003083f5e465e029a964c278aee1dded6a893b6a52;1300482307;1.3724574679811906E11;3.6819608364416015E8;3488869.4437304395
00308b727e1f5c8b337d1d31b56d75ebcee61959e1;1300482307;1.3724574679811906E11;2.6864459501887176E7;254556.1890578099
0031020ab94157055e4dbf826d751472e48397f16f;1300482307;1.3724574679811906E11;1.477577730682102E9;1.4000897957120659E7
0031042a6b5ccb3910230fb4c690e3e2d881af769b;1300482307;1.3724574679811906E11;9119021.459271474;86407.96776296459
0031b0636472b2f6107637bed28c146707eed0ae49;1300482307;1.3724574679811906E11;9.193993124208498E7;871183.673640564
00325b43248386ad6b61e9ae4ff974c5515a68f978;1300482307;1.3724574679811906E11;2.1156921527932099E8;2004739.8742443344
0032d633536f15d39cb397d53fdcab77eeb8b81daa;1300482307;1.3724574679811906E11;9814676.874485342;92999.70251876084
0032fb5447c7d9bc485e5c74f6d37378501cad1003;1300482307;1.3724574679811906E11;7956066.364262033;75388.3000488172
003357f9ed428a04d840e39aa7f63d827617f46ebe;1300482307;1.3724574679811906E11;3.605175789356232E7;341611.11998457887
0033ccca69d00692eaa29f6b04e6bff972f9a3b6f3;1300482307;1.3724574679811906E11;1.113542530255814E7;105514.55272561824
0033f7de239c0db8f45d53b0a98f00e6423dde79bb;1300482307;1.3724574679811906E11;0.0;0.0
00341498eeb456aa3640cbd9051edc0cec21f03578;1300482307;1.3724574679811906E11;2.4725984202380073E8;2342929.069099392
00349883b786a0cbf13a054af5f11dbda9759c3a51;1300482307;1.3724574679811906E11;5.568512681507621E7;527648.57108891
0034cecabd9edea244833769c97e6d638309b5c8e2;1300482307;1.3724574679811906E11;1849125.791869363;17521.529313988387
0034fd670576673a2ca9d277db12ddabab06e59a97;1300482307;1.3724574679811906E11;1767080.6205796537;16744.104176042227
00350c4134bd65c62226189384ba8b6f3a14de40ab;1300482307;1.3724574679811906E11;3052646.163812668;28925.57633432037
00359e2ee09f2e78ada66caf56ac6db054b3d0b03b;1300482307;1.3724574679811906E11;9237694.613466267;87532.46408395606
0035ea8acd943be133e15d4a77f26b0bff1a184be3;1300482307;1.3724574679811906E11;3822952.415479171;36224.67065698324
0035fe43ed1bf4dc2deac361c646f84d7bc79d0e25;1300482307;1.3724574679811906E11;4771566.367538516;45213.332889563484
00361ad21315abd3a52d5af77a9a9fe2e306ed3391;1300482307;1.3724574679811906E11;1.3005319118136441E7;123232.87099675045
003626c7027842b5f56f266e9eef34d4f241045064;1300482307;1.3724574679811906E11;3605284.5304338024;34162.14238264628
00362761916bdee45e6908b126b87f57b220952fa2;1300482307;1.3724574679811906E11;1.5797676332530862E8;1496920.5998338885
00362cfffc8dae9e92a402632127f0ca6caf84f052;1300482307;1.3724574679811906E11;1.053871338203013E7;99860.36443106845
0036997527f23a4ddc38e3c7a78a19dbdc30897438;1300482307;1.3724574679811906E11;2.5063496542499998E8;2374910.3025408746
00381d19f6018e6de718c17a6e1ec85074f584300f;1300482307;1.3724574679811906E11;1.1771182455635583E7;111538.7170324515
003829a72b9c512c378256d603245d0cb4bc71120e;1300482307;1.3724574679811906E11;1030210.1450204664;9761.833042897488
00385790e3944be9d9fb3a665e7d227d9889ea9925;1300482307;1.3724574679811906E11;2.3979768312810472E8;2272220.82609533
00389c90db43622e525452be86594321f147ffa67a;1300482307;1.3724574679811906E11;4.0138609826317094E7;380336.39019418496
0038eed148fdaabc14d0bb159a7da149d1b5a95fc4;1300482307;1.3724574679811906E11;2.7358320265936248E7;259235.80355043276
0038f20279b127950067cbfb5e08ac74831521ee74;1300482307;1.3724574679811906E11;2.4887914109302327E8;2358272.8581667724
0038fdc3067519647f32ecdfb4437cdcb221464995;1300482307;1.3724574679811906E11;3425434.071643487;32457.955950503645
003a81ac2e0355368028dfa76a104673d4a80fdfa2;1300482307;1.3724574679811906E11;9421100.786884611;89270.3429551751
003a83e0f374fdb6788e2f8e01c55430eb27de53ab;1300482307;1.3724574679811906E11;2.88052980025254E8;2729467.4898195188
003aaa891767534e6c218ad69fc41d70526578b79d;1300482307;1.3724574679811906E11;5085520.110759506;48188.224992237476
003af46fb9a1ae7fef89da57e5d601a7eb38a1a137;1300482307;1.3724574679811906E11;1.2568436547960263E7;119093.1576285356
003b550ca8ec20c93f9b57aeb7de1adee573176f5a;1300482307;1.3724574679811906E11;1.0207774510752206E9;9672452.84810586
003b85237cee0249077fca1d7bc201f5fd7da7a8dd;1300482307;1.3724574679811906E11;1.3261557421885815E8;1256608.7614937585
003bdb9add4126b7e59084b4ca095d6fce0523d381;1300482307;1.3724574679811906E11;1.8150216247443672E7;171983.72735546163
003be3f896374676423d086a90323a1a316af42d22;1300482307;1.3724574679811906E11;124374.75273437923;1178.5222430716285
003c39b2d0d3b7dac083125945be807e1de4ad3909;1300482307;1.3724574679811906E11;1.927715903862842E7;182662.15779959576
003ce0624f3062ef13e8cbff694ac92adb857f28aa;1300482307;1.3724574679811906E11;8194793.600659192;77650.3777770996
003d4009fad039382f064b5ac7fa7361a6ef8d3517;1300482307;1.3724574679811906E11;1.3986199480333252E7;132527.27600441215
003ddd6e16df72813fded7203c35e7a9bc4f8f46bf;1300482307;1.3724574679811906E11;2574888.6910811034;24398.549779258123
003e14f0a73e1432929bad34910b518e3397ae0f53;1300482307;1.3724574679811906E11;1.6466454915071627E7;156029.12130722086
003e6cf81b794d6a7f69c2093a24fd69b806660c98;1300482307;1.3724574679811906E11;8639865.95650787;81867.69407009489
003e7acc5bbf87716c33f302b6aac12d741a39b54b;1300482307;1.3724574679811906E11;6.063411304732413E8;5745430.591351744
003e8a0d56fe6b701fe71321d7b4dac0bc4efde848;1300482307;1.3724574679811906E11;9546208.085538208;90455.80649172382
003e8f727dec29146d477396f32ce385ea05a4068f;1300482307;1.3724574679811906E11;9061644.531402307;85864.28840484483
003ee3fa369a9fec862be367d491201faa8875e534;1300482307;1.3724574679811906E11;3.425951430078586E8;3246285.8218930312
003ee842ab82e18660f23434a012319836a5fbb751;1300482307;1.3724574679811906E11;6.891363570046495E8;6529962.933665677
003f74c99f5b6ce2000d130c1250c1993606e93851;1300482307;1.3724574679811906E11;7.243691568224654E7;686381.3955340981
003f7c99487893feb1e62a0b26969025dc3bbc05e0;1300482307;1.3724574679811906E11;3.9472631665156014E7;374025.86447193904
003fe1caea11d44587ecc1f0d47163fa537e41d577;1300482307;1.3724574679811906E11;2.9651573017463155E7;280965.6909853174
003ff71fbda67a5d9df51d49c5f5d2a599c622d0a5;1300482307;1.3724574679811906E11;1.096792128771398E8;1039273.559436537
004006e393c8d4af9c3d2f88d192d3218aba31196b;1300482307;1.3724574679811906E11;5.6955662205E8;5396876.239088396
00404aadb526f6d53615c2fb061f1c438c1b1b9342;1300482307;1.3724574679811906E11;4.912140325245007E7;465453.51907181327
0040bfb43e1432084def40dc42f50c246e05e4daab;1300482307;1.3724574679811906E11;5132624.458525353;48634.565751651804
004112ed071df0e31e09fe4a0a3cffc5fba627a5d9;1300482307;1.3724574679811906E11;9313198.771237139;88247.90936059834
004121528010e5bc4ff46dfb0f8b67c74b73544191;1300482307;1.3724574679811906E11;4.215017596503861E7;399397.13512652623
004248828eae4533cb52d369c7838fc83700500542;1300482307;1.3724574679811906E11;3829270.8151796544;36284.541124452946
0042b6e26a341031811f4e6f166f9b6800ec015a5b;1300482307;1.3724574679811906E11;2.1027394665606383E7;199246.6459827814
0042bdbb4cfeef2bb8dddd876b74a41dcfa4631627;1300482307;1.3724574679811906E11;1927289.6078684079;18262.17638047915
0043223e21cd1ae646288a3096aedad938de3d7220;1300482307;1.3724574679811906E11;2.274388432580424E7;215511.37174160068
004336fe935b0975a028e65a959234fac580f03ff0;1300482307;1.3724574679811906E11;1.3698309881465767E7;129799.35664493496
00435b8be8d13c913c1a9a00c6632f403ef4abc526;1300482307;1.3724574679811906E11;8202786.379276654;77726.11394684091
0044b9d97051379b20f5e51c84deb930cf7343be05;1300482307;1.3724574679811906E11;0.0;0.0
0044c09c7c78bc77fa76cfd0307d50de8a56a12ac4;1300482307;1.3724574679811906E11;2.330033023255814E7;220784.01642034954
004608f9647ac7f1cda974d90510c09c4db64bc3b4;1300482307;1.3724574679811906E11;232489.49054887128;2202.9715024028305
00460de8e68bfb92bfb32c6bbf48554ba5f66bfc9c;1300482307;1.3724574679811906E11;3.150199728246161E7;298499.5240782563
00463da0a411bb84771b7bacdabd62e7ee331c2d2a;1300482307;1.3724574679811906E11;1.617098333001796E8;1532293.5827231416
004685041187517df45e49906d2dc2335d153f5463;1300482307;1.3724574679811906E11;8323278.619624466;78867.84715430865
00476a2e6cb857f19befd052d72daf939dad8aab2d;1300482307;1.3724574679811906E11;3199844.2286501657;30320.362572959773
00476c389ad5e893120ba2caf03b01eb5e31d74945;1300482307;1.3724574679811906E11;3601407.3099496006;34125.40349085782
0047a52232a88a791c1b0c0efc7efc02f50687e46b;1300482307;1.3724574679811906E11;1.0935540760799412E7;103620.53184654213
0047b1d23d1a14e3c4e7d0f36358646ed2fa462d71;1300482307;1.3724574679811906E11;1.159849896024058E8;1099024.416963389
0047cfa5bf098fe72a4d26b35aa766810acd813dfa;1300482307;1.3724574679811906E11;2.0315635380174648E7;192502.31780401105
0048070764e394a8d915b458059e398030e0430cfa;1300482307;1.3724574679811906E11;2.066341185895661E7;195797.69975935845
0048131385447eae82f8c9899e5f2fd5b63465708e;1300482307;1.3724574679811906E11;2287256.25;21673.06713755981
00488bec2fe110c0a922786432623069e744d978de;1300482307;1.3724574679811906E11;6.3891993873146616E7;605413.3518119216
00489b6260e9db67bebdb40d137fef3a7c66b70c2b;1300482307;1.3724574679811906E11;3.5187329166053385E7;333420.1611241816
0048fa9cc711b0f341ee32d2915d4c65c3ef0251c8;1300482307;1.3724574679811906E11;2.351727863382982E7;222839.7271725433
004927076e817474824aef45851548cdb204db6a39;1300482307;1.3724574679811906E11;1.9758848811770953E7;187226.4451603994
00496728751f132621158594d20331a783c4da3e21;1300482307;1.3724574679811906E11;1.066010811651681E7;101010.64928904013
0049a1dad7cfdc5b03a3c666f7a750e69a764e9637;1300482307;1.3724574679811906E11;1.5517664871931128E7;147038.79051047156
0049c00463b97db1c72797ba4059806aa2d247b23a;1300482307;1.3724574679811906E11;9.974199635248375E7;945112.723325874
0049d84cfb76b1bb13240256b0a11b98e7bc38c0dc;1300482307;1.3724574679811906E11;1.7768688034779534E7;168368.5283291422
004a291e78ad5ac1f06e9e9a17b5257c4d92ad4a05;1300482307;1.3724574679811906E11;8787997.902119374;83271.32936563971
004a7d4922c6bd581d5ae912ce85466815d5388623;1300482307;1.3724574679811906E11;3120345.4913070514;29567.066359739874
004b15bef2c6559de77f599e2fd758bc65b653451d;1300482307;1.3724574679811906E11;2.1427024767546517E8;2030333.7081063504
004b46f553f8e23c5f135f204b010e4f3cadde9034;1300482307;1.3724574679811906E11;0.0;0.0
004b76cddad2858fc97e83ff3cbe45643c5cb85c1d;1300482307;1.3724574679811906E11;2.126620978124717E8;2015095.564173892
004b92f8e8e5be575c6d57fefc9b09b852819be082;1300482307;1.3724574679811906E11;1.6492731673724288E8;1562781.0869306212
004bb18e20c423acb76b84cdb7c6a43a24be7097a1;1300482307;1.3724574679811906E11;1.9925220252006325E8;1888029.1014721217
004c0627dbc8ed242586ed33462e760f28cac3070b;1300482307;1.3724574679811906E11;1.9930550617237857E8;1888534.1842040226
004c0ac99f066f00b45f2c3c1d9c8cab47cb80a782;1300482307;1.3724574679811906E11;1.747423079718824E7;165578.37681924622
004c2118d2012c41b06f5bafcc1297731afe1a6232;1300482307;1.3724574679811906E11;1.356065662260465E8;1284950.129269974
004cd0949afd2f52963adb5687eba6fc2ad275c438;1300482307;1.3724574679811906E11;1.2971322952463474E7;122910.73779411966
004d8603f590cac4ceb828f1ae24da1f4848065ba2;1300482307;1.3724574679811906E11;4.9012977141933626E8;4644261.193772284
004daf5f8f41f205ca0fdaaa822aa143c6a3ad0949;1300482307;1.3724574679811906E11;4.350630032043482E7;412247.19257040997
004dc529187c40295c4e197654f35c8847317d4968;1300482307;1.3724574679811906E11;2636374.347995467;24981.161705797604
004df997534cb3f9d18b2171c554f44187677b6013;1300482307;1.3724574679811906E11;1.6775365113178557E7;158956.22292211355
004ec47f8f66685783e6d8a3c34646e025d366d707;1300482307;1.3724574679811906E11;4977102.7399135;47160.90811105147
004ef9e9c11b8972f47ac696c2f381870620f97e4e;1300482307;1.3724574679811906E11;3.374036275134718E7;319709.3229740085
004f1ee37f9f372a7f8cf805ffb6c6bf0c3a5eca05;1300482307;1.3724574679811906E11;698234.1797347103;6616.170031289402
004f9dac9fcb9efb800f0286d42866cf58782c6ab5;1300482307;1.3724574679811906E11;1.1005799757069486E8;1042862.762042978
004ffa7ea02038f317760cb71803d028d2d56ff8d6;1300482307;1.3724574679811906E11;6688402.088045347;63376.452680893104
005053703c4a32a217b9081d5fd620a2a9670e3538;1300482307;1.3724574679811906E11;7.72521396255E8;7320084.090375122
0051504254719d611f9ac23ca0d822e014da64e85b;1300482307;1.3724574679811906E11;8008291.29248085;75883.16125011051
0053874db2bcac6da323ff439f6653924a85e68cc9;1300482307;1.3724574679811906E11;7.000725417561615E7;663358.9567694232
0053b1f0a09fa6b0fef5191c041fd3dea69e1bf0be;1300482307;1.3724574679811906E11;1.4521000134234944E7;137594.81947586284
0053bd7bd542d88e371bf4f31e2947e657063b2125;1300482307;1.3724574679811906E11;2.213616349423231E7;209752.86768961608
0054a7f9d721969f16beea44089355da89752cf23f;1300482307;1.3724574679811906E11;1.5956997125316221E7;151201.71603458395
005590fa495f29385777451123b3a538488b3db698;1300482307;1.3724574679811906E11;5.528546516186857E7;523861.5472946687
0055cd569388f730236fdbeba9dd40e7cfbaf80f59;1300482307;1.3724574679811906E11;6922609.549367037;65595.70294344783
005606414027a97673f1c82b9f6a19920750e5deb8;1300482307;1.3724574679811906E11;4330171.149359066;41030.85958872495
00564540d3b42fa0863c367f304eea192ec5c2edb4;1300482307;1.3724574679811906E11;2.3184727618575893E7;219688.61523208537
0056511d5cbc65d768e37fb8105fbbb83e0063c8dc;1300482307;1.3724574679811906E11;1.319588734250663E7;125038.61441577518
0056a72697cf468bf297083f5dab03250f23bba974;1300482307;1.3724574679811906E11;1.1569481375407784E8;1096274.8340766835
0056b011bed290bbf0f328b9a9892943c4a6a214d9;1300482307;1.3724574679811906E11;3.0338342678858414E7;287473.2281182725
0056e2139d4b8fa3899ddc155015bc254868dd5f29;1300482307;1.3724574679811906E11;1.795394009221913E7;170123.89801203602
0059a7f72215cc58a46599c66d19b584072b7125ae;1300482307;1.3724574679811906E11;1.3654286788117075E7;129382.21254149257
0059ddee2a742fe86d081bcafc964dcfa92f73f6e4;1300482307;1.3724574679811906E11;996283.0845654284;9440.354651911743
005a49ac1bfae72e07305261ec737fa9fd7fca2975;1300482307;1.3724574679811906E11;3425434.071643487;32457.955950503645
005a8073383c865a2ecae13844e9d584966dc3d492;1300482307;1.3724574679811906E11;3339706.4500022554;31645.637479683537
005b0b38e19158f341b9a5548724831869d59b1cb4;1300482307;1.3724574679811906E11;7.488442467020171E8;7095729.494387967
005b27a7a99357ee02f8cbd40f6bf069aaab70a3b2;1300482307;1.3724574679811906E11;4470167.877906977;42357.40902841174
005b559b16afddaadad4c8befd0ab813b105c947ec;1300482307;1.3724574679811906E11;9693467.005813954;91851.16937060581
005c14d980973c264bb900d104ba926f47d96b0e58;1300482307;1.3724574679811906E11;8402398.255813953;79617.5511662811
005c79fc2d54ca89f63d07af8bb57081c1e5691317;1300482307;1.3724574679811906E11;0.0;0.0
005cc9223af28ed7f5dd5b76991e74c71687d11cad;1300482307;1.3724574679811906E11;3.4998680154109865E7;331632.6033456047
005ceecceb06faf5125a0c6f5d2f4139b243c4d4ea;1300482307;1.3724574679811906E11;2.120048128016696E7;200886.74110460447
005d0873215bd74b030cdf3737f0adf5f51c60ca1d;1300482307;1.3724574679811906E11;6.812659176116437E7;645538.5998367452
005dc22421d1f634a69848ea8087d1cc7b29cf9b1f;1300482307;1.3724574679811906E11;7818388.792508963;74083.72595225913
005e0d493f7ba7c7e73b83cca1db088027b40e1738;1300482307;1.3724574679811906E11;1.2248278837153167E8;1160594.7936842388
005e1e2efa72a5b2bab7d961b807216d32845a6b8a;1300482307;1.3724574679811906E11;1.1391878942539737E7;107944.59831276778
005e1efaca0ea84d640ea57680d2556ee363a31f94;1300482307;1.3724574679811906E11;2.0464826230966684E8;1939159.8683454732
005ed2db9c00aa2b6413d885354faa477948e82522;1300482307;1.3724574679811906E11;2.6664246973456394E7;252659.0603165677
005f2eaac85c404b97d9b72f665174114b69dc2a87;1300482307;1.3724574679811906E11;1.221607986629052E7;115754.37561921937
00604acb4ac4a48485514c4eb56e1d2a26c768a606;1300482307;1.3724574679811906E11;1.1543111861156338E8;1093776.1710923482
00608e54dd1e432ea177ff9a16d77b8159b9ccc0ea;1300482307;1.3724574679811906E11;8840246.805063304;83766.41774122842
0061aff734946314fe0902995774e313cd70bbd2bd;1300482307;1.3724574679811906E11;1830952.4792012412;17349.326734776692
0061b27421833ce6c95743568e00b7bb4b93e28bbb;1300482307;1.3724574679811906E11;1517190.0337258785;14376.247288154791
006217f4e5689905af2ef683f6f994ac39c4728de6;1300482307;1.3724574679811906E11;1.5395780187576857E8;1458838.6309599828
006250425bf281a77a8b8b13dc975e930da8cdea20;1300482307;1.3724574679811906E11;8726443.477632737;82688.06582684175
00625dbe1f50e8fe30838f47b0f77d681ff97d933a;1300482307;1.3724574679811906E11;1.513834314017478E8;1434444.9915851187
0062a8a1dd01517b5da75e75842c80cc17cc9fb5b6;1300482307;1.3724574679811906E11;1.469920287334897E7;139283.39281735674
0062d94eaeed9a9ede50e487cebacacad599a331a6;1300482307;1.3724574679811906E11;4333919.331134009;41066.37576460254
0062ea27ae2f820f0a2230928cb8d1674455d769a7;1300482307;1.3724574679811906E11;1.7461068695860308E7;165453.65834673066
0063506c57f7f946e7a7889faa6f24d89f2b2211e0;1300482307;1.3724574679811906E11;8252816.877770997;78200.18166566057
0063828892b720fc5cd3b2b30682619cd0d310a81d;1300482307;1.3724574679811906E11;163344.5777080079;1547.7837252481052
0063f7338f217086fadbf98b9ab80142949595fb96;1300482307;1.3724574679811906E11;1.4351643163114289E7;135990.0648685416
00645db784d2dffd521d30ab9894f75afbaca01c4a;1300482307;1.3724574679811906E11;2.2185161825207973E8;2102171.5502815275
0064ad102872415691ff678186f72b2d75fbc38928;1300482307;1.3724574679811906E11;8820620.562775629;83580.4478190744
0064ba590621892e12a65b617f2bedf3c223710eb7;1300482307;1.3724574679811906E11;2095240.3561303238;19853.60621825265
006531c0b0a372e801628f985816d69b225b5a5f38;1300482307;1.3724574679811906E11;2.4433116035709072E7;231517.81276003152
00654f3bc844e5c54a06ed119005446482ffb32f0e;1300482307;1.3724574679811906E11;981231.1106054527;9297.728550360001
0065a7065035426750e2cc1ff68d3b0100863be079;1300482307;1.3724574679811906E11;1.4293721233208638E7;135441.2213029891
0065e7d784dbf2bbf4b853b86501ff75372b1002fc;1300482307;1.3724574679811906E11;1.7949947346017353E7;170086.06444769696
0065f5c1a7d82c4edadf3a88f22e82d319b764e00b;1300482307;1.3724574679811906E11;6.9904103291953E7;662381.5428802143
006628964455ece1c66aace59cd2b5366b0b707453;1300482307;1.3724574679811906E11;5.738587111380193E7;543764.1005011061
006679b71f43483a402f79719f1ba6a9b8a2ced062;1300482307;1.3724574679811906E11;1.021889082499573E8;968298.6194551939
0066f578f1296b45a50bb24132596bf93f4a951ed4;1300482307;1.3724574679811906E11;1.089292467802526E10;1.0321671997670726E8
00674cd03a0af9ba19cb2b69e0d768d07d1a3b0e0f;1300482307;1.3724574679811906E11;3.504889900465116E8;3321084.5580828898
0068332380f49ff88c8c17831a880d04282fe7e32c;1300482307;1.3724574679811906E11;2.533528121860465E8;2400663.4621712225
00695eef3559e82351f6d0f924832326ece7080f71;1300482307;1.3724574679811906E11;2.1613641086755395E7;204801.66765764478
006975dad2ddd5ed2381037916ee642be9e0217965;1300482307;1.3724574679811906E11;5939682.3215950895;56281.90270841209
0069ab8f6c8d3dc67c84d149f0907c9b6561748eac;1300482307;1.3724574679811906E11;7683084.769801321;72801.64259665583
006a967608e02b6bf9ea81df8d2401a908dfe55f4a;1300482307;1.3724574679811906E11;1083187.374883721;10263.82273451523
006af52e3758cff9b9b78a61a13efdacf2e237f0c0;1300482307;1.3724574679811906E11;9.577233338640764E7;907497.8859077875
006b5e85264328f0435a8a8f72a470acefc769c1d2;1300482307;1.3724574679811906E11;9.695236070701815E8;9186793.227685442
006b732117e299581ec277c37857d6e4644eb7576a;1300482307;1.3724574679811906E11;1.6225071038544565E8;1537418.7038730516
006c300d3d47c5454eff96bd7e228f3225f1ffb8d7;1300482307;1.3724574679811906E11;9721503.431546953;92116.83061306977
006c5c707279939a5fc59e6e4a40f7b1aec95296db;1300482307;1.3724574679811906E11;9.452290101456049E7;895658.7963091104
006c6546e22aa72b7b2ea90b1ceefe6bb2e0e6f791;1300482307;1.3724574679811906E11;4.0836831221079177E8;3869524.39080513
006d499c6e563a91cefece50e79f37220651a99da5;1300482307;1.3724574679811906E11;9099119.134591462;86219.38180151692
006d65b13b337004ce821791a861dd6c156cb58029;1300482307;1.3724574679811906E11;3.479927848507185E7;329743.15796299727
006d794d9adffa1adce3ba1da53271726997c6fa2f;1300482307;1.3724574679811906E11;1.5799194888306162E8;1497064.491718631
006dab14da3815c50fea37170c30351d3c1ac9594a;1300482307;1.3724574679811906E11;2.2137008774578802E7;209760.87720656442
006dcd2720dbf7a87a6e9baa7fb8dd0cfb8f6615ee;1300482307;1.3724574679811906E11;151396.49859949874;1434.5688107917142
006e793e96657fda16272eec30c871e5de4b7bb6ca;1300482307;1.3724574679811906E11;9.764869186046511E7;925277.460532352
006ef7f7ea6fcf74d2d5d96977e343cee36e49ab38;1300482307;1.3724574679811906E11;5.782745608243883E8;5479483.717965524
006f718b15aa61709eceae53494e70d129f9ba24a0;1300482307;1.3724574679811906E11;4.6634258434490085E7;441886.3929046072
006faa67c7d674231cf6abb4dcf2a9fa14fa46093a;1300482307;1.3724574679811906E11;1200726.7441860465;11377.575792221702
006fd5cd64898387c84ab5b779f1ad386a533d0a4f;1300482307;1.3724574679811906E11;2.9790254545466464E7;282279.77814418083
00705e1aad7e3509f3360e2b4f8da35c6409bbee04;1300482307;1.3724574679811906E11;1.280095996180302E7;121296.45057363903
0071afa38f24c7bd5422a1101ca160636407250431;1300482307;1.3724574679811906E11;447463.0267304624;4239.969273187047
0071f26dcad0013cef17490a35c6761585ccf14ad7;1300482307;1.3724574679811906E11;7.864717919390644E7;745227.2104838412
007211e1a0d842e1ab5a1b4368eb90c77c98aa8116;1300482307;1.3724574679811906E11;9.516927799108316E7;901783.5895448263
00725b17e7326f9ff75f3cfd04b6e61f38fc85b3c9;1300482307;1.3724574679811906E11;7948088.057674419;75312.70100987375
007286ffaae3590759da37a64278018cbc016154a2;1300482307;1.3724574679811906E11;4066153.1230486697;38529.13709490675
0072b3f9582ab37e395611a096a3623e86567ec930;1300482307;1.3724574679811906E11;6.0856055017969325E7;576646.0868262936
0073e61dbb60b448d615a3699ccb72de476817c51d;1300482307;1.3724574679811906E11;3.7936931243915595E7;359474.2206267326
0073f36afe58f3c929933519b6cf8fd4edd914e759;1300482307;1.3724574679811906E11;5.9950117925149694E7;568061.8123554792
0073f8b94806c0b92915ab9cc9d6135abae30ea52e;1300482307;1.3724574679811906E11;1.0157819926826121E8;962511.8009639077
0074043255f1530bac32e180d4cfebccde623f1cf0;1300482307;1.3724574679811906E11;702047.5525905609;6652.30393011486
007411a0e69c28923472c92446946b0b6132f0526b;1300482307;1.3724574679811906E11;639072.5410868728;6055.579513116094
00748ce632c3a6b161a3301e126ebe57b8f1302ea8;1300482307;1.3724574679811906E11;9852904.631258218;93361.93247837156
0074b305fa9f68ad4a01ab574486aafe1314f80399;1300482307;1.3724574679811906E11;5508607.12;52197.217494192
00758f4c1d33884c9d56ba69d15f295addab3d10e1;1300482307;1.3724574679811906E11;1764852.8464972319;16722.99473661862
00762c040f54f97db847059c95cec0a03955d1b85b;1300482307;1.3724574679811906E11;3.789998042692358E7;359124.0904052257
0076db1c3a250a8a294928c2911f3d5ae62f338ec9;1300482307;1.3724574679811906E11;5.394522126244226E7;511161.96629539435
007707a6acc37b8b0498d08ae1d0550b8a588c6aa0;1300482307;1.3724574679811906E11;2028568.759413708;19221.85453244677
00771c50c7ef5ab971bf508460871bb1be28464700;1300482307;1.3724574679811906E11;4.460098685246286E7;422619.97642583767
00773788290cacf4fe755c4f3d67ebbdad94b6d18b;1300482307;1.3724574679811906E11;3.1617439137577545E7;299593.4019838963
00782a958916eb9f9a0f5915a5a6a99fab5ba13af3;1300482307;1.3724574679811906E11;7.256571943177927E7;687601.8850665642
007878abf6c038bb08544c5e20957f6d31e1831bcf;1300482307;1.3724574679811906E11;9.452408076348892E7;895669.9751080454
0078b61333aa7fc97c78e208d79257876789c88798;1300482307;1.3724574679811906E11;2.4608694767582536E8;2331815.2212526826
0078f00fca629e074ea0bbf19218fd332d17eb3a14;1300482307;1.3724574679811906E11;1.6600709498005738E7;157301.26061800253
007a0ab56fb0dd11c333d7b34498a60f2b1de76429;1300482307;1.3724574679811906E11;1.8283224051160266E9;1.732440527168063E7
007a2a9a4eff7cc34bb4150b83c15d5f792d2158aa;1300482307;1.3724574679811906E11;4.501106829653583E7;426505.7337253361
007a4fbe9a8d86bcfe494fd7b5452ea2e6f804f5f5;1300482307;1.3724574679811906E11;1114987.4550964972;10565.146765625119
007a51261f99cb7b9d5cd9f724fe7778f239861904;1300482307;1.3724574679811906E11;4.0720763246009475E8;3858526.283285667
007a62fb67ba47c4e6ca2f95db585b0fe52132919e;1300482307;1.3724574679811906E11;4.110848195055854E7;389526.48582231265
007a6d4ce4bf7f64623d294d429a7f8f8211b8160e;1300482307;1.3724574679811906E11;1.501628390346172E8;1422879.1776014802
007a78c50966d78295d41c1018f677c18aa17ed8ad;1300482307;1.3724574679811906E11;763423.2839397683;7233.874248765517
007b2225dd08ccb73842e97ff02ccd2e4a5d20b6c3;1300482307;1.3724574679811906E11;1510290.8685417075;14310.8737340418
007c1a889769cf5e245f45a5de7eeaef38c05ae8d2;1300482307;1.3724574679811906E11;3.558133210766031E7;337153.5653747298
007c39e4eae5ea4e27a8877cca97f01ea799a19e62;1300482307;1.3724574679811906E11;8419287.521736749;79777.58666481733
007c4f4f5ccb2d726eaaeaf8f7994af98f15e01c5c;1300482307;1.3724574679811906E11;1.9921460334830186E8;1887672.8277166553
007cc0b170027526f161e7116911c4ffd2dd1ec38f;1300482307;1.3724574679811906E11;2.2154354064670555E7;209925.23379611532
007cc0ffad255d2ff183c1962705c63ea7baf6401e;1300482307;1.3724574679811906E11;1.3978244110252684E7;132451.89430205137
007ced19cf219d5ceca0e40ec72e9482c11a1da0b4;1300482307;1.3724574679811906E11;0.0;0.0
007cf52836951cab8ea0d6a23544702f628f499ae5;1300482307;1.3724574679811906E11;2936743.707230514;27827.33396514414
007cfa6d2a423fab07b79ed8bf55d30fd4307ba33e;1300482307;1.3724574679811906E11;4648402.473628903;44046.28422956907
007cfd88d07979a7ac3ce9fd7c11862f6d5a61c0fa;1300482307;1.3724574679811906E11;8545995.212124329;80978.21483256861
007d84e3ec27e1520793c1b3c360f53788881d2214;1300482307;1.3724574679811906E11;3889975.6573482067;36859.75438264997
007e0bae44fbc450426a1f0ee13b28ed5aa933adb0;1300482307;1.3724574679811906E11;1.805765711838685E8;1711066.7642675936
007e2aad6eea9b4dceaff704d3d206d8202bdb603b;1300482307;1.3724574679811906E11;1.0876384372251885E7;103059.99107608577
007e733e2f15ffef4d05de565bdc27b158af3e9cad;1300482307;1.3724574679811906E11;1.7757688953488372E7;168264.30571426253
007e8d6a90e99beb2de56cf1fe340736af55192e0b;1300482307;1.3724574679811906E11;6716651.788651841;63644.13482532292
007f43de8770983945e66469ced04a5b6b7f248a25;1300482307;1.3724574679811906E11;2.440631306112112E9;2.3126383917586014E7
007f65b762645069d1bdf4e83ffb07fa1148b9e10a;1300482307;1.3724574679811906E11;1.3049962965150563E7;123655.8970978338
007fe5a37361761a361376c2b174283987b45c16d2;1300482307;1.3724574679811906E11;5193495.122792078;49211.35026950397
00803c974202d4dd8db22bd3833b8d123f89ea199b;1300482307;1.3724574679811906E11;2.3760824883133614E8;2251474.6781693418
008096bad17b2006bd1276900650728b77afec9748;1300482307;1.3724574679811906E11;3.0523925219303858E7;289231.7293175295
008108ce010ea881db64a963f75dd0bd58cd866cc2;1300482307;1.3724574679811906E11;1.2264774093107508E8;1162157.8139612614
008137ac5c10e66293299230dba5a8017b71225283;1300482307;1.3724574679811906E11;4.819896337001066E7;456712.8711874881
008148efe190c847f9dad2e8191bed23a5fcbdc2d6;1300482307;1.3724574679811906E11;723521.5715985474;6855.782598354734
0081603bb0a13a6ce956394972da3b05ddf076be97;1300482307;1.3724574679811906E11;1776170.3146253484;16830.234249711157
00816362a309834d9d64e78980bb675fe80e53df03;1300482307;1.3724574679811906E11;9.634920153373757E7;912964.0430498222
008196a5dd0831fbec1207faee2bee4a04eb1439a5;1300482307;1.3724574679811906E11;4.062601108776884E7;384954.7971883182
0081a333ca572de57720c74541b3f65b9334d67f2e;1300482307;1.3724574679811906E11;1.807005568627907E7;171224.1599812748
0081ec2575f63d14f427855579585aa837768ea0cf;1300482307;1.3724574679811906E11;4.430706503177857E7;419834.89829876536
0081f748b7fbe7d3b6b599d1cdced6eb47caf4a44a;1300482307;1.3724574679811906E11;5730358.607105242;54298.440244325764
00821365f05dca5211ed65d4c237daf79fa251e8e3;1300482307;1.3724574679811906E11;1.1551715405081919E8;1094591.4063119264
00822c2dc5f01e0f270c13cda29383eeb31a38b689;1300482307;1.3724574679811906E11;1.7848546886247343E8;1691252.368306012
0083f136357ad6873194dd6c971a832b4c7ce942e8;1300482307;1.3724574679811906E11;2694024.904492196;25527.43385237991
0084233a55687ee683409bf6a28137eb1e0599e334;1300482307;1.3724574679811906E11;6.024396872731579E7;570846.2175412872
008453d3b6f93828848bc45b6dd2a04512ae792257;1300482307;1.3724574679811906E11;1526162.7906976743;14461.269315861016
0084edb623a13be32834db996523d9b8191e7f848d;1300482307;1.3724574679811906E11;9.231619088587984E8;8747489.499497315
00850054fc265ea06507e4055c26b8e8c10cb7285a;1300482307;1.3724574679811906E11;5.15090752398641E8;4880780.830163626
00855902d298ddcbbaa55e52bbc1f98ee39e00c951;1300482307;1.3724574679811906E11;2.1211423695155658E7;200990.42677371003
00857de08e31ae766b410d5d44aa6541f4b7ce3d20;1300482307;1.3724574679811906E11;5.394320257550454E7;511142.83807680017
008589da40c3710374507916e6760b4ece69899f68;1300482307;1.3724574679811906E11;5.4051736934551895E7;512171.2634884108
0085a81dfa2b292cb9d29a4f9927ea4064cc56c660;1300482307;1.3724574679811906E11;1.4744277091801196E7;139710.49693509087
0085e8dc36a7c06d74d1f44ff6102b40aebe308411;1300482307;1.3724574679811906E11;4.851473765691734E7;459705.01398759783
0086243a5f7465be25768c6afbc37a7eae10b932e5;1300482307;1.3724574679811906E11;7.598828867080358E8;7200326.950819793
008642c480aee423a95dbe328ee878856ce9f935fb;1300482307;1.3724574679811906E11;2.552325581395349E8;2418475.135109709
008690b01f8da3cb9ddbca0bf2cd0157cde5ac055f;1300482307;1.3724574679811906E11;1.2227398405585318E9;1.1586162528223164E7
0086b9b81da108879123f1bdadd12438b2228f1b25;1300482307;1.3724574679811906E11;5.393996367829801E8;5111121.476648235
00870090a090138d8d7a2f7ee2e1926b0c3d4d2cb9;1300482307;1.3724574679811906E11;9219815.705465289;87363.05115811907
0087134cde483ce0b7f162e5716c71733518d25a5a;1300482307;1.3724574679811906E11;4.846022707953488E7;459188.4949472335
008769a4de5e4cd742cc39d7d01cd5789bf79f2f23;1300482307;1.3724574679811906E11;1.0310769985548012E9;9770046.97819576
0087c2e18fe56380bfb0b9e6ce2f2ce32968f8be75;1300482307;1.3724574679811906E11;2.4136719856006852E8;2287092.886595935
0087e83fc9df70ba11b1ffdf8e5d5bcbc2599029da;1300482307;1.3724574679811906E11;2.81165136178621E8;2664201.2118845014
0088165dfdd32d3b221e7997d9c982280f9790e14b;1300482307;1.3724574679811906E11;9.646517765161754E8;9140629.83402118
00888fcb0ac44babd37eec3f356e44f8136449092f;1300482307;1.3724574679811906E11;6.40645140137846E8;6070480.7926785415
0088b63e4b50cc6e3e7f088cadcadf978ec345d061;1300482307;1.3724574679811906E11;2.4668177499525797E7;233745.15518690346
0088fe87134b8a8826f237dc69951eba1d1933f74b;1300482307;1.3724574679811906E11;2.97190868E8;2816054.2286565728
0089df38fa28a7b21ee74f37869ed1df997f15c028;1300482307;1.3724574679811906E11;1.3666616524984565E8;1294990.4388250108
008a71dac5fcfaf42c74c45cd3aaad058fb948d922;1300482307;1.3724574679811906E11;1.8291826468117684E7;173325.5655600933
008aaac20888644972b3bb1b210753f9ca50817d39;1300482307;1.3724574679811906E11;1.0493749167625837E7;99434.30266489256
008ab7319e3272eee8bf5779939289eef215950d37;1300482307;1.3724574679811906E11;3903576.015658985;36988.625591883465
008b0fa9021b4d5e4e76b863eb58da571cb8bc5042;1300482307;1.3724574679811906E11;6.34314255333023E7;601049.2021671757
008b5870b2e2ce1bf2461a7beaa79234bc0376a0bf;1300482307;1.3724574679811906E11;4.494467324910213E7;425876.6025028804
008b8abc011a2cfaedb8d20a743e2fa6507ae901a4;1300482307;1.3724574679811906E11;1.0071982828409295E8;954378.2427022079
008c024fc8ceb706aa08d1378b4a0c2e40b1425664;1300482307;1.3724574679811906E11;2453597.051261257;23249.241802488898
008c28bf39f42caa606acb4944d84c986fc70290b4;1300482307;1.3724574679811906E11;2321116.7783133425;21993.9150982762
008c339a579abc43130f39e614cd3b428380b06eb7;1300482307;1.3724574679811906E11;8.30375984760575E7;786828.9557470127
008c80f5e31067a7617c0c53e2dc8a42a2c76b57fd;1300482307;1.3724574679811906E11;1.2619592547947487E7;119577.89012066984
008ce4ac46d34ed522fa3eea48df2c36b461b34bfe;1300482307;1.3724574679811906E11;8561779.796511628;81127.78283884881
008d3d1df0c6e4d1443d91cc02a403e36d1b225563;1300482307;1.3724574679811906E11;2.0063087037939447E8;1901092.7715684136
008d537edae634401fcd00a2b7180ff077a43527ca;1300482307;1.3724574679811906E11;7166267.121867675;67904.49843909078
008df0146c11b18bb474c0917a65cb909a298e8278;1300482307;1.3724574679811906E11;1427825.8460333438;13529.47026456865
008e0774d18e361ef15d17c24d6a799fbf7a667a10;1300482307;1.3724574679811906E11;8521715.399894014;80748.14966144713
008e50a18d1cd826843dba0fe4234e337f19168346;1300482307;1.3724574679811906E11;5.398254903523256E7;511515.66838967416
008ef60f792c22d86c63c3cf362e2eebbdee482c3f;1300482307;1.3724574679811906E11;366827.36315637105;3475.9000306948833
008fe038c5f7ebba8b6e429b5cee352e9e52351c52;1300482307;1.3724574679811906E11;1.3341416196957145E7;126417.58392693431
0090c55c6f7b632c2b57fc7b38ffbca67560a262e1;1300482307;1.3724574679811906E11;2.703079011340635E8;2561322.671690781
0090c62209b6e5a881fa9658fa29f5a9bfe74507da;1300482307;1.3724574679811906E11;9.818255438698328E7;930336.1147078322
0092c5792a7552669f35090b7f6dc2f66e1c32fd99;1300482307;1.3724574679811906E11;7.80559871968703E7;739625.326635911
0092ce530e70b52baf24fdbb95c90f407cd0eaa719;1300482307;1.3724574679811906E11;0.0;0.0
0092ec3baff84fd5f5f7a45350c5c7a72be48a14d8;1300482307;1.3724574679811906E11;4.654294400520326E7;441021.1362213819
0092fc5b169870d9d56478b8b8ef077e14f22acfe3;1300482307;1.3724574679811906E11;6281939.540211968;59524.98650254233
0093de7b8a76d7a514b522fe0baa3c8461e2781189;1300482307;1.3724574679811906E11;1.7520598029856822E8;1660177.3298959618
0094182c7d9eb84e5683e75eb47195aae2e9748354;1300482307;1.3724574679811906E11;1.1292447680415126E7;107002.42997478685
00942f6c6f120392d2d3b49bc7e0b23dba0536ca99;1300482307;1.3724574679811906E11;5055415.807111822;47902.969418409346
009504c1c6b8710e7cbf05104c6778e2eeb734cb52;1300482307;1.3724574679811906E11;1.0940251624368064E7;103665.16998553477
00951233c1edb8a905705f83e47d1a9bd0ce1c04ea;1300482307;1.3724574679811906E11;7006331.820469491;66389.01956571631
00959095b44083c071c9bc578cd9dac2a09c984ec4;1300482307;1.3724574679811906E11;1.0518204355690445E8;996660.2962280813
0095b14bfa7b44f73907fe46a96210ba4a64a7ab63;1300482307;1.3724574679811906E11;1.284691151259237E7;121731.86791934856
0095c0ddbb3a80032e024410b4a2fd3f51d754f0ba;1300482307;1.3724574679811906E11;1.0759135382050467E8;1019489.8952720098
0096399fcc8b88aa236783bb358eb445d4e4dcbc8a;1300482307;1.3724574679811906E11;1.2704402938501295E7;120381.51729993118
009669a5e23d4d50f858edcf125a523ef1ec1cd6e3;1300482307;1.3724574679811906E11;9554880.263729302;90537.98036278198
0096e627d12e1d5ccfca8ff78ac02449e3668c3ebb;1300482307;1.3724574679811906E11;1.2197058366670989E7;115574.1359813077
00973bbe1778557d99d7dabce6ec8217ce0808b70b;1300482307;1.3724574679811906E11;10766.396216527139;102.01779010566158
0097604cdb055a69f522460b7e2d91f81c4b0c988f;1300482307;1.3724574679811906E11;1.7659158784187717E9;1.6733067574852161E7
00983564123f8f57a65c593d69eca6c521aa90148a;1300482307;1.3724574679811906E11;5.0313805639542766E7;476752.2167977225
00983abd8d9dd3c0bf9195a279d7a22424c0d9852d;1300482307;1.3724574679811906E11;1.0912028505118323E7;103397.73971473282
009990900643298f27edb177d5e8b81ebbde7ffa3c;1300482307;1.3724574679811906E11;4.056226494498613E8;3843507.658593886
009a015cf857dc0d4275447c704cd9ba33c47536d7;1300482307;1.3724574679811906E11;7544543.060429239;71488.88029965766
009a016a43a36d00df85b4a75a0cea44c9e160fe2d;1300482307;1.3724574679811906E11;1.128115738783289E7;106895.44796560555
009a0d5bce9d74287eff6868aed231dcef4e3cef1f;1300482307;1.3724574679811906E11;1.0202139999524303E7;96671.1382498024
009a10b43ad264215ebab2a92a40201b13c0b62d0d;1300482307;1.3724574679811906E11;6.759245000435881E9;6.404772997938571E7
009af7d53a9a17587c0b04af596bf619f18bfddd8c;1300482307;1.3724574679811906E11;1.1435969020150818E7;108362.37713058287
009b142a9268a15326188079c7f7f2d86f1231de13;1300482307;1.3724574679811906E11;1.4875910737393426E7;140957.80135866918
009b966b1edcee9dd021c98cfb296088a21a201ac5;1300482307;1.3724574679811906E11;1.2345046615901599E7;116976.40967108119
009d2e5ae513415892adb225867801faa38f165dc3;1300482307;1.3724574679811906E11;2.530303212018627E7;239760.7674805258
009d70b474adcbfbff832a67d5e464fcba7fd7f40a;1300482307;1.3724574679811906E11;9.127116279069768E7;864846.7083152321
009dd560e0420b6f28965f666b81d22080d533f6db;1300482307;1.3724574679811906E11;1.84931711915E8;1752334.2249901663
009df375ee901d99f8a3eee4dba59de9acbb8bd9f6;1300482307;1.3724574679811906E11;3206070.718877089;30379.36214535988
009e1ad336657569acc9ddd2584f81ca72f7afb2b5;1300482307;1.3724574679811906E11;3.660366343298416E7;346840.7420741374
009e7f984e0b80d7b72cbec77f238c395c37242670;1300482307;1.3724574679811906E11;5.9559085811075404E7;564356.5584027251
009ebdd90e6e0a4f7a8cfdc66179d8b3b386badff5;1300482307;1.3724574679811906E11;8.83261848980835E8;8369413.507125339
009ef85210e6e76693649ed08ecb5d036011a743dd;1300482307;1.3724574679811906E11;2.1295383435943024E9;2.017859935576839E7
009f1b1ae52e1c0287aa656ca0713efc99329dd620;1300482307;1.3724574679811906E11;4.286846788946371E7;406203.3638131599
009faf479970921eb7595e1a3362df880673d3dad4;1300482307;1.3724574679811906E11;8964986.63758037;84948.39932500172
009fe2ecbcd0073b4afc91f805cbbdcd37f42235d9;1300482307;1.3724574679811906E11;1156594.4277655734;10959.396737418836
009fe99ea19d35f382b6091995fcc138deb5e6a32e;1300482307;1.3724574679811906E11;2.564929157511794E7;243041.77476326856
00a05a23518f52534e73545fefb4b180a1959895e7;1300482307;1.3724574679811906E11;6.4596637155770175E7;612090.251775505
00a0d4795404137823f62c9cf2fac3ba50f7dd4c43;1300482307;1.3724574679811906E11;5.487766710145667E7;519997.4263673026
00a0e4ab4500714e06c4db31814eb145c9e3850a0d;1300482307;1.3724574679811906E11;1.2997369406763345E8;1231575.4291389426
00a0ea7251b606d22fa28c0ebc227b9b45d7315920;1300482307;1.3724574679811906E11;8.054385733794445E7;763199.3256563663
00a1074b13fcbc29c219a52d6f12af4d8fddc0b09c;1300482307;1.3724574679811906E11;8.27971990852962E7;784551.0333953749
00a146f5cca89e84dfb701a00ee95519c6ed010882;1300482307;1.3724574679811906E11;2.467964887378753E7;233853.8530490405
00a14a47eb479014049cfc536a6f43887fb4ddbdbb;1300482307;1.3724574679811906E11;1.8501358756351307E8;1753110.0438024027
00a1867413280e5220f9218f74943f843b203f251a;1300482307;1.3724574679811906E11;3592806.3140040305;34043.90411247456
00a1ae0209acc8848013e68be3354cc64a7bbe3977;1300482307;1.3724574679811906E11;1906911.8920876875;18069.08581521098
00a1bf93e9ecc06ac98fcf7090ae2dcb3955bd15bb;1300482307;1.3724574679811906E11;5.6821643147766456E7;538417.7163393947
00a28862bf5ce379b3dd0e2b65c3247725459f8a5b;1300482307;1.3724574679811906E11;3.438719574037141E8;3258384.371901838
00a2bfbd9d9c8aaf65adeb422631ec91cf924e2dc2;1300482307;1.3724574679811906E11;1.2291814855761199E8;1164720.0815884424
00a2df0b8eba964217008c1b2e54e476fd67362781;1300482307;1.3724574679811906E11;1.0267684089018533E8;972922.0615685422
00a327e0bdf695cc2d749d97bc9fe2ee08ee89e2a9;1300482307;1.3724574679811906E11;1.433382023379961E10;1.3582118237292048E8
00a561d0208cffc300ff3e8e084a0e903ac73631ce;1300482307;1.3724574679811906E11;5.35708584345879E7;507614.6634071
00a565524c5479842d692e49a74f94785401952741;1300482307;1.3724574679811906E11;1.2653760109769061E7;119901.64740028628
00a618ffbd39178b90f7c44dd5089ff588818f2e73;1300482307;1.3724574679811906E11;1.417605607170088E7;134326.27629186085
00a65dc475af4440feb95e47cc36a028463ebab1ff;1300482307;1.3724574679811906E11;5.360479292493259E7;507936.21220055915
00a6d31084268ab9e20811c4b7fdebafb1851be5e5;1300482307;1.3724574679811906E11;9.199149954369694E8;8716723.129274853
00a7a1ed2dc69fe47f46f3c0c08622e86a8ab22476;1300482307;1.3724574679811906E11;8331696.559779218;78947.61197389715
00a7aba4ab460e7dad066220e88bbbd86d31df598b;1300482307;1.3724574679811906E11;6.178217312796137E7;585421.588030047
00a7cd3060573227a8673616587be7a5d5407f62e3;1300482307;1.3724574679811906E11;1.166357209392628E7;110519.04702651194
00a83b632f1fa16b752fa69d3498d2e6f542cf298c;1300482307;1.3724574679811906E11;9575065.828981733;90729.25019139236
00a8e1442de4b2255a02b5e794df3eb346bbf5bcc5;1300482307;1.3724574679811906E11;0.0;0.0
00a90afd1ac71001aed439c5c78b81b8b81648007c;1300482307;1.3724574679811906E11;9048008.62;85735.08030964168
00a9b7c1358bf834b85bbece695737fcd41582ad03;1300482307;1.3724574679811906E11;9903797.529069768;93844.17192622297
00ab9f6b4cb7521f29a2914887b71d90957a37cc16;1300482307;1.3724574679811906E11;8.700809380362573E7;824451.6802684797
00ac88287b451f428df99f694d2a760b19adb9e77b;1300482307;1.3724574679811906E11;185832.52393177222;1760.8699364207616
00acb67deb8768cb62372591efb2cd6c2e2ea75618;1300482307;1.3724574679811906E11;1.9040596514150772E7;180420.59196051033
00ad5db8f0c8726b088ece10794f3eadb48e270e02;1300482307;1.3724574679811906E11;2.2009225647810102E8;2085500.5866119794
00add78c95d7769da4a78cd05818ae8550ac33c7c9;1300482307;1.3724574679811906E11;2.0571213513225538E8;1949240.6745995982
00ade0c0ac27ed13d3153a93f67a3448532674fb7d;1300482307;1.3724574679811906E11;8895290.350492679;84287.98696006
00ae9d0c61cd4a2e842797b65bec78e7bf659ea642;1300482307;1.3724574679811906E11;9812230.91142202;92976.52561338028
00aeb30f0c95adf763d21227eb0f40b9ee5ac899be;1300482307;1.3724574679811906E11;3995321.294492798;37857.96482211592
00aecaa587bd7b5ad5229a01549f0a971645e45e67;1300482307;1.3724574679811906E11;2.0836653945619875E8;1974392.6806868275
00aed8e1dc9a1cd9e55c661b52c4b72a697c2dd451;1300482307;1.3724574679811906E11;1747720.4000584213;16560.65496297105
00af30468f11657c54ef9dd6ddaa3e0f326334f1f2;1300482307;1.3724574679811906E11;4.111249416067414E7;389564.50381841836
00af83d3a69a3cf191d11a252ae9696f6932928904;1300482307;1.3724574679811906E11;1.906776991582773E7;180678.0755541831
00af9ef8da2344028f58fd249d4c3b1f3f6a5482f5;1300482307;1.3724574679811906E11;6.211283981262625E7;588554.8448555105
00b09ac0eef8be2d5520555fdb142af58846cb20e2;1300482307;1.3724574679811906E11;1.0664242004868509E9;1.0104982025634453E7
00b0ad1e398131a0843105d5dd2efa98f44fde7e5d;1300482307;1.3724574679811906E11;548954.474251101;5201.659051498038
00b0b064e4880325ad339018265744c2cd8028e969;1300482307;1.3724574679811906E11;742256.2710886053;7033.304640255387
00b1ade35c764fae5e8955a8548288f05b4d136c1a;1300482307;1.3724574679811906E11;1.4780220119675031E7;140051.0777756665
00b1c98d1b6b0f55c7dc74428f4ed83cd7b08c1269;1300482307;1.3724574679811906E11;8.010605438098918E7;759050.891094601
00b21737c18facf1dbadd51607296636673a2a9b4c;1300482307;1.3724574679811906E11;1450570.3412085613;13744.98742445941
00b2e5260709aad12ce12fe44d23508064ab844072;1300482307;1.3724574679811906E11;2.7040333293973684E7;256222.6942880954
00b33c83eaa40aa5e9dd699190c4d8f515077b674e;1300482307;1.3724574679811906E11;9423257.414340515;89290.77823943435
00b35c475557dca47664a3436fc6cca48f03a27fe3;1300482307;1.3724574679811906E11;2357219.3055674443;22336.007287121996
00b38951b436d5fcdf69b8fab89d91343c623f6806;1300482307;1.3724574679811906E11;1.2683785827207014E7;120186.15832462463
00b3c7d72e7f19a8a3de46dfe850ad663ccf80f702;1300482307;1.3724574679811906E11;1.832938168604651E7;173681.42282774186
00b3e0a7734f2a30f739e1a193511db01d96c37d04;1300482307;1.3724574679811906E11;1.613955260497202E7;152931.53409362718
00b4aa0d9635ace6a0f75d7251832c13d5cb441e8f;1300482307;1.3724574679811906E11;8.827494760967844E8;8364558.479659353
00b4b756b1ef697f11b324a9c67346e31292eda0df;1300482307;1.3724574679811906E11;1.8239061889519263E7;172825.590861391
00b4ea334212ab90793cf66609f0e3fb50652be010;1300482307;1.3724574679811906E11;240019.88490134716;2274.326315565331
00b4ea43d2ce9949df03741a757ceab5c6310c2535;1300482307;1.3724574679811906E11;364038.221045934;3449.471306665515
00b4ef08393daef3506b89499b7cc9e5645b5538ee;1300482307;1.3724574679811906E11;1690639.2318951753;16019.77809799697
00b4f0ca31a0cc4e56eb835b5cf729a7dba330ddf5;1300482307;1.3724574679811906E11;1.825085868432079E8;1729373.7227011665
00b5787ce59988e97f4eecba542145e079cc09e090;1300482307;1.3724574679811906E11;1.5688568869282436E8;1486582.0408018955
00b5daabf9a664fa3c56e81b8795bfa4bb2a1f446c;1300482307;1.3724574679811906E11;2.21128224525325E8;2095316.9790865227
00b5ffff62f8d57310260341b5cb3bac9993d39d47;1300482307;1.3724574679811906E11;9870081.470162153;93524.69289613237
00b68eb221da8747ad6f00257ecfb98b00c4425329;1300482307;1.3724574679811906E11;1.273010280740265E7;120625.03832392031
00b74cc6bab60b82db1b9c3ab30c5890d4b90f24bc;1300482307;1.3724574679811906E11;9424440.302596474;89301.98678530133
00b76bb2a448a1a312934d8dae3210b2a87e76976e;1300482307;1.3724574679811906E11;1.798705763379632E7;170437.70574653597
00b78b3a71a0c68a3328549e0f0de79ba9af063782;1300482307;1.3724574679811906E11;8073138.048056031;76497.62151761827
00b7f1f50232353a573d20dba8e0cf4649bba867d9;1300482307;1.3724574679811906E11;3.471240650496896E7;328919.99603824894
00b87446a29c44c687a9d84defb4e32a0833f2ca19;1300482307;1.3724574679811906E11;1.1261048059372937E7;106704.9005244066
00b878b938b37354bf4d453ad71de96d7b535e3fc6;1300482307;1.3724574679811906E11;3.287178147909414E8;3114790.163662696
00b90dac72c5ad4b39c8a25ebb5906ffd580984de0;1300482307;1.3724574679811906E11;5.093610638908966E7;482648.87394957576
00b9e0cd10605f7ce71c8fba99c8537abec9a46e19;1300482307;1.3724574679811906E11;5.040296829707523E8;4775970.8420725055
00bab91a09d27e81762b529f834fd956b3e0144b7a;1300482307;1.3724574679811906E11;8224609.159292426;77932.89732601412
00bb0be266879971b7eabc5752aaf087cf991af00d;1300482307;1.3724574679811906E11;5.572572450169943E7;528033.2574955226
00bb824a607292b2b3bf5fcf7b5190238cf35bcd39;1300482307;1.3724574679811906E11;8278601.435248463;78444.50516256713
00bc65232bd889b7e40e486ea58bf7d59eb391a0a5;1300482307;1.3724574679811906E11;451764.18630672625;4280.725231451769
00bd2d60545c98bb267fc9dbb5774a7b2e9766df61;1300482307;1.3724574679811906E11;2.2523226762619013E8;2134205.1454913532
00be15cbd68e9147517051d10b92b1dee2a8ba0198;1300482307;1.3724574679811906E11;1.3598781825024193E7;128856.27112518655
00be2512f20d0cb1888fb092489d8fae9f1608c41b;1300482307;1.3724574679811906E11;1.8340536663809124E7;173787.12265126058
00be33473d3969ae619a931af176df9f730607b3a9;1300482307;1.3724574679811906E11;1.4452499000025947E7;136945.73187113527
00be773eda360041ff684d943c43f572d414497513;1300482307;1.3724574679811906E11;5.617880642214463E8;5323264.690150554
00bec046271df26d10fdea6a3b877a729a71d83775;1300482307;1.3724574679811906E11;1.0774639315179225E7;102095.89820155516
00bf515c7bc2349e96f80e4921eebe4b81aa94eba7;1300482307;1.3724574679811906E11;8351017.0638205875;79130.68485050208
00c02d11f4805cc882aeade494bc67ae1b3c791d21;1300482307;1.3724574679811906E11;1.1578277767488372E8;1097108.3427669795
00c02e09264e9429e1fb44c094857cd9bff4020c24;1300482307;1.3724574679811906E11;1.7004849373796046E7;161130.71814422784
00c0aa1158cc9718917158977432c0469e9f9bb12f;1300482307;1.3724574679811906E11;1.2220374396168677E7;115795.06875728536
00c0ba1cd12676ddf3befafd665434de75644d780b;1300482307;1.3724574679811906E11;8807337.117753008;83454.5795453323
00c139ff8f7cd73ea7d19f49210839655745af93f6;1300482307;1.3724574679811906E11;8.894757817677144E8;8428294.09056601
00c1533d7112da2a15383d839d243d6d02e2954921;1300482307;1.3724574679811906E11;1.6556082135320362E8;1568783.9071540532
00c17ffa6c6d829b5b90d1fea02c6a61c430d30bc5;1300482307;1.3724574679811906E11;1.8326096811321374E7;173650.29675235946
00c3a7159620a092d4fa591c5ad17ae80cddf6e268;1300482307;1.3724574679811906E11;4.9817999416959924E8;4720541.679677071
00c3b14a5f66a049ba970d5cc28f0e5dfe19107e62;1300482307;1.3724574679811906E11;1.289508259E7;122188.3165550203
00c4388e201455859a506d93850f8e300e6ce9102e;1300482307;1.3724574679811906E11;1.896670185561006E7;179720.3976138297
00c441c9e6c6855e82647bd659c0bfd70e4f5a297f;1300482307;1.3724574679811906E11;1.502467903255814E7;142367.46643185246
00c447a87c9815429396a1f4672603fdf39dff0730;1300482307;1.3724574679811906E11;8519649.810462615;80728.57701477697
00c45a55cf8de7d1ce6dd3a5658fda74c9dc376c22;1300482307;1.3724574679811906E11;9133261.765112141;86542.90284273283
00c4c1ad0ecb6b0db9322af0a76502429b8d87ae0c;1300482307;1.3724574679811906E11;3.989579244648949E7;378035.55600686115
00c51ebe02bcdadeac72b8c19b7b19b87a5eab3eaa;1300482307;1.3724574679811906E11;1811830.050055605;17168.130731614998
00c578d6b2994533ea89e8fd90b08a4a8a983f68fb;1300482307;1.3724574679811906E11;1259064.0386055843;11930.35517519562
00c60c1a85efcf3631c0a0dc9fc738c9fdc1818ac8;1300482307;1.3724574679811906E11;6767425.990198826;64125.24955786932
00c71d1b9673625b3d17ec454bb47d2a4d2ba54dbd;1300482307;1.3724574679811906E11;2.0864231044239519E9;1.977005769228361E7
00c744ad30409887487ae610d0694ac7d67ff2d64f;1300482307;1.3724574679811906E11;4.387092545286207E8;4157022.2519963
00c774fff889a942b555d39d0df927d88cc1da3039;1300482307;1.3724574679811906E11;1.0662810274347287E7;101036.25378703907
00c7915f11747847628884ee036558dcfc0b65d0aa;1300482307;1.3724574679811906E11;7569738.456494464;71727.62115367391
00c7d598e3ffb4bbbcdeb997f32e02e1b5a484d774;1300482307;1.3724574679811906E11;1.9605320392334086E8;1857716.751747545
00c94a1520c04e233eae0e55d08868ca46a6b589d1;1300482307;1.3724574679811906E11;1.9414821065598655E7;183966.584600405
00c950e7d858976e709d22a3c04de052ed13e2c443;1300482307;1.3724574679811906E11;3757467.7802605242;35604.1661133527
00c9e4abf7b14fb470c47fd188a3f292fb22589eb6;1300482307;1.3724574679811906E11;4275808.772985698;40515.744838072365
00ca4be5d52674f3fc5048128b111f0b9866375255;1300482307;1.3724574679811906E11;9369874.87920258;88784.94804746633
00ca9db3d5c590cffb9518e1ad1311246a59a8da21;1300482307;1.3724574679811906E11;2.20196300548152E7;208648.64639554033
00cb940e655ad4df1379826749014b82e52ba5e2b5;1300482307;1.3724574679811906E11;3179719.5659027416;30129.66983057655
00cd1fe739b204551d1a07e0721c598935188486bb;1300482307;1.3724574679811906E11;9471180.337011924;89744.8754664003
00cd5e9f783fcbe37ae2910213aa08822ffb1c3266;1300482307;1.3724574679811906E11;972322.2090009373;9213.311588947576
00ce9b4a5f03f9569530a782d20f48b582bfb73b4b;1300482307;1.3724574679811906E11;1.6402721361177847E7;155425.2092652469
00cf3ab49abbf6d95b7c5cbb34de69f67a287434e9;1300482307;1.3724574679811906E11;1.3446076191290382E7;127409.29750681891
00cfc8bd7b41a84788de70e842ab6959262fec33ef;1300482307;1.3724574679811906E11;1.4753583343645938E7;139798.6790183315
00cfd53c4bdb671689b75699ffc8ad2d2765b191fe;1300482307;1.3724574679811906E11;3.8325546763038594E8;3631565.759538414
00cfd9783430ca486182267435dd6dc6d1a5524d44;1300482307;1.3724574679811906E11;1.3370705099268618E8;1266951.1310460384
00cfeecc6d19cd106c14c04ce533620a2712b3a00c;1300482307;1.3724574679811906E11;7315313.78070074;69316.80116796866
00d0105d2e717229b47b71b82e713fb97a1c143270;1300482307;1.3724574679811906E11;9776617.47290363;92639.06782131678
00d01e90f71e84e5f63d3607f097c43a30b575c816;1300482307;1.3724574679811906E11;6137749.231968784;58158.70048577443
00d0bf77d0f8318355c3677728e64c2f53ec57f939;1300482307;1.3724574679811906E11;1.2157646939340075E7;115200.69006306835
00d0d42ed20328110b70cc049c425388b58366d693;1300482307;1.3724574679811906E11;7.064374835230307E7;669390.1047984216
00d12c001dd117c56877593424fe621e42693f7732;1300482307;1.3724574679811906E11;6.352903058265126E7;601974.0660898363
00d163d76f4ee87d21c88c5c245577aaa98f7e660f;1300482307;1.3724574679811906E11;0.0;0.0
00d1912d0791256aeff5c22de228d65a09cb58667e;1300482307;1.3724574679811906E11;9.968801472660863E7;944601.2164049569
00d206b9c77cd3965f9f298a67629f2fa7f1f71b3b;1300482307;1.3724574679811906E11;1.229242136979618E8;1164777.5522780516
00d27a028ec882a7282632138198b381648a0aaabb;1300482307;1.3724574679811906E11;7953645.363984003;75365.35968016992
00d3bcaad520cf34b11e951d7e8b647a37f82fe288;1300482307;1.3724574679811906E11;1.1698886602249997E9;1.1085367228322718E7
00d48ca32da7b6f4a03a56f7ca1031b723b61aefa1;1300482307;1.3724574679811906E11;1.0121891559630744E9;9591073.817416701
00d494fd3591fd3d9c0ffc4eaa8c79698917da66c2;1300482307;1.3724574679811906E11;9332595.821786929;88431.7075593512
00d4c2f1385403f7ac748a5a2ba5df56a1473cb1ad;1300482307;1.3724574679811906E11;913745.9157460796;8658.267554689533
00d4cd15f43ee2a9067ce3957f4aec1ab464ae7839;1300482307;1.3724574679811906E11;7.248692236994554E7;686855.2376319512
00d4f5c69d23a1919d4021a3a79769d52a32bc381c;1300482307;1.3724574679811906E11;996218.5785311043;9439.743420173854
00d52235b604dab92de67da8605b79858ac3a2f218;1300482307;1.3724574679811906E11;4662134.361788923;44176.40175969609
00d555eafd5cc47260b59831ef186e0746361d20d6;1300482307;1.3724574679811906E11;1.018243510079984E8;964844.2301271689
00d5abc335c54cfaf7116ebea2132c89115eff6142;1300482307;1.3724574679811906E11;1.3650319365238944E7;129344.61893019482
00d5bdcf82749c811edffae84acf943dd722510c94;1300482307;1.3724574679811906E11;7857573.154337578;74455.02029440118
00d72ef3a5a298539780aed09861a7f9d3b7a83dad;1300482307;1.3724574679811906E11;7743208.858347893;73371.35288060606
00d73b71d9b3140493898a07e8d8807bb59bd65289;1300482307;1.3724574679811906E11;9168968.023255814;86881.24015407644
00d82d1af87114ca1d65a446dc599c9c395abfe499;1300482307;1.3724574679811906E11;4.796029847721802E8;4544513.842006787
00d852b81a4311c8e7689aee1d48183d1a11e9e5bb;1300482307;1.3724574679811906E11;8861562.459508369;83968.39581424448
00d86b62452eadae13bf13566dcb9e319ceeee1894;1300482307;1.3724574679811906E11;1.2748745492152544E7;120801.6884732898
00d8de5e00d4dc39eafbfaadbee2ec22a20bb489a3;1300482307;1.3724574679811906E11;3.442238502433699E7;326171.87587415666
00d9b7e9a1b70afc38227df3c2aa2ad8b42f0386a0;1300482307;1.3724574679811906E11;2688867.250173655;25478.56211432342
00d9e0d62e471bae1d22c8bf69891e018f9b1bb467;1300482307;1.3724574679811906E11;1.6465859012958512E7;156023.47479231682
00da020bf4a271401be020e491ea441a9527b2c071;1300482307;1.3724574679811906E11;2057208.49922258;19493.232522420538
00daabf55e460aab3dacaf339950d5134d2d7e1c54;1300482307;1.3724574679811906E11;1322410.9161074637;12530.60323618704
00dac63fbb760d82c1c05cdf7c5074ed622fcd358d;1300482307;1.3724574679811906E11;2.3157364152976432E8;2194293.306735435
00dae0d98dbbe72eb56a8efbcc957d08dfa817dfbe;1300482307;1.3724574679811906E11;1.6094437781380413E9;1.5250404521886729E7
00db4a89cd0231136c59ea80488449877e52a8384d;1300482307;1.3724574679811906E11;9856278.58448092;93393.90262369945
00dba8ea0786edfd8a49409c1ad229ad16a5519b80;1300482307;1.3724574679811906E11;1.98590765811072E8;1881761.6086185274
00dcf971b2265105e66684ef63b9f734dec4e34a6a;1300482307;1.3724574679811906E11;1.7079468342772692E7;161837.77574844967
00dd4f4e815374cc0eeebfa046d649ef89ddb3e12c;1300482307;1.3724574679811906E11;2.319592024526411E7;219794.6718008058
00dd5889a75c371712c694f13044bbc485798f93e3;1300482307;1.3724574679811906E11;8.184790739696205E7;775555.94922219
00dd611213e24915ed39104d8540f002056f20be9e;1300482307;1.3724574679811906E11;1.3564346963783813E9;1.2852998102999702E7
00dd8e8efaf383ac92ccbbf10b80e4b3defee9b7a0;1300482307;1.3724574679811906E11;2.2799413953488372E7;216037.5468690801
00de10ecf29b07d150f553de1755bb9582f2f5856c;1300482307;1.3724574679811906E11;8449591.024924593;80064.72976874081
00de46c449e045bf90a909d6aa661c72695bd318af;1300482307;1.3724574679811906E11;3006864.4812497934;28491.768587656377
00de53d14bc1811ead882312913ef639cf4a45bcf1;1300482307;1.3724574679811906E11;6800086.436865186;64434.726055460145
00deed6ecc35c5285f376008f6844390eb4f721277;1300482307;1.3724574679811906E11;2.5161660697955012E8;2384211.920283436
00df78980bcf8a4d4a11b17464fe26fc32871ab1a7;1300482307;1.3724574679811906E11;1.716205364206376E7;162620.3189095453
00e01535db644fccbe194a356406b6c5071c405584;1300482307;1.3724574679811906E11;1.1981699655618603E9;1.1353348845731616E7
00e037842c74b82774d486dba00150c94f8d19359e;1300482307;1.3724574679811906E11;913360.2825287259;8654.613458385204
00e06f0b314305921db0827e30167309478342f0d6;1300482307;1.3724574679811906E11;4071612.487019661;38580.86770527088
00e2a66feb5d154263be9311df2056b22e492946d5;1300482307;1.3724574679811906E11;1.6374192026084466E7;155154.8774233867
00e2aa4548e1d4b122832cabcdfca21cc1177614fc;1300482307;1.3724574679811906E11;1.9294863984900376E8;1828299.2233809861
00e2b875c8176d8a4aabf55d996264c4f2dc552083;1300482307;1.3724574679811906E11;5.462346547233591E7;517588.7198769776
00e3ce432f24d301fbb4ce706334eccde1edc9249c;1300482307;1.3724574679811906E11;0.0;0.0
00e44c8e1464ec47d90b9d403625c9e58cbe295eea;1300482307;1.3724574679811906E11;8817727.394075409;83553.03338333718
00e46ada75a810bf6ff0f28e47f2c435c6b8ee9ad9;1300482307;1.3724574679811906E11;1.113621365325E9;1.0552202280137938E7
00e489223627fab44016d39d51b12622baa3740d7f;1300482307;1.3724574679811906E11;1.136924354289971E7;107730.114895755
00e4b041adf21c946885d3a6633cb03652c236b129;1300482307;1.3724574679811906E11;0.0;0.0
00e4e6c50539fbb1319183539370f008400c3d7fc6;1300482307;1.3724574679811906E11;2.589907707474977E8;2454086.3588934904
00e522ea0b460584691c6588acccc5b0203bbcd54c;1300482307;1.3724574679811906E11;4.4963786468483746E8;4260577.112382364
00e526fcf4a28ae3ac2b034792d82694090801e703;1300482307;1.3724574679811906E11;5.475627809199639E7;518847.1957572454
00e55aa3a69fdb2105de9a6b5f1c08088f68b2ac50;1300482307;1.3724574679811906E11;6592178.852865225;62464.68224141918
00e6a53d215fafbce407ea14729aec6fdfcc280a8c;1300482307;1.3724574679811906E11;1.1036071346415631E8;1045731.1690623473
00e6a70b4b85e2fd678b5223dae1e701b334d6faf7;1300482307;1.3724574679811906E11;1.325468023255814E7;125595.71082912965
00e761a2804893619f53a109ff04c93e6d6bd03972;1300482307;1.3724574679811906E11;1.6198893854997113E7;153493.82653279774
00e783ac0501fd88ec9444f145ecb8ba2d8dd056cd;1300482307;1.3724574679811906E11;4971406.52123291;47106.93316622635
00e7e18b7b33dc24b9d88158043f6e0a1a69b52f79;1300482307;1.3724574679811906E11;1.8810221772974506E8;1782376.5892346594
00e8a99474b9109d58fde61fb675e2f9464d704750;1300482307;1.3724574679811906E11;1.853813209388794E7;175659.45288193465
00e95783aaf01659a4462b069c0024adf307867675;1300482307;1.3724574679811906E11;1.6372717617949996E7;155140.90655917482
00eae26c14b21808e4a9b5c33be9443c92d18097bb;1300482307;1.3724574679811906E11;8.408181139222968E8;7967234.7309202235
00eb39fa1b00ac977c93cdd06bd8c6e0b030dfc9df;1300482307;1.3724574679811906E11;1.2370190661985729E9;1.1721466395452285E7
00eb9be72269d40ffc199bc089f35f4faeff024bea;1300482307;1.3724574679811906E11;4.07761180738133E7;386377.14712674695
00ebbc29bca33c7a1c659a546caf60574c4c6c36e0;1300482307;1.3724574679811906E11;8299134.5930232555;78639.06863004008
00ebbde1133624b2ee723ec96547b37b40e158e58c;1300482307;1.3724574679811906E11;2.1425581395348838E8;2030196.9402975629
00ec90d639f295627e4a4be29cdbd05a726d9402fc;1300482307;1.3724574679811906E11;4282339.7304634135;40577.62941260881
00ecb988b7c624f21cb7128033758df32fb54747a7;1300482307;1.3724574679811906E11;1.778212155108437E7;168495.8186145084
00ed3e0342f724aaa0eb0998388c1b46ecc6f730ab;1300482307;1.3724574679811906E11;2207344.244137845;20915.854967673924
00ed458d9f727b468c4ad042aa18f5a6973d889c67;1300482307;1.3724574679811906E11;1.9411536138549335E7;183935.45802922093
00ed6af636838e62de986c3cfbd0001befd95048a6;1300482307;1.3724574679811906E11;1.7475428362357922E7;165589.72443730346
00ed7d6295501ae86f1deda943ac05ecde1f0a97b1;1300482307;1.3724574679811906E11;1549424.2723285633;14681.68521945965
00eda7b0f41d0a6e6ddf5723603a49039ced9e76d5;1300482307;1.3724574679811906E11;5.688758699740713E8;5390425.722035208
00edf6c851ed71d03bcc0e7e52df90a8d58236cec1;1300482307;1.3724574679811906E11;2.4211611528661475E8;2294189.3028784916
00eea6aeb7910576a371adbd01b32ec2a0c4ca7c0c;1300482307;1.3724574679811906E11;4978085.674916729;47170.22198496343
00eec031fab956a8264ee64bbd14883962d2aec0b7;1300482307;1.3724574679811906E11;3.4343098047926986E8;3254205.862174476
00eecb2100435327cd6e5a57b43faed31040afe05c;1300482307;1.3724574679811906E11;1.2722238655527273E7;120550.52096646419
00ef1799a8a4e9d9f49d601580c26b2c72306c147f;1300482307;1.3724574679811906E11;4.414658044878845E7;418314.2146667114
00ef7a8be9d4bb67f1856ec238c8ae9122b58aaa7c;1300482307;1.3724574679811906E11;2.859506398560605E8;2709546.608793215
00f0e9ff67e35b9e673f7ee87d4ec091edd118ec9d;1300482307;1.3724574679811906E11;8.930394819316725E8;8462062.197183533
00f1233d3a7046f203ff22056a01318b62b71602a9;1300482307;1.3724574679811906E11;8776219.298481053;83159.72032863738
00f21c74882af0c66edafc76758bfb7e8ed4389ab2;1300482307;1.3724574679811906E11;3.0008638288995914E7;284349.089588959
00f2224da26e66314628e7d50c5a2446c8752b350d;1300482307;1.3724574679811906E11;1.3355872709044175E8;1265545.6768511059
00f2a3bf6f35250faab57662b8cf410bd374afda90;1300482307;1.3724574679811906E11;1.238773340507793E7;117380.89152470186
00f2f757b418ddd41cc74929334f047a388142cfb2;1300482307;1.3724574679811906E11;9717846.386377366;92082.17800889151
00f3a778fbcf663e4f0d47b41aa4ec51e0f9d39d60;1300482307;1.3724574679811906E11;2.4979524300000003E8;2366953.450092034
00f3dc5417900b23a96c2c8d1826e931211f41343c;1300482307;1.3724574679811906E11;5.1675930717738084E7;489659.1345379106
00f3e45a321f4bbf71982963db9b8f02b6423f4216;1300482307;1.3724574679811906E11;7825929.527134453;74155.17874544956
00f50760cc3c263fbfc96c4f078482f3c93106adb7;1300482307;1.3724574679811906E11;940188.9194979152;8908.830208363463
00f545920937d58b8d26071539c9cb6d8bb9ee30b3;1300482307;1.3724574679811906E11;5.310868381984694E7;503235.2933848051
00f5591948acef6203971826ec8869f93562968c96;1300482307;1.3724574679811906E11;258919.04588322397;2453.406724594169
00f58c1bbbf2b9a06cf6ea0e23701341ace184bf4d;1300482307;1.3724574679811906E11;6341321.214614167;60087.66198591223
00f5b42c979d22d23d65633f10f1c5be3a43041b7f;1300482307;1.3724574679811906E11;9495009.052012656;89970.66623208852
00f5ec0728aa1bb85965744d86ef0dd5627b58230e;1300482307;1.3724574679811906E11;873945.5938464504;8281.13663696785
00f5f50f29b54f0c28a6c64ce31acbc9e24f124317;1300482307;1.3724574679811906E11;9.968456758195493E7;944568.5527287673
00f635dcaee8eadf03d9cc0f63c5529a9a3f6111d3;1300482307;1.3724574679811906E11;1.813816548842328E10;1.7186953948984426E8
00f63b1a5ff831ce6a8c8cf0419fccf7e8d2a20e95;1300482307;1.3724574679811906E11;2.106604024968809E8;1996128.3509621064
00f66b5e6e16b78a0ab30bd24531668d589c7f3f98;1300482307;1.3724574679811906E11;2.5283015765102252E7;239571.1010154827
00f685027dbe0a92b22f7c0e9f5dfcaa32d92ee837;1300482307;1.3724574679811906E11;2.364159445285353E7;224017.69098484534
00f6c13954f07c9cd31c67ebcd0173085492d243de;1300482307;1.3724574679811906E11;2.9059489663882995E8;2753553.6102199373
00f6dbe4acecec6b4fb239055e7f80556e493a7071;1300482307;1.3724574679811906E11;1.1285668604651164E8;1069381.9433692906
00f6e5cb01d2bb9d520e01ec7fa522acd3d3110c6b;1300482307;1.3724574679811906E11;3.604998678100825E8;3415943.376755164
00f79f0f4bbdbc45b9765db725c716c203e69f5c4f;1300482307;1.3724574679811906E11;0.0;0.0
00f7db7a1ad63e28f77cc893c8d3a1c253c8abb8c4;1300482307;1.3724574679811906E11;7207280.901294114;68293.12756408466
00f84acf77f77252b11b8684518fb08fcce72b05d2;1300482307;1.3724574679811906E11;9057566.21391531;85825.64400341237
00f854d4943716b4e7b75091e58930c5bd1ba1754a;1300482307;1.3724574679811906E11;9527668.168604651;90280.13012646053
00f910caa11b18e223a77662357f40822071610a43;1300482307;1.3724574679811906E11;8559483.153743854;81106.02082906221
00f9629f3f42e0dfaa9fca359e88a2ce622e5017b7;1300482307;1.3724574679811906E11;9162589.954090362;86820.80428414239
00f96b168869db5416759fe61cb0507d38987f2740;1300482307;1.3724574679811906E11;4.949163070372178E8;4689616.368909598
00f9bbefae773b5a9aec5a01e0005139af1dddf7ed;1300482307;1.3724574679811906E11;1.0898169822723467E9;1.0326642073637966E7
00f9d7d8b228f42a1d148bd132bf3ba092206ad8a2;1300482307;1.3724574679811906E11;2.688347780019868E7;254736.39836148868
00fadb0912153099487ffc49e4b24e4d024f6e64a8;1300482307;1.3724574679811906E11;3982498.8454420324;37736.46475007757
00fbebd01d5b00a3687985d46d004c7dc044be9ddf;1300482307;1.3724574679811906E11;3582624.1140843574;33947.42191793815
00fc28a78dea16c765b3d5b52f34faa94861d52f9b;1300482307;1.3724574679811906E11;8.937069956243024E8;8468387.272948703
00fcdd97a29405d585b450d52bb5fc4a9c9ffbc1e1;1300482307;1.3724574679811906E11;2.7235467200791594E7;258071.70017157646
00fd562412392806c5d687fdaef05f7e7c2a93a9cf;1300482307;1.3724574679811906E11;5.561439043310845E7;526978.3032273814
00fd79226ee6c4322305758a32ff1c4f7dc2d67894;1300482307;1.3724574679811906E11;3.0522764613488372E7;289220.7319105886
00fdd3675c42e9a57c6c9ec43e7eee90c3a1fb0062;1300482307;1.3724574679811906E11;2650.223604767899;25.112391370962673
00fe0813844b18103c12cd2b3448d9060b958d194f;1300482307;1.3724574679811906E11;6.263586967101775E8;5935108.532764591
00fe34a7bc8d4907b46e06cc25f71ba43da2700212;1300482307;1.3724574679811906E11;3.742576554294803E7;354630.6319140609
00fe5f2d17cb74e0be8b673e12cbda5056ecab2fa6;1300482307;1.3724574679811906E11;2059098.5775698249;19511.142100726458
00fe99083a319caf9ceea1d68b1a48ada78da808a6;1300482307;1.3724574679811906E11;1.345599877814783E7;127503.31971842713
00ff1dded9dc1d57802f93092a41581d6fe28388d2;1300482307;1.3724574679811906E11;6673813.018858952;63238.212868038194
00ff4fc197e9d4b52c9920e3020a0a4b7626886a01;1300482307;1.3724574679811906E11;2.2263228724067578E8;2109568.837490625
00ff581c3520a683a5c1bc301e7699d492b8b042ce;1300482307;1.3724574679811906E11;4.443033413085865E7;421002.9438381968
00ff71ded534c1b41dc963e0aea18d994fb79930e9;1300482307;1.3724574679811906E11;2.19690605378611E7;208169.4711671154
