Identity;WeeklyRewardInQuarter;SumOfRewardable;RewardableForHolder;Rewards
00004707b35004e4b8e4f421ecb6419875ccac1622;924787692;8.346372066484953E10;3039732.1428571427;33680.58421429755
0000503d867c0d88f573bec12fc53d7972555f8d62;924787692;8.346372066484953E10;4.518415178571429E7;500645.63515781926
00007191afc732273eff16baa3a3c7ae8a7eea6255;924787692;8.346372066484953E10;2497500.0;27672.58926838981
0000f871f03b7d23a21de01b0d5d3d21529b89d784;924787692;8.346372066484953E10;1.1459084765625E7;126967.98643075216
00015b98c59f8f8e69a71a575716e43f89acaa9f82;924787692;8.346372066484953E10;0.0;0.0
00017b55a55733b7f3b2afa1602277b7839bc10499;924787692;8.346372066484953E10;4283839.285714285;47465.43545359912
0001ce2900f5e2770e0ecd7f879a90b33e044cf767;924787692;8.346372066484953E10;1.685848214285714E7;186793.93474585377
0001e52268cdee1d9e3f3894574e50220620dcfa94;924787692;8.346372066484953E10;6745135.502232143;74736.8826077695
0001f34f2955daec1e46537cc8f8b56503a4a7ec30;924787692;8.346372066484953E10;4751116.071428571;52642.91636079625
000262371407b1b8ef32a243082ea9f529a88b9c44;924787692;8.346372066484953E10;3.158274168320741E8;3499404.3586348463
0002a10869a1d354758aaedc3df43173db801d52e2;924787692;8.346372066484953E10;2706711.8303571427;29990.680580326247
0002f8598a27beb72c752dfcf91d62bee9ac475c6a;924787692;8.346372066484953E10;4386729.241071429;48605.468075998004
000305c89fe90d3670bcff971e3fca67f3da4daaaa;924787692;8.346372066484953E10;5.397999903609079E7;598104.6414549823
00032794ecd33f4b59ad4c8c1a900f733b7b206904;924787692;8.346372066484953E10;5.882557767857143E7;651794.2140439907
00032e337076db13fbc19b89b21385f2e1134f146f;924787692;8.346372066484953E10;1.6701904440714285E8;1850590.3567078365
0003756b37ad7f0d51edb1aa3263d23d352c9eee37;924787692;8.346372066484953E10;1.5378379982241848E8;1703942.3137609868
00038bb25c4e3f9f6f7e2d59d2b755355ef8439076;924787692;8.346372066484953E10;2.4356612723214287E7;269874.09003353206
000418db8ccf62894e3cfe403b0d5799bcad8dc6e9;924787692;8.346372066484953E10;1.360484831875751E8;1507432.9512861671
0004bd4547cb76b6a1dd53710c5f8779eed721b5e2;924787692;8.346372066484953E10;1.2679613839285715E7;140491.58993247038
0004f24e1e2454cc88930d8572195b34301747a52d;924787692;8.346372066484953E10;1.1830357064776786E7;131081.72650729195
0005df53b17afcce35288a216eec6bbdb8f0541665;924787692;8.346372066484953E10;363085.9375;4023.0342412675686
0006b6fd48ed680261135aa28135a0362293c723ff;924787692;8.346372066484953E10;7299488.839285715;80879.18178928891
0006f63457d7d9433974dd146f3c92b84ed5293429;924787692;8.346372066484953E10;1.6655733323333693E8;1845474.543425211
00071e21ed8adfeff1b62666f96782661fcba8155c;924787692;8.346372066484953E10;1.5516096078214284E7;171920.1416701893
0007588055ed0ac6aeb03f7906fe78749c1e322f22;924787692;8.346372066484953E10;1669598.2142857143;18499.34159245872
00079ed702ed81122898099b2cad772cfba478e6a1;924787692;8.346372066484953E10;2.335435267857143E7;258768.93265394453
00086a9c130366759950c327738f32cb484f16dd9c;924787692;8.346372066484953E10;6.794062406465702E7;752789.9837354692
000881ec6e589ee0ccdab26ac3164b4b1733d775b3;924787692;8.346372066484953E10;5.36399990421621E7;594337.4021423722
0009d811aa4a43df2680c7ad6bf2ec2cb841ebf3d4;924787692;8.346372066484953E10;6019733.928571429;66699.3491532924
000aa459686bbcb9ca0a9a44bef0ad93c0cf3cb34c;924787692;8.346372066484953E10;973209.8214285715;10783.277541684023
000aceb31e26d2c6120ae1ddb598ee4dd3930f379f;924787692;8.346372066484953E10;1953303.5714285714;21642.829809257968
000b33e693fdb858373a0608829f4cd42b70b0f368;924787692;8.346372066484953E10;9340178.57142857;103490.2603806041
000b636d3f54d710a170c275b7cde513c0848bd0cc;924787692;8.346372066484953E10;85906.25;951.85119993498
000b7fa7567bb18c50d5950395c6a8a58f29050592;924787692;8.346372066484953E10;1.6413837053571427E7;181867.21565636023
000b9741970293ff9c5708c59052d41d2625a754ac;924787692;8.346372066484953E10;4104129.464285714;45474.22981760772
000cb2cb289f03783dcf99df2656f2cba5b92d3879;924787692;8.346372066484953E10;3.586605413501431E7;397400.03393637034
000d3d44e8d051d4a18bd88676899e85fcd13cf51a;924787692;8.346372066484953E10;8.083932410714285E7;895709.0741746575
000dccc9738ad43478bbf8a4aa58b9bbe8f8a73c26;924787692;8.346372066484953E10;0.0;0.0
000de023c9f6ae09f1bde00f0e8d6859f02885388f;924787692;8.346372066484953E10;2.9320217261904765E7;324871.4032226801
000e280cee4c1d2e68af0786dde5f660a6be89ef86;924787692;8.346372066484953E10;5.952370711802505E7;659529.5690927079
000e9e7c4f29cd3e130639b2c0b1b0367ebe875923;924787692;8.346372066484953E10;3106579.0178571427;34421.255331715125
000f4268ba45041bd7538d18f863b4b1140e97cb44;924787692;8.346372066484953E10;5333389.285714286;59094.571015816764
00109d3769b9c273018f4de74a59a9056049d3f555;924787692;8.346372066484953E10;0.0;0.0
0010c669fa9d10bd561d90ded99df8589e1011591a;924787692;8.346372066484953E10;6.495528570847409E8;7197120.889775832
001142a37aa9fafb342d95cb61c712602532f60bd3;924787692;8.346372066484953E10;775208.0357142857;8589.394822773449
0011438fac8d47d0d5b3478cdc2515831473ddf23b;924787692;8.346372066484953E10;1807928.5714285716;20032.05797146331
00116cc41ed0a6dc9a567fdb29cdf8be9e68636b6d;924787692;8.346372066484953E10;6735658.482142857;74631.87612752161
001210f372df2094f1e72ef90024e1002cf19d5e32;924787692;8.346372066484953E10;6.805749541329446E8;7540849.318147831
001266d590d12a2fc00d0f7e7394f9e66cef4a583d;924787692;8.346372066484953E10;5.5829813585E7;618600.8009082982
00129ff2a896abc6e155c3a5a3e901dac9e90772c3;924787692;8.346372066484953E10;9.273214280201806E8;1.0274828827779446E7
0012a214d381a701d87711bc946b6fff4a1102afee;924787692;8.346372066484953E10;1.0480013158482143E8;1161197.596244232
0012b463395b13012d25572c1237c77dc83518a8fe;924787692;8.346372066484953E10;2.078537308597417E7;230304.3412205835
0013153a0218b8df737a0851ccda76fc1f817d18d2;924787692;8.346372066484953E10;3.423328314560911E8;3793087.4226103397
00131bb42695e57c0aa7becdad60430cac2ce85811;924787692;8.346372066484953E10;9532589.27841047;105622.19329958332
001446286d955bcc1bb924b17b5aab9e958e89bbde;924787692;8.346372066484953E10;5419646.875;60050.31509573068
001484e1b40ebaef37ad83ca5a145d4540dcb2a909;924787692;8.346372066484953E10;1.5553547544642858E7;172335.1082559658
001547ca35434ee1aab541f0117f59846f0c2d5633;924787692;8.346372066484953E10;6557422.767857143;72657.00376940884
00160fa6ffd4c7a4d49b43b6e7759aa663ad80d0dd;924787692;8.346372066484953E10;6.904992019816832E7;765081.1133769791
0017026ebddd7fc980bc0bfa818bc13056cb47b49d;924787692;8.346372066484953E10;3373817.655736608;37382.29039184822
0017be9f9f286a27fb5d925c616cefcde4565e6139;924787692;8.346372066484953E10;3778720.636160714;41868.66231209774
00186b1022b20980b81cbbcefa1d768c8a7e36e4c3;924787692;8.346372066484953E10;2.915837410714286E7;323078.1623227294
00187fd940298fd032f0472502ab68103091d1d517;924787692;8.346372066484953E10;3372567.6306696436;37368.439969324376
0018bcbedac3e9978ade38f666e7b54eb7fe114ad2;924787692;8.346372066484953E10;5.570619714379554E7;617231.1164221036
00191d8c2edaa9194eb4d591cc7364b51855b7fc00;924787692;8.346372066484953E10;4646712.5;51486.11269701413
00194d9ef56d6ea7fc9f111474dd15e3db3c5123c6;924787692;8.346372066484953E10;3.2119047478526783E8;3558827.6619226546
0019e9a28c978dd65114cc4e0bcb876770805b0349;924787692;8.346372066484953E10;5300577.678571428;58731.01460832924
0019ec0aed9fe789a9620e32d9dda8521c6d564581;924787692;8.346372066484953E10;6.526346617589311E7;723126.7642510275
001a53b7275033cbae5172588df246ab8a11e23e92;924787692;8.346372066484953E10;2.0428571428571424E8;2263509.3753065877
001a8f875c3b01ba0fe44d8f7db7decb0c8c5ada3b;924787692;8.346372066484953E10;961785.7142857142;10656.697111364758
001aa2b91b329f6364bb91bc4c55dbf28d50c787fd;924787692;8.346372066484953E10;4.119893973214286E7;456489.0240243183
001aa3232cd8d77fa8b54ed53acdb0b401100e1258;924787692;8.346372066484953E10;722678.5714285714;8007.362274358184
001b5a966673b3d9d87d84758e86a946ce33254d92;924787692;8.346372066484953E10;1.8136160714285716E7;200950.7613020764
001bc1d4da9fceeebf17b9f2a4c9c7cc49665c65f1;924787692;8.346372066484953E10;5.4044834734129466E7;598823.0284987275
001c55bce7420948369cce8f014b7ab2b37139f99d;924787692;8.346372066484953E10;1.835546875E7;203380.71973874455
001c7bf916cb56e4bc233defb6c05c94b87efad397;924787692;8.346372066484953E10;1.9502901785714284E7;216094.41067380083
001d112b141056df59222685dd37dc919f0efa4d59;924787692;8.346372066484953E10;3.366046290811257E8;3729618.2768371133
001daf29ea3cdfc1b581fa4357fa0cc5116e70bc43;924787692;8.346372066484953E10;751700.8928571428;8328.932957244288
001dd0db367fc3f7c67f260825d2508e673341502f;924787692;8.346372066484953E10;666569.1964285714;7385.663900591993
001ecfdd7a8768fc89540f57be69164a782b20ffbf;924787692;8.346372066484953E10;9591238.839285715;106272.03722705963
001f049a68c3075ff20ddeaafe0819daac3b64bf4c;924787692;8.346372066484953E10;1.0552131016741072E8;1169188.3384685174
001f296817e16efaa140b6fee684f3a96d4a8528fe;924787692;8.346372066484953E10;1387079.1294642857;15368.997410378726
002043214eff85403fc9029d73785c6136f4e842e7;924787692;8.346372066484953E10;6.73999700322208E8;7467994.744358071
0020e11def65edd308768051dc0ebad1f537069fef;924787692;8.346372066484953E10;7254241.071428571;80377.83128069145
0021d63fb6946ad9116785e3ec9840ac47952ebfc8;924787692;8.346372066484953E10;1519017.857142857;16830.893794620184
002211b08201dd32ccf0fca91047c84475ee1b8d9a;924787692;8.346372066484953E10;4.049285412760714E8;4486655.137449831
00226304336de6a1d06c695afd350815466f53590d;924787692;8.346372066484953E10;9425571.42857143;104436.42312821915
0022aa5a93dc352101c433667b50388d8ca2228f58;924787692;8.346372066484953E10;6242171.875;69163.98736319106
0022e47780cbb1b664611389f3b11ddbe951b38700;924787692;8.346372066484953E10;9975502.232142856;110529.72012652452
002319c23cec3792fc24fb574a41460b94ecd65292;924787692;8.346372066484953E10;2.441428035714286E7;270513.05409670935
0023d1b568e99095e1d6ebfce8a583efab67ce5968;924787692;8.346372066484953E10;1.702380919642857E8;1886257.776481301
00249d60d673df8bb1ac0fbf05c3f1aaf3a84cd2b9;924787692;8.346372066484953E10;4987577.455357143;55262.935882434045
002560b7de34b37cfbbd5748fb98e8c172e1d5093a;924787692;8.346372066484953E10;4.0747560242965125E7;451487.6870040216
0027266a6440eac0597651df7fcfc2384dd149902c;924787692;8.346372066484953E10;3.059193449247267E8;3389621.7743170504
00274b7e9713baebbd45efe8715c3abd55ded2d056;924787692;8.346372066484953E10;1871178.5714285716;20732.875297279385
0027a25bfcaace720f8ce75f0133deda2b1a613a9b;924787692;8.346372066484953E10;5074588.834402902;56227.0320401956
0027a2c65eef277c18d698a3ed15d91f39757e5ac9;924787692;8.346372066484953E10;1.2647928994082838E7;140140.518177783
0028ae363f88638f25e22bc77a4367fc4cf80dcf80;924787692;8.346372066484953E10;1.1741928482142858E7;130101.92756962849
00292777552fd768721c4c38f6af0566c52dcaf8e7;924787692;8.346372066484953E10;6285219.642857143;69640.96161697754
00293471d309399e77cc36d62fd8edc6b6f85042a5;924787692;8.346372066484953E10;5836104.910714285;64664.718366938614
0029989257513b82e30a4e10597a79482e9de20b85;924787692;8.346372066484953E10;6.755178571428572E7;748481.6097768613
0029df0cf3c74e9bb22d481f574645daa2e1ef87fa;924787692;8.346372066484953E10;3.689520535714286E7;408803.148677121
0029f80452925b6e566e40b3475a6b0957c5d3175b;924787692;8.346372066484953E10;2.4352051339285713E7;269823.5493712895
002a2d9df13c0e70cc3da78c3700dfe6d50aaaef39;924787692;8.346372066484953E10;1305782.1428571427;14468.217382696144
002b265da2bf8b7c73ca780696652170a3cd25c88b;924787692;8.346372066484953E10;5757931.25;63798.54515190243
002b905e734975ef780c774f553dec1119a2c13b5f;924787692;8.346372066484953E10;1.584793178040921E8;1755969.1968477508
002c30b8822473502012d2598aa75a60d98fe6b558;924787692;8.346372066484953E10;3.0441945086337548E7;337300.277439478
002ca69e438fbdf90074db1908fd6a3ac2ec5a7df5;924787692;8.346372066484953E10;4.2764544250071424E8;4738361.034162593
002cfc3b6c0b1667f5d1eb13911495e59d02b50cd8;924787692;8.346372066484953E10;3.678336528459821E7;407563.9477196535
002e418e4ff8ea1c6d2bb197b59e1f0fc2ebf7550c;924787692;8.346372066484953E10;5.8872278212579995E7;652311.66136981
002e86446bdeb027345541e463c8dca1562b45346f;924787692;8.346372066484953E10;8.909525802243136E8;9871857.781845666
002f08736bc58103c1d09ef573b764621641af6f14;924787692;8.346372066484953E10;3.126350111607143E7;346403.21340416063
002f333cff5f5f39264eaef4aa8bfcf529877c833d;924787692;8.346372066484953E10;378804.0178571428;4197.192392142748
002f964ac64c1a177b3161321383f280890516b947;924787692;8.346372066484953E10;1.1827008928571428E8;1310446.2877034482
002fa4650d61984323e94c5eabdd443ebc90fa40a7;924787692;8.346372066484953E10;1.0335330803571427E7;114516.66237444217
00300fe2d56402f9f3aa6cd0564e056b4a4ee8202c;924787692;8.346372066484953E10;2.48870078125E7;275750.9290548632
00303090471738b78f6fc910e8e06d1b08bc144bd8;924787692;8.346372066484953E10;1.5554451562253484E8;1723451.2487579775
003058133c84fa602fe1c53fee1690c4f29f193019;924787692;8.346372066484953E10;1054575.8928571427;11684.823037189659
0031020ab94157055e4dbf826d751472e48397f16f;924787692;8.346372066484953E10;1.3742633922442403E9;1.5226997557621196E7
0031042a6b5ccb3910230fb4c690e3e2d881af769b;924787692;8.346372066484953E10;5848214.285714285;64798.891644484924
0031b0636472b2f6107637bed28c146707eed0ae49;924787692;8.346372066484953E10;5.865308035714285E7;649882.923743374
00325b43248386ad6b61e9ae4ff974c5515a68f978;924787692;8.346372066484953E10;1.4416056295070365E8;1597315.7346284988
0032d633536f15d39cb397d53fdcab77eeb8b81daa;924787692;8.346372066484953E10;6298668.917410715;69789.98113676885
0032fb5447c7d9bc485e5c74f6d37378501cad1003;924787692;8.346372066484953E10;5134142.857142857;56886.897509890536
003357f9ed428a04d840e39aa7f63d827617f46ebe;924787692;8.346372066484953E10;3.525E7;390574.0827670634
0033ccca69d00692eaa29f6b04e6bff972f9a3b6f3;924787692;8.346372066484953E10;7359459.375;81543.66227098128
0033f7de239c0db8f45d53b0a98f00e6423dde79bb;924787692;8.346372066484953E10;784106.25;8687.98806767863
00341498eeb456aa3640cbd9051edc0cec21f03578;924787692;8.346372066484953E10;2.4107142857142857E8;2671099.3502306766
00349883b786a0cbf13a054af5f11dbda9759c3a51;924787692;8.346372066484953E10;5.240105174285714E7;580609.7225672584
00350c4134bd65c62226189384ba8b6f3a14de40ab;924787692;8.346372066484953E10;1996400.6696428566;22120.350649115175
00359e2ee09f2e78ada66caf56ac6db054b3d0b03b;924787692;8.346372066484953E10;6006883.928571428;66556.96966496453
0035ea8acd943be133e15d4a77f26b0bff1a184be3;924787692;8.346372066484953E10;3836495.5357142854;42508.81489082384
0035fe43ed1bf4dc2deac361c646f84d7bc79d0e25;924787692;8.346372066484953E10;749156.25;8300.73801965852
00361ad21315abd3a52d5af77a9a9fe2e306ed3391;924787692;8.346372066484953E10;1.30217306640625E7;144282.28397605542
00362761916bdee45e6908b126b87f57b220952fa2;924787692;8.346372066484953E10;1.5160668365371835E8;1679819.6144512733
00362cfffc8dae9e92a402632127f0ca6caf84f052;924787692;8.346372066484953E10;1.24172052734375E7;137584.07262987783
0036997527f23a4ddc38e3c7a78a19dbdc30897438;924787692;8.346372066484953E10;1.6714285392857143E8;1851962.1805452777
00381d19f6018e6de718c17a6e1ec85074f584300f;924787692;8.346372066484953E10;1.1828125E7;131056.99497104033
003829a72b9c512c378256d603245d0cb4bc71120e;924787692;8.346372066484953E10;697628.3482142857;7729.802899747408
00385790e3944be9d9fb3a665e7d227d9889ea9925;924787692;8.346372066484953E10;1.6113526788223642E8;1785397.4313341712
00389c90db43622e525452be86594321f147ffa67a;924787692;8.346372066484953E10;4.016449375E7;445027.2427293532
0038eed148fdaabc14d0bb159a7da149d1b5a95fc4;924787692;8.346372066484953E10;1.6610645089285713E7;184047.8714870069
0038f20279b127950067cbfb5e08ac74831521ee74;924787692;8.346372066484953E10;1.5818583758593637E8;1752717.4020387733
0038fdc3067519647f32ecdfb4437cdcb221464995;924787692;8.346372066484953E10;3437568.9341517864;38088.66194056413
003a81ac2e0355368028dfa76a104673d4a80fdfa2;924787692;8.346372066484953E10;6136160.714285715;67989.37142392714
003a83e0f374fdb6788e2f8e01c55430eb27de53ab;924787692;8.346372066484953E10;1.9655999799999997E8;2177907.5440438525
003aaa891767534e6c218ad69fc41d70526578b79d;924787692;8.346372066484953E10;3371037.388392857;37351.48470766005
003af46fb9a1ae7fef89da57e5d601a7eb38a1a137;924787692;8.346372066484953E10;1.2164182142857144E7;134780.54703710412
003b550ca8ec20c93f9b57aeb7de1adee573176f5a;924787692;8.346372066484953E10;7.552972845488627E8;8368781.393734062
003b85237cee0249077fca1d7bc201f5fd7da7a8dd;924787692;8.346372066484953E10;4.8089285714285713E8;5328348.55568238
003bdb9add4126b7e59084b4ca095d6fce0523d381;924787692;8.346372066484953E10;2.6983896875E7;298984.7027357206
003be3f896374676423d086a90323a1a316af42d22;924787692;8.346372066484953E10;84095.98214285714;931.7932224068587
003c39b2d0d3b7dac083125945be807e1de4ad3909;924787692;8.346372066484953E10;1.9176547137578126E7;212478.36337301933
003ce0624f3062ef13e8cbff694ac92adb857f28aa;924787692;8.346372066484953E10;7806509.6494257;86497.03109040206
003d4009fad039382f064b5ac7fa7361a6ef8d3517;924787692;8.346372066484953E10;1.872774140745075E7;207505.54390110154
003ddd6e16df72813fded7203c35e7a9bc4f8f46bf;924787692;8.346372066484953E10;2041485.9375;22619.900638891377
003e14f0a73e1432929bad34910b518e3397ae0f53;924787692;8.346372066484953E10;1.6383927916071428E7;181535.81894868886
003e6cf81b794d6a7f69c2093a24fd69b806660c98;924787692;8.346372066484953E10;8747710.714285715;96925.64790195052
003e7acc5bbf87716c33f302b6aac12d741a39b54b;924787692;8.346372066484953E10;5.827650669642857E8;6457104.439667012
003e8a0d56fe6b701fe71321d7b4dac0bc4efde848;924787692;8.346372066484953E10;6209765.625;68804.92235979617
003e8f727dec29146d477396f32ce385ea05a4068f;924787692;8.346372066484953E10;6224330.357142857;68966.30127887262
003ee3fa369a9fec862be367d491201faa8875e534;924787692;8.346372066484953E10;2.2325157648548156E8;2473653.325166464
003f74c99f5b6ce2000d130c1250c1993606e93851;924787692;8.346372066484953E10;4.647566964285714E7;514955.8026026661
003f7c99487893feb1e62a0b26969025dc3bbc05e0;924787692;8.346372066484953E10;3.2869782659416594E7;364200.9989490599
003fe1caea11d44587ecc1f0d47163fa537e41d577;924787692;8.346372066484953E10;2455664.0625;27209.042235318528
004006e393c8d4af9c3d2f88d192d3218aba31196b;924787692;8.346372066484953E10;3.542710232425269E8;3925363.9703233736
00404aadb526f6d53615c2fb061f1c438c1b1b9342;924787692;8.346372066484953E10;3017183.0357142854;33430.73749544542
0040bfb43e1432084def40dc42f50c246e05e4daab;924787692;8.346372066484953E10;3936200.3348214286;43613.55561305779
004112ed071df0e31e09fe4a0a3cffc5fba627a5d9;924787692;8.346372066484953E10;6338122.767857143;70227.13436938565
004121528010e5bc4ff46dfb0f8b67c74b73544191;924787692;8.346372066484953E10;4.729352594120399E7;524017.7451150657
004248828eae4533cb52d369c7838fc83700500542;924787692;8.346372066484953E10;409123.8839285714;4533.140019957455
0042b6e26a341031811f4e6f166f9b6800ec015a5b;924787692;8.346372066484953E10;1.7275892857142854E7;191418.8938059754
0042bdbb4cfeef2bb8dddd876b74a41dcfa4631627;924787692;8.346372066484953E10;1509737.7232142857;16728.068835837003
004336fe935b0975a028e65a959234fac580f03ff0;924787692;8.346372066484953E10;94.62499238116561;1.0484558753507554
00435995cf0fe2d4df013fb48a38b459cd9e018768;924787692;8.346372066484953E10;1813019.8660714284;20088.470105796092
00435b8be8d13c913c1a9a00c6632f403ef4abc526;924787692;8.346372066484953E10;2.618133272496034E8;2900921.989977499
004400a28a174ba2d2f540b7612e85d1475250d206;924787692;8.346372066484953E10;1.780920892857143E7;197328.09764776684
0044e24a7255d455eb312b19719ee80f70099da4dd;924787692;8.346372066484953E10;807593.3035714285;8948.22734159527
004608f9647ac7f1cda974d90510c09c4db64bc3b4;924787692;8.346372066484953E10;302883.0357142857;3355.979116590378
00460de8e68bfb92bfb32c6bbf48554ba5f66bfc9c;924787692;8.346372066484953E10;3.2258742095220573E7;357430.59872510727
004646f1e6b45cae73fcbe30b5ce1891e4572e1909;924787692;8.346372066484953E10;1.6188325109E8;1793685.171909985
004685041187517df45e49906d2dc2335d153f5463;924787692;8.346372066484953E10;6842571.428571429;75816.48395694754
00476a2e6cb857f19befd052d72daf939dad8aab2d;924787692;8.346372066484953E10;2136160.714285714;23668.908131210716
00476c389ad5e893120ba2caf03b01eb5e31d74945;924787692;8.346372066484953E10;1.090430580357143E7;120820.97127493552
0047a52232a88a791c1b0c0efc7efc02f50687e46b;924787692;8.346372066484953E10;8390609.598214285;92968.92617529257
0047b1d23d1a14e3c4e7d0f36358646ed2fa462d71;924787692;8.346372066484953E10;1.1430763939732142E8;1266541.883996512
0047cfa5bf098fe72a4d26b35aa766810acd813dfa;924787692;8.346372066484953E10;4872321.428571428;53985.88575632889
0048070764e394a8d915b458059e398030e0430cfa;924787692;8.346372066484953E10;2.398659598214286E7;265774.2616859454
00488bec2fe110c0a922786432623069e744d978de;924787692;8.346372066484953E10;5.803571428571429E7;643042.4361666444
00489b6260e9db67bebdb40d137fef3a7c66b70c2b;924787692;8.346372066484953E10;6.28199567608051E7;696052.3969168237
0048fa9cc711b0f341ee32d2915d4c65c3ef0251c8;924787692;8.346372066484953E10;2.0583598660714284E7;228068.65721854853
004927076e817474824aef45851548cdb204db6a39;924787692;8.346372066484953E10;1.4907145982142856E7;165172.90407518187
00496728751f132621158594d20331a783c4da3e21;924787692;8.346372066484953E10;7372767.857142856;81691.12179455486
0049c00463b97db1c72797ba4059806aa2d247b23a;924787692;8.346372066484953E10;6.601120256768492E7;731411.7700772868
0049d84cfb76b1bb13240256b0a11b98e7bc38c0dc;924787692;8.346372066484953E10;1.7361100541785713E7;192363.0048208432
004a291e78ad5ac1f06e9e9a17b5257c4d92ad4a05;924787692;8.346372066484953E10;8750488.281250002;96956.42366562146
004a521df54d6676ab2706b2eeccc330c73e3b5d6a;924787692;8.346372066484953E10;481785.71428571426;5338.24151623879
004a7d4922c6bd581d5ae912ce85466815d5388623;924787692;8.346372066484953E10;2494196.4285714286;27635.985314331094
004af9754a4e879f2ca2b6fb3b289148b3fc384b4f;924787692;8.346372066484953E10;494432.58928571426;5478.370356040057
004b15bef2c6559de77f599e2fd758bc65b653451d;924787692;8.346372066484953E10;1.8804653264285713E8;2083577.3618300871
004b46f553f8e23c5f135f204b010e4f3cadde9034;924787692;8.346372066484953E10;86721.42857142857;960.8834729229819
004b76cddad2858fc97e83ff3cbe45643c5cb85c1d;924787692;8.346372066484953E10;2.0408019948240295E8;2261232.2474825205
004b92f8e8e5be575c6d57fefc9b09b852819be082;924787692;8.346372066484953E10;1.1721904633962236E8;1298800.6101256143
004bb18e20c423acb76b84cdb7c6a43a24be7097a1;924787692;8.346372066484953E10;1.482180982524377E8;1642273.69572835
004c0627dbc8ed242586ed33462e760f28cac3070b;924787692;8.346372066484953E10;1.321741140625E8;1464504.4926385859
004c0ac99f066f00b45f2c3c1d9c8cab47cb80a782;924787692;8.346372066484953E10;1.19796875E7;132736.3250254909
004c2118d2012c41b06f5bafcc1297731afe1a6232;924787692;8.346372066484953E10;9.971119137432134E7;1104811.5492946575
004ccae3c2b313f9c688dbde0e018c8a5c41b38103;924787692;8.346372066484953E10;79494.64285714286;880.8098501794002
004d1c0c1fbeb8c8e9d655fb4bc75ea872a8a31645;924787692;8.346372066484953E10;3424894.1964285714;37948.22437856249
004d8603f590cac4ceb828f1ae24da1f4848065ba2;924787692;8.346372066484953E10;3.987429558685547E8;4418118.13470038
004daf5f8f41f205ca0fdaaa822aa143c6a3ad0949;924787692;8.346372066484953E10;3.6343624960432105E7;402691.57399577077
004dc529187c40295c4e197654f35c8847317d4968;924787692;8.346372066484953E10;1782589.2857142857;19751.295750872392
004df997534cb3f9d18b2171c554f44187677b6013;924787692;8.346372066484953E10;1.1208079464285715E7;124186.81861968091
004ec47f8f66685783e6d8a3c34646e025d366d707;924787692;8.346372066484953E10;6526000.446428571;72308.8408085471
004ef9e9c11b8972f47ac696c2f381870620f97e4e;924787692;8.346372066484953E10;2.3351551339285713E7;258737.8934901988
004f9dac9fcb9efb800f0286d42866cf58782c6ab5;924787692;8.346372066484953E10;1.1448772321428569E7;126853.72335463563
004fb4a22692a8d4856d2075769547b3c4937e62bb;924787692;8.346372066484953E10;2.204157501857143E7;244223.20413106252
004ffa7ea02038f317760cb71803d028d2d56ff8d6;924787692;8.346372066484953E10;4773660.714285715;52892.713614845605
005053703c4a32a217b9081d5fd620a2a9670e3538;924787692;8.346372066484953E10;5.1370464480142856E8;5691906.963304909
005137378867ccb2b788719257b0c890268d08cbfe;924787692;8.346372066484953E10;133093.30357142855;1474.6892188609654
0051504254719d611f9ac23ca0d822e014da64e85b;924787692;8.346372066484953E10;5444819.196428571;60329.227332697534
0052021bdabe4c59479e06483414579975be775006;924787692;8.346372066484953E10;1989172.7678571427;22040.2646601709
0052c1ddba2de161378a8306f1e2ba47601035a667;924787692;8.346372066484953E10;9.856770505300001E8;1.0921415884121962E7
0053b1f0a09fa6b0fef5191c041fd3dea69e1bf0be;924787692;8.346372066484953E10;9831250.0;108931.38868662957
0053d2c4ec47753e60fb1b46033fa1f8ed75d76ebe;924787692;8.346372066484953E10;7124511.640625;78940.41416171278
00555208300e1e3e45476a39616125e40edc011d8c;924787692;8.346372066484953E10;155677.00892857142;1724.9192899346588
0055c38f55cc3df675e65aeacf78c058846f1d6c1e;924787692;8.346372066484953E10;1.6467435714285713E8;1824610.950250418
0055cd569388f730236fdbeba9dd40e7cfbaf80f59;924787692;8.346372066484953E10;4705228.125;52134.47259947984
0055fb41197c659249c737d5295497346b886bbde5;924787692;8.346372066484953E10;3753110.714285714;41584.90141150017
005606414027a97673f1c82b9f6a19920750e5deb8;924787692;8.346372066484953E10;2925558.0357142854;32415.52188314663
0056511d5cbc65d768e37fb8105fbbb83e0063c8dc;924787692;8.346372066484953E10;8364357.142857142;92678.04592929257
0056a72697cf468bf297083f5dab03250f23bba974;924787692;8.346372066484953E10;1.1828125E8;1310569.9497104033
0056b011bed290bbf0f328b9a9892943c4a6a214d9;924787692;8.346372066484953E10;3.0719864804234095E7;340379.660103317
0056e2139d4b8fa3899ddc155015bc254868dd5f29;924787692;8.346372066484953E10;1.1494191964285715E7;127356.97825814023
00575288e1667f516fac124679c84e01bd5bb0726e;924787692;8.346372066484953E10;2957863.169642857;32773.46650875851
00577840e07cf6e6fa14546084ea022887781fcccd;924787692;8.346372066484953E10;457997.5446428571;5074.665841374499
0059a7f72215cc58a46599c66d19b584072b7125ae;924787692;8.346372066484953E10;1316178.3482142857;14583.40854217484
0059ddee2a742fe86d081bcafc964dcfa92f73f6e4;924787692;8.346372066484953E10;985677.0069433608;10921.41540117695
005a07b9b5d7e3a6e4b509d798310f6f64d4af128c;924787692;8.346372066484953E10;5942826.785714285;65847.20910280546
005a49ac1bfae72e07305261ec737fa9fd7fca2975;924787692;8.346372066484953E10;3437568.9341517864;38088.66194056413
005a8073383c865a2ecae13844e9d584966dc3d492;924787692;8.346372066484953E10;5415405.803571429;60003.323533087736
005a97296c37a98149f7aeabdd7918b679810ed1e0;924787692;8.346372066484953E10;120446.42857142857;1334.5603790596974
005b0b38e19158f341b9a5548724831869d59b1cb4;924787692;8.346372066484953E10;6.339172805998299E8;7023876.891360843
005cc9223af28ed7f5dd5b76991e74c71687d11cad;924787692;8.346372066484953E10;2.3874375E7;264530.8402060116
005ceecceb06faf5125a0c6f5d2f4139b243c4d4ea;924787692;8.346372066484953E10;1625157.3776967505;18006.931975774023
005d0873215bd74b030cdf3737f0adf5f51c60ca1d;924787692;8.346372066484953E10;4.9928356203574546E7;553211.9695965488
005dc22421d1f634a69848ea8087d1cc7b29cf9b1f;924787692;8.346372066484953E10;5940428.571428571;65820.63661075095
005e0d493f7ba7c7e73b83cca1db088027b40e1738;924787692;8.346372066484953E10;1.2169598214285715E8;1348405.577358393
005e1e2efa72a5b2bab7d961b807216d32845a6b8a;924787692;8.346372066484953E10;8953986.468664275;99211.20715197863
005ed2db9c00aa2b6413d885354faa477948e82522;924787692;8.346372066484953E10;2192638.671875;24294.6904427566
005f2eaac85c404b97d9b72f665174114b69dc2a87;924787692;8.346372066484953E10;1.2276409991295584E7;136024.0445963882
005f5fafdea0c8df1c7e59c86c107f38492f5f9c17;924787692;8.346372066484953E10;1552554.4642857143;17202.4832860795
00604acb4ac4a48485514c4eb56e1d2a26c768a606;924787692;8.346372066484953E10;7.788542857142857E7;862979.5695093715
00608e54dd1e432ea177ff9a16d77b8159b9ccc0ea;924787692;8.346372066484953E10;5742946.428571428;63632.5115948842
0061aff734946314fe0902995774e313cd70bbd2bd;924787692;8.346372066484953E10;172238.39285714284;1908.4213420553667
0061e08db72944aeef5bc112184c9460ef4ddafe50;924787692;8.346372066484953E10;751284.5982142857;8324.320364384861
006217f4e5689905af2ef683f6f994ac39c4728de6;924787692;8.346372066484953E10;1.237794547850175E7;137149.06955479548
006250425bf281a77a8b8b13dc975e930da8cdea20;924787692;8.346372066484953E10;5493495.535714285;60868.56680983162
00625dbe1f50e8fe30838f47b0f77d681ff97d933a;924787692;8.346372066484953E10;8555385.044642858;94794.65720653719
0062a8a1dd01517b5da75e75842c80cc17cc9fb5b6;924787692;8.346372066484953E10;2.194046242857143E7;243102.86492268092
0062d94eaeed9a9ede50e487cebacacad599a331a6;924787692;8.346372066484953E10;2850028.571428572;31578.646670798254
0062ea27ae2f820f0a2230928cb8d1674455d769a7;924787692;8.346372066484953E10;1.18925E7;131770.27742715747
0063506c57f7f946e7a7889faa6f24d89f2b2211e0;924787692;8.346372066484953E10;5931524.776785715;65721.98153484229
0063828892b720fc5cd3b2b30682619cd0d310a81d;924787692;8.346372066484953E10;108956.47321428571;1207.2503428993973
0064ad102872415691ff678186f72b2d75fbc38928;924787692;8.346372066484953E10;5812126.116071428;64399.03054499554
006531c0b0a372e801628f985816d69b225b5a5f38;924787692;8.346372066484953E10;2.4386872335E7;270209.37003688223
00654f3bc844e5c54a06ed119005446482ffb32f0e;924787692;8.346372066484953E10;573821.4285714286;6358.007890393524
0065a7065035426750e2cc1ff68d3b0100863be079;924787692;8.346372066484953E10;9772767.857142858;108283.39977018473
0065e7d784dbf2bbf4b853b86501ff75372b1002fc;924787692;8.346372066484953E10;1.1338692857142856E7;125634.03014059643
0065f5c1a7d82c4edadf3a88f22e82d319b764e00b;924787692;8.346372066484953E10;6.775223102494533E7;750702.567035183
0066728aca0394a0ccb4c7a9912977d6c829f13957;924787692;8.346372066484953E10;4.8178571428571427E8;5338241.516238789
006679b71f43483a402f79719f1ba6a9b8a2ced062;924787692;8.346372066484953E10;6.115250625E7;677576.852127684
0066f578f1296b45a50bb24132596bf93f4a951ed4;924787692;8.346372066484953E10;2.262014508928571E9;2.506338275264017E7
00674cd03a0af9ba19cb2b69e0d768d07d1a3b0e0f;924787692;8.346372066484953E10;2.2136793685356945E8;2452782.3798757475
0068332380f49ff88c8c17831a880d04282fe7e32c;924787692;8.346372066484953E10;1.7427917647620916E8;1931033.4609246687
0068c3ea65dcb35509fc23603a17621d35b522e4a6;924787692;8.346372066484953E10;3403672.920848215;37713.09018721654
00695eef3559e82351f6d0f924832326ece7080f71;924787692;8.346372066484953E10;2.0754991173580423E7;229967.70611233107
006975dad2ddd5ed2381037916ee642be9e0217965;924787692;8.346372066484953E10;4910714.285714285;54411.283060254515
006999fe111da45365b4f28b363eb48c2add343d63;924787692;8.346372066484953E10;3441455.5803571427;38131.7264306832
0069ab8f6c8d3dc67c84d149f0907c9b6561748eac;924787692;8.346372066484953E10;6261160.714285714;69374.38590182451
006a967608e02b6bf9ea81df8d2401a908dfe55f4a;924787692;8.346372066484953E10;854464.2857142857;9467.563252484288
006b5e85264328f0435a8a8f72a470acefc769c1d2;924787692;8.346372066484953E10;7.071910537939155E8;7835758.785152668
006b732117e299581ec277c37857d6e4644eb7576a;924787692;8.346372066484953E10;1.57485553204072E8;1744958.1699785525
006c300d3d47c5454eff96bd7e228f3225f1ffb8d7;924787692;8.346372066484953E10;6629464.285714285;73455.2321313436
006c346a51cf9bc4aa3ba23e544af58625bc717609;924787692;8.346372066484953E10;1180073.8839285714;13075.355313837383
006c5c707279939a5fc59e6e4a40f7b1aec95296db;924787692;8.346372066484953E10;5.923062874257942E7;656282.2267475013
006c6546e22aa72b7b2ea90b1ceefe6bb2e0e6f791;924787692;8.346372066484953E10;3.1374946431271744E8;3476380.404045308
006d499c6e563a91cefece50e79f37220651a99da5;924787692;8.346372066484953E10;6058291.071428572;67126.5667619604
006d65b13b337004ce821791a861dd6c156cb58029;924787692;8.346372066484953E10;3.820658735007636E7;423333.41304725566
006d794d9adffa1adce3ba1da53271726997c6fa2f;924787692;8.346372066484953E10;1.5674999863875002E8;1736808.140200517
006dab14da3815c50fea37170c30351d3c1ac9594a;924787692;8.346372066484953E10;1.4218336607142856E7;157540.81642009024
006dc7878b6ce3f0119ac88f968117f0c127acd13e;924787692;8.346372066484953E10;3456210.2678571427;38295.21007711802
006dcd2720dbf7a87a6e9baa7fb8dd0cfb8f6615ee;924787692;8.346372066484953E10;94181.08258928571;1043.5373034416825
006ef7f7ea6fcf74d2d5d96977e343cee36e49ab38;924787692;8.346372066484953E10;1.5586532466985115E8;1727005.850159366
006f718b15aa61709eceae53494e70d129f9ba24a0;924787692;8.346372066484953E10;2.8575167410714287E7;316616.1645774472
006fd5cd64898387c84ab5b779f1ad386a533d0a4f;924787692;8.346372066484953E10;3727717.6339285714;41303.54314003573
0071afa38f24c7bd5422a1101ca160636407250431;924787692;8.346372066484953E10;303236.6071428571;3359.8967289707166
007211e1a0d842e1ab5a1b4368eb90c77c98aa8116;924787692;8.346372066484953E10;9.248558278905971E7;1024750.9692770016
007220ad46981310195f88ccbf59c071a1d6d7c1bf;924787692;8.346372066484953E10;1.3044348214285715E7;144532.8890521652
00725b17e7326f9ff75f3cfd04b6e61f38fc85b3c9;924787692;8.346372066484953E10;6167857.142857143;68340.57152367968
007286ffaae3590759da37a64278018cbc016154a2;924787692;8.346372066484953E10;3066853.125;33981.08783767878
0072b3f9582ab37e395611a096a3623e86567ec930;924787692;8.346372066484953E10;4.745498125E7;525806.6886367926
0073e61dbb60b448d615a3699ccb72de476817c51d;924787692;8.346372066484953E10;3.049859280445709E7;337927.94071736134
0073f36afe58f3c929933519b6cf8fd4edd914e759;924787692;8.346372066484953E10;6.138392767532754E7;680141.0283242783
0073f8b94806c0b92915ab9cc9d6135abae30ea52e;924787692;8.346372066484953E10;9.888420176153728E7;1095648.4086004442
0074043255f1530bac32e180d4cfebccde623f1cf0;924787692;8.346372066484953E10;535625.0;5934.787037790307
007411a0e69c28923472c92446946b0b6132f0526b;924787692;8.346372066484953E10;370059.2075892857;4100.298881523165
00748ce632c3a6b161a3301e126ebe57b8f1302ea8;924787692;8.346372066484953E10;6430538.671875;71251.11328980733
0074b305fa9f68ad4a01ab574486aafe1314f80399;924787692;8.346372066484953E10;4274776.785714285;47365.02190395156
00758f4c1d33884c9d56ba69d15f295addab3d10e1;924787692;8.346372066484953E10;1183441.5178571427;13112.669087816023
00762c040f54f97db847059c95cec0a03955d1b85b;924787692;8.346372066484953E10;1.5827707142857142E7;175372.82835821633
007661c3425491ddfc0f900071246a9ea18e5f4f68;924787692;8.346372066484953E10;2.424851589285714E8;2686763.6463305634
0076db1c3a250a8a294928c2911f3d5ae62f338ec9;924787692;8.346372066484953E10;5.397999903609079E7;598104.6414549823
007707a6acc37b8b0498d08ae1d0550b8a588c6aa0;924787692;8.346372066484953E10;1447075.892857143;16033.768497787456
00771c50c7ef5ab971bf508460871bb1be28464700;924787692;8.346372066484953E10;3.831428503815126E7;424526.7159050141
00782a958916eb9f9a0f5915a5a6a99fab5ba13af3;924787692;8.346372066484953E10;7.904285714285713E7;875804.0121378568
007878abf6c038bb08544c5e20957f6d31e1831bcf;924787692;8.346372066484953E10;6.550647321428571E7;725819.3103822651
0078b61333aa7fc97c78e208d79257876789c88798;924787692;8.346372066484953E10;2.8086110686240876E8;3111973.594261772
007a0ab56fb0dd11c333d7b34498a60f2b1de76429;924787692;8.346372066484953E10;1.6830357142857144E9;1.864823064883269E7
007a2a9a4eff7cc34bb4150b83c15d5f792d2158aa;924787692;8.346372066484953E10;4.119524494962168E7;456448.08540604217
007a4fbe9a8d86bcfe494fd7b5452ea2e6f804f5f5;924787692;8.346372066484953E10;673392.8571428572;7461.270851644357
007a62fb67ba47c4e6ca2f95db585b0fe52132919e;924787692;8.346372066484953E10;2732321.4285714286;30274.437894725615
007a6d4ce4bf7f64623d294d429a7f8f8211b8160e;924787692;8.346372066484953E10;1.2991948392857143E8;1439522.9296162275
007a78c50966d78295d41c1018f677c18aa17ed8ad;924787692;8.346372066484953E10;1520089.2857142857;16842.765347287877
007b2225dd08ccb73842e97ff02ccd2e4a5d20b6c3;924787692;8.346372066484953E10;1115695.6473214286;12362.036995738214
007c1a889769cf5e245f45a5de7eeaef38c05ae8d2;924787692;8.346372066484953E10;2.5651729910714284E7;284224.13847562205
007c39e4eae5ea4e27a8877cca97f01ea799a19e62;924787692;8.346372066484953E10;739552.4553571427;8194.326862673634
007c4f4f5ccb2d726eaaeaf8f7994af98f15e01c5c;924787692;8.346372066484953E10;1.2053571428571428E8;1335549.6751153383
007cc0b170027526f161e7116911c4ffd2dd1ec38f;924787692;8.346372066484953E10;1.5013588169642856E7;166352.2958411544
007cc0ffad255d2ff183c1962705c63ea7baf6401e;924787692;8.346372066484953E10;1.3917510527880352E7;154207.62861922884
007cf52836951cab8ea0d6a23544702f628f499ae5;924787692;8.346372066484953E10;279736.83035714284;3099.516480366147
007cfa6d2a423fab07b79ed8bf55d30fd4307ba33e;924787692;8.346372066484953E10;4665178.571428571;51690.71890724179
007cfd88d07979a7ac3ce9fd7c11862f6d5a61c0fa;924787692;8.346372066484953E10;5783571.428571429;64082.641300200856
007d84e3ec27e1520793c1b3c360f53788881d2214;924787692;8.346372066484953E10;3793209.5424107146;42029.20107149892
007e0bae44fbc450426a1f0ee13b28ed5aa933adb0;924787692;8.346372066484953E10;1.5418722098214285E7;170841.2266936254
007e2aad6eea9b4dceaff704d3d206d8202bdb603b;924787692;8.346372066484953E10;8520089.285714285;94403.5761095416
007e8d6a90e99beb2de56cf1fe340736af55192e0b;924787692;8.346372066484953E10;4474488.392857143;49577.84964232766
007f65b762645069d1bdf4e83ffb07fa1148b9e10a;924787692;8.346372066484953E10;1.227890625E7;136051.70343195778
007fe5a37361761a361376c2b174283987b45c16d2;924787692;8.346372066484953E10;428306.5848214285;4745.686567651714
00803c974202d4dd8db22bd3833b8d123f89ea199b;924787692;8.346372066484953E10;1.7118927603508213E8;1896797.0061548888
008096bad17b2006bd1276900650728b77afec9748;924787692;8.346372066484953E10;1904539.536830357;21102.518657904242
008108ce010ea881db64a963f75dd0bd58cd866cc2;924787692;8.346372066484953E10;4.642874917093183E7;514435.91833925544
008137ac5c10e66293299230dba5a8017b71225283;924787692;8.346372066484953E10;3.2995089285714284E7;365589.4108818501
008148efe190c847f9dad2e8191bed23a5fcbdc2d6;924787692;8.346372066484953E10;722857.1428571428;8009.340866469466
0081603bb0a13a6ce956394972da3b05ddf076be97;924787692;8.346372066484953E10;1155658.3705357143;12804.828597562146
00816362a309834d9d64e78980bb675fe80e53df03;924787692;8.346372066484953E10;6.2241375E7;689641.6439939243
008196a5dd0831fbec1207faee2bee4a04eb1439a5;924787692;8.346372066484953E10;4.3923954538928576E7;486682.5037033821
0081a333ca572de57720c74541b3f65b9334d67f2e;924787692;8.346372066484953E10;1.1619776785714285E7;128748.47262520208
0081ec2575f63d14f427855579585aa837768ea0cf;924787692;8.346372066484953E10;2.9689464285714284E7;328962.7030138537
0081f748b7fbe7d3b6b599d1cdced6eb47caf4a44a;924787692;8.346372066484953E10;4299687.110917994;47641.03119240171
00821365f05dca5211ed65d4c237daf79fa251e8e3;924787692;8.346372066484953E10;1.0427488392857143E8;1155377.7913771288
00822c2dc5f01e0f270c13cda29383eeb31a38b689;924787692;8.346372066484953E10;2.791442945842352E8;3092951.1153729535
00828dd350085ea2aa54c780c200f7a95d9bd00f12;924787692;8.346372066484953E10;3946126.116071428;43723.53441894333
0082d697b42edc1f16582f08426d848b395e79cf42;924787692;8.346372066484953E10;1.5027901785714284E8;1665108.9236507432
0083a7d2405ab67ecf2ae6d62b4b10000b827b51f6;924787692;8.346372066484953E10;7.118081928642857E7;788691.7220824095
0083f136357ad6873194dd6c971a832b4c7ce942e8;924787692;8.346372066484953E10;2166819.9981375406;24008.616547344678
0084233a55687ee683409bf6a28137eb1e0599e334;924787692;8.346372066484953E10;6.835452216631828E7;757376.02264087
0084edb623a13be32834db996523d9b8191e7f848d;924787692;8.346372066484953E10;7.239799358638856E8;8021781.543029632
00850054fc265ea06507e4055c26b8e8c10cb7285a;924787692;8.346372066484953E10;3.210484374776069E8;3557253.872102559
00855902d298ddcbbaa55e52bbc1f98ee39e00c951;924787692;8.346372066484953E10;1.841517857142857E7;204042.31147595446
00857de08e31ae766b410d5d44aa6541f4b7ce3d20;924787692;8.346372066484953E10;5.500006801341135E7;609407.123871326
008589da40c3710374507916e6760b4ece69899f68;924787692;8.346372066484953E10;5.5051104932142854E7;609972.6188421291
0085a81dfa2b292cb9d29a4f9927ea4064cc56c660;924787692;8.346372066484953E10;1.4732142857142856E7;163233.84918076356
0085e8dc36a7c06d74d1f44ff6102b40aebe308411;924787692;8.346372066484953E10;3.2921729464285713E7;364776.57556365384
0086243a5f7465be25768c6afbc37a7eae10b932e5;924787692;8.346372066484953E10;8.114944991074626E8;8991453.039983397
0086364335e8f9814e8438a503dbe7d1c30ad890fa;924787692;8.346372066484953E10;8.192284285714285E7;907714.5874212435
0086b9b81da108879123f1bdadd12438b2228f1b25;924787692;8.346372066484953E10;3.5707267392141014E8;3956406.5843414883
00870090a090138d8d7a2f7ee2e1926b0c3d4d2cb9;924787692;8.346372066484953E10;6243847.321428572;69182.55150367517
0087134cde483ce0b7f162e5716c71733518d25a5a;924787692;8.346372066484953E10;3.058857142857143E7;338924.9142941585
008769a4de5e4cd742cc39d7d01cd5789bf79f2f23;924787692;8.346372066484953E10;7.072440445E8;7836345.928313636
0087c2e18fe56380bfb0b9e6ce2f2ce32968f8be75;924787692;8.346372066484953E10;1.5241772857142857E8;1688806.0860773034
0087e83fc9df70ba11b1ffdf8e5d5bcbc2599029da;924787692;8.346372066484953E10;2.06161025287062E8;2284288.038406003
0088165dfdd32d3b221e7997d9c982280f9790e14b;924787692;8.346372066484953E10;6.810892748993402E8;7546548.051809761
00888fcb0ac44babd37eec3f356e44f8136449092f;924787692;8.346372066484953E10;3.989708288692857E8;4420642.993941455
0088b63e4b50cc6e3e7f088cadcadf978ec345d061;924787692;8.346372066484953E10;2.455357142857143E7;272056.41530127265
0089b1a0f65c3e711ce1351a1dd1d7fd17a8e418d5;924787692;8.346372066484953E10;3522299.838796346;39027.4901778286
008a71dac5fcfaf42c74c45cd3aaad058fb948d922;924787692;8.346372066484953E10;1.8097097664921876E7;200517.93819071847
008aaac20888644972b3bb1b210753f9ca50817d39;924787692;8.346372066484953E10;6890955.803571428;76352.58843597965
008ab7319e3272eee8bf5779939289eef215950d37;924787692;8.346372066484953E10;2844836.383928571;31521.11663192258
008b0fa9021b4d5e4e76b863eb58da571cb8bc5042;924787692;8.346372066484953E10;5.6777947774569854E7;629106.2375446481
008b5870b2e2ce1bf2461a7beaa79234bc0376a0bf;924787692;8.346372066484953E10;3.0867321428571425E7;342013.49657986965
008b8abc011a2cfaedb8d20a743e2fa6507ae901a4;924787692;8.346372066484953E10;6.2269633928571425E7;689954.7561955346
008c024fc8ceb706aa08d1378b4a0c2e40b1425664;924787692;8.346372066484953E10;1409308.0357142857;15615.296266251316
008c28bf39f42caa606acb4944d84c986fc70290b4;924787692;8.346372066484953E10;1583504.4642857143;17545.412870806893
008c80f5e31067a7617c0c53e2dc8a42a2c76b57fd;924787692;8.346372066484953E10;8098552.455357144;89732.89920544866
008d3d1df0c6e4d1443d91cc02a403e36d1b225563;924787692;8.346372066484953E10;1.4171770488134444E8;1570248.5842804108
008d537edae634401fcd00a2b7180ff077a43527ca;924787692;8.346372066484953E10;4520691.964285714;50089.79056520076
008df0146c11b18bb474c0917a65cb909a298e8278;924787692;8.346372066484953E10;959108.9285714286;10627.038015616643
008e0774d18e361ef15d17c24d6a799fbf7a667a10;924787692;8.346372066484953E10;5846785.714285714;64783.06290759466
008e50a18d1cd826843dba0fe4234e337f19168346;924787692;8.346372066484953E10;5.204374907066599E7;576650.767575449
008ef60f792c22d86c63c3cf362e2eebbdee482c3f;924787692;8.346372066484953E10;91539.28571428571;1014.2658880853699
008fe038c5f7ebba8b6e429b5cee352e9e52351c52;924787692;8.346372066484953E10;8962125.892857144;99301.39291476957
009061e1b7f1972337c0f0a1d568d6ce490c9756da;924787692;8.346372066484953E10;1505881.4732142857;16685.341139193864
0090c55c6f7b632c2b57fc7b38ffbca67560a262e1;924787692;8.346372066484953E10;2.417950214174024E8;2679116.8427728903
0090c62209b6e5a881fa9658fa29f5a9bfe74507da;924787692;8.346372066484953E10;7.026356155133928E7;778528.4001379133
0091cbc048b5688bd94e2077110936fc8e6adde229;924787692;8.346372066484953E10;2150828.8730022376;23831.43302870257
009266bd90ff4c680da459eb550fe8adefb057ee19;924787692;8.346372066484953E10;8261420.535714285;91537.49639970464
0092c5792a7552669f35090b7f6dc2f66e1c32fd99;924787692;8.346372066484953E10;6.648211514285714E7;736629.5359527864
0092ec3baff84fd5f5f7a45350c5c7a72be48a14d8;924787692;8.346372066484953E10;3.077652767857143E7;341007.49131384894
0092fc5b169870d9d56478b8b8ef077e14f22acfe3;924787692;8.346372066484953E10;4903013.392857143;54325.956275455486
0093de7b8a76d7a514b522fe0baa3c8461e2781189;924787692;8.346372066484953E10;1.6269317423230976E8;1802659.21413465
009401267cc328c21b5348a040d264b54172504f95;924787692;8.346372066484953E10;481785.7142857142;5338.241516238789
0094182c7d9eb84e5683e75eb47195aae2e9748354;924787692;8.346372066484953E10;7443660.714285714;82476.6228627338
00942f6c6f120392d2d3b49bc7e0b23dba0536ca99;924787692;8.346372066484953E10;3425425.0;37954.10574361328
00949c86e5daac44b02ea75db26acb60bc2accad83;924787692;8.346372066484953E10;1.6110160373878341E7;178502.4428725624
009504c1c6b8710e7cbf05104c6778e2eeb734cb52;924787692;8.346372066484953E10;7499999.246319401;83100.86032297494
00951233c1edb8a905705f83e47d1a9bd0ce1c04ea;924787692;8.346372066484953E10;6972673.922991072;77258.0346640017
00953d7b03a2aecf2aa94d522dc11c63e83e2f3a7e;924787692;8.346372066484953E10;2.7841836567642856E8;3084907.7389950617
00959095b44083c071c9bc578cd9dac2a09c984ec4;924787692;8.346372066484953E10;8.192995859869638E7;907793.4306618245
0095b14bfa7b44f73907fe46a96210ba4a64a7ab63;924787692;8.346372066484953E10;7079821.428571429;78445.24143599678
0095c0ddbb3a80032e024410b4a2fd3f51d754f0ba;924787692;8.346372066484953E10;1.1013668973214285E8;1220327.2786136833
0096399fcc8b88aa236783bb358eb445d4e4dcbc8a;924787692;8.346372066484953E10;8741992.1875;96862.28596282685
009669a5e23d4d50f858edcf125a523ef1ec1cd6e3;924787692;8.346372066484953E10;6427388.392857142;71216.20783341413
00969f4831ccd6b499c05645a03ee7d08d0f95c974;924787692;8.346372066484953E10;739239.9553571428;8190.8643264788925
0096e627d12e1d5ccfca8ff78ac02449e3668c3ebb;924787692;8.346372066484953E10;1.2290430803571427E7;136179.39682033964
00973bbe1778557d99d7dabce6ec8217ce0808b70b;924787692;8.346372066484953E10;1225000.4017857143;13573.146335226651
0097604cdb055a69f522460b7e2d91f81c4b0c988f;924787692;8.346372066484953E10;1.2693833787355444E9;1.4064914860408258E7
00983564123f8f57a65c593d69eca6c521aa90148a;924787692;8.346372066484953E10;3.153813688452476E7;349446.2095278113
00983abd8d9dd3c0bf9195a279d7a22424c0d9852d;924787692;8.346372066484953E10;7138839.285714285;79099.16612877547
0099497565af560c6a85f3d0ab5fdb41835da761cc;924787692;8.346372066484953E10;2410.714285714286;26.710993502306767
009990900643298f27edb177d5e8b81ebbde7ffa3c;924787692;8.346372066484953E10;2.558858119419643E7;283524.44338251906
009a015cf857dc0d4275447c704cd9ba33c47536d7;924787692;8.346372066484953E10;5015592.745535714;55573.34854243258
009a016a43a36d00df85b4a75a0cea44c9e160fe2d;924787692;8.346372066484953E10;1163410.0446428573;12890.71804449283
009a0d5bce9d74287eff6868aed231dcef4e3cef1f;924787692;8.346372066484953E10;3886272.321428572;43060.3474418437
009a10b43ad264215ebab2a92a40201b13c0b62d0d;924787692;8.346372066484953E10;2415625.0;26765.40478536702
009af7d53a9a17587c0b04af596bf619f18bfddd8c;924787692;8.346372066484953E10;7261718.75;80460.68482535139
009b142a9268a15326188079c7f7f2d86f1231de13;924787692;8.346372066484953E10;9760044.642857142;108142.42508225585
009b966b1edcee9dd021c98cfb296088a21a201ac5;924787692;8.346372066484953E10;1.169642857142857E7;129597.78328896985
009bf346d5b79388bb5b4801646a276a1f51007a79;924787692;8.346372066484953E10;2992491.5178571427;33157.152617738175
009d2e5ae513415892adb225867801faa38f165dc3;924787692;8.346372066484953E10;2.541294634428728E7;281578.38890293904
009dd560e0420b6f28965f666b81d22080d533f6db;924787692;8.346372066484953E10;1.0360211481931628E8;1147923.4317243246
009df375ee901d99f8a3eee4dba59de9acbb8bd9f6;924787692;8.346372066484953E10;2185267.857142857;24213.02096181326
009e1ad336657569acc9ddd2584f81ca72f7afb2b5;924787692;8.346372066484953E10;2.484330357142857E7;275266.68100182764
009e7f984e0b80d7b72cbec77f238c395c37242670;924787692;8.346372066484953E10;4.3180028525493525E7;478439.7173106458
009ebdd90e6e0a4f7a8cfdc66179d8b3b386badff5;924787692;8.346372066484953E10;8.4359375E8;9347116.457709996
009ef85210e6e76693649ed08ecb5d036011a743dd;924787692;8.346372066484953E10;1.4417696412507145E9;1.5974974615401302E7
009f1b1ae52e1c0287aa656ca0713efc99329dd620;924787692;8.346372066484953E10;3.0837074010109533E7;341678.3516799597
009faf479970921eb7595e1a3362df880673d3dad4;924787692;8.346372066484953E10;6095274.107142857;67536.34308116745
009fe2ecbcd0073b4afc91f805cbbdcd37f42235d9;924787692;8.346372066484953E10;782031.25;8664.996827345532
009fe99ea19d35f382b6091995fcc138deb5e6a32e;924787692;8.346372066484953E10;1.498861638627433E7;166075.6055891198
00a05a23518f52534e73545fefb4b180a1959895e7;924787692;8.346372066484953E10;5.9746366406778984E7;661996.6598012083
00a0e4ab4500714e06c4db31814eb145c9e3850a0d;924787692;8.346372066484953E10;1.2339732142857143E8;1367256.6136986322
00a0ea7251b606d22fa28c0ebc227b9b45d7315920;924787692;8.346372066484953E10;5.4899553571428575E7;608293.4122122546
00a1074b13fcbc29c219a52d6f12af4d8fddc0b09c;924787692;8.346372066484953E10;8.333249862501375E7;923333.7366000658
00a146f5cca89e84dfb701a00ee95519c6ed010882;924787692;8.346372066484953E10;2.603580922490735E7;288479.7817621684
00a14a47eb479014049cfc536a6f43887fb4ddbdbb;924787692;8.346372066484953E10;1.7296282087053582E8;1916448.0883493167
00a1867413280e5220f9218f74943f843b203f251a;924787692;8.346372066484953E10;754295.7589285714;8357.684373861355
00a1ae0209acc8848013e68be3354cc64a7bbe3977;924787692;8.346372066484953E10;1509878.6272321427;16729.630068674807
00a1bf93e9ecc06ac98fcf7090ae2dcb3955bd15bb;924787692;8.346372066484953E10;5.028006217662406E7;557108.9125136414
00a28862bf5ce379b3dd0e2b65c3247725459f8a5b;924787692;8.346372066484953E10;3.2264927455357146E8;3574991.3323182855
00a2bfbd9d9c8aaf65adeb422631ec91cf924e2dc2;924787692;8.346372066484953E10;1.4849339183584797E8;1645323.9805179138
00a327e0bdf695cc2d749d97bc9fe2ee08ee89e2a9;924787692;8.346372066484953E10;1.0105871697823666E9;1.1197422890607387E7
00a386058d8b33227789c9ca13461b4699e01c4d7b;924787692;8.346372066484953E10;0.0;0.0
00a561d0208cffc300ff3e8e084a0e903ac73631ce;924787692;8.346372066484953E10;3.9840784979774676E7;441440.51206227776
00a565524c5479842d692e49a74f94785401952741;924787692;8.346372066484953E10;1.2362374289285716E7;136976.53897477718
00a618ffbd39178b90f7c44dd5089ff588818f2e73;924787692;8.346372066484953E10;1.4102901785714285E7;156261.78522863367
00a65dc475af4440feb95e47cc36a028463ebab1ff;924787692;8.346372066484953E10;5.125680907641464E7;567931.3812932521
00a787ae5e9e9b4c0abce39bc498f3e719e20d61bb;924787692;8.346372066484953E10;1842830.357142857;20418.77379961337
00a7a1ed2dc69fe47f46f3c0c08622e86a8ab22476;924787692;8.346372066484953E10;5486801.785714285;60794.39928454022
00a7aba4ab460e7dad066220e88bbbd86d31df598b;924787692;8.346372066484953E10;5.803571426250369E7;643042.4359094683
00a7cd3060573227a8673616587be7a5d5407f62e3;924787692;8.346372066484953E10;7817209.188844457;86615.58322641655
00a83b632f1fa16b752fa69d3498d2e6f542cf298c;924787692;8.346372066484953E10;6506517.857142857;72092.97146272597
00a874eb73a598cc405972669b4b9247c9dac67e16;924787692;8.346372066484953E10;3794062.5;42038.65194038047
00a88e9dc5408b2afc0195f14a443294740cd71b4f;924787692;8.346372066484953E10;5611900.223214285;62180.50446133894
00a8a9a7c2589e602105287477570847f0032147dc;924787692;8.346372066484953E10;1.8163622544642854E7;201255.04156314998
00a9062b40eb2dde7f243d77b571fb822967280115;924787692;8.346372066484953E10;470463.75;5212.792840607178
00a90afd1ac71001aed439c5c78b81b8b81648007c;924787692;8.346372066484953E10;5547700.446428571;61469.16349873098
00ab9f6b4cb7521f29a2914887b71d90957a37cc16;924787692;8.346372066484953E10;8162677.877487359;90443.4163098617
00ac88287b451f428df99f694d2a760b19adb9e77b;924787692;8.346372066484953E10;125223.21428571428;1387.4877180364902
00acb67deb8768cb62372591efb2cd6c2e2ea75618;924787692;8.346372066484953E10;1.918247767857143E7;212544.07445411925
00ad5db8f0c8726b088ece10794f3eadb48e270e02;924787692;8.346372066484953E10;2.2251674107142857E8;2465511.2636677832
00add78c95d7769da4a78cd05818ae8550ac33c7c9;924787692;8.346372066484953E10;1.3178330996447696E8;1460174.3379683176
00ade0c0ac27ed13d3153a93f67a3448532674fb7d;924787692;8.346372066484953E10;709687.5;7863.41969826242
00aeb30f0c95adf763d21227eb0f40b9ee5ac899be;924787692;8.346372066484953E10;428789.2857142857;4751.034949452523
00aecaa587bd7b5ad5229a01549f0a971645e45e67;924787692;8.346372066484953E10;1.552747513392857E8;1720462.2292546201
00aed8e1dc9a1cd9e55c661b52c4b72a697c2dd451;924787692;8.346372066484953E10;2.461443214285714E7;272730.75906463974
00af21e245541c7df4e3c69035b7bd32e3127723e7;924787692;8.346372066484953E10;1.1399218625E8;1263046.6265874044
00af30468f11657c54ef9dd6ddaa3e0f326334f1f2;924787692;8.346372066484953E10;3.3613988335075885E7;372446.8840316321
00af83d3a69a3cf191d11a252ae9696f6932928904;924787692;8.346372066484953E10;1.2059791294642858E7;133623.88434800995
00af9ef8da2344028f58fd249d4c3b1f3f6a5482f5;924787692;8.346372066484953E10;6.2689094325252086E7;694602.425973993
00b061d67a2abb75a759e403f77f944ed6dae9666a;924787692;8.346372066484953E10;3532392.6339285714;39139.31951687327
00b09ac0eef8be2d5520555fdb142af58846cb20e2;924787692;8.346372066484953E10;7.122201842264286E8;7891482.132834787
00b0ad1e398131a0843105d5dd2efa98f44fde7e5d;924787692;8.346372066484953E10;243214.28571428568;2694.8424555660604
00b0b064e4880325ad339018265744c2cd8028e969;924787692;8.346372066484953E10;729709.7940644531;8085.269035542312
00b1c98d1b6b0f55c7dc74428f4ed83cd7b08c1269;924787692;8.346372066484953E10;7.098214285714285E7;786490.364234588
00b21737c18facf1dbadd51607296636673a2a9b4c;924787692;8.346372066484953E10;962283.482142857;10662.212436874956
00b2e5260709aad12ce12fe44d23508064ab844072;924787692;8.346372066484953E10;1.8331526004464284E7;203115.4313450839
00b33c83eaa40aa5e9dd699190c4d8f515077b674e;924787692;8.346372066484953E10;6517526.785714285;72214.9516663865
00b35c475557dca47664a3436fc6cca48f03a27fe3;924787692;8.346372066484953E10;1593833.7053571427;17659.862058243856
00b3c7d72e7f19a8a3de46dfe850ad663ccf80f702;924787692;8.346372066484953E10;1.2302691964285715E7;136315.25190118054
00b3e0a7734f2a30f739e1a193511db01d96c37d04;924787692;8.346372066484953E10;1353896.3169642857;15001.328004539891
00b4aa0d9635ace6a0f75d7251832c13d5cb441e8f;924787692;8.346372066484953E10;8.87109375E8;9829274.622828025
00b4b756b1ef697f11b324a9c67346e31292eda0df;924787692;8.346372066484953E10;1.1722160714285715E7;129882.8984122056
00b4ea334212ab90793cf66609f0e3fb50652be010;924787692;8.346372066484953E10;191517.85714285713;2122.0400393499262
00b4ea43d2ce9949df03741a757ceab5c6310c2535;924787692;8.346372066484953E10;245535.71428571426;2720.564153012726
00b4ef08393daef3506b89499b7cc9e5645b5538ee;924787692;8.346372066484953E10;1089280.1339285714;12069.350047816615
00b4f0ca31a0cc4e56eb835b5cf729a7dba330ddf5;924787692;8.346372066484953E10;5.474920428626279E8;6066275.2471868545
00b5787ce59988e97f4eecba542145e079cc09e090;924787692;8.346372066484953E10;1.0770578682542488E8;1193392.5928523454
00b5daabf9a664fa3c56e81b8795bfa4bb2a1f446c;924787692;8.346372066484953E10;1.584793178040921E8;1755969.1968477508
00b5ffff62f8d57310260341b5cb3bac9993d39d47;924787692;8.346372066484953E10;0.0;0.0
00b68eb221da8747ad6f00257ecfb98b00c4425329;924787692;8.346372066484953E10;8025966.964285714;88928.64355729488
00b74cc6bab60b82db1b9c3ab30c5890d4b90f24bc;924787692;8.346372066484953E10;6185446.428571429;68535.46284664096
00b76bb2a448a1a312934d8dae3210b2a87e76976e;924787692;8.346372066484953E10;1.197257142857143E7;132657.47812985635
00b78b3a71a0c68a3328549e0f0de79ba9af063782;924787692;8.346372066484953E10;6580357.142857143;72911.11930074106
00b7f1f50232353a573d20dba8e0cf4649bba867d9;924787692;8.346372066484953E10;2.38297921875E7;264036.8574797885
00b87446a29c44c687a9d84defb4e32a0833f2ca19;924787692;8.346372066484953E10;7708289.006696428;85408.73499273462
00b878b938b37354bf4d453ad71de96d7b535e3fc6;924787692;8.346372066484953E10;3.0321336980215305E8;3359639.256544293
00b8d4eaf07a2730198c8d6efc88940433e7d26a8d;924787692;8.346372066484953E10;1.929411727388205E8;2137810.5410061376
00b90dac72c5ad4b39c8a25ebb5906ffd580984de0;924787692;8.346372066484953E10;5.0466665405E7;559176.4978970259
00b999989c4858b55a4d52859dcda414b709e085d5;924787692;8.346372066484953E10;0.0;0.0
00b9e0cd10605f7ce71c8fba99c8537abec9a46e19;924787692;8.346372066484953E10;3.0611256202817255E8;3391762.6422022493
00bab91a09d27e81762b529f834fd956b3e0144b7a;924787692;8.346372066484953E10;3140732.1428571427;34799.67591243864
00bb0be266879971b7eabc5752aaf087cf991af00d;924787692;8.346372066484953E10;5.459797083679687E7;604951.8405822642
00bb824a607292b2b3bf5fcf7b5190238cf35bcd39;924787692;8.346372066484953E10;6402111.941964285;70936.14182992237
00bc65232bd889b7e40e486ea58bf7d59eb391a0a5;924787692;8.346372066484953E10;305691.96428571426;3387.102370500844
00bd2d60545c98bb267fc9dbb5774a7b2e9766df61;924787692;8.346372066484953E10;1.3301306050440563E8;1473800.1163843444
00be15cbd68e9147517051d10b92b1dee2a8ba0198;924787692;8.346372066484953E10;9111646.205357142;100958.0952951875
00be2512f20d0cb1888fb092489d8fae9f1608c41b;924787692;8.346372066484953E10;1.179467857142857E7;130686.40466859721
00be773eda360041ff684d943c43f572d414497513;924787692;8.346372066484953E10;6.146030958095042E8;6809873.486853749
00bec046271df26d10fdea6a3b877a729a71d83775;924787692;8.346372066484953E10;6935104.910714285;76841.76565661245
00beed4b54e2c8eb24ddebe0f74ba00a2332b0366b;924787692;8.346372066484953E10;147847.99107142855;1638.1728652957781
00bf515c7bc2349e96f80e4921eebe4b81aa94eba7;924787692;8.346372066484953E10;6308912.5;69903.48121830243
00bf68386d984118f0986216927f50c043029d7599;924787692;8.346372066484953E10;398075.4464285714;4410.7220527923
00c0236543b41859b7670ccc15e2ca60509a685f94;924787692;8.346372066484953E10;118037.5;1307.8691714785034
00c02d11f4805cc882aeade494bc67ae1b3c791d21;924787692;8.346372066484953E10;7.796498119285715E7;863861.0217688377
00c0aa1158cc9718917158977432c0469e9f9bb12f;924787692;8.346372066484953E10;1.196595439453125E7;132584.16062628524
00c0ba1cd12676ddf3befafd665434de75644d780b;924787692;8.346372066484953E10;5942619.642857143;65844.91393595639
00c139ff8f7cd73ea7d19f49210839655745af93f6;924787692;8.346372066484953E10;5.920716484375E8;6560222.440308078
00c1533d7112da2a15383d839d243d6d02e2954921;924787692;8.346372066484953E10;1.6543349330357143E8;1833022.266836696
00c2c37ad8dfe1ce3939b06ba0868828cea7fe2e49;924787692;8.346372066484953E10;5.8606722223772354E7;649369.2702562824
00c37206d1774ceb68cc125864022c32ac393f22f5;924787692;8.346372066484953E10;542008.9285714285;6005.521705768638
00c3a7159620a092d4fa591c5ad17ae80cddf6e268;924787692;8.346372066484953E10;3.714592459481513E8;4115811.4686962897
00c3b14a5f66a049ba970d5cc28f0e5dfe19107e62;924787692;8.346372066484953E10;7773271.875;86128.75270006059
00c441c9e6c6855e82647bd659c0bfd70e4f5a297f;924787692;8.346372066484953E10;1.1920758928571427E7;132083.38962876785
00c447a87c9815429396a1f4672603fdf39dff0730;924787692;8.346372066484953E10;5715350.0;63326.73997000669
00c453d4fea90b7acb0049ccbebc96098bec8b4039;924787692;8.346372066484953E10;4.202135E7;465601.4250463472
00c45a55cf8de7d1ce6dd3a5658fda74c9dc376c22;924787692;8.346372066484953E10;6043005.022321428;66957.19556737445
00c4c1ad0ecb6b0db9322af0a76502429b8d87ae0c;924787692;8.346372066484953E10;3.1695861850151714E7;351193.8204151649
00c51ebe02bcdadeac72b8c19b7b19b87a5eab3eaa;924787692;8.346372066484953E10;1780021.2018722934;19722.841084459484
00c578d6b2994533ea89e8fd90b08a4a8a983f68fb;924787692;8.346372066484953E10;2024925.4383063642;22436.40838973623
00c60c1a85efcf3631c0a0dc9fc738c9fdc1818ac8;924787692;8.346372066484953E10;4637737.723214285;51386.67113074123
00c61384983cbcf0d7cde9911e34fab111546b56c8;924787692;8.346372066484953E10;6022321.428571428;66728.01895298487
00c62a9bc02c9b1c3d35efc3f9ed85a770b56b84a7;924787692;8.346372066484953E10;0.0;0.0
00c71d1b9673625b3d17ec454bb47d2a4d2ba54dbd;924787692;8.346372066484953E10;1.9516318158642864E9;2.1624306563977644E7
00c774fff889a942b555d39d0df927d88cc1da3039;924787692;8.346372066484953E10;7435982.142857143;82391.54340194869
00c7915f11747847628884ee036558dcfc0b65d0aa;924787692;8.346372066484953E10;5112053.571428571;56642.14566572496
00c7d598e3ffb4bbbcdeb997f32e02e1b5a484d774;924787692;8.346372066484953E10;1.5573190427364078E8;1725527.5367161806
00c94a1520c04e233eae0e55d08868ca46a6b589d1;924787692;8.346372066484953E10;1.9648426339285713E7;217706.83958248867
00c9e4abf7b14fb470c47fd188a3f292fb22589eb6;924787692;8.346372066484953E10;2971540.1785714286;32925.00935180174
00ca4be5d52674f3fc5048128b111f0b9866375255;924787692;8.346372066484953E10;786328.125;8712.606700023254
00ca9149ad9329c65946f8777f9e0953a3381b2817;924787692;8.346372066484953E10;3155696.4285714286;34965.48193136408
00ca9db3d5c590cffb9518e1ad1311246a59a8da21;924787692;8.346372066484953E10;1.4856125E7;164607.58568362665
00cb940e655ad4df1379826749014b82e52ba5e2b5;924787692;8.346372066484953E10;3029174.107142857;33563.599955718
00cd1fe739b204551d1a07e0721c598935188486bb;924787692;8.346372066484953E10;6540106.473214286;72465.13721913769
00cd5e9f783fcbe37ae2910213aa08822ffb1c3266;924787692;8.346372066484953E10;616668.75;6832.761174535078
00ce9b4a5f03f9569530a782d20f48b582bfb73b4b;924787692;8.346372066484953E10;1.5680058896372769E7;173736.86868608018
00cf3ab49abbf6d95b7c5cbb34de69f67a287434e9;924787692;8.346372066484953E10;8708439.285714285;96490.51592483738
00cfc8bd7b41a84788de70e842ab6959262fec33ef;924787692;8.346372066484953E10;7255970.424107143;80396.99270866915
00cfd53c4bdb671689b75699ffc8ad2d2765b191fe;924787692;8.346372066484953E10;3.0915E8;3425417.8067358197
00cfd9783430ca486182267435dd6dc6d1a5524d44;924787692;8.346372066484953E10;3.405171628834801E8;3772969.604529303
00cfeecc6d19cd106c14c04ce533620a2712b3a00c;924787692;8.346372066484953E10;7363214.848480923;81585.2733521208
00d0105d2e717229b47b71b82e713fb97a1c143270;924787692;8.346372066484953E10;6752232.142857143;74815.51420784996
00d01e90f71e84e5f63d3607f097c43a30b575c816;924787692;8.346372066484953E10;6891768.228531817;76361.59019863841
00d0bf77d0f8318355c3677728e64c2f53ec57f939;924787692;8.346372066484953E10;8035240.178571428;89031.39184563377
00d0d42ed20328110b70cc049c425388b58366d693;924787692;8.346372066484953E10;6.495241006811191E7;719680.2265493044
00d1912d0791256aeff5c22de228d65a09cb58667e;924787692;8.346372066484953E10;6.832954871651785E7;757099.3139245769
00d206b9c77cd3965f9f298a67629f2fa7f1f71b3b;924787692;8.346372066484953E10;9.18225892857143E7;1017404.9244699191
00d27a028ec882a7282632138198b381648a0aaabb;924787692;8.346372066484953E10;5074766.517857143;56229.000793448446
00d3bcaad520cf34b11e951d7e8b647a37f82fe288;924787692;8.346372066484953E10;7.051175546173562E8;7812784.174117124
00d48ca32da7b6f4a03a56f7ca1031b723b61aefa1;924787692;8.346372066484953E10;7.01845235E8;7776526.493746356
00d494fd3591fd3d9c0ffc4eaa8c79698917da66c2;924787692;8.346372066484953E10;9240722.65625;102388.27732112525
00d4c2f1385403f7ac748a5a2ba5df56a1473cb1ad;924787692;8.346372066484953E10;617829.2410714285;6845.619550018272
00d4cd15f43ee2a9067ce3957f4aec1ab464ae7839;924787692;8.346372066484953E10;7.308482142857143E7;809788.2863449334
00d4d9d9ae9c01f4661d19b3d63f7e21ae27fe9572;924787692;8.346372066484953E10;953634.5982142857;10566.381801205152
00d4f5c69d23a1919d4021a3a79769d52a32bc381c;924787692;8.346372066484953E10;661192.1875;7326.086018881155
00d52235b604dab92de67da8605b79858ac3a2f218;924787692;8.346372066484953E10;910086.71875;10083.866252887026
00d555eafd5cc47260b59831ef186e0746361d20d6;924787692;8.346372066484953E10;8.627214028702162E7;955905.3066937557
00d5abc335c54cfaf7116ebea2132c89115eff6142;924787692;8.346372066484953E10;8961770.36830357;99297.45366153802
00d5bdcf82749c811edffae84acf943dd722510c94;924787692;8.346372066484953E10;825920.7589285714;9151.297669696558
00d72ef3a5a298539780aed09861a7f9d3b7a83dad;924787692;8.346372066484953E10;5081210.15625;56300.397053163986
00d852b81a4311c8e7689aee1d48183d1a11e9e5bb;924787692;8.346372066484953E10;5660660.714285715;62720.77635000547
00d86b62452eadae13bf13566dcb9e319ceeee1894;924787692;8.346372066484953E10;1.1124783270714121E7;123263.88714727771
00d890d545eff094a644b90beaa02fa0746c956707;924787692;8.346372066484953E10;806991.0714285714;8941.554539699971
00d89c9b5506dbea48a07e8526f75261cce9e1f1b7;924787692;8.346372066484953E10;2.458793392857143E7;272437.1557812466
00d8de5e00d4dc39eafbfaadbee2ec22a20bb489a3;924787692;8.346372066484953E10;3.382829876138649E7;374821.46837726847
00d932c0c9ff1077a84fd1b2d8601cedc6bac6f8c8;924787692;8.346372066484953E10;1508939.732142857;16719.227002339707
00d9b7e9a1b70afc38227df3c2aa2ad8b42f0386a0;924787692;8.346372066484953E10;1816657.3660714284;20128.774027102907
00d9e0d62e471bae1d22c8bf69891e018f9b1bb467;924787692;8.346372066484953E10;8499036.34598792;94170.30709895505
00da020bf4a271401be020e491ea441a9527b2c071;924787692;8.346372066484953E10;1360491.0714285714;15074.398647829603
00daabf55e460aab3dacaf339950d5134d2d7e1c54;924787692;8.346372066484953E10;1307953.0127092039;14492.27087209403
00dac63fbb760d82c1c05cdf7c5074ed622fcd358d;924787692;8.346372066484953E10;2.2368917410714284E8;2478501.9574984186
00dae0d98dbbe72eb56a8efbcc957d08dfa817dfbe;924787692;8.346372066484953E10;1.0722421449970379E9;1.1880567157061182E7
00db4a89cd0231136c59ea80488449877e52a8384d;924787692;8.346372066484953E10;6489770.870535714;71907.41291142958
00db7e737804963aa68aa6f5e0920238014d4e2229;924787692;8.346372066484953E10;84613.61607142857;937.5286662894374
00dba8ea0786edfd8a49409c1ad229ad16a5519b80;924787692;8.346372066484953E10;2.0061319541524032E8;2222817.4408589257
00dceb3a572e5d0800a10c814373dd7a799309c3f9;924787692;8.346372066484953E10;795849.7767857142;8818.107704636948
00dcf971b2265105e66684ef63b9f734dec4e34a6a;924787692;8.346372066484953E10;1.6614633135694306E7;184092.05950312232
00dd4c6e697ea7697949866b93c71c48ed687e2f41;924787692;8.346372066484953E10;1887696.6517857143;20915.897540813105
00dd4f4e815374cc0eeebfa046d649ef89ddb3e12c;924787692;8.346372066484953E10;1907505.5803571427;21135.382763717615
00dd5889a75c371712c694f13044bbc485798f93e3;924787692;8.346372066484953E10;8.231502910714285E7;912060.0564955019
00dd611213e24915ed39104d8540f002056f20be9e;924787692;8.346372066484953E10;1.2929917175452905E9;1.4326497988813099E7
00de10ecf29b07d150f553de1755bb9582f2f5856c;924787692;8.346372066484953E10;6144760.044642857;68084.65300028607
00de46c449e045bf90a909d6aa661c72695bd318af;924787692;8.346372066484953E10;1968468.7500000005;21810.861744308593
00deed6ecc35c5285f376008f6844390eb4f721277;924787692;8.346372066484953E10;2.3393233522232273E8;2591997.3690500963
00df78980bcf8a4d4a11b17464fe26fc32871ab1a7;924787692;8.346372066484953E10;1.104142857142857E7;122340.30742478756
00e01535db644fccbe194a356406b6c5071c405584;924787692;8.346372066484953E10;8.031236980357143E8;8898703.594575634
00e037842c74b82774d486dba00150c94f8d19359e;924787692;8.346372066484953E10;963697.3214285714;10677.877939916032
00e06f0b314305921db0827e30167309478342f0d6;924787692;8.346372066484953E10;2733372.3214285714;30286.081909300512
00e2a66feb5d154263be9311df2056b22e492946d5;924787692;8.346372066484953E10;1.2567915401785713E7;139253.9583077022
00e2aa4548e1d4b122832cabcdfca21cc1177614fc;924787692;8.346372066484953E10;1.6402488182882053E8;1817414.6885465968
00e2b875c8176d8a4aabf55d996264c4f2dc552083;924787692;8.346372066484953E10;4.882117734375E7;540944.2995927176
00e44c8e1464ec47d90b9d403625c9e58cbe295eea;924787692;8.346372066484953E10;6018554.6875;66686.28302563752
00e46ada75a810bf6ff0f28e47f2c435c6b8ee9ad9;924787692;8.346372066484953E10;7.28569342025E8;8072632.69485439
00e489223627fab44016d39d51b12622baa3740d7f;924787692;8.346372066484953E10;7749107.142857143;85861.00466908164
00e4e6c50539fbb1319183539370f008400c3d7fc6;924787692;8.346372066484953E10;1.9647654155013913E8;2176982.836913203
00e522ea0b460584691c6588acccc5b0203bbcd54c;924787692;8.346372066484953E10;3.810444378773686E8;4222016.5054594185
00e6a53d215fafbce407ea14729aec6fdfcc280a8c;924787692;8.346372066484953E10;9.95293650991199E7;1102796.8931057286
00e6a70b4b85e2fd678b5223dae1e701b334d6faf7;924787692;8.346372066484953E10;0.0;0.0
00e761a2804893619f53a109ff04c93e6d6bd03972;924787692;8.346372066484953E10;5.867410714285714E7;650115.9029644774
00e783ac0501fd88ec9444f145ecb8ba2d8dd056cd;924787692;8.346372066484953E10;3229160.7142857146;35779.47472594548
00e7e18b7b33dc24b9d88158043f6e0a1a69b52f79;924787692;8.346372066484953E10;1.6243777898657653E8;1799829.4052312365
00e8a99474b9109d58fde61fb675e2f9464d704750;924787692;8.346372066484953E10;1.2370852232142856E7;137070.4755635766
00e95783aaf01659a4462b069c0024adf307867675;924787692;8.346372066484953E10;1.645926336363346E7;182370.5444332672
00e9be684316c1ca80bd4ccb3ff491e52b303687fb;924787692;8.346372066484953E10;1183085.044642857;13108.719323313877
00eae26c14b21808e4a9b5c33be9443c92d18097bb;924787692;8.346372066484953E10;6.036815578413091E8;6688861.5811989
00eb9be72269d40ffc199bc089f35f4faeff024bea;924787692;8.346372066484953E10;3.966508492957729E7;439493.73515595234
00ec7044a2ef0ff69d7eea3a35a7066c522e60aa22;924787692;8.346372066484953E10;6190946.428571428;68596.40348366844
00ec90d639f295627e4a4be29cdbd05a726d9402fc;924787692;8.346372066484953E10;3260714.2857142854;36129.091952009
00ecb988b7c624f21cb7128033758df32fb54747a7;924787692;8.346372066484953E10;1.2139285714285715E7;134504.69172494917
00ed3e0342f724aaa0eb0998388c1b46ecc6f730ab;924787692;8.346372066484953E10;1426964.2857142857;15810.929561254325
00ed458d9f727b468c4ad042aa18f5a6973d889c67;924787692;8.346372066484953E10;1.7429757254464284E7;193123.72914936047
00ed6af636838e62de986c3cfbd0001befd95048a6;924787692;8.346372066484953E10;1.003781919642857E7;111220.19930855917
00ed7d6295501ae86f1deda943ac05ecde1f0a97b1;924787692;8.346372066484953E10;1048437.5;11616.80893336434
00eda7b0f41d0a6e6ddf5723603a49039ced9e76d5;924787692;8.346372066484953E10;3.5409482795936793E8;3923411.7061784747
00edf6c851ed71d03bcc0e7e52df90a8d58236cec1;924787692;8.346372066484953E10;2.5162646530483422E8;2788050.379754721
00eea6aeb7910576a371adbd01b32ec2a0c4ca7c0c;924787692;8.346372066484953E10;3439955.357142857;38115.10378370829
00eec031fab956a8264ee64bbd14883962d2aec0b7;924787692;8.346372066484953E10;2.845850371650895E8;3153235.173332921
00eecb2100435327cd6e5a57b43faed31040afe05c;924787692;8.346372066484953E10;1.2486097313930478E7;138347.40441783518
00ef1799a8a4e9d9f49d601580c26b2c72306c147f;924787692;8.346372066484953E10;5.2544710914399E7;582201.482827004
00ef7a8be9d4bb67f1856ec238c8ae9122b58aaa7c;924787692;8.346372066484953E10;1.930685714285714E8;2139222.133244299
00ef98f6991bc19a294d4bd5f093e79202da642c5c;924787692;8.346372066484953E10;24098.214285714286;267.01100541750355
00f0e9ff67e35b9e673f7ee87d4ec091edd118ec9d;924787692;8.346372066484953E10;5.626860111118861E7;623462.6175202342
00f1233d3a7046f203ff22056a01318b62b71602a9;924787692;8.346372066484953E10;5904600.0;65423.65188954333
00f21c74882af0c66edafc76758bfb7e8ed4389ab2;924787692;8.346372066484953E10;2.325579642857143E7;257676.91798884634
00f2224da26e66314628e7d50c5a2446c8752b350d;924787692;8.346372066484953E10;9.856992330466697E7;1092166.166897591
00f2f757b418ddd41cc74929334f047a388142cfb2;924787692;8.346372066484953E10;6580070.089285714;72907.93871392217
00f3dc5417900b23a96c2c8d1826e931211f41343c;924787692;8.346372066484953E10;3.528348214285714E7;390945.0687879287
00f3e45a321f4bbf71982963db9b8f02b6423f4216;924787692;8.346372066484953E10;5470262.276785715;60611.13960995315
00f44bb892452154921adcb7291e7b6d4d3e68b513;924787692;8.346372066484953E10;769351.5625;8524.504421243815
00f50760cc3c263fbfc96c4f078482f3c93106adb7;924787692;8.346372066484953E10;630986.0491071428;6991.39850691732
00f53af333517cd1ab97107ff1f98a8528c10b6cab;924787692;8.346372066484953E10;4432428.571428571;49111.82194939686
00f545920937d58b8d26071539c9cb6d8bb9ee30b3;924787692;8.346372066484953E10;5.305631478651339E7;587870.1129856184
00f5591948acef6203971826ec8869f93562968c96;924787692;8.346372066484953E10;702103.5714285714;7779.388891296273
00f58c1bbbf2b9a06cf6ea0e23701341ace184bf4d;924787692;8.346372066484953E10;815723.4375;9038.3101671818
00f5b42c979d22d23d65633f10f1c5be3a43041b7f;924787692;8.346372066484953E10;5976552.045432784;66220.88888665322
00f5ec0728aa1bb85965744d86ef0dd5627b58230e;924787692;8.346372066484953E10;878404.0178571428;9732.818257403027
00f5f50f29b54f0c28a6c64ce31acbc9e24f124317;924787692;8.346372066484953E10;9.888717546560928E7;1095681.3575859857
00f635dcaee8eadf03d9cc0f63c5529a9a3f6111d3;924787692;8.346372066484953E10;1.8305808035714283E10;2.0283047327259701E8
00f66b5e6e16b78a0ab30bd24531668d589c7f3f98;924787692;8.346372066484953E10;2.4397375E7;270325.74078153423
00f685027dbe0a92b22f7c0e9f5dfcaa32d92ee837;924787692;8.346372066484953E10;2.386928125E7;264474.4008660373
00f6c13954f07c9cd31c67ebcd0173085492d243de;924787692;8.346372066484953E10;2.9055059395772874E8;3219334.233545117
00f6e5cb01d2bb9d520e01ec7fa522acd3d3110c6b;924787692;8.346372066484953E10;2.227825308839983E7;246845.62455756767
00f79f0f4bbdbc45b9765db725c716c203e69f5c4f;924787692;8.346372066484953E10;5.406696428571428E8;5990682.264934023
00f7db7a1ad63e28f77cc893c8d3a1c253c8abb8c4;924787692;8.346372066484953E10;4731250.0;52422.79798841613
00f84acf77f77252b11b8684518fb08fcce72b05d2;924787692;8.346372066484953E10;5808214.285714285;64355.68701155776
00f910caa11b18e223a77662357f40822071610a43;924787692;8.346372066484953E10;5906975.446428571;65449.97211110365
00f9629f3f42e0dfaa9fca359e88a2ce622e5017b7;924787692;8.346372066484953E10;6072306.696428571;67281.86151029464
00f96b168869db5416759fe61cb0507d38987f2740;924787692;8.346372066484953E10;4.9151785714285713E8;5446074.786303657
00f98356b23d4ba5308776928b8f942de09c086cfa;924787692;8.346372066484953E10;7308482.142857143;80978.82863449334
00f99f3bdd17f6497d962f86543a2745d14eaa9552;924787692;8.346372066484953E10;1182783.9285714284;13105.382922366225
00f9bbefae773b5a9aec5a01e0005139af1dddf7ed;924787692;8.346372066484953E10;7.152072885125E8;7924579.594300373
00f9d7d8b228f42a1d148bd132bf3ba092206ad8a2;924787692;8.346372066484953E10;1.746510714285714E7;193515.4100070898
00fadb0912153099487ffc49e4b24e4d024f6e64a8;924787692;8.346372066484953E10;616668.75;6832.761174535078
00fb9e9e330174586912a2ebb10659ec0e765dd180;924787692;8.346372066484953E10;1688058.0357142857;18703.87855196249
00fbebd01d5b00a3687985d46d004c7dc044be9ddf;924787692;8.346372066484953E10;2764235.0446428573;30628.044457133514
00fc2158411c6283ac1202c3d5e66dfa6230aabd37;924787692;8.346372066484953E10;376997.3214285714;4177.173986456853
00fc28a78dea16c765b3d5b52f34faa94861d52f9b;924787692;8.346372066484953E10;5.877015485789286E8;6511801.227716249
00fcdd97a29405d585b450d52bb5fc4a9c9ffbc1e1;924787692;8.346372066484953E10;2.648381696428571E7;293443.75940416125
00fd562412392806c5d687fdaef05f7e7c2a93a9cf;924787692;8.346372066484953E10;6.0342920069397315E7;668606.5434777611
00fd79226ee6c4322305758a32ff1c4f7dc2d67894;924787692;8.346372066484953E10;2.92265871875E7;323833.9711537424
00fdd3675c42e9a57c6c9ec43e7eee90c3a1fb0062;924787692;8.346372066484953E10;7262332.589285714;80467.4862357339
00fe0813844b18103c12cd2b3448d9060b958d194f;924787692;8.346372066484953E10;4.506672664898159E8;4993445.510422682
00fe34a7bc8d4907b46e06cc25f71ba43da2700212;924787692;8.346372066484953E10;2.46125E7;272709.3506979957
00fe5f2d17cb74e0be8b673e12cbda5056ecab2fa6;924787692;8.346372066484953E10;1653069.1964285716;18316.198160158183
00fe99083a319caf9ceea1d68b1a48ada78da808a6;924787692;8.346372066484953E10;1.6377230793085266E7;181461.61405032012
00ff1dded9dc1d57802f93092a41581d6fe28388d2;924787692;8.346372066484953E10;6.1446059214432746E7;680829.4529738363
00ff4fc197e9d4b52c9920e3020a0a4b7626886a01;924787692;8.346372066484953E10;1.451651251282405E8;1608446.399907192
00ff581c3520a683a5c1bc301e7699d492b8b042ce;924787692;8.346372066484953E10;2694754.464285714;29858.191579314665
00ff71ded534c1b41dc963e0aea18d994fb79930e9;924787692;8.346372066484953E10;1.8298577008928575E7;202750.35265829082
