Identity;WeeklyRewardInQuarter;SumOfRewardable;RewardableForHolder;Rewards
00004707b35004e4b8e4f421ecb6419875ccac1622;1905003076;1.446782554406808E11;7130407.185711673;93887.27822670326
0000503d867c0d88f573bec12fc53d7972555f8d62;1905003076;1.446782554406808E11;4.366147831901158E7;574898.0746766528
00007191afc732273eff16baa3a3c7ae8a7eea6255;1905003076;1.446782554406808E11;5499820.98481831;72417.07374487905
0000f871f03b7d23a21de01b0d5d3d21529b89d784;1905003076;1.446782554406808E11;2.9156188654006224E7;383904.4706555165
00012b872108a70912350c62c0b213e136a58721bd;1905003076;1.446782554406808E11;2.839299275324699E8;3738553.4106027447
00017b55a55733b7f3b2afa1602277b7839bc10499;1905003076;1.446782554406808E11;1.1590972371637119E7;152620.29497482462
0001ce2900f5e2770e0ecd7f879a90b33e044cf767;1905003076;1.446782554406808E11;4.072051320987989E7;536173.8893300745
0001e52268cdee1d9e3f3894574e50220620dcfa94;1905003076;1.446782554406808E11;1.125211424897854E8;1481584.9272246854
0001f34f2955daec1e46537cc8f8b56503a4a7ec30;1905003076;1.446782554406808E11;1.2463437963321928E7;164108.1970842413
000262371407b1b8ef32a243082ea9f529a88b9c44;1905003076;1.446782554406808E11;4.348528726095809E8;5725781.3719514785
0002a10869a1d354758aaedc3df43173db801d52e2;1905003076;1.446782554406808E11;5478866.84590729;72141.16705137602
0002f8598a27beb72c752dfcf91d62bee9ac475c6a;1905003076;1.446782554406808E11;1666284.4184496684;21940.24895426644
000305c89fe90d3670bcff971e3fca67f3da4daaaa;1905003076;1.446782554406808E11;4.5267416807028316E7;596043.7385514362
00032794ecd33f4b59ad4c8c1a900f733b7b206904;1905003076;1.446782554406808E11;1.4950950632346934E8;1968616.9740568055
00032e337076db13fbc19b89b21385f2e1134f146f;1905003076;1.446782554406808E11;2.402779876682866E8;3163780.9303751867
0003756b37ad7f0d51edb1aa3263d23d352c9eee37;1905003076;1.446782554406808E11;2.809905185923329E8;3699849.715596699
00038bb25c4e3f9f6f7e2d59d2b755355ef8439076;1905003076;1.446782554406808E11;4.1107937705633834E7;541275.1732367747
000418db8ccf62894e3cfe403b0d5799bcad8dc6e9;1905003076;1.446782554406808E11;1.726622839502293E8;2273473.5156468134
0004bd4547cb76b6a1dd53710c5f8779eed721b5e2;1905003076;1.446782554406808E11;2.4157026226303782E7;318079.65286801243
0004f24e1e2454cc88930d8572195b34301747a52d;1905003076;1.446782554406808E11;1.3858579781923E8;1824782.6553575764
0005df53b17afcce35288a216eec6bbdb8f0541665;1905003076;1.446782554406808E11;6479760.848479166;85320.10778328954
0006b6fd48ed680261135aa28135a0362293c723ff;1905003076;1.446782554406808E11;1.7269182965002302E7;227386.25488765698
0006f63457d7d9433974dd146f3c92b84ed5293429;1905003076;1.446782554406808E11;3.041147820055657E8;4004330.8057112005
00071e21ed8adfeff1b62666f96782661fcba8155c;1905003076;1.446782554406808E11;1.7601224902395025E7;231758.30727498676
0007588055ed0ac6aeb03f7906fe78749c1e322f22;1905003076;1.446782554406808E11;3931487.0142018907;51766.55491522296
00079ed702ed81122898099b2cad772cfba478e6a1;1905003076;1.446782554406808E11;6.425213871622603E7;846018.7850701202
0008260d4ee7a08c16e25b35706814d96005b1e82f;1905003076;1.446782554406808E11;1.001464489372732E7;131864.52428174554
00086a9c130366759950c327738f32cb484f16dd9c;1905003076;1.446782554406808E11;7.281345198099956E7;958747.0458188831
000881ec6e589ee0ccdab26ac3164b4b1733d775b3;1905003076;1.446782554406808E11;5.168840150288948E7;680589.9307854146
000896acde8cdb88a2ece5353eaaa4b21af927b8f7;1905003076;1.446782554406808E11;1.6154570969414202E7;212709.9700950717
00096c682f83de60573239341d599a57ad88c753da;1905003076;1.446782554406808E11;3859307.0248578964;50816.14877915828
000aa459686bbcb9ca0a9a44bef0ad93c0cf3cb34c;1905003076;1.446782554406808E11;6488767.103248145;85438.69466412997
000aceb31e26d2c6120ae1ddb598ee4dd3930f379f;1905003076;1.446782554406808E11;4168398.049358217;54886.0026120207
000b33e693fdb858373a0608829f4cd42b70b0f368;1905003076;1.446782554406808E11;2.387641804054325E7;314384.8373935214
000b636d3f54d710a170c275b7cde513c0848bd0cc;1905003076;1.446782554406808E11;193033.53949124654;2541.7052851647363
000b89b5c7a8bce42fe4243ba4ec30d66a3fe5d061;1905003076;1.446782554406808E11;1.0488340079903436E8;1381017.4897044026
000b9741970293ff9c5708c59052d41d2625a754ac;1905003076;1.446782554406808E11;9020214.263468385;118770.68786699415
000cb2cb289f03783dcf99df2656f2cba5b92d3879;1905003076;1.446782554406808E11;5.6197485749716945E7;739961.8062202228
000d3d44e8d051d4a18bd88676899e85fcd13cf51a;1905003076;1.446782554406808E11;3.0243202090940773E8;3982173.6055528913
000ddc65b7b7d2a897635d1bd98bb9408f19ebd858;1905003076;1.446782554406808E11;37305.73481962839;491.2109243186903
000de023c9f6ae09f1bde00f0e8d6859f02885388f;1905003076;1.446782554406808E11;9.182804095540783E7;1209115.3570401575
000df3cbe7f3793ee856f9c0374748f61e9250d995;1905003076;1.446782554406808E11;2.469739477333125E7;325194.77698341926
000e280cee4c1d2e68af0786dde5f660a6be89ef86;1905003076;1.446782554406808E11;6.344560160771848E7;835398.9744570114
000e9e7c4f29cd3e130639b2c0b1b0367ebe875923;1905003076;1.446782554406808E11;7656184.085755363;100810.2716566568
000f0ed10e03d86f0ffa7483124a0e5b3cf9d7448f;1905003076;1.446782554406808E11;9.291978402936237E7;1223490.5228710577
000f4268ba45041bd7538d18f863b4b1140e97cb44;1905003076;1.446782554406808E11;1.8754800391624328E7;246947.63098286794
00109d3769b9c273018f4de74a59a9056049d3f555;1905003076;1.446782554406808E11;1.0157681273227898E7;133747.9084993568
0010b70ee116a311eb261dda30b59b13760bfeff35;1905003076;1.446782554406808E11;0.0;0.0
0010c669fa9d10bd561d90ded99df8589e1011591a;1905003076;1.446782554406808E11;1.0031896778379188E9;1.3209168276681645E7
001142a37aa9fafb342d95cb61c712602532f60bd3;1905003076;1.446782554406808E11;1833107.3218644762;24136.834358095555
0011438fac8d47d0d5b3478cdc2515831473ddf23b;1905003076;1.446782554406808E11;6357559.390339402;83711.06050152035
00116cc41ed0a6dc9a567fdb29cdf8be9e68636b6d;1905003076;1.446782554406808E11;1.465263684948398E7;192933.7493374919
001266d590d12a2fc00d0f7e7394f9e66cef4a583d;1905003076;1.446782554406808E11;6.555684300785292E7;863198.04729753
00129ff2a896abc6e155c3a5a3e901dac9e90772c3;1905003076;1.446782554406808E11;1.8700141143030953E9;2.4622792340563E7
0012a214d381a701d87711bc946b6fff4a1102afee;1905003076;1.446782554406808E11;1.0588302892199847E8;1394179.7623852722
0012b463395b13012d25572c1237c77dc83518a8fe;1905003076;1.446782554406808E11;4.814747885718254E7;633966.0030126923
0013153a0218b8df737a0851ccda76fc1f817d18d2;1905003076;1.446782554406808E11;3.2939385664726055E8;4337184.659969948
00131bb42695e57c0aa7becdad60430cac2ce85811;1905003076;1.446782554406808E11;1.5139237800624198E8;1993409.0641775343
001446286d955bcc1bb924b17b5aab9e958e89bbde;1905003076;1.446782554406808E11;1.4187484333872471E7;186809.00743795763
001484e1b40ebaef37ad83ca5a145d4540dcb2a909;1905003076;1.446782554406808E11;5837277.389193476;76860.4193353584
001547ca35434ee1aab541f0117f59846f0c2d5633;1905003076;1.446782554406808E11;1.250367330792417E7;164637.98267640042
00160fa6ffd4c7a4d49b43b6e7759aa663ad80d0dd;1905003076;1.446782554406808E11;8.740061152052683E7;1150818.6443342227
0016eda591187bf7a1d9c693eb0d0642cba3d17161;1905003076;1.446782554406808E11;8.726952002584955E7;1149092.5404367365
0017026ebddd7fc980bc0bfa818bc13056cb47b49d;1905003076;1.446782554406808E11;5.1605126022106774E7;679493.4284356785
00186b1022b20980b81cbbcefa1d768c8a7e36e4c3;1905003076;1.446782554406808E11;7.105162447513142E7;935548.7648620304
0018bcbedac3e9978ade38f666e7b54eb7fe114ad2;1905003076;1.446782554406808E11;7.478198395322986E7;984667.0394687969
0018e3c6327648e0ae3f513fc77287f23e19a78e7a;1905003076;1.446782554406808E11;5.070596095729693E7;667653.9698447724
00191d8c2edaa9194eb4d591cc7364b51855b7fc00;1905003076;1.446782554406808E11;1.4911744576872699E7;196345.46463767576
0019ec0aed9fe789a9620e32d9dda8521c6d564581;1905003076;1.446782554406808E11;1.021100050354948E8;1344499.7182921364
001a53b7275033cbae5172588df246ab8a11e23e92;1905003076;1.446782554406808E11;2.6112288391237432E8;3438249.2071935316
001aa2b91b329f6364bb91bc4c55dbf28d50c787fd;1905003076;1.446782554406808E11;9.178956866390663E7;1208608.7858665746
001b5a966673b3d9d87d84758e86a946ce33254d92;1905003076;1.446782554406808E11;1.6218163465531783E7;213547.3032544018
001bc1d4da9fceeebf17b9f2a4c9c7cc49665c65f1;1905003076;1.446782554406808E11;5.2487868525948815E7;691116.6483868238
001c55bce7420948369cce8f014b7ab2b37139f99d;1905003076;1.446782554406808E11;1.4199087181900337E7;186961.78410170795
001c7bf916cb56e4bc233defb6c05c94b87efad397;1905003076;1.446782554406808E11;4.671560331527051E7;615112.2554092042
001d112b141056df59222685dd37dc919f0efa4d59;1905003076;1.446782554406808E11;8.645730483990285E8;1.1383979656169789E7
001da977086819ab273cd3fed706ce6eec5976f28a;1905003076;1.446782554406808E11;6.6927429601631194E7;881244.7929478638
001daf29ea3cdfc1b581fa4357fa0cc5116e70bc43;1905003076;1.446782554406808E11;1442646.472927914;18995.570275140824
001dd0db367fc3f7c67f260825d2508e673341502f;1905003076;1.446782554406808E11;1587958.870994968;20908.92321443012
001e3cc5c5ce71e598dadb6712935cd6c572131be0;1905003076;1.446782554406808E11;5.466516999613004E7;719785.5453502324
001ecfdd7a8768fc89540f57be69164a782b20ffbf;1905003076;1.446782554406808E11;8535758.726299604;112391.77981560318
001f049a68c3075ff20ddeaafe0819daac3b64bf4c;1905003076;1.446782554406808E11;1.1119359847120845E8;1464104.9304469293
001f296817e16efaa140b6fee684f3a96d4a8528fe;1905003076;1.446782554406808E11;2187962.9595121616;28809.27859787247
001f6ce7a29bddb52b4873cdb03bd15214e4a67556;1905003076;1.446782554406808E11;0.0;0.0
002043214eff85403fc9029d73785c6136f4e842e7;1905003076;1.446782554406808E11;4.0656483537847227E8;5353307.99801479
00205c4c84530297df43ff741aea85a557f82fa8ea;1905003076;1.446782554406808E11;2.218711427477433E8;2921414.8879710683
0020e11def65edd308768051dc0ebad1f537069fef;1905003076;1.446782554406808E11;1.1438090701560713E7;150607.27614989842
0021d63fb6946ad9116785e3ec9840ac47952ebfc8;1905003076;1.446782554406808E11;3849510.799018706;50687.16021553477
002211b08201dd32ccf0fca91047c84475ee1b8d9a;1905003076;1.446782554406808E11;5.526247908668859E8;7276504.152394282
00226304336de6a1d06c695afd350815466f53590d;1905003076;1.446782554406808E11;1.9332907190776516E7;254559.66105115265
0022aa5a93dc352101c433667b50388d8ca2228f58;1905003076;1.446782554406808E11;1.1186367503360806E7;147292.79419536592
0022c56e1bd4c20c73569f66eb5845e6159080b0f0;1905003076;1.446782554406808E11;1.478624658431049E10;1.9469301132923192E8
0022e47780cbb1b664611389f3b11ddbe951b38700;1905003076;1.446782554406808E11;2.1918559971090823E7;288605.38882802834
0022f95b126d0cae29113fe0b0012968168b6944c3;1905003076;1.446782554406808E11;8814732.356070137;116065.07281472735
002319c23cec3792fc24fb574a41460b94ecd65292;1905003076;1.446782554406808E11;6.1217234343295366E7;806057.6855379986
0023d1b568e99095e1d6ebfce8a583efab67ce5968;1905003076;1.446782554406808E11;2.776061414096074E8;3655287.048430176
0027266a6440eac0597651df7fcfc2384dd149902c;1905003076;1.446782554406808E11;2.179373308108694E8;2869617.720405533
00274b7e9713baebbd45efe8715c3abd55ded2d056;1905003076;1.446782554406808E11;2786610.5696540396;36691.773000964786
0027a25bfcaace720f8ce75f0133deda2b1a613a9b;1905003076;1.446782554406808E11;2.7911664220988084E7;367517.60681177344
0027a2c65eef277c18d698a3ed15d91f39757e5ac9;1905003076;1.446782554406808E11;1.4940691700753715E7;196726.61631708138
00281de2d74669bdd1447e6a546d9e2c64e93bccdf;1905003076;1.446782554406808E11;8406524.217410056;110690.12716427661
0028ae363f88638f25e22bc77a4367fc4cf80dcf80;1905003076;1.446782554406808E11;1.2361090139403827E7;162760.56596447135
00292777552fd768721c4c38f6af0566c52dcaf8e7;1905003076;1.446782554406808E11;1.4847759955118408E7;195502.96829372036
00293471d309399e77cc36d62fd8edc6b6f85042a5;1905003076;1.446782554406808E11;1.2731312371165201E7;167635.3447497199
002952575a6f2dde86345a7fcaba24fa875a3e4480;1905003076;1.446782554406808E11;6.061276218357381E7;798098.498304793
0029989257513b82e30a4e10597a79482e9de20b85;1905003076;1.446782554406808E11;1.6166588313177523E8;2128682.0449432367
0029df0cf3c74e9bb22d481f574645daa2e1ef87fa;1905003076;1.446782554406808E11;1.7697138236809622E7;233021.21438243485
0029f80452925b6e566e40b3475a6b0957c5d3175b;1905003076;1.446782554406808E11;5.5022708604953825E7;724493.3167255744
002a2d9df13c0e70cc3da78c3700dfe6d50aaaef39;1905003076;1.446782554406808E11;3200794.3142434433;42145.4004660507
002b796d39db81814b825c4307780e4c8438a2ed5b;1905003076;1.446782554406808E11;999847.66718507;13165.16345678449
002b905e734975ef780c774f553dec1119a2c13b5f;1905003076;1.446782554406808E11;2.3217112537466043E8;3057036.502478776
002b9317ecac737c4a97828990903e855fe9774145;1905003076;1.446782554406808E11;4095320.254243229;53923.77491541685
002bd6b7e8fd7b3a62871282457664cb4735e1c79c;1905003076;1.446782554406808E11;8387283.84501126;110436.78592449285
002c30b8822473502012d2598aa75a60d98fe6b558;1905003076;1.446782554406808E11;6.675085666006009E7;878919.827141449
002ca69e438fbdf90074db1908fd6a3ac2ec5a7df5;1905003076;1.446782554406808E11;6.912834329831623E8;9102245.960939873
002cfc3b6c0b1667f5d1eb13911495e59d02b50cd8;1905003076;1.446782554406808E11;2.2520384792734552E7;296529.7181127046
002e418e4ff8ea1c6d2bb197b59e1f0fc2ebf7550c;1905003076;1.446782554406808E11;8.639538518508355E7;1137582.6590421498
002e86446bdeb027345541e463c8dca1562b45346f;1905003076;1.446782554406808E11;7.836096692181154E8;1.031792113954473E7
002f08736bc58103c1d09ef573b764621641af6f14;1905003076;1.446782554406808E11;6.194047699175522E7;815580.743898177
002f964ac64c1a177b3161321383f280890516b947;1905003076;1.446782554406808E11;1.208976979658266E8;1591880.4508991865
002fa4650d61984323e94c5eabdd443ebc90fa40a7;1905003076;1.446782554406808E11;2.5355116485440545E7;333855.11008533393
00300fe2d56402f9f3aa6cd0564e056b4a4ee8202c;1905003076;1.446782554406808E11;6.0797191255106986E7;800526.9071040584
00303090471738b78f6fc910e8e06d1b08bc144bd8;1905003076;1.446782554406808E11;2.294522874911886E8;3021237.103907214
003058133c84fa602fe1c53fee1690c4f29f193019;1905003076;1.446782554406808E11;2317787.6086298856;30518.701725463932
003083f5e465e029a964c278aee1dded6a893b6a52;1905003076;1.446782554406808E11;3.9879769539258474E8;5251036.751241947
00308b727e1f5c8b337d1d31b56d75ebcee61959e1;1905003076;1.446782554406808E11;4.353858348368435E7;573279.8975801031
0031020ab94157055e4dbf826d751472e48397f16f;1905003076;1.446782554406808E11;9.325271661123493E8;1.227874302524994E7
0031042a6b5ccb3910230fb4c690e3e2d881af769b;1905003076;1.446782554406808E11;2.621244044211675E7;345143.63972388965
0031b0636472b2f6107637bed28c146707eed0ae49;1905003076;1.446782554406808E11;1.4874438992325968E8;1958542.5569202574
00325b43248386ad6b61e9ae4ff974c5515a68f978;1905003076;1.446782554406808E11;2.3851817338187927E8;3140609.1578197097
0032d633536f15d39cb397d53fdcab77eeb8b81daa;1905003076;1.446782554406808E11;1.690361962797037E7;222572.82055782306
0032fb5447c7d9bc485e5c74f6d37378501cad1003;1905003076;1.446782554406808E11;1.3178836360297743E7;173527.96885749974
003357f9ed428a04d840e39aa7f63d827617f46ebe;1905003076;1.446782554406808E11;4.9245474778450295E7;648423.501142452
0033ccca69d00692eaa29f6b04e6bff972f9a3b6f3;1905003076;1.446782554406808E11;1.892507946483359E7;249189.72435933305
0033f7de239c0db8f45d53b0a98f00e6423dde79bb;1905003076;1.446782554406808E11;8565618.230927225;112784.94496671863
00341498eeb456aa3640cbd9051edc0cec21f03578;1905003076;1.446782554406808E11;2.5802921420508963E8;3397514.334558012
00349883b786a0cbf13a054af5f11dbda9759c3a51;1905003076;1.446782554406808E11;5.3017130437452905E7;698085.5295525104
0034cecabd9edea244833769c97e6d638309b5c8e2;1905003076;1.446782554406808E11;2985751.0095097944;39313.8888768142
0034fd670576673a2ca9d277db12ddabab06e59a97;1905003076;1.446782554406808E11;2856513.2068187837;37612.192855446294
00350c4134bd65c62226189384ba8b6f3a14de40ab;1905003076;1.446782554406808E11;1.534782124443546E7;202087.3599249015
00359e2ee09f2e78ada66caf56ac6db054b3d0b03b;1905003076;1.446782554406808E11;1.4875367946061363E7;195866.48738308394
0035ea8acd943be133e15d4a77f26b0bff1a184be3;1905003076;1.446782554406808E11;3379204.608754925;44494.55900960107
0035fe43ed1bf4dc2deac361c646f84d7bc79d0e25;1905003076;1.446782554406808E11;1.2206265214528944E7;160721.95997472017
00361ad21315abd3a52d5af77a9a9fe2e306ed3391;1905003076;1.446782554406808E11;1.4071995713703053E7;185288.34922988334
003626c7027842b5f56f266e9eef34d4f241045064;1905003076;1.446782554406808E11;5842723.394719812;76932.12781185322
00362761916bdee45e6908b126b87f57b220952fa2;1905003076;1.446782554406808E11;1.7267429401184025E8;2273631.6541607324
00362cfffc8dae9e92a402632127f0ca6caf84f052;1905003076;1.446782554406808E11;1.2331548031185497E7;162371.58002559596
0036997527f23a4ddc38e3c7a78a19dbdc30897438;1905003076;1.446782554406808E11;2.76134154851944E8;3635905.152293551
00377c518e4d281f2081026d7154947b2e969087db;1905003076;1.446782554406808E11;5.0886644986351475E7;670033.067035878
00381d19f6018e6de718c17a6e1ec85074f584300f;1905003076;1.446782554406808E11;1.235667620193126E7;162702.44690271668
003829a72b9c512c378256d603245d0cb4bc71120e;1905003076;1.446782554406808E11;9133303.929870943;120259.75864480028
00385790e3944be9d9fb3a665e7d227d9889ea9925;1905003076;1.446782554406808E11;1.7550998081657112E8;2310969.6222550445
00389c90db43622e525452be86594321f147ffa67a;1905003076;1.446782554406808E11;3.815603540047085E7;502406.9759789456
0038eed148fdaabc14d0bb159a7da149d1b5a95fc4;1905003076;1.446782554406808E11;4.583667731271049E7;603539.2879763772
0038f20279b127950067cbfb5e08ac74831521ee74;1905003076;1.446782554406808E11;2.3788059533203763E8;3132214.059728163
0038fdc3067519647f32ecdfb4437cdcb221464995;1905003076;1.446782554406808E11;3027828.035644108;39867.924201408394
003a81ac2e0355368028dfa76a104673d4a80fdfa2;1905003076;1.446782554406808E11;1.520858005238761E7;200253.94758281106
003a83e0f374fdb6788e2f8e01c55430eb27de53ab;1905003076;1.446782554406808E11;2.9746442407308716E8;3916764.417249549
003aaa891767534e6c218ad69fc41d70526578b79d;1905003076;1.446782554406808E11;8320102.245437592;109552.19443250525
003af46fb9a1ae7fef89da57e5d601a7eb38a1a137;1905003076;1.446782554406808E11;1.30474082883568E7;171797.43319021765
003b550ca8ec20c93f9b57aeb7de1adee573176f5a;1905003076;1.446782554406808E11;7.523301807209064E8;9906058.820487937
003be3f896374676423d086a90323a1a316af42d22;1905003076;1.446782554406808E11;184829.3944304984;2433.6799186086446
003c39b2d0d3b7dac083125945be807e1de4ad3909;1905003076;1.446782554406808E11;2.9759263712942153E8;3918452.620262202
003ce0624f3062ef13e8cbff694ac92adb857f28aa;1905003076;1.446782554406808E11;8642901.42417027;113802.54585223296
003d4009fad039382f064b5ac7fa7361a6ef8d3517;1905003076;1.446782554406808E11;2.0071898899220206E7;264290.08994964685
003ddd6e16df72813fded7203c35e7a9bc4f8f46bf;1905003076;1.446782554406808E11;3000467.593120443;39507.66462397885
003e14f0a73e1432929bad34910b518e3397ae0f53;1905003076;1.446782554406808E11;1.0804779470013857E7;142268.35997699248
003e6cf81b794d6a7f69c2093a24fd69b806660c98;1905003076;1.446782554406808E11;1.3717900548794422E7;180625.9182633706
003e7acc5bbf87716c33f302b6aac12d741a39b54b;1905003076;1.446782554406808E11;6.086755362660147E8;8014533.803582692
003e8a0d56fe6b701fe71321d7b4dac0bc4efde848;1905003076;1.446782554406808E11;1.6246374821312597E7;213918.76695070422
003e8d1a82929d306a418cf271396e57c0ee6434d9;1905003076;1.446782554406808E11;1.4634644440124417E7;192696.8402382619
003e8f727dec29146d477396f32ce385ea05a4068f;1905003076;1.446782554406808E11;1.5034075567222482E7;197956.2174919774
003ee3fa369a9fec862be367d491201faa8875e534;1905003076;1.446782554406808E11;2.809441479381445E8;3699239.1453448255
003f74c99f5b6ce2000d130c1250c1993606e93851;1905003076;1.446782554406808E11;1.1153414369554755E8;1468588.9470526525
003f7c99487893feb1e62a0b26969025dc3bbc05e0;1905003076;1.446782554406808E11;4.005315585745989E7;527386.6821213687
003fe1caea11d44587ecc1f0d47163fa537e41d577;1905003076;1.446782554406808E11;4.728994990892475E7;622674.7742152873
003ff71fbda67a5d9df51d49c5f5d2a599c622d0a5;1905003076;1.446782554406808E11;1.0974535316204223E8;1445035.6393474424
004006e393c8d4af9c3d2f88d192d3218aba31196b;1905003076;1.446782554406808E11;6.281157695887897E8;8270506.645978681
00404aadb526f6d53615c2fb061f1c438c1b1b9342;1905003076;1.446782554406808E11;7.805974203085537E7;1027825.8348333195
0040bfb43e1432084def40dc42f50c246e05e4daab;1905003076;1.446782554406808E11;8488483.454058195;111769.29830472024
004121528010e5bc4ff46dfb0f8b67c74b73544191;1905003076;1.446782554406808E11;4.77791733534195E7;629116.4621094016
00419b02a8c38343e11101639b09e9d267953dd5bc;1905003076;1.446782554406808E11;4.4090198082312405E7;580543.1003603151
0042b6e26a341031811f4e6f166f9b6800ec015a5b;1905003076;1.446782554406808E11;4.2813268228461124E7;563729.5488558853
0042bdbb4cfeef2bb8dddd876b74a41dcfa4631627;1905003076;1.446782554406808E11;5188861.525710151;68322.61791730502
0043223e21cd1ae646288a3096aedad938de3d7220;1905003076;1.446782554406808E11;3.242467360159649E7;426941.1651473993
004336fe935b0975a028e65a959234fac580f03ff0;1905003076;1.446782554406808E11;1.0333043712728113E7;136056.93542012817
00435b8be8d13c913c1a9a00c6632f403ef4abc526;1905003076;1.446782554406808E11;8353602.793959103;109993.30182481362
0044b9d97051379b20f5e51c84deb930cf7343be05;1905003076;1.446782554406808E11;1.1680199802870166E7;153795.16766350053
0044c09c7c78bc77fa76cfd0307d50de8a56a12ac4;1905003076;1.446782554406808E11;3.4974894779922046E7;460520.3590241351
00455a86385e4530068253bdd4764273d6b87dbd0e;1905003076;1.446782554406808E11;5.842480592065033E7;769289.3078820371
004608f9647ac7f1cda974d90510c09c4db64bc3b4;1905003076;1.446782554406808E11;344978.8127411507;4542.394414592394
00460de8e68bfb92bfb32c6bbf48554ba5f66bfc9c;1905003076;1.446782554406808E11;3.0034472847572005E8;3954689.87280691
00463da0a411bb84771b7bacdabd62e7ee331c2d2a;1905003076;1.446782554406808E11;1.0623509175769798E8;1398815.4333291193
004685041187517df45e49906d2dc2335d153f5463;1905003076;1.446782554406808E11;9723964.049387177;128037.08040695201
00476a2e6cb857f19befd052d72daf939dad8aab2d;1905003076;1.446782554406808E11;3.2519096162088037E7;428184.44298229093
00476c389ad5e893120ba2caf03b01eb5e31d74945;1905003076;1.446782554406808E11;5190662.955215776;68346.33764449527
0047a52232a88a791c1b0c0efc7efc02f50687e46b;1905003076;1.446782554406808E11;1.599134361213534E7;210560.72785575624
0047b1d23d1a14e3c4e7d0f36358646ed2fa462d71;1905003076;1.446782554406808E11;1.2355519327727428E8;1626872.1414427534
0048070764e394a8d915b458059e398030e0430cfa;1905003076;1.446782554406808E11;1.5911394933756309E7;209508.0300763264
0048131385447eae82f8c9899e5f2fd5b63465708e;1905003076;1.446782554406808E11;3865386.5711767753;50896.19919449452
00488bec2fe110c0a922786432623069e744d978de;1905003076;1.446782554406808E11;5.824469952859643E7;766917.8165350833
00489b6260e9db67bebdb40d137fef3a7c66b70c2b;1905003076;1.446782554406808E11;3.3706818499175616E7;443823.3840152331
004927076e817474824aef45851548cdb204db6a39;1905003076;1.446782554406808E11;3.091135719931663E7;407015.0719516848
00496728751f132621158594d20331a783c4da3e21;1905003076;1.446782554406808E11;1.0899333205766411E7;143513.36501874708
0049a1dad7cfdc5b03a3c666f7a750e69a764e9637;1905003076;1.446782554406808E11;1.1487764689612173E7;151261.34195783193
0049c00463b97db1c72797ba4059806aa2d247b23a;1905003076;1.446782554406808E11;8.488465426538296E7;1117690.6093331461
004a291e78ad5ac1f06e9e9a17b5257c4d92ad4a05;1905003076;1.446782554406808E11;8335027.786430955;109748.72155689387
004a8082ffcb040c58edec4a39667c98d94b51a0c2;1905003076;1.446782554406808E11;4271926.179367548;56249.1750218592
004af9754a4e879f2ca2b6fb3b289148b3fc384b4f;1905003076;1.446782554406808E11;2217398.531298993;29196.86175352314
004b15bef2c6559de77f599e2fd758bc65b653451d;1905003076;1.446782554406808E11;3.266570519230794E8;4301148.688965901
004b76cddad2858fc97e83ff3cbe45643c5cb85c1d;1905003076;1.446782554406808E11;2.0780024065853274E8;2736140.938679972
004b92f8e8e5be575c6d57fefc9b09b852819be082;1905003076;1.446782554406808E11;1.9127040431925252E8;2518489.7859466835
004bb18e20c423acb76b84cdb7c6a43a24be7097a1;1905003076;1.446782554406808E11;2.1637080793661097E8;2848991.0485881483
004c0627dbc8ed242586ed33462e760f28cac3070b;1905003076;1.446782554406808E11;3.445209005139344E8;4536365.006795569
004c0ac99f066f00b45f2c3c1d9c8cab47cb80a782;1905003076;1.446782554406808E11;2.6941884021350615E7;354748.34678906924
004c2118d2012c41b06f5bafcc1297731afe1a6232;1905003076;1.446782554406808E11;2.0111197530884603E8;2648075.416840159
004c8aa32e2d6681ff36185d3e85189eb23c757b44;1905003076;1.446782554406808E11;9229730.430274753;121529.42269568103
004cd0949afd2f52963adb5687eba6fc2ad275c438;1905003076;1.446782554406808E11;1.3277411008751934E7;174825.91793733116
004d8603f590cac4ceb828f1ae24da1f4848065ba2;1905003076;1.446782554406808E11;5.369843190746043E8;7070563.413175154
004daf5f8f41f205ca0fdaaa822aa143c6a3ad0949;1905003076;1.446782554406808E11;4.324932526146259E7;569471.1856115194
004dc529187c40295c4e197654f35c8847317d4968;1905003076;1.446782554406808E11;3917837.6734075123;51586.831734849635
004df997534cb3f9d18b2171c554f44187677b6013;1905003076;1.446782554406808E11;2.444997182647342E7;321936.91716612
004ec47f8f66685783e6d8a3c34646e025d366d707;1905003076;1.446782554406808E11;1.0173969641595034E7;133962.38020243272
004ef9e9c11b8972f47ac696c2f381870620f97e4e;1905003076;1.446782554406808E11;5.107673858628896E7;672536.0616393571
004f1aeb4d2eff932aa9f0bd825f8a46f4951b906d;1905003076;1.446782554406808E11;5.7046008294453084E7;751134.4461781359
004f1ee37f9f372a7f8cf805ffb6c6bf0c3a5eca05;1905003076;1.446782554406808E11;1050221.9741415696;13828.450482268743
004f9dac9fcb9efb800f0286d42866cf58782c6ab5;1905003076;1.446782554406808E11;1.6942931407148615E8;2230904.454077321
004ffa7ea02038f317760cb71803d028d2d56ff8d6;1905003076;1.446782554406808E11;1.1794950289777998E7;155306.10674599136
005053703c4a32a217b9081d5fd620a2a9670e3538;1905003076;1.446782554406808E11;7.866212308850182E8;1.0357574881715858E7
005128fc0e7ef4b47ba36003d15955e388bdeccc6b;1905003076;1.446782554406808E11;1.8459460860549506E7;243058.84539136206
0051504254719d611f9ac23ca0d822e014da64e85b;1905003076;1.446782554406808E11;1.3377179126420582E7;176139.58162830255
0053874db2bcac6da323ff439f6653924a85e68cc9;1905003076;1.446782554406808E11;5.230268214474851E7;688678.2679629977
0053b1f0a09fa6b0fef5191c041fd3dea69e1bf0be;1905003076;1.446782554406808E11;2.349331578006428E7;309340.4650902197
0053ba94ed78e411a5270852016924d6f17f9b4d25;1905003076;1.446782554406808E11;1.4872737157024048E7;195831.84733857188
0053bd7bd542d88e371bf4f31e2947e657063b2125;1905003076;1.446782554406808E11;3.450020324630325E7;454270.0152600321
0054a7f9d721969f16beea44089355da89752cf23f;1905003076;1.446782554406808E11;3.154029824548975E7;415296.4451541264
005590fa495f29385777451123b3a538488b3db698;1905003076;1.446782554406808E11;5.80690834574224E7;764605.450003136
0055cd569388f730236fdbeba9dd40e7cfbaf80f59;1905003076;1.446782554406808E11;1.2051367643185072E7;158682.3974366165
005606414027a97673f1c82b9f6a19920750e5deb8;1905003076;1.446782554406808E11;6431715.104850157;84687.48134524477
0056511d5cbc65d768e37fb8105fbbb83e0063c8dc;1905003076;1.446782554406808E11;1.752320665175347E7;230731.02776429872
0056a72697cf468bf297083f5dab03250f23bba974;1905003076;1.446782554406808E11;1.314488588337916E8;1730809.3718183725
0056b011bed290bbf0f328b9a9892943c4a6a214d9;1905003076;1.446782554406808E11;1.981158836260365E7;260862.5370567861
0056e2139d4b8fa3899ddc155015bc254868dd5f29;1905003076;1.446782554406808E11;2.823188851679967E7;371734.0543122834
0057027cec1230d2b24b31064235a8d984e0e0bac0;1905003076;1.446782554406808E11;4.56368061030933E7;600907.549931397
00575f9968d82494b474672caea6399a909562334b;1905003076;1.446782554406808E11;7406090.902021773;97517.25237848019
00580cda3b45cb18a26dee16414facdd5f0e6215b5;1905003076;1.446782554406808E11;1.5259882398225862E8;2009294.5425332077
0059a7f72215cc58a46599c66d19b584072b7125ae;1905003076;1.446782554406808E11;2.256080305366562E7;297061.91219512373
0059ddee2a742fe86d081bcafc964dcfa92f73f6e4;1905003076;1.446782554406808E11;959182.3984787727;12629.716981183152
005a49ac1bfae72e07305261ec737fa9fd7fca2975;1905003076;1.446782554406808E11;3027828.035644108;39867.924201408394
005a97296c37a98149f7aeabdd7918b679810ed1e0;1905003076;1.446782554406808E11;1629111.1554524468;21450.782308854068
005b0b38e19158f341b9a5548724831869d59b1cb4;1905003076;1.446782554406808E11;6.026960890713516E8;7935801.410356655
005b27a7a99357ee02f8cbd40f6bf069aaab70a3b2;1905003076;1.446782554406808E11;6737546.915459416;88714.42055718573
005b559b16afddaadad4c8befd0ab813b105c947ec;1905003076;1.446782554406808E11;1.5030496508373251E7;197909.0914183584
005c14d980973c264bb900d104ba926f47d96b0e58;1905003076;1.446782554406808E11;4506909.587841556;59343.24133188247
005c79fc2d54ca89f63d07af8bb57081c1e5691317;1905003076;1.446782554406808E11;1.1033255572835667E7;145276.74349213997
005cc9223af28ed7f5dd5b76991e74c71687d11cad;1905003076;1.446782554406808E11;5.85871978129125E7;771427.5494120765
005ceecceb06faf5125a0c6f5d2f4139b243c4d4ea;1905003076;1.446782554406808E11;1.9129109502540477E7;251876.22239764663
005d0873215bd74b030cdf3737f0adf5f51c60ca1d;1905003076;1.446782554406808E11;7.77124243641427E7;1023252.6443326359
005e0d493f7ba7c7e73b83cca1db088027b40e1738;1905003076;1.446782554406808E11;1.1641103537176166E8;1532803.805161139
005e1e2efa72a5b2bab7d961b807216d32845a6b8a;1905003076;1.446782554406808E11;1.5755749996150611E7;207458.62684016247
005e1efaca0ea84d640ea57680d2556ee363a31f94;1905003076;1.446782554406808E11;1.9465432149655315E8;2563046.396143922
005ed2db9c00aa2b6413d885354faa477948e82522;1905003076;1.446782554406808E11;4.514209798543129E7;594393.6444174154
005f2eaac85c404b97d9b72f665174114b69dc2a87;1905003076;1.446782554406808E11;1.2820419211929474E7;168808.62960328368
00604acb4ac4a48485514c4eb56e1d2a26c768a606;1905003076;1.446782554406808E11;1.607037777499969E8;2116013.840546237
00608e54dd1e432ea177ff9a16d77b8159b9ccc0ea;1905003076;1.446782554406808E11;1.3110828617685607E7;172632.4994003009
0061aff734946314fe0902995774e313cd70bbd2bd;1905003076;1.446782554406808E11;2725393.9341250826;35885.723200116525
0061b27421833ce6c95743568e00b7bb4b93e28bbb;1905003076;1.446782554406808E11;2994502.0980609125;39429.11594087749
0061da6ef7632cee1d8d1567f46b385a8af1e43db4;1905003076;1.446782554406808E11;9.229730430274755E7;1215294.2269568103
006217f4e5689905af2ef683f6f994ac39c4728de6;1905003076;1.446782554406808E11;2.411559374777088E8;3175341.0441077487
006250425bf281a77a8b8b13dc975e930da8cdea20;1905003076;1.446782554406808E11;1.3137809215666478E7;172987.7575003473
00625dbe1f50e8fe30838f47b0f77d681ff97d933a;1905003076;1.446782554406808E11;1.6081112137132487E8;2117427.2521760347
0062a8a1dd01517b5da75e75842c80cc17cc9fb5b6;1905003076;1.446782554406808E11;1.4209061055899762E7;187093.111788724
0062d94eaeed9a9ede50e487cebacacad599a331a6;1905003076;1.446782554406808E11;5625779.626119838;74075.59249323771
0062ea27ae2f820f0a2230928cb8d1674455d769a7;1905003076;1.446782554406808E11;2.6303817925834976E7;346346.82251753163
0063506c57f7f946e7a7889faa6f24d89f2b2211e0;1905003076;1.446782554406808E11;9093861.485120658;119740.41329918917
0063828892b720fc5cd3b2b30682619cd0d310a81d;1905003076;1.446782554406808E11;237898.89306622365;3132.454989091059
0063f7338f217086fadbf98b9ab80142949595fb96;1905003076;1.446782554406808E11;2.0389739059883572E7;268475.14513914834
00645db784d2dffd521d30ab9894f75afbaca01c4a;1905003076;1.446782554406808E11;1.795474498941064E8;2364131.6609355095
0064ad102872415691ff678186f72b2d75fbc38928;1905003076;1.446782554406808E11;1.3710545670712793E7;180529.07533886595
0064ba590621892e12a65b617f2bedf3c223710eb7;1905003076;1.446782554406808E11;2452030.3352993093;32286.29842793269
006531c0b0a372e801628f985816d69b225b5a5f38;1905003076;1.446782554406808E11;2.1540114402491044E7;283622.3319748391
00654f3bc844e5c54a06ed119005446482ffb32f0e;1905003076;1.446782554406808E11;1401325.466987684;18451.489596397587
0065775c573d6e19edbf5725ac2711c7bbdb23e706;1905003076;1.446782554406808E11;2.7256345256609645E7;358888.911095893
0065a7065035426750e2cc1ff68d3b0100863be079;1905003076;1.446782554406808E11;2.1805246023993935E7;287113.36490836076
0065e7d784dbf2bbf4b853b86501ff75372b1002fc;1905003076;1.446782554406808E11;2.9452265625936575E7;387802.9662555781
0065f5c1a7d82c4edadf3a88f22e82d319b764e00b;1905003076;1.446782554406808E11;5.1926258050268665E7;683721.8282016777
006628964455ece1c66aace59cd2b5366b0b707453;1905003076;1.446782554406808E11;5.452369905925943E7;717922.7735806791
00664b2904a285323f9ec2b274509591fd546c0ed8;1905003076;1.446782554406808E11;1.6301205635324275E7;214640.7335588422
006679b71f43483a402f79719f1ba6a9b8a2ced062;1905003076;1.446782554406808E11;2.6610158472411078E8;3503804.603420509
0066f578f1296b45a50bb24132596bf93f4a951ed4;1905003076;1.446782554406808E11;1.1296463158942572E10;1.487424423259621E8
00674cd03a0af9ba19cb2b69e0d768d07d1a3b0e0f;1905003076;1.446782554406808E11;3.784821013025802E8;4983537.885470139
00675134055e64b29dfda8c64f4988baeec6648225;1905003076;1.446782554406808E11;1.1598444790046656E9;1.5271868557272041E7
0068332380f49ff88c8c17831a880d04282fe7e32c;1905003076;1.446782554406808E11;2.299280684828896E8;3027501.792750275
00695eef3559e82351f6d0f924832326ece7080f71;1905003076;1.446782554406808E11;2.28466938219956E7;300826.28432837717
0069ab8f6c8d3dc67c84d149f0907c9b6561748eac;1905003076;1.446782554406808E11;1.5026478831758993E7;197856.18999039175
0069b7aba7d8d358f3f9274c80d61d5052c88c4304;1905003076;1.446782554406808E11;1.1637067567558508E8;1532272.3822107543
006a967608e02b6bf9ea81df8d2401a908dfe55f4a;1905003076;1.446782554406808E11;2210224.4199315705;29102.399014938976
006af52e3758cff9b9b78a61a13efdacf2e237f0c0;1905003076;1.446782554406808E11;1.5519961605173582E8;2043539.6118927966
006b5e85264328f0435a8a8f72a470acefc769c1d2;1905003076;1.446782554406808E11;1.1231065004794362E9;1.4788133376173738E7
006b732117e299581ec277c37857d6e4644eb7576a;1905003076;1.446782554406808E11;1.7479159227547386E8;2301510.478748061
006c300d3d47c5454eff96bd7e228f3225f1ffb8d7;1905003076;1.446782554406808E11;1.4414471304284565E7;189797.7832946326
006c346a51cf9bc4aa3ba23e544af58625bc717609;1905003076;1.446782554406808E11;1.8221577480331775E7;239926.59466257264
006c5c707279939a5fc59e6e4a40f7b1aec95296db;1905003076;1.446782554406808E11;1.0174926429553735E8;1339749.7839142007
006c6546e22aa72b7b2ea90b1ceefe6bb2e0e6f791;1905003076;1.446782554406808E11;1.3371360504691856E7;176062.966851206
006d499c6e563a91cefece50e79f37220651a99da5;1905003076;1.446782554406808E11;1.4319300719062727E7;188544.65609151492
006d65b13b337004ce821791a861dd6c156cb58029;1905003076;1.446782554406808E11;3.433699535405312E7;452121.0293200443
006d794d9adffa1adce3ba1da53271726997c6fa2f;1905003076;1.446782554406808E11;1.5476283510650393E8;2037788.4432623035
006dab14da3815c50fea37170c30351d3c1ac9594a;1905003076;1.446782554406808E11;3.4680195289692305E7;456640.0009587624
006dcd2720dbf7a87a6e9baa7fb8dd0cfb8f6615ee;1905003076;1.446782554406808E11;239756.76353932876;3156.917884052672
006e793e96657fda16272eec30c871e5de4b7bb6ca;1905003076;1.446782554406808E11;1.415421077648791E8;1863708.8887636743
006ef7f7ea6fcf74d2d5d96977e343cee36e49ab38;1905003076;1.446782554406808E11;1.5849530011999598E8;2086934.441809957
006faa67c7d674231cf6abb4dcf2a9fa14fa46093a;1905003076;1.446782554406808E11;1101265.3966955752;14500.547866072327
006fd5cd64898387c84ab5b779f1ad386a533d0a4f;1905003076;1.446782554406808E11;4.7380992150019586E7;623873.5428125677
00705e1aad7e3509f3360e2b4f8da35c6409bbee04;1905003076;1.446782554406808E11;1.2467654376023263E7;164163.7153039023
0071afa38f24c7bd5422a1101ca160636407250431;1905003076;1.446782554406808E11;665923.1635239727;8768.323000777053
0071f26dcad0013cef17490a35c6761585ccf14ad7;1905003076;1.446782554406808E11;7.592632661605498E7;999734.7929887701
007211e1a0d842e1ab5a1b4368eb90c77c98aa8116;1905003076;1.446782554406808E11;9.379252524833098E7;1234982.0542115697
00725b17e7326f9ff75f3cfd04b6e61f38fc85b3c9;1905003076;1.446782554406808E11;8523475.038853144;112230.03842399702
007286ffaae3590759da37a64278018cbc016154a2;1905003076;1.446782554406808E11;4120934.377743063;54261.04041469731
0072b3f9582ab37e395611a096a3623e86567ec930;1905003076;1.446782554406808E11;7.983526900629923E7;1051204.4990246936
0073e61dbb60b448d615a3699ccb72de476817c51d;1905003076;1.446782554406808E11;3.564424468347483E7;469333.80249084294
0073f36afe58f3c929933519b6cf8fd4edd914e759;1905003076;1.446782554406808E11;7.140792000653188E7;940240.1684265503
0073f8b94806c0b92915ab9cc9d6135abae30ea52e;1905003076;1.446782554406808E11;1.0669803753575157E8;1404911.118741741
0074043255f1530bac32e180d4cfebccde623f1cf0;1905003076;1.446782554406808E11;1049856.6464640417;13823.640150907482
007411a0e69c28923472c92446946b0b6132f0526b;1905003076;1.446782554406808E11;1052143.0772372005;13853.745971873193
00748ce632c3a6b161a3301e126ebe57b8f1302ea8;1905003076;1.446782554406808E11;1.3577760301201617E7;178780.6679047557
0074b305fa9f68ad4a01ab574486aafe1314f80399;1905003076;1.446782554406808E11;1.0742014249479868E7;141441.9196952869
00758f4c1d33884c9d56ba69d15f295addab3d10e1;1905003076;1.446782554406808E11;2842618.862557749;37429.24367296097
00762c040f54f97db847059c95cec0a03955d1b85b;1905003076;1.446782554406808E11;5.955712888395776E7;784198.7959841418
0076db1c3a250a8a294928c2911f3d5ae62f338ec9;1905003076;1.446782554406808E11;5.128060555420214E7;675220.4125100976
007707a6acc37b8b0498d08ae1d0550b8a588c6aa0;1905003076;1.446782554406808E11;2802496.5306618023;36900.94613823289
00771c50c7ef5ab971bf508460871bb1be28464700;1905003076;1.446782554406808E11;4.411326440271329E7;580846.8185049791
00773788290cacf4fe755c4f3d67ebbdad94b6d18b;1905003076;1.446782554406808E11;2.861102660691864E7;376726.2297135243
00782a958916eb9f9a0f5915a5a6a99fab5ba13af3;1905003076;1.446782554406808E11;9.63303386403996E7;1268397.8726666584
007878abf6c038bb08544c5e20957f6d31e1831bcf;1905003076;1.446782554406808E11;1.508143584324093E8;1985798.182619794
0078b61333aa7fc97c78e208d79257876789c88798;1905003076;1.446782554406808E11;2.3301599302087167E8;3068161.017769225
0078f00fca629e074ea0bbf19218fd332d17eb3a14;1905003076;1.446782554406808E11;2.958357625020252E7;389531.9554694457
0079de0384110176359931f71231fb8d7d359f00d1;1905003076;1.446782554406808E11;1.9958356444967964E8;2627950.5723759015
007a0ab56fb0dd11c333d7b34498a60f2b1de76429;1905003076;1.446782554406808E11;1.6644607723956957E9;2.1916236698023982E7
007a2a9a4eff7cc34bb4150b83c15d5f792d2158aa;1905003076;1.446782554406808E11;9.626843465401384E7;1267582.7724007454
007a4fbe9a8d86bcfe494fd7b5452ea2e6f804f5f5;1905003076;1.446782554406808E11;1714459.180178238;22574.574195464276
007a51261f99cb7b9d5cd9f724fe7778f239861904;1905003076;1.446782554406808E11;4.185988984558399E8;5511762.543304511
007a62fb67ba47c4e6ca2f95db585b0fe52132919e;1905003076;1.446782554406808E11;5.77476553195046E7;760373.1513098646
007a6d4ce4bf7f64623d294d429a7f8f8211b8160e;1905003076;1.446782554406808E11;1.6367983036716482E8;2155200.029049645
007ab2079d19d913861c3234a9b54b68b112e2c43d;1905003076;1.446782554406808E11;1.1712285329186108E7;154217.64321893748
007b2225dd08ccb73842e97ff02ccd2e4a5d20b6c3;1905003076;1.446782554406808E11;2214180.3346359986;29154.487213385757
007c39e4eae5ea4e27a8877cca97f01ea799a19e62;1905003076;1.446782554406808E11;1.3630090525591496E7;179469.70882612185
007c4f4f5ccb2d726eaaeaf8f7994af98f15e01c5c;1905003076;1.446782554406808E11;3.546499651891045E8;4669736.115704975
007cc0b170027526f161e7116911c4ffd2dd1ec38f;1905003076;1.446782554406808E11;3.585943086351406E7;472167.1953434095
007cc0ffad255d2ff183c1962705c63ea7baf6401e;1905003076;1.446782554406808E11;1.4666123266089467E7;193111.32726749536
007ced19cf219d5ceca0e40ec72e9482c11a1da0b4;1905003076;1.446782554406808E11;2892579.9896319336;38087.09028900461
007cf52836951cab8ea0d6a23544702f628f499ae5;1905003076;1.446782554406808E11;4522556.491697088;59549.26676316702
007cfa6d2a423fab07b79ed8bf55d30fd4307ba33e;1905003076;1.446782554406808E11;4108627.4012977523;54098.99237290164
007cfd88d07979a7ac3ce9fd7c11862f6d5a61c0fa;1905003076;1.446782554406808E11;1.2590340741873475E7;165779.147447565
007d84e3ec27e1520793c1b3c360f53788881d2214;1905003076;1.446782554406808E11;3300431.129293132;43457.33527321544
007ddf310d3e586bf369dd637663276075e1930c83;1905003076;1.446782554406808E11;6793081.596682219;89445.65510402124
007e0bae44fbc450426a1f0ee13b28ed5aa933adb0;1905003076;1.446782554406808E11;2.741669800901842E8;3610003.0292636077
007e2aad6eea9b4dceaff704d3d206d8202bdb603b;1905003076;1.446782554406808E11;2.128544091301176E7;280269.00303569797
007e733e2f15ffef4d05de565bdc27b158af3e9cad;1905003076;1.446782554406808E11;2.562786332059124E7;337446.41382582154
007e8d6a90e99beb2de56cf1fe340736af55192e0b;1905003076;1.446782554406808E11;1.0934696932401944E7;143979.00519262336
007f43de8770983945e66469ced04a5b6b7f248a25;1905003076;1.446782554406808E11;2.6037220044492307E9;3.428364830925369E7
007f65b762645069d1bdf4e83ffb07fa1148b9e10a;1905003076;1.446782554406808E11;1.283592444088589E7;169012.7895771933
007fe5a37361761a361376c2b174283987b45c16d2;1905003076;1.446782554406808E11;7847022.012770971;103323.06694075016
00803c974202d4dd8db22bd3833b8d123f89ea199b;1905003076;1.446782554406808E11;2.5810232757048604E8;3398477.030614531
008040a0ad5d63f1a07c032bcc9744cbc71727ae08;1905003076;1.446782554406808E11;4.5331821008294456E7;596891.7595698375
008096bad17b2006bd1276900650728b77afec9748;1905003076;1.446782554406808E11;1.9798495777810622E7;260690.14477691278
008108ce010ea881db64a963f75dd0bd58cd866cc2;1905003076;1.446782554406808E11;1.2273546468248796E8;1616078.6362971694
008137ac5c10e66293299230dba5a8017b71225283;1905003076;1.446782554406808E11;7.82643632247063E7;1030520.1167246342
008148efe190c847f9dad2e8191bed23a5fcbdc2d6;1905003076;1.446782554406808E11;1049048.098027591;13812.993856798932
0081603bb0a13a6ce956394972da3b05ddf076be97;1905003076;1.446782554406808E11;2623589.7207982303;34545.24989300695
00816362a309834d9d64e78980bb675fe80e53df03;1905003076;1.446782554406808E11;1.3300547043902124E8;1751305.5402789856
008196a5dd0831fbec1207faee2bee4a04eb1439a5;1905003076;1.446782554406808E11;3.593458858813019E7;473156.8098237803
0081a333ca572de57720c74541b3f65b9334d67f2e;1905003076;1.446782554406808E11;2.7962528834544856E7;368187.34978724725
0081ec2575f63d14f427855579585aa837768ea0cf;1905003076;1.446782554406808E11;6.869556679419337E7;904526.1546173233
0081f748b7fbe7d3b6b599d1cdced6eb47caf4a44a;1905003076;1.446782554406808E11;6501451.233781548;85605.70875763641
00821365f05dca5211ed65d4c237daf79fa251e8e3;1905003076;1.446782554406808E11;1.1931597253034434E8;1571053.6043851532
00822c2dc5f01e0f270c13cda29383eeb31a38b689;1905003076;1.446782554406808E11;1.7983936614410037E8;2367975.371605638
0082865cdb46a9aeeb24e48834c4ed9178d27bceb1;1905003076;1.446782554406808E11;1.4833852047693104E8;1953198.4052275557
0083f136357ad6873194dd6c971a832b4c7ce942e8;1905003076;1.446782554406808E11;3565265.9607445346;46944.4603218978
0084233a55687ee683409bf6a28137eb1e0599e334;1905003076;1.446782554406808E11;1.988692003657899E8;2618544.4195781033
0084edb623a13be32834db996523d9b8191e7f848d;1905003076;1.446782554406808E11;5.061663405893263E8;6664777.874555445
00850054fc265ea06507e4055c26b8e8c10cb7285a;1905003076;1.446782554406808E11;4.215625260278543E8;5550785.129135461
00855902d298ddcbbaa55e52bbc1f98ee39e00c951;1905003076;1.446782554406808E11;2.696431838116055E7;355043.74380167376
00857de08e31ae766b410d5d44aa6541f4b7ce3d20;1905003076;1.446782554406808E11;5.203071520309495E7;685097.2332121829
008589da40c3710374507916e6760b4ece69899f68;1905003076;1.446782554406808E11;3.54992870509906E7;467425.12081002624
0085a81dfa2b292cb9d29a4f9927ea4064cc56c660;1905003076;1.446782554406808E11;1.4213807077531507E7;187155.60345880737
0086243a5f7465be25768c6afbc37a7eae10b932e5;1905003076;1.446782554406808E11;8.159722393572739E8;1.0744044577891273E7
0086364335e8f9814e8438a503dbe7d1c30ad890fa;1905003076;1.446782554406808E11;1.6526062013043442E8;2176014.555409293
008642c480aee423a95dbe328ee878856ce9f935fb;1905003076;1.446782554406808E11;3.141127521417909E8;4135975.7706387336
008690b01f8da3cb9ddbca0bf2cd0157cde5ac055f;1905003076;1.446782554406808E11;1.2376353564075155E9;1.6296154206043411E7
0086b9b81da108879123f1bdadd12438b2228f1b25;1905003076;1.446782554406808E11;6.69724565665989E8;8818376.706163507
00870090a090138d8d7a2f7ee2e1926b0c3d4d2cb9;1905003076;1.446782554406808E11;1.359105187171418E7;178955.6802632762
0087134cde483ce0b7f162e5716c71733518d25a5a;1905003076;1.446782554406808E11;8.399527528412235E7;1105980.0057606148
008769a4de5e4cd742cc39d7d01cd5789bf79f2f23;1905003076;1.446782554406808E11;8.135008182235517E7;1071150.2957538639
0087c2e18fe56380bfb0b9e6ce2f2ce32968f8be75;1905003076;1.446782554406808E11;3.3665410189202845E8;4432781.537895172
0088165dfdd32d3b221e7997d9c982280f9790e14b;1905003076;1.446782554406808E11;8.862065900431356E8;1.166883216044743E7
00888fcb0ac44babd37eec3f356e44f8136449092f;1905003076;1.446782554406808E11;6.614578770668317E8;8709527.818251766
0088b63e4b50cc6e3e7f088cadcadf978ec345d061;1905003076;1.446782554406808E11;2.6388203794109274E7;347457.9455273012
0088fe87134b8a8826f237dc69951eba1d1933f74b;1905003076;1.446782554406808E11;2.4076452622343805E8;3170187.265876904
0089df38fa28a7b21ee74f37869ed1df997f15c028;1905003076;1.446782554406808E11;2.2600973876588753E8;2975908.482194138
008a71dac5fcfaf42c74c45cd3aaad058fb948d922;1905003076;1.446782554406808E11;1.5790678877498502E8;2079185.4133253933
008aaac20888644972b3bb1b210753f9ca50817d39;1905003076;1.446782554406808E11;1.7548977445806023E7;231070.35617126312
008ab7319e3272eee8bf5779939289eef215950d37;1905003076;1.446782554406808E11;5576745.11942894;73429.94684461015
008b5870b2e2ce1bf2461a7beaa79234bc0376a0bf;1905003076;1.446782554406808E11;4.5947545631678164E7;604999.109896548
008bb5aef7a1eb91ca6e9ea276cfdf6271ba73a0b0;1905003076;1.446782554406808E11;6348753.005927802;83595.10534750334
008c024fc8ceb706aa08d1378b4a0c2e40b1425664;1905003076;1.446782554406808E11;3384243.175258328;44560.90266752242
008c28bf39f42caa606acb4944d84c986fc70290b4;1905003076;1.446782554406808E11;3885826.0784528563;51165.32964615955
008c339a579abc43130f39e614cd3b428380b06eb7;1905003076;1.446782554406808E11;8.629952802863765E7;1136320.4916395233
008c80f5e31067a7617c0c53e2dc8a42a2c76b57fd;1905003076;1.446782554406808E11;1.9292274048437778E7;254024.63758887033
008ce4ac46d34ed522fa3eea48df2c36b461b34bfe;1905003076;1.446782554406808E11;1.367112009691919E7;180009.95213599686
008d3d1df0c6e4d1443d91cc02a403e36d1b225563;1905003076;1.446782554406808E11;1.9912161097363615E8;2621867.952771793
008d537edae634401fcd00a2b7180ff077a43527ca;1905003076;1.446782554406808E11;1.1509186155669658E7;151543.40202696697
008df0146c11b18bb474c0917a65cb909a298e8278;1905003076;1.446782554406808E11;2261983.1668782094;29783.915196088114
008e0774d18e361ef15d17c24d6a799fbf7a667a10;1905003076;1.446782554406808E11;1.5377275402960485E7;202475.18781527976
008e50a18d1cd826843dba0fe4234e337f19168346;1905003076;1.446782554406808E11;5.667254327422259E7;746216.9690482765
008ef60f792c22d86c63c3cf362e2eebbdee482c3f;1905003076;1.446782554406808E11;602418.3834112608;7932.144812928905
008f25a19f539b8609da03ef5dcf6d7e21605b1cec;1905003076;1.446782554406808E11;1389074.4297563506;18290.178115699997
008f3c862afe8d64433832c24e7299f09001fd6f48;1905003076;1.446782554406808E11;1.1822297822706064E7;155666.19634059074
008f3db408fb67fa5d9c9470f39453e709265ec620;1905003076;1.446782554406808E11;3975439.3468118194;52345.28271757484
008fe038c5f7ebba8b6e429b5cee352e9e52351c52;1905003076;1.446782554406808E11;1.9563505450081352E7;257595.98735988443
00903907d17b5e4ef609176a619f5f0ccfc3b34166;1905003076;1.446782554406808E11;3.592282595277138E7;473001.92921319965
0090c55c6f7b632c2b57fc7b38ffbca67560a262e1;1905003076;1.446782554406808E11;2.771547642016797E8;3649343.6883383677
0090c62209b6e5a881fa9658fa29f5a9bfe74507da;1905003076;1.446782554406808E11;1.6805079746460366E8;2212753.2926022997
0092c5792a7552669f35090b7f6dc2f66e1c32fd99;1905003076;1.446782554406808E11;8.318623691945596E7;1095327.2606843282
0092ce530e70b52baf24fdbb95c90f407cd0eaa719;1905003076;1.446782554406808E11;7.517651632970451E8;9898619.140439468
0092ec3baff84fd5f5f7a45350c5c7a72be48a14d8;1905003076;1.446782554406808E11;7.574374338830902E7;997330.6887270577
0092fc5b169870d9d56478b8b8ef077e14f22acfe3;1905003076;1.446782554406808E11;6377560.333657729;83974.41630732724
0093de7b8a76d7a514b522fe0baa3c8461e2781189;1905003076;1.446782554406808E11;2.3242164485884926E8;3060335.134927198
0094182c7d9eb84e5683e75eb47195aae2e9748354;1905003076;1.446782554406808E11;2.0122139024052054E7;264951.6101763857
00942f6c6f120392d2d3b49bc7e0b23dba0536ca99;1905003076;1.446782554406808E11;8211841.490566837;108126.70675012557
009504c1c6b8710e7cbf05104c6778e2eeb734cb52;1905003076;1.446782554406808E11;1.1164563207077777E7;147005.6933358576
00951233c1edb8a905705f83e47d1a9bd0ce1c04ea;1905003076;1.446782554406808E11;828.729399237229;10.912020261163889
00959095b44083c071c9bc578cd9dac2a09c984ec4;1905003076;1.446782554406808E11;1.174996212597489E8;1547137.399790058
0095b14bfa7b44f73907fe46a96210ba4a64a7ab63;1905003076;1.446782554406808E11;2.0929769422508765E7;275585.81632329314
0095c0ddbb3a80032e024410b4a2fd3f51d754f0ba;1905003076;1.446782554406808E11;1.0541065512850112E8;1387959.9366976228
0096399fcc8b88aa236783bb358eb445d4e4dcbc8a;1905003076;1.446782554406808E11;1.918033279873928E7;252550.68820817463
009669a5e23d4d50f858edcf125a523ef1ec1cd6e3;1905003076;1.446782554406808E11;1.5606287490463981E7;205490.62873144576
0096e627d12e1d5ccfca8ff78ac02449e3668c3ebb;1905003076;1.446782554406808E11;1.3170012307690399E7;173411.78106335903
00973bbe1778557d99d7dabce6ec8217ce0808b70b;1905003076;1.446782554406808E11;9585.543474418611;126.21447326883289
0097604cdb055a69f522460b7e2d91f81c4b0c988f;1905003076;1.446782554406808E11;1.688967507407188E9;2.2238921025654342E7
00983564123f8f57a65c593d69eca6c521aa90148a;1905003076;1.446782554406808E11;5.697937942187662E7;750257.1325360688
00983abd8d9dd3c0bf9195a279d7a22424c0d9852d;1905003076;1.446782554406808E11;1.6949738237424023E7;223180.0720940159
00986fdaff74d68238d417bb8c0f8fe5e6f2cf251f;1905003076;1.446782554406808E11;5.006316447669123E7;659190.1597921422
009990900643298f27edb177d5e8b81ebbde7ffa3c;1905003076;1.446782554406808E11;3.9158752882769805E8;5156099.267770472
009a015cf857dc0d4275447c704cd9ba33c47536d7;1905003076;1.446782554406808E11;9407571.900531052;123871.09143399062
009a016a43a36d00df85b4a75a0cea44c9e160fe2d;1905003076;1.446782554406808E11;4363342.663340326;57452.87133845357
009a0d5bce9d74287eff6868aed231dcef4e3cef1f;1905003076;1.446782554406808E11;9510430.185324976;125225.44387850739
009a10b43ad264215ebab2a92a40201b13c0b62d0d;1905003076;1.446782554406808E11;5.987973717069435E9;7.884466338966487E7
009af7d53a9a17587c0b04af596bf619f18bfddd8c;1905003076;1.446782554406808E11;1.6036697018032216E7;211157.90382720725
009b142a9268a15326188079c7f7f2d86f1231de13;1905003076;1.446782554406808E11;2.4094960284272924E7;317262.42010470957
009b966b1edcee9dd021c98cfb296088a21a201ac5;1905003076;1.446782554406808E11;1.0782475532488981E7;141974.6802566891
009d2e5ae513415892adb225867801faa38f165dc3;1905003076;1.446782554406808E11;2.236582857817323E7;294494.65027713095
009d70b474adcbfbff832a67d5e464fcba7fd7f40a;1905003076;1.446782554406808E11;1.787379598239082E8;2353472.9681760347
009dd560e0420b6f28965f666b81d22080d533f6db;1905003076;1.446782554406808E11;3.5712121145037913E8;4702275.433482497
009df375ee901d99f8a3eee4dba59de9acbb8bd9f6;1905003076;1.446782554406808E11;4752441.014897988;62576.195187819365
009e5662211136296c1b9189026584ba7efee099f7;1905003076;1.446782554406808E11;1.1537163037843443E7;151911.7783696013
009e7f984e0b80d7b72cbec77f238c395c37242670;1905003076;1.446782554406808E11;7.973208629751243E7;1049845.8748345543
009ebdd90e6e0a4f7a8cfdc66179d8b3b386badff5;1905003076;1.446782554406808E11;8.843635263891194E8;1.1644564229378795E7
009ef85210e6e76693649ed08ecb5d036011a743dd;1905003076;1.446782554406808E11;2.4042431848579364E9;3.1657076930156093E7
009f1b1ae52e1c0287aa656ca0713efc99329dd620;1905003076;1.446782554406808E11;1.0347683554741576E8;1362497.0069769428
009facd6d3b7407d9743e73f09e8ad5245eaf0901f;1905003076;1.446782554406808E11;2.0496499326075688E7;269880.87563314056
009faf479970921eb7595e1a3362df880673d3dad4;1905003076;1.446782554406808E11;1.4975257986508628E7;197181.75645191665
009fe2ecbcd0073b4afc91f805cbbdcd37f42235d9;1905003076;1.446782554406808E11;1.3869532807720784E7;182622.4858802229
00a05a23518f52534e73545fefb4b180a1959895e7;1905003076;1.446782554406808E11;7.367326362254572E7;970068.331225159
00a0d4795404137823f62c9cf2fac3ba50f7dd4c43;1905003076;1.446782554406808E11;5.0203814064989984E7;661042.1167260376
00a0ea7251b606d22fa28c0ebc227b9b45d7315920;1905003076;1.446782554406808E11;7.747473082214798E7;1020122.8932358589
00a1074b13fcbc29c219a52d6f12af4d8fddc0b09c;1905003076;1.446782554406808E11;8.120692975333045E7;1069265.388232708
00a146f5cca89e84dfb701a00ee95519c6ed010882;1905003076;1.446782554406808E11;2.1969298311003454E7;289273.4691370581
00a14a47eb479014049cfc536a6f43887fb4ddbdbb;1905003076;1.446782554406808E11;1.869105383549012E8;2461082.692892245
00a1867413280e5220f9218f74943f843b203f251a;1905003076;1.446782554406808E11;4782543.019796213;62972.55338104072
00a1ae0209acc8848013e68be3354cc64a7bbe3977;1905003076;1.446782554406808E11;1888300.4767960897;24863.571970452085
00a1bf93e9ecc06ac98fcf7090ae2dcb3955bd15bb;1905003076;1.446782554406808E11;5.937107560483084E7;781749.0009685945
00a28862bf5ce379b3dd0e2b65c3247725459f8a5b;1905003076;1.446782554406808E11;2.8325149697725236E8;3729620.4006586787
00a2bfbd9d9c8aaf65adeb422631ec91cf924e2dc2;1905003076;1.446782554406808E11;8.826765653070204E7;1162235.172729476
00a2df0b8eba964217008c1b2e54e476fd67362781;1905003076;1.446782554406808E11;9.630322102322084E7;1268040.810411643
00a327e0bdf695cc2d749d97bc9fe2ee08ee89e2a9;1905003076;1.446782554406808E11;1.7433324284434658E10;2.2954753142133445E8
00a4d4590fcb6b946c7e040e9d3432a0d3f5c0c949;1905003076;1.446782554406808E11;4.384407645918013E7;577302.3752927575
00a561d0208cffc300ff3e8e084a0e903ac73631ce;1905003076;1.446782554406808E11;5.804496145785644E7;764287.8315522328
00a565524c5479842d692e49a74f94785401952741;1905003076;1.446782554406808E11;1.20210429442863E7;158283.10699379927
00a618ffbd39178b90f7c44dd5089ff588818f2e73;1905003076;1.446782554406808E11;1.3782058332666408E7;181470.69466223716
00a65dc475af4440feb95e47cc36a028463ebab1ff;1905003076;1.446782554406808E11;5.417385295199092E7;713316.2906752614
00a6d31084268ab9e20811c4b7fdebafb1851be5e5;1905003076;1.446782554406808E11;1.518420317150404E9;1.999329730664607E7
00a7a1ed2dc69fe47f46f3c0c08622e86a8ab22476;1905003076;1.446782554406808E11;1.3419445472888194E7;176696.1097657675
00a83b632f1fa16b752fa69d3498d2e6f542cf298c;1905003076;1.446782554406808E11;1.5193835052748816E7;200059.79767699444
00a90afd1ac71001aed439c5c78b81b8b81648007c;1905003076;1.446782554406808E11;1.5213296498510526E7;200316.04982716407
00a9b7c1358bf834b85bbece695737fcd41582ad03;1905003076;1.446782554406808E11;1.5961021087085055E7;210161.46603636997
00ab9f6b4cb7521f29a2914887b71d90957a37cc16;1905003076;1.446782554406808E11;1.446389523327183E8;1904485.5653254567
00ac88287b451f428df99f694d2a760b19adb9e77b;1905003076;1.446782554406808E11;271967.73603727634;3581.045210599683
00acb67deb8768cb62372591efb2cd6c2e2ea75618;1905003076;1.446782554406808E11;1.6830583865121327E7;221611.1463071788
00ad5db8f0c8726b088ece10794f3eadb48e270e02;1905003076;1.446782554406808E11;1.9906282041716164E8;2621093.8475644654
00add78c95d7769da4a78cd05818ae8550ac33c7c9;1905003076;1.446782554406808E11;2.2930869905560574E8;3019346.450673733
00ade0c0ac27ed13d3153a93f67a3448532674fb7d;1905003076;1.446782554406808E11;1.4489004692239454E7;190779.17702851666
00adf37a93e51f6b70dff6dd91a5d90e9f341feaf9;1905003076;1.446782554406808E11;3.5029030585795745E7;461233.1743424911
00ae9d0c61cd4a2e842797b65bec78e7bf659ea642;1905003076;1.446782554406808E11;7357209.073709419;96873.61707190353
00aeb30f0c95adf763d21227eb0f40b9ee5ac899be;1905003076;1.446782554406808E11;5919727.7997165555;77946.05784534394
00aecaa587bd7b5ad5229a01549f0a971645e45e67;1905003076;1.446782554406808E11;3.1932768505724216E8;4204641.67495731
00aed8e1dc9a1cd9e55c661b52c4b72a697c2dd451;1905003076;1.446782554406808E11;2628855.666421532;34614.58749028363
00af30468f11657c54ef9dd6ddaa3e0f326334f1f2;1905003076;1.446782554406808E11;4.2434374164012104E7;558740.5865819417
00af83d3a69a3cf191d11a252ae9696f6932928904;1905003076;1.446782554406808E11;3.281918026517331E7;432135.7011564713
00af9ef8da2344028f58fd249d4c3b1f3f6a5482f5;1905003076;1.446782554406808E11;5.649670840785444E7;743901.7216029774
00b09ac0eef8be2d5520555fdb142af58846cb20e2;1905003076;1.446782554406808E11;1.0197188553873247E9;1.342681075501716E7
00b0ad1e398131a0843105d5dd2efa98f44fde7e5d;1905003076;1.446782554406808E11;1296462.3929495485;17070.73975259422
00b0b064e4880325ad339018265744c2cd8028e969;1905003076;1.446782554406808E11;7082473.985207579;93256.13366303201
00b1ade35c764fae5e8955a8548288f05b4d136c1a;1905003076;1.446782554406808E11;2.0945510383220322E7;275793.08021712
00b1c98d1b6b0f55c7dc74428f4ed83cd7b08c1269;1905003076;1.446782554406808E11;7.590641498380737E7;999472.6131569472
00b21737c18facf1dbadd51607296636673a2a9b4c;1905003076;1.446782554406808E11;2374358.8467369624;31263.584792230624
00b33c83eaa40aa5e9dd699190c4d8f515077b674e;1905003076;1.446782554406808E11;9928401.894949023;130728.94812031277
00b35c475557dca47664a3436fc6cca48f03a27fe3;1905003076;1.446782554406808E11;3502989.247181809;46124.452294162045
00b38951b436d5fcdf69b8fab89d91343c623f6806;1905003076;1.446782554406808E11;1.92880472163825E7;253968.98217581245
00b3c7d72e7f19a8a3de46dfe850ad663ccf80f702;1905003076;1.446782554406808E11;1.875146427479775E7;246903.70376797882
00b4aa0d9635ace6a0f75d7251832c13d5cb441e8f;1905003076;1.446782554406808E11;9.264236739914266E8;1.2198377311485395E7
00b4b756b1ef697f11b324a9c67346e31292eda0df;1905003076;1.446782554406808E11;2.6694363577583052E7;351489.2032134583
00b4ea334212ab90793cf66609f0e3fb50652be010;1905003076;1.446782554406808E11;461499.1393084681;6076.637275422813
00b4ef08393daef3506b89499b7cc9e5645b5538ee;1905003076;1.446782554406808E11;2763891.4958015634;36392.62711037459
00b4f0ca31a0cc4e56eb835b5cf729a7dba330ddf5;1905003076;1.446782554406808E11;6.261117496808507E8;8244119.376673003
00b52c5192820dd2f30dae6bfec29953ab6d4fce6a;1905003076;1.446782554406808E11;4.763712177293935E7;627246.0449071684
00b5787ce59988e97f4eecba542145e079cc09e090;1905003076;1.446782554406808E11;1.5824612610473633E8;2083653.525378645
00b5daabf9a664fa3c56e81b8795bfa4bb2a1f446c;1905003076;1.446782554406808E11;2.234040591920036E8;2941599.058236822
00b5ffff62f8d57310260341b5cb3bac9993d39d47;1905003076;1.446782554406808E11;1.2706097141184326E7;167303.3315489158
00b68eb221da8747ad6f00257ecfb98b00c4425329;1905003076;1.446782554406808E11;2.0438072519092612E7;269111.5599769309
00b74cc6bab60b82db1b9c3ab30c5890d4b90f24bc;1905003076;1.446782554406808E11;1.3812503489655167E7;181871.57119711264
00b76bb2a448a1a312934d8dae3210b2a87e76976e;1905003076;1.446782554406808E11;2.8101689170367967E7;370019.6974817418
00b78b3a71a0c68a3328549e0f0de79ba9af063782;1905003076;1.446782554406808E11;1.579212187954103E7;207937.5415846596
00b7f1f50232353a573d20dba8e0cf4649bba867d9;1905003076;1.446782554406808E11;5.2069867990144E7;685612.7645858176
00b87446a29c44c687a9d84defb4e32a0833f2ca19;1905003076;1.446782554406808E11;1.8623468978735533E7;245218.36804168494
00b878b938b37354bf4d453ad71de96d7b535e3fc6;1905003076;1.446782554406808E11;3.1973267525552255E8;4209974.249442149
00b90dac72c5ad4b39c8a25ebb5906ffd580984de0;1905003076;1.446782554406808E11;5.3436053130553566E7;703601.5555547051
00b9e0cd10605f7ce71c8fba99c8537abec9a46e19;1905003076;1.446782554406808E11;5.026672753145115E8;6618705.089869566
00bab91a09d27e81762b529f834fd956b3e0144b7a;1905003076;1.446782554406808E11;7380412.7919489145;97179.14435716307
00bb0be266879971b7eabc5752aaf087cf991af00d;1905003076;1.446782554406808E11;5.978239371811905E7;787164.8961813329
00bc12e360f691aa37cffafc405befca70d1e75215;1905003076;1.446782554406808E11;1.8345256609642304E7;241555.09869074126
00bc65232bd889b7e40e486ea58bf7d59eb391a0a5;1905003076;1.446782554406808E11;671678.2165228598;8844.10075764887
00bd2d60545c98bb267fc9dbb5774a7b2e9766df61;1905003076;1.446782554406808E11;1.8691744830687466E8;2461173.67739938
00be15cbd68e9147517051d10b92b1dee2a8ba0198;1905003076;1.446782554406808E11;1.991114823728464E7;262173.45877709414
00be2512f20d0cb1888fb092489d8fae9f1608c41b;1905003076;1.446782554406808E11;1.6201673282833777E7;213330.1742278745
00be33473d3969ae619a931af176df9f730607b3a9;1905003076;1.446782554406808E11;1.1001408135654684E7;144857.40289663934
00be773eda360041ff684d943c43f572d414497513;1905003076;1.446782554406808E11;4.6061966770302665E8;6065057.123944503
00bec046271df26d10fdea6a3b877a729a71d83775;1905003076;1.446782554406808E11;1.578476064541795E7;207840.61496908136
00bf515c7bc2349e96f80e4921eebe4b81aa94eba7;1905003076;1.446782554406808E11;1.0957265099044465E7;144276.1640624392
00c02d11f4805cc882aeade494bc67ae1b3c791d21;1905003076;1.446782554406808E11;2.077317712130711E8;2735239.3899032115
00c02e09264e9429e1fb44c094857cd9bff4020c24;1905003076;1.446782554406808E11;1.9764645456731018E7;260244.4318701334
00c0aa1158cc9718917158977432c0469e9f9bb12f;1905003076;1.446782554406808E11;1.3035246170837712E7;171637.29253042073
00c0ba1cd12676ddf3befafd665434de75644d780b;1905003076;1.446782554406808E11;1.2952035208624417E7;170541.6397076077
00c139ff8f7cd73ea7d19f49210839655745af93f6;1905003076;1.446782554406808E11;1.4572174114867911E9;1.918742828925856E7
00c1533d7112da2a15383d839d243d6d02e2954921;1905003076;1.446782554406808E11;1.6224297788862377E8;2136280.7492792225
00c17ffa6c6d829b5b90d1fea02c6a61c430d30bc5;1905003076;1.446782554406808E11;2.95634004984429E7;389266.2979313061
00c30663ad7ef0e2f691d3d3f5f9bab11ed8979b60;1905003076;1.446782554406808E11;3.6857136161473095E8;4853041.498620015
00c3a7159620a092d4fa591c5ad17ae80cddf6e268;1905003076;1.446782554406808E11;4.188527971899688E8;5515105.670908829
00c3b14a5f66a049ba970d5cc28f0e5dfe19107e62;1905003076;1.446782554406808E11;2.1536095067786418E7;283569.408714516
00c441c9e6c6855e82647bd659c0bfd70e4f5a297f;1905003076;1.446782554406808E11;3.0734811492827374E7;404690.4647542023
00c447a87c9815429396a1f4672603fdf39dff0730;1905003076;1.446782554406808E11;1.2123183727728356E7;159628.0119765798
00c453d4fea90b7acb0049ccbebc96098bec8b4039;1905003076;1.446782554406808E11;666569.2615666017;8776.830283055628
00c45a55cf8de7d1ce6dd3a5658fda74c9dc376c22;1905003076;1.446782554406808E11;1.3466600203811979E7;177317.00408871984
00c4c1ad0ecb6b0db9322af0a76502429b8d87ae0c;1905003076;1.446782554406808E11;6.788245423514467E7;893819.7639340524
00c51ebe02bcdadeac72b8c19b7b19b87a5eab3eaa;1905003076;1.446782554406808E11;1891184.6777090984;24901.54873202104
00c60c1a85efcf3631c0a0dc9fc738c9fdc1818ac8;1905003076;1.446782554406808E11;1.1354443440881075E7;149505.8785113361
00c62a9bc02c9b1c3d35efc3f9ed85a770b56b84a7;1905003076;1.446782554406808E11;2681236.689994816;35304.29729309534
00c71d1b9673625b3d17ec454bb47d2a4d2ba54dbd;1905003076;1.446782554406808E11;1.9861336581156995E9;2.6151758027030133E7
00c744ad30409887487ae610d0694ac7d67ff2d64f;1905003076;1.446782554406808E11;5.298866008370465E8;6977106.555861356
00c774fff889a942b555d39d0df927d88cc1da3039;1905003076;1.446782554406808E11;1.6221403579603484E7;213589.9663847691
00c7915f11747847628884ee036558dcfc0b65d0aa;1905003076;1.446782554406808E11;1.1117107335348388E7;146380.8338409502
00c7d598e3ffb4bbbcdeb997f32e02e1b5a484d774;1905003076;1.446782554406808E11;2.0183732975284922E8;2657626.281569675
00c94a1520c04e233eae0e55d08868ca46a6b589d1;1905003076;1.446782554406808E11;1.2746234613933481E7;167831.82844582063
00c950e7d858976e709d22a3c04de052ed13e2c443;1905003076;1.446782554406808E11;7419488.803831084;97693.66481918139
00c9e4abf7b14fb470c47fd188a3f292fb22589eb6;1905003076;1.446782554406808E11;7002053.576653188;92197.22453254348
00ca4be5d52674f3fc5048128b111f0b9866375255;1905003076;1.446782554406808E11;1.4114580174355706E7;185849.06603066318
00ca9db3d5c590cffb9518e1ad1311246a59a8da21;1905003076;1.446782554406808E11;3.5668287999534726E7;469650.38490270457
00cb940e655ad4df1379826749014b82e52ba5e2b5;1905003076;1.446782554406808E11;4777199.859187577;62902.1990809836
00cc0417e2d76d4773ee5792392843a85589db14bb;1905003076;1.446782554406808E11;6.988443637267807E7;920180.2015719105
00cd1fe739b204551d1a07e0721c598935188486bb;1905003076;1.446782554406808E11;9998992.360246783;131658.42472423575
00cd5e9f783fcbe37ae2910213aa08822ffb1c3266;1905003076;1.446782554406808E11;1566027.7680808378;20620.152670548214
00ce9b4a5f03f9569530a782d20f48b582bfb73b4b;1905003076;1.446782554406808E11;1.6591615630323332E7;218464.61111452075
00cf3ab49abbf6d95b7c5cbb34de69f67a287434e9;1905003076;1.446782554406808E11;2.1672694014038425E7;285368.0301590158
00cf5765d2858b9baadbfe002439d39fc2f7752df3;1905003076;1.446782554406808E11;4.231423576982893E7;557158.70401246
00cfc8bd7b41a84788de70e842ab6959262fec33ef;1905003076;1.446782554406808E11;2.7554540512008227E7;362815.2984928976
00cfd53c4bdb671689b75699ffc8ad2d2765b191fe;1905003076;1.446782554406808E11;4.3567076524763346E8;5736550.702744016
00cfeecc6d19cd106c14c04ce533620a2712b3a00c;1905003076;1.446782554406808E11;6550564.687550053;86252.39391579652
00d0105d2e717229b47b71b82e713fb97a1c143270;1905003076;1.446782554406808E11;1.5706514990634328E7;206810.34118956688
00d01e90f71e84e5f63d3607f097c43a30b575c816;1905003076;1.446782554406808E11;9499999.583948784;125088.10238482092
00d0858cad38d2b16f99770238c15bc79a74aa60ae;1905003076;1.446782554406808E11;5.766088696630378E7;759230.657717835
00d0bf77d0f8318355c3677728e64c2f53ec57f939;1905003076;1.446782554406808E11;1.975311856291918E7;260092.65530840072
00d0d42ed20328110b70cc049c425388b58366d693;1905003076;1.446782554406808E11;7.347660795623855E7;967478.9327831687
00d12c001dd117c56877593424fe621e42693f7732;1905003076;1.446782554406808E11;1.0380045869267353E8;1366758.2077033618
00d163d76f4ee87d21c88c5c245577aaa98f7e660f;1905003076;1.446782554406808E11;2.237143350409512E7;294568.45128537115
00d1912d0791256aeff5c22de228d65a09cb58667e;1905003076;1.446782554406808E11;1.6823374375377738E8;2215162.1773552787
00d206b9c77cd3965f9f298a67629f2fa7f1f71b3b;1905003076;1.446782554406808E11;2.2224559741364092E8;2926345.395932923
00d27a028ec882a7282632138198b381648a0aaabb;1905003076;1.446782554406808E11;1.2868997470728645E7;169448.2677587015
00d3bcaad520cf34b11e951d7e8b647a37f82fe288;1905003076;1.446782554406808E11;8.435663450997375E8;1.1107380838469943E7
00d48ca32da7b6f4a03a56f7ca1031b723b61aefa1;1905003076;1.446782554406808E11;1.1001532171154702E9;1.4485903609306091E7
00d494fd3591fd3d9c0ffc4eaa8c79698917da66c2;1905003076;1.446782554406808E11;8985071.689552717;118307.95964841018
00d4c2f1385403f7ac748a5a2ba5df56a1473cb1ad;1905003076;1.446782554406808E11;1357888.9666820522;17879.553845300354
00d4cd15f43ee2a9067ce3957f4aec1ab464ae7839;1905003076;1.446782554406808E11;7.783061725062715E7;1024808.9100729738
00d4f5c69d23a1919d4021a3a79769d52a32bc381c;1905003076;1.446782554406808E11;1589048.8949958263;20923.27574493461
00d52235b604dab92de67da8605b79858ac3a2f218;1905003076;1.446782554406808E11;6038554.018605742;79510.66278064577
00d555eafd5cc47260b59831ef186e0746361d20d6;1905003076;1.446782554406808E11;1.1595968349685903E8;1526860.7786335594
00d5abc335c54cfaf7116ebea2132c89115eff6142;1905003076;1.446782554406808E11;2.1473938186964437E7;282750.97854475916
00d5bdcf82749c811edffae84acf943dd722510c94;1905003076;1.446782554406808E11;1.0975426837837104E7;144515.30275097332
00d6660f20517c70d9ce09ad2cc4efd97edfbbc6cb;1905003076;1.446782554406808E11;1159844.4790046655;15271.86855727204
00d72ef3a5a298539780aed09861a7f9d3b7a83dad;1905003076;1.446782554406808E11;1.201276561128335E7;158174.11794922125
00d73b71d9b3140493898a07e8d8807bb59bd65289;1905003076;1.446782554406808E11;1.3627296402804457E7;179432.9181384831
00d82d1af87114ca1d65a446dc599c9c395abfe499;1905003076;1.446782554406808E11;7.830424579597248E8;1.0310452572905708E7
00d852b81a4311c8e7689aee1d48183d1a11e9e5bb;1905003076;1.446782554406808E11;1.4512664529494666E7;191090.7101100537
00d86581012fb24bac86646469874e30c4d75aad53;1905003076;1.446782554406808E11;1.2635500959046138E7;166373.77967038733
00d86b62452eadae13bf13566dcb9e319ceeee1894;1905003076;1.446782554406808E11;1.123299958956404E7;147906.8067668258
00d8de5e00d4dc39eafbfaadbee2ec22a20bb489a3;1905003076;1.446782554406808E11;3.3845973491626255E7;445655.66135263786
00d9b7e9a1b70afc38227df3c2aa2ad8b42f0386a0;1905003076;1.446782554406808E11;3993844.023602379;52587.62021184452
00d9e0d62e471bae1d22c8bf69891e018f9b1bb467;1905003076;1.446782554406808E11;2.680237346806939E7;352911.3877220299
00da020bf4a271401be020e491ea441a9527b2c071;1905003076;1.446782554406808E11;3451822.5964338337;45450.73234387224
00daabf55e460aab3dacaf339950d5134d2d7e1c54;1905003076;1.446782554406808E11;1.173857379156133E7;154563.78785232117
00dac63fbb760d82c1c05cdf7c5074ed622fcd358d;1905003076;1.446782554406808E11;2.2257900170457536E8;2930735.386659913
00dae0d98dbbe72eb56a8efbcc957d08dfa817dfbe;1905003076;1.446782554406808E11;1.5610013729359336E9;2.055396927496421E7
00db4a89cd0231136c59ea80488449877e52a8384d;1905003076;1.446782554406808E11;1.5429583469155908E7;203163.9369759492
00db7e737804963aa68aa6f5e0920238014d4e2229;1905003076;1.446782554406808E11;1612920.206908549;21237.593349078914
00dba8ea0786edfd8a49409c1ad229ad16a5519b80;1905003076;1.446782554406808E11;1.8698543875967997E8;2462068.9191987664
00dcf971b2265105e66684ef63b9f734dec4e34a6a;1905003076;1.446782554406808E11;1.6351348961309755E7;215300.9792187878
00dd4f4e815374cc0eeebfa046d649ef89ddb3e12c;1905003076;1.446782554406808E11;3.713611377880078E7;488977.4953659656
00dd51fb618eb72dd50e5850a9a6a2b248cb70c24c;1905003076;1.446782554406808E11;1.5411367112461836E9;2.0292407912426297E7
00dd5889a75c371712c694f13044bbc485798f93e3;1905003076;1.446782554406808E11;8.022179882373427E7;1056294.0025505456
00dd611213e24915ed39104d8540f002056f20be9e;1905003076;1.446782554406808E11;1.4123535603738236E9;1.859669836850381E7
00dd8e8efaf383ac92ccbbf10b80e4b3defee9b7a0;1905003076;1.446782554406808E11;4.683747290646334E7;616716.932942715
00de288fa2f6118117fd5a66f80ee523b2fdf03d3d;1905003076;1.446782554406808E11;4491802.566096422;59144.324619719875
00de46c449e045bf90a909d6aa661c72695bd318af;1905003076;1.446782554406808E11;4840409.906236093;63734.49646869227
00de53d14bc1811ead882312913ef639cf4a45bcf1;1905003076;1.446782554406808E11;7956906.251375855;104769.93130822969
00df78980bcf8a4d4a11b17464fe26fc32871ab1a7;1905003076;1.446782554406808E11;2.5120633977491297E7;330767.63921729696
00e01535db644fccbe194a356406b6c5071c405584;1905003076;1.446782554406808E11;1.36420956108683E9;1.7962778181580704E7
00e037842c74b82774d486dba00150c94f8d19359e;1905003076;1.446782554406808E11;1236362.6066733196;16279.395694881963
00e0f2f83d361743b236aea3b27f2b9ab29cefcf86;1905003076;1.446782554406808E11;2.7792411165031295E7;365947.38164056087
00e2a66feb5d154263be9311df2056b22e492946d5;1905003076;1.446782554406808E11;2.709338914466066E7;356743.24038974394
00e2b875c8176d8a4aabf55d996264c4f2dc552083;1905003076;1.446782554406808E11;43894.461266169026;577.9658005739454
00e3ce432f24d301fbb4ce706334eccde1edc9249c;1905003076;1.446782554406808E11;1.2774711508553654E7;168206.78853696302
00e44c8e1464ec47d90b9d403625c9e58cbe295eea;1905003076;1.446782554406808E11;1.3683318169025963E7;180170.56621593508
00e46ada75a810bf6ff0f28e47f2c435c6b8ee9ad9;1905003076;1.446782554406808E11;1.1590357492576642E9;1.5261219875816783E7
00e489223627fab44016d39d51b12622baa3740d7f;1905003076;1.446782554406808E11;1.8767841309823718E7;247119.3429599583
00e4b041adf21c946885d3a6633cb03652c236b129;1905003076;1.446782554406808E11;3758825.816485225;49493.09570219733
00e4e6c50539fbb1319183539370f008400c3d7fc6;1905003076;1.446782554406808E11;2.91495122811537E8;3838165.617241997
00e522ea0b460584691c6588acccc5b0203bbcd54c;1905003076;1.446782554406808E11;4.6720250982787055E8;6151734.520340064
00e526fcf4a28ae3ac2b034792d82694090801e703;1905003076;1.446782554406808E11;5.5480330806146964E7;730518.9057006658
00e55aa3a69fdb2105de9a6b5f1c08088f68b2ac50;1905003076;1.446782554406808E11;1.077059729676088E7;141818.27751648077
00e6a53d215fafbce407ea14729aec6fdfcc280a8c;1905003076;1.446782554406808E11;2.054944365701149E8;2705780.025993336
00e6a70b4b85e2fd678b5223dae1e701b334d6faf7;1905003076;1.446782554406808E11;1.785101576331205E7;235047.3458174699
00e737ec7b32186837e9efa9b2c223c3332546fed7;1905003076;1.446782554406808E11;5.178720839813375E7;681890.9378980385
00e783ac0501fd88ec9444f145ecb8ba2d8dd056cd;1905003076;1.446782554406808E11;7620514.871881684;100340.60908061253
00e7e18b7b33dc24b9d88158043f6e0a1a69b52f79;1905003076;1.446782554406808E11;2.036216138604593E8;2681120.252402415
00e8a99474b9109d58fde61fb675e2f9464d704750;1905003076;1.446782554406808E11;2.7157381504870865E7;357585.8386272581
00e95783aaf01659a4462b069c0024adf307867675;1905003076;1.446782554406808E11;1.5503629733333427E7;204138.9166686116
00e9be684316c1ca80bd4ccb3ff491e52b303687fb;1905003076;1.446782554406808E11;0.0;0.0
00eae26c14b21808e4a9b5c33be9443c92d18097bb;1905003076;1.446782554406808E11;7.132824174276823E8;9391910.312421286
00eb39fa1b00ac977c93cdd06bd8c6e0b030dfc9df;1905003076;1.446782554406808E11;1.259453983609418E9;1.6583443763186041E7
00eb9be72269d40ffc199bc089f35f4faeff024bea;1905003076;1.446782554406808E11;4.301023658945312E7;566323.064601714
00ebbc29bca33c7a1c659a546caf60574c4c6c36e0;1905003076;1.446782554406808E11;1.0567489990803523E7;139143.92924328448
00ebbde1133624b2ee723ec96547b37b40e158e58c;1905003076;1.446782554406808E11;2.6536613493637568E8;3494120.8115914506
00ec90d639f295627e4a4be29cdbd05a726d9402fc;1905003076;1.446782554406808E11;6588929.595522973;86757.55115228832
00ecb988b7c624f21cb7128033758df32fb54747a7;1905003076;1.446782554406808E11;2.938420387555346E7;386906.78566891805
00ed3e0342f724aaa0eb0998388c1b46ecc6f730ab;1905003076;1.446782554406808E11;3242905.8572601033;42699.89028027669
00ed458d9f727b468c4ad042aa18f5a6973d889c67;1905003076;1.446782554406808E11;2.040707216731733E7;268703.3730983353
00ed6af636838e62de986c3cfbd0001befd95048a6;1905003076;1.446782554406808E11;1.8565525491072252E7;244455.41633276021
00ed7d6295501ae86f1deda943ac05ecde1f0a97b1;1905003076;1.446782554406808E11;2303667.481363763;30332.779619937133
00eda7b0f41d0a6e6ddf5723603a49039ced9e76d5;1905003076;1.446782554406808E11;5.743779045639507E8;7562931.082130636
00edf6c851ed71d03bcc0e7e52df90a8d58236cec1;1905003076;1.446782554406808E11;2.4059023744213513E8;3167892.375995332
00eec031fab956a8264ee64bbd14883962d2aec0b7;1905003076;1.446782554406808E11;5.098464372374959E8;6713234.3299736185
00eecb2100435327cd6e5a57b43faed31040afe05c;1905003076;1.446782554406808E11;850275.6878909076;11195.7238905491
00ef1799a8a4e9d9f49d601580c26b2c72306c147f;1905003076;1.446782554406808E11;5.560804866247438E7;732200.5883310152
00ef7a8be9d4bb67f1856ec238c8ae9122b58aaa7c;1905003076;1.446782554406808E11;2.2208789296660298E8;2924268.8747874955
00f09e30bd1e8711b35742ce923e3732366ebc7fe0;1905003076;1.446782554406808E11;5824051.982892691;76686.27817221258
00f0e9ff67e35b9e673f7ee87d4ec091edd118ec9d;1905003076;1.446782554406808E11;8.776940727491949E8;1.1556746404505279E7
00f1233d3a7046f203ff22056a01318b62b71602a9;1905003076;1.446782554406808E11;1.419047459729657E7;186848.38074256104
00f21c74882af0c66edafc76758bfb7e8ed4389ab2;1905003076;1.446782554406808E11;6.1313855942839086E7;807329.9184922748
00f2224da26e66314628e7d50c5a2446c8752b350d;1905003076;1.446782554406808E11;1.1430950362273629E8;1505132.5809401197
00f2a3bf6f35250faab57662b8cf410bd374afda90;1905003076;1.446782554406808E11;2.00788653709601E7;264381.8186621126
00f2f757b418ddd41cc74929334f047a388142cfb2;1905003076;1.446782554406808E11;1.61896107311001E7;213171.34456762546
00f3a778fbcf663e4f0d47b41aa4ec51e0f9d39d60;1905003076;1.446782554406808E11;2.4254305686623806E8;3193605.479864724
00f3dc5417900b23a96c2c8d1826e931211f41343c;1905003076;1.446782554406808E11;7.65894351009291E7;1008466.0546393837
00f3e45a321f4bbf71982963db9b8f02b6423f4216;1905003076;1.446782554406808E11;1.3143378821740055E7;173061.0934461669
00f50760cc3c263fbfc96c4f078482f3c93106adb7;1905003076;1.446782554406808E11;938270.2326001442;12354.362953701508
00f545920937d58b8d26071539c9cb6d8bb9ee30b3;1905003076;1.446782554406808E11;5.656003005423428E7;744735.4884379697
00f58c1bbbf2b9a06cf6ea0e23701341ace184bf4d;1905003076;1.446782554406808E11;9021457.523200441;118787.0580783063
00f593c82c1080637b0f695d0a5743613af620b254;1905003076;1.446782554406808E11;8662102.008812856;114055.36319989664
00f5b42c979d22d23d65633f10f1c5be3a43041b7f;1905003076;1.446782554406808E11;1.2875253507891979E7;169530.6420588575
00f5ec0728aa1bb85965744d86ef0dd5627b58230e;1905003076;1.446782554406808E11;772504.8382496941;10171.701950704866
00f5f50f29b54f0c28a6c64ce31acbc9e24f124317;1905003076;1.446782554406808E11;9.516110071043867E7;1253002.3189508154
00f635dcaee8eadf03d9cc0f63c5529a9a3f6111d3;1905003076;1.446782554406808E11;976917.1153460471;12863.23299975305
00f66b5e6e16b78a0ab30bd24531668d589c7f3f98;1905003076;1.446782554406808E11;2.7282425814916126E7;359232.3182212161
00f685027dbe0a92b22f7c0e9f5dfcaa32d92ee837;1905003076;1.446782554406808E11;2.145213981439414E7;282463.9556837789
00f6c13954f07c9cd31c67ebcd0173085492d243de;1905003076;1.446782554406808E11;2.7741549110486275E8;3652776.7236002786
00f6dbe4acecec6b4fb239055e7f80556e493a7071;1905003076;1.446782554406808E11;0.0;0.0
00f6e5cb01d2bb9d520e01ec7fa522acd3d3110c6b;1905003076;1.446782554406808E11;850.232354538143;11.195153312959132
00f79f0f4bbdbc45b9765db725c716c203e69f5c4f;1905003076;1.446782554406808E11;4.4788383192470294E8;5897362.218727146
00f7db7a1ad63e28f77cc893c8d3a1c253c8abb8c4;1905003076;1.446782554406808E11;1.0557728826124264E7;139015.40233588783
00f84acf77f77252b11b8684518fb08fcce72b05d2;1905003076;1.446782554406808E11;1.4287843461200623E7;188130.4530531433
00f854d4943716b4e7b75091e58930c5bd1ba1754a;1905003076;1.446782554406808E11;1.510935856761509E7;198947.48149969993
00f910caa11b18e223a77662357f40822071610a43;1905003076;1.446782554406808E11;1.294904611539037E7;170502.28181109476
00f9629f3f42e0dfaa9fca359e88a2ce622e5017b7;1905003076;1.446782554406808E11;1.4480369194651192E7;190665.47197022493
00f96b168869db5416759fe61cb0507d38987f2740;1905003076;1.446782554406808E11;3.24732462682826E8;4275807.296705179
00f9bbefae773b5a9aec5a01e0005139af1dddf7ed;1905003076;1.446782554406808E11;1.3453131725385318E9;1.7713966235375296E7
00f9d7d8b228f42a1d148bd132bf3ba092206ad8a2;1905003076;1.446782554406808E11;3.9622586000144154E7;521717.2959366863
00fa8713e2703636d5f5fc6fb760de3cb28f5f2bee;1905003076;1.446782554406808E11;4221275.69984448;55582.25158544908
00fadb0912153099487ffc49e4b24e4d024f6e64a8;1905003076;1.446782554406808E11;6427506.55038437;84632.0665963012
00fbebd01d5b00a3687985d46d004c7dc044be9ddf;1905003076;1.446782554406808E11;5244542.787884961;69055.78252034426
00fc28a78dea16c765b3d5b52f34faa94861d52f9b;1905003076;1.446782554406808E11;1.0482711680592407E9;1.3802763888411244E7
00fcdd97a29405d585b450d52bb5fc4a9c9ffbc1e1;1905003076;1.446782554406808E11;2.896088884525741E7;381332.9250194741
00fd562412392806c5d687fdaef05f7e7c2a93a9cf;1905003076;1.446782554406808E11;6.056255523611337E7;797437.4149301187
00fd79226ee6c4322305758a32ff1c4f7dc2d67894;1905003076;1.446782554406808E11;3.2518347837331258E7;428174.5896635654
00fd7e31fdc870320e01f611638446bd623a626deb;1905003076;1.446782554406808E11;9466319.906687403;124644.63637407735
00fdd3675c42e9a57c6c9ec43e7eee90c3a1fb0062;1905003076;1.446782554406808E11;0.0;0.0
00fe0813844b18103c12cd2b3448d9060b958d194f;1905003076;1.446782554406808E11;5.138662836653234E8;6766164.3282427685
00fe34a7bc8d4907b46e06cc25f71ba43da2700212;1905003076;1.446782554406808E11;5.88462781098412E7;774838.9035307505
00fe5f2d17cb74e0be8b673e12cbda5056ecab2fa6;1905003076;1.446782554406808E11;3974648.5301300692;52334.86990048151
00fe99083a319caf9ceea1d68b1a48ada78da808a6;1905003076;1.446782554406808E11;1.7026285546656407E7;224187.98347021439
00ff0c9b6623b49b664bc384a8bfb4418ace76b67b;1905003076;1.446782554406808E11;2.274205578019699E7;299448.4975221581
00ff4fc197e9d4b52c9920e3020a0a4b7626886a01;1905003076;1.446782554406808E11;4.493287888877197E7;591638.8211616336
00ff581c3520a683a5c1bc301e7699d492b8b042ce;1905003076;1.446782554406808E11;4.145559947066826E7;545852.894538299
00ff71ded534c1b41dc963e0aea18d994fb79930e9;1905003076;1.446782554406808E11;2.3801556094166547E7;313399.1174752892
