00004707b35004e4b8e4f421ecb6419875ccac1622 119.7681 PT6264H PT6264H 2022-08-31T00:00:00Z
0000503d867c0d88f573bec12fc53d7972555f8d62 782.6619 PT6264H PT6264H 2022-08-31T00:00:00Z
00007191afc732273eff16baa3a3c7ae8a7eea6255 93.8155 PT6264H PT6264H 2022-08-31T00:00:00Z
0000f871f03b7d23a21de01b0d5d3d21529b89d784 475.9476 PT6264H PT6264H 2022-08-31T00:00:00Z
00012b872108a70912350c62c0b213e136a58721bd 4787.7129 PT6264H PT6264H 2022-08-31T00:00:00Z
00015b98c59f8f8e69a71a575716e43f89acaa9f82 164.4657 PT6264H PT6264H 2022-08-31T00:00:00Z
0001651bd5d906974cae0fa5a9b6df2a5b036a14ee 8.2232 PT6264H PT6264H 2022-08-31T00:00:00Z
00017b55a55733b7f3b2afa1602277b7839bc10499 185.4657 PT6264H PT6264H 2022-08-31T00:00:00Z
0001ce2900f5e2770e0ecd7f879a90b33e044cf767 669.3389 PT6264H PT6264H 2022-08-31T00:00:00Z
0001e2eb3e9a8715b3681904db7a3343dd4430d395 4.0552 PT6264H PT6264H 2022-08-31T00:00:00Z
0001e52268cdee1d9e3f3894574e50220620dcfa94 1987.7261 PT6264H PT6264H 2022-08-31T00:00:00Z
0001f34f2955daec1e46537cc8f8b56503a4a7ec30 207.3224 PT6264H PT6264H 2022-08-31T00:00:00Z
000262371407b1b8ef32a243082ea9f529a88b9c44 7248.1364 PT6264H PT6264H 2022-08-31T00:00:00Z
0002a10869a1d354758aaedc3df43173db801d52e2 92.2299 PT6264H PT6264H 2022-08-31T00:00:00Z
0002f8598a27beb72c752dfcf91d62bee9ac475c6a 16.0894 PT6264H PT6264H 2022-08-31T00:00:00Z
000305c89fe90d3670bcff971e3fca67f3da4daaaa 937.1130 PT6264H PT6264H 2022-08-31T00:00:00Z
00032794ecd33f4b59ad4c8c1a900f733b7b206904 1683.3229 PT6264H PT6264H 2022-08-31T00:00:00Z
00032e337076db13fbc19b89b21385f2e1134f146f 4128.2223 PT6264H PT6264H 2022-08-31T00:00:00Z
0003756b37ad7f0d51edb1aa3263d23d352c9eee37 4755.5771 PT6264H PT6264H 2022-08-31T00:00:00Z
00038bb25c4e3f9f6f7e2d59d2b755355ef8439076 812.0424 PT6264H PT6264H 2022-08-31T00:00:00Z
0003ce741008fcb045d293fb44f11cbe9b624840ec 194.6929 PT6264H PT6264H 2022-08-31T00:00:00Z
000418db8ccf62894e3cfe403b0d5799bcad8dc6e9 3043.9664 PT6264H PT6264H 2022-08-31T00:00:00Z
000452e43950ac8200f020cb7c051c4730de4d7b5e 13.1023 PT6264H PT6264H 2022-08-31T00:00:00Z
0004bd4547cb76b6a1dd53710c5f8779eed721b5e2 496.3868 PT6264H PT6264H 2022-08-31T00:00:00Z
0004f24e1e2454cc88930d8572195b34301747a52d 884.1903 PT6264H PT6264H 2022-08-31T00:00:00Z
0005df53b17afcce35288a216eec6bbdb8f0541665 110.1788 PT6264H PT6264H 2022-08-31T00:00:00Z
0006b6fd48ed680261135aa28135a0362293c723ff 291.8002 PT6264H PT6264H 2022-08-31T00:00:00Z
0006f63457d7d9433974dd146f3c92b84ed5293429 5089.5060 PT6264H PT6264H 2022-08-31T00:00:00Z
00071e21ed8adfeff1b62666f96782661fcba8155c 298.4998 PT6264H PT6264H 2022-08-31T00:00:00Z
0007588055ed0ac6aeb03f7906fe78749c1e322f22 66.3180 PT6264H PT6264H 2022-08-31T00:00:00Z
000759846264478efa7ae7f188df07ca55fbcf3347 33.0180 PT6264H PT6264H 2022-08-31T00:00:00Z
00079ed702ed81122898099b2cad772cfba478e6a1 1067.9574 PT6264H PT6264H 2022-08-31T00:00:00Z
0008260d4ee7a08c16e25b35706814d96005b1e82f 153.9758 PT6264H PT6264H 2022-08-31T00:00:00Z
0008535fd0be60d8138bd1922db4224b59fee680b8 377.4422 PT6264H PT6264H 2022-08-31T00:00:00Z
00086a9c130366759950c327738f32cb484f16dd9c 1244.7570 PT6264H PT6264H 2022-08-31T00:00:00Z
000881ec6e589ee0ccdab26ac3164b4b1733d775b3 806.8921 PT6264H PT6264H 2022-08-31T00:00:00Z
000896acde8cdb88a2ece5353eaaa4b21af927b8f7 272.6075 PT6264H PT6264H 2022-08-31T00:00:00Z
00096c682f83de60573239341d599a57ad88c753da 65.8443 PT6264H PT6264H 2022-08-31T00:00:00Z
000aa459686bbcb9ca0a9a44bef0ad93c0cf3cb34c 103.7515 PT6264H PT6264H 2022-08-31T00:00:00Z
000acd3c8ff13a445983a0d22b67fa4029989c8465 184.2053 PT6264H PT6264H 2022-08-31T00:00:00Z
000aceb31e26d2c6120ae1ddb598ee4dd3930f379f 79.7814 PT6264H PT6264H 2022-08-31T00:00:00Z
000b33e693fdb858373a0608829f4cd42b70b0f368 396.0747 PT6264H PT6264H 2022-08-31T00:00:00Z
000b636d3f54d710a170c275b7cde513c0848bd0cc 3.1899 PT6264H PT6264H 2022-08-31T00:00:00Z
000b89b5c7a8bce42fe4243ba4ec30d66a3fe5d061 1908.8713 PT6264H PT6264H 2022-08-31T00:00:00Z
000b9741970293ff9c5708c59052d41d2625a754ac 150.7853 PT6264H PT6264H 2022-08-31T00:00:00Z
000cb2cb289f03783dcf99df2656f2cba5b92d3879 932.2557 PT6264H PT6264H 2022-08-31T00:00:00Z
000d3d44e8d051d4a18bd88676899e85fcd13cf51a 5075.0453 PT6264H PT6264H 2022-08-31T00:00:00Z
000dccc9738ad43478bbf8a4aa58b9bbe8f8a73c26 110.8850 PT6264H PT6264H 2022-08-31T00:00:00Z
000ddc65b7b7d2a897635d1bd98bb9408f19ebd858 4.4772 PT6264H PT6264H 2022-08-31T00:00:00Z
000de023c9f6ae09f1bde00f0e8d6859f02885388f 955.5656 PT6264H PT6264H 2022-08-31T00:00:00Z
000df3cbe7f3793ee856f9c0374748f61e9250d995 401.4640 PT6264H PT6264H 2022-08-31T00:00:00Z
000e280cee4c1d2e68af0786dde5f660a6be89ef86 656.0346 PT6264H PT6264H 2022-08-31T00:00:00Z
000e63b4edf168c06ee54ad78010b503a8b56cbdeb 69.1165 PT6264H PT6264H 2022-08-31T00:00:00Z
000e9e7c4f29cd3e130639b2c0b1b0367ebe875923 114.4645 PT6264H PT6264H 2022-08-31T00:00:00Z
000f0ed10e03d86f0ffa7483124a0e5b3cf9d7448f 1549.9332 PT6264H PT6264H 2022-08-31T00:00:00Z
000f4268ba45041bd7538d18f863b4b1140e97cb44 304.8438 PT6264H PT6264H 2022-08-31T00:00:00Z
00109d3769b9c273018f4de74a59a9056049d3f555 174.7076 PT6264H PT6264H 2022-08-31T00:00:00Z
0010c669fa9d10bd561d90ded99df8589e1011591a 16620.7946 PT6264H PT6264H 2022-08-31T00:00:00Z
001142a37aa9fafb342d95cb61c712602532f60bd3 40.8391 PT6264H PT6264H 2022-08-31T00:00:00Z
0011438fac8d47d0d5b3478cdc2515831473ddf23b 101.3959 PT6264H PT6264H 2022-08-31T00:00:00Z
00116cc41ed0a6dc9a567fdb29cdf8be9e68636b6d 249.0777 PT6264H PT6264H 2022-08-31T00:00:00Z
001210f372df2094f1e72ef90024e1002cf19d5e32 3632.7174 PT6264H PT6264H 2022-08-31T00:00:00Z
001266d590d12a2fc00d0f7e7394f9e66cef4a583d 1141.2221 PT6264H PT6264H 2022-08-31T00:00:00Z
00129ff2a896abc6e155c3a5a3e901dac9e90772c3 9327.6592 PT6264H PT6264H 2022-08-31T00:00:00Z
0012a214d381a701d87711bc946b6fff4a1102afee 992.8657 PT6264H PT6264H 2022-08-31T00:00:00Z
0012b463395b13012d25572c1237c77dc83518a8fe 654.2838 PT6264H PT6264H 2022-08-31T00:00:00Z
0013153a0218b8df737a0851ccda76fc1f817d18d2 5576.7717 PT6264H PT6264H 2022-08-31T00:00:00Z
00131bb42695e57c0aa7becdad60430cac2ce85811 755.1475 PT6264H PT6264H 2022-08-31T00:00:00Z
001446286d955bcc1bb924b17b5aab9e958e89bbde 240.2328 PT6264H PT6264H 2022-08-31T00:00:00Z
001484e1b40ebaef37ad83ca5a145d4540dcb2a909 29.1164 PT6264H PT6264H 2022-08-31T00:00:00Z
001547ca35434ee1aab541f0117f59846f0c2d5633 216.1679 PT6264H PT6264H 2022-08-31T00:00:00Z
00160fa6ffd4c7a4d49b43b6e7759aa663ad80d0dd 1391.0558 PT6264H PT6264H 2022-08-31T00:00:00Z
0016eda591187bf7a1d9c693eb0d0642cba3d17161 1471.1701 PT6264H PT6264H 2022-08-31T00:00:00Z
0017026ebddd7fc980bc0bfa818bc13056cb47b49d 928.5677 PT6264H PT6264H 2022-08-31T00:00:00Z
00186b1022b20980b81cbbcefa1d768c8a7e36e4c3 1209.2868 PT6264H PT6264H 2022-08-31T00:00:00Z
0018bcbedac3e9978ade38f666e7b54eb7fe114ad2 1348.1775 PT6264H PT6264H 2022-08-31T00:00:00Z
0018e3c6327648e0ae3f513fc77287f23e19a78e7a 926.4420 PT6264H PT6264H 2022-08-31T00:00:00Z
00191d8c2edaa9194eb4d591cc7364b51855b7fc00 228.8853 PT6264H PT6264H 2022-08-31T00:00:00Z
0019e9a28c978dd65114cc4e0bcb876770805b0349 25.3141 PT6264H PT6264H 2022-08-31T00:00:00Z
0019ec0aed9fe789a9620e32d9dda8521c6d564581 1808.6768 PT6264H PT6264H 2022-08-31T00:00:00Z
001a53b7275033cbae5172588df246ab8a11e23e92 4512.2743 PT6264H PT6264H 2022-08-31T00:00:00Z
001a8f875c3b01ba0fe44d8f7db7decb0c8c5ada3b 20.0192 PT6264H PT6264H 2022-08-31T00:00:00Z
001aa2b91b329f6364bb91bc4c55dbf28d50c787fd 1080.6952 PT6264H PT6264H 2022-08-31T00:00:00Z
001b5a966673b3d9d87d84758e86a946ce33254d92 282.9925 PT6264H PT6264H 2022-08-31T00:00:00Z
001bc1d4da9fceeebf17b9f2a4c9c7cc49665c65f1 942.6659 PT6264H PT6264H 2022-08-31T00:00:00Z
001c55bce7420948369cce8f014b7ab2b37139f99d 183.7102 PT6264H PT6264H 2022-08-31T00:00:00Z
001c7bf916cb56e4bc233defb6c05c94b87efad397 756.3508 PT6264H PT6264H 2022-08-31T00:00:00Z
001d112b141056df59222685dd37dc919f0efa4d59 14262.4841 PT6264H PT6264H 2022-08-31T00:00:00Z
001da977086819ab273cd3fed706ce6eec5976f28a 1232.3008 PT6264H PT6264H 2022-08-31T00:00:00Z
001daf29ea3cdfc1b581fa4357fa0cc5116e70bc43 21.5974 PT6264H PT6264H 2022-08-31T00:00:00Z
001dd0db367fc3f7c67f260825d2508e673341502f 26.7495 PT6264H PT6264H 2022-08-31T00:00:00Z
001e3cc5c5ce71e598dadb6712935cd6c572131be0 894.0259 PT6264H PT6264H 2022-08-31T00:00:00Z
001ecfdd7a8768fc89540f57be69164a782b20ffbf 121.1148 PT6264H PT6264H 2022-08-31T00:00:00Z
001f049a68c3075ff20ddeaafe0819daac3b64bf4c 1994.7572 PT6264H PT6264H 2022-08-31T00:00:00Z
001f0fec5969c071e988d4788d567de376b8de9830 36.8176 PT6264H PT6264H 2022-08-31T00:00:00Z
001f296817e16efaa140b6fee684f3a96d4a8528fe 35.5902 PT6264H PT6264H 2022-08-31T00:00:00Z
001fbe3c1fa246ef337457c134b13d51f2df964c34 101.0015 PT6264H PT6264H 2022-08-31T00:00:00Z
002043214eff85403fc9029d73785c6136f4e842e7 6546.9387 PT6264H PT6264H 2022-08-31T00:00:00Z
00205c4c84530297df43ff741aea85a557f82fa8ea 4085.2010 PT6264H PT6264H 2022-08-31T00:00:00Z
0020e11def65edd308768051dc0ebad1f537069fef 235.6956 PT6264H PT6264H 2022-08-31T00:00:00Z
0021d63fb6946ad9116785e3ec9840ac47952ebfc8 24.5602 PT6264H PT6264H 2022-08-31T00:00:00Z
002211b08201dd32ccf0fca91047c84475ee1b8d9a 11108.9216 PT6264H PT6264H 2022-08-31T00:00:00Z
00226304336de6a1d06c695afd350815466f53590d 326.9894 PT6264H PT6264H 2022-08-31T00:00:00Z
0022aa5a93dc352101c433667b50388d8ca2228f58 188.5326 PT6264H PT6264H 2022-08-31T00:00:00Z
0022c56e1bd4c20c73569f66eb5845e6159080b0f0 267279.3480 PT6264H PT6264H 2022-08-31T00:00:00Z
0022e47780cbb1b664611389f3b11ddbe951b38700 366.3997 PT6264H PT6264H 2022-08-31T00:00:00Z
0022f95b126d0cae29113fe0b0012968168b6944c3 147.8174 PT6264H PT6264H 2022-08-31T00:00:00Z
002319c23cec3792fc24fb574a41460b94ecd65292 1066.2523 PT6264H PT6264H 2022-08-31T00:00:00Z
0023d1b568e99095e1d6ebfce8a583efab67ce5968 4727.9503 PT6264H PT6264H 2022-08-31T00:00:00Z
0027266a6440eac0597651df7fcfc2384dd149902c 4296.6591 PT6264H PT6264H 2022-08-31T00:00:00Z
00274b7e9713baebbd45efe8715c3abd55ded2d056 48.0839 PT6264H PT6264H 2022-08-31T00:00:00Z
0027a25bfcaace720f8ce75f0133deda2b1a613a9b 530.4548 PT6264H PT6264H 2022-08-31T00:00:00Z
0027a2c65eef277c18d698a3ed15d91f39757e5ac9 272.1662 PT6264H PT6264H 2022-08-31T00:00:00Z
00281de2d74669bdd1447e6a546d9e2c64e93bccdf 115.1554 PT6264H PT6264H 2022-08-31T00:00:00Z
0028ae363f88638f25e22bc77a4367fc4cf80dcf80 186.4450 PT6264H PT6264H 2022-08-31T00:00:00Z
0029255bb866e8d834cd62210074dfad0b1fb82f16 1680.4087 PT6264H PT6264H 2022-08-31T00:00:00Z
00292777552fd768721c4c38f6af0566c52dcaf8e7 255.7999 PT6264H PT6264H 2022-08-31T00:00:00Z
00293471d309399e77cc36d62fd8edc6b6f85042a5 225.1890 PT6264H PT6264H 2022-08-31T00:00:00Z
002952575a6f2dde86345a7fcaba24fa875a3e4480 1029.5783 PT6264H PT6264H 2022-08-31T00:00:00Z
002992d8ae09c4179748fe3f937addde0a69423404 14.6494 PT6264H PT6264H 2022-08-31T00:00:00Z
0029989257513b82e30a4e10597a79482e9de20b85 2428.2163 PT6264H PT6264H 2022-08-31T00:00:00Z
0029df0cf3c74e9bb22d481f574645daa2e1ef87fa 284.7317 PT6264H PT6264H 2022-08-31T00:00:00Z
0029f80452925b6e566e40b3475a6b0957c5d3175b 936.6657 PT6264H PT6264H 2022-08-31T00:00:00Z
002a2d9df13c0e70cc3da78c3700dfe6d50aaaef39 51.9834 PT6264H PT6264H 2022-08-31T00:00:00Z
002b796d39db81814b825c4307780e4c8438a2ed5b 33.3095 PT6264H PT6264H 2022-08-31T00:00:00Z
002b905e734975ef780c774f553dec1119a2c13b5f 4044.5631 PT6264H PT6264H 2022-08-31T00:00:00Z
002b9317ecac737c4a97828990903e855fe9774145 54.2332 PT6264H PT6264H 2022-08-31T00:00:00Z
002bd6b7e8fd7b3a62871282457664cb4735e1c79c 135.3175 PT6264H PT6264H 2022-08-31T00:00:00Z
002c30b8822473502012d2598aa75a60d98fe6b558 1076.4633 PT6264H PT6264H 2022-08-31T00:00:00Z
002ca69e438fbdf90074db1908fd6a3ac2ec5a7df5 11841.9901 PT6264H PT6264H 2022-08-31T00:00:00Z
002cfc3b6c0b1667f5d1eb13911495e59d02b50cd8 509.5348 PT6264H PT6264H 2022-08-31T00:00:00Z
002e080909fd41b16f3127bc0e3cf8d269c2f1c586 58.3218 PT6264H PT6264H 2022-08-31T00:00:00Z
002e418e4ff8ea1c6d2bb197b59e1f0fc2ebf7550c 1436.8634 PT6264H PT6264H 2022-08-31T00:00:00Z
002e86446bdeb027345541e463c8dca1562b45346f 9254.1053 PT6264H PT6264H 2022-08-31T00:00:00Z
002f08736bc58103c1d09ef573b764621641af6f14 308.9600 PT6264H PT6264H 2022-08-31T00:00:00Z
002f964ac64c1a177b3161321383f280890516b947 2158.6292 PT6264H PT6264H 2022-08-31T00:00:00Z
002fa4650d61984323e94c5eabdd443ebc90fa40a7 437.3941 PT6264H PT6264H 2022-08-31T00:00:00Z
00300fe2d56402f9f3aa6cd0564e056b4a4ee8202c 1039.2072 PT6264H PT6264H 2022-08-31T00:00:00Z
00303090471738b78f6fc910e8e06d1b08bc144bd8 3866.5755 PT6264H PT6264H 2022-08-31T00:00:00Z
003058133c84fa602fe1c53fee1690c4f29f193019 38.7450 PT6264H PT6264H 2022-08-31T00:00:00Z
003083f5e465e029a964c278aee1dded6a893b6a52 6725.9521 PT6264H PT6264H 2022-08-31T00:00:00Z
00308b727e1f5c8b337d1d31b56d75ebcee61959e1 752.4148 PT6264H PT6264H 2022-08-31T00:00:00Z
0030feaf18b7b89a3c97a49b03320f8debd85ce86e 1.4757 PT6264H PT6264H 2022-08-31T00:00:00Z
0031020ab94157055e4dbf826d751472e48397f16f 4651.4598 PT6264H PT6264H 2022-08-31T00:00:00Z
0031042a6b5ccb3910230fb4c690e3e2d881af769b 308.5313 PT6264H PT6264H 2022-08-31T00:00:00Z
0031b0636472b2f6107637bed28c146707eed0ae49 1710.4000 PT6264H PT6264H 2022-08-31T00:00:00Z
0031ecaae407f72e762100c33fdeae558250000155 110.2419 PT6264H PT6264H 2022-08-31T00:00:00Z
00325b43248386ad6b61e9ae4ff974c5515a68f978 4101.4311 PT6264H PT6264H 2022-08-31T00:00:00Z
0032d633536f15d39cb397d53fdcab77eeb8b81daa 283.0683 PT6264H PT6264H 2022-08-31T00:00:00Z
0032fb5447c7d9bc485e5c74f6d37378501cad1003 212.6591 PT6264H PT6264H 2022-08-31T00:00:00Z
003357f9ed428a04d840e39aa7f63d827617f46ebe 754.7303 PT6264H PT6264H 2022-08-31T00:00:00Z
0033ccca69d00692eaa29f6b04e6bff972f9a3b6f3 326.3323 PT6264H PT6264H 2022-08-31T00:00:00Z
0033f7de239c0db8f45d53b0a98f00e6423dde79bb 173.0031 PT6264H PT6264H 2022-08-31T00:00:00Z
00341498eeb456aa3640cbd9051edc0cec21f03578 4210.3432 PT6264H PT6264H 2022-08-31T00:00:00Z
00349883b786a0cbf13a054af5f11dbda9759c3a51 264.4502 PT6264H PT6264H 2022-08-31T00:00:00Z
0034cecabd9edea244833769c97e6d638309b5c8e2 48.7706 PT6264H PT6264H 2022-08-31T00:00:00Z
0034fd670576673a2ca9d277db12ddabab06e59a97 46.6602 PT6264H PT6264H 2022-08-31T00:00:00Z
00350c4134bd65c62226189384ba8b6f3a14de40ab 249.2922 PT6264H PT6264H 2022-08-31T00:00:00Z
00354118be770a154befce6ea8a73b14dae0a3da55 2.7400 PT6264H PT6264H 2022-08-31T00:00:00Z
00359e2ee09f2e78ada66caf56ac6db054b3d0b03b 112.3894 PT6264H PT6264H 2022-08-31T00:00:00Z
0035ea8acd943be133e15d4a77f26b0bff1a184be3 22.9619 PT6264H PT6264H 2022-08-31T00:00:00Z
0035fe43ed1bf4dc2deac361c646f84d7bc79d0e25 201.9999 PT6264H PT6264H 2022-08-31T00:00:00Z
00361ad21315abd3a52d5af77a9a9fe2e306ed3391 242.6976 PT6264H PT6264H 2022-08-31T00:00:00Z
003626c7027842b5f56f266e9eef34d4f241045064 95.4364 PT6264H PT6264H 2022-08-31T00:00:00Z
00362761916bdee45e6908b126b87f57b220952fa2 2885.1733 PT6264H PT6264H 2022-08-31T00:00:00Z
00362cfffc8dae9e92a402632127f0ca6caf84f052 205.7900 PT6264H PT6264H 2022-08-31T00:00:00Z
003654e3ae062ee03be48c42f0871b38a7cd68e6cc 8.2217 PT6264H PT6264H 2022-08-31T00:00:00Z
0036997527f23a4ddc38e3c7a78a19dbdc30897438 4724.1551 PT6264H PT6264H 2022-08-31T00:00:00Z
00377c518e4d281f2081026d7154947b2e969087db 830.1879 PT6264H PT6264H 2022-08-31T00:00:00Z
00381d19f6018e6de718c17a6e1ec85074f584300f 213.2454 PT6264H PT6264H 2022-08-31T00:00:00Z
00382605a05c191d49ce518b4cf0dbc01b694c9f60 18.6069 PT6264H PT6264H 2022-08-31T00:00:00Z
003829a72b9c512c378256d603245d0cb4bc71120e 188.0689 PT6264H PT6264H 2022-08-31T00:00:00Z
003850392a48c23a688c681f8bb65fa232d2f3e03a 20.0802 PT6264H PT6264H 2022-08-31T00:00:00Z
00385790e3944be9d9fb3a665e7d227d9889ea9925 3963.4522 PT6264H PT6264H 2022-08-31T00:00:00Z
00389c90db43622e525452be86594321f147ffa67a 417.7601 PT6264H PT6264H 2022-08-31T00:00:00Z
0038eed148fdaabc14d0bb159a7da149d1b5a95fc4 772.0168 PT6264H PT6264H 2022-08-31T00:00:00Z
0038f20279b127950067cbfb5e08ac74831521ee74 4670.0750 PT6264H PT6264H 2022-08-31T00:00:00Z
0038fdc3067519647f32ecdfb4437cdcb221464995 31.1269 PT6264H PT6264H 2022-08-31T00:00:00Z
003902e42db4dcd268c38bd8fee1df34059171bcb1 10.0118 PT6264H PT6264H 2022-08-31T00:00:00Z
003a81ac2e0355368028dfa76a104673d4a80fdfa2 261.0797 PT6264H PT6264H 2022-08-31T00:00:00Z
003a83e0f374fdb6788e2f8e01c55430eb27de53ab 5268.3414 PT6264H PT6264H 2022-08-31T00:00:00Z
003aaa891767534e6c218ad69fc41d70526578b79d 630.7159 PT6264H PT6264H 2022-08-31T00:00:00Z
003af46fb9a1ae7fef89da57e5d601a7eb38a1a137 223.3646 PT6264H PT6264H 2022-08-31T00:00:00Z
003b550ca8ec20c93f9b57aeb7de1adee573176f5a 16633.9334 PT6264H PT6264H 2022-08-31T00:00:00Z
003b85237cee0249077fca1d7bc201f5fd7da7a8dd 6011.1926 PT6264H PT6264H 2022-08-31T00:00:00Z
003be3f896374676423d086a90323a1a316af42d22 3.0896 PT6264H PT6264H 2022-08-31T00:00:00Z
003c25775e57ab62595468008399f8d90e351d2e0c 12.3741 PT6264H PT6264H 2022-08-31T00:00:00Z
003c39b2d0d3b7dac083125945be807e1de4ad3909 4895.7027 PT6264H PT6264H 2022-08-31T00:00:00Z
003ce0624f3062ef13e8cbff694ac92adb857f28aa 149.0904 PT6264H PT6264H 2022-08-31T00:00:00Z
003d4009fad039382f064b5ac7fa7361a6ef8d3517 330.0849 PT6264H PT6264H 2022-08-31T00:00:00Z
003ddd6e16df72813fded7203c35e7a9bc4f8f46bf 45.8646 PT6264H PT6264H 2022-08-31T00:00:00Z
003e14f0a73e1432929bad34910b518e3397ae0f53 245.2066 PT6264H PT6264H 2022-08-31T00:00:00Z
003e4508bc6a4f9d20e7e17a046868cc0107833f45 4.3187 PT6264H PT6264H 2022-08-31T00:00:00Z
003e6cf81b794d6a7f69c2093a24fd69b806660c98 225.0911 PT6264H PT6264H 2022-08-31T00:00:00Z
003e7acc5bbf87716c33f302b6aac12d741a39b54b 10749.5430 PT6264H PT6264H 2022-08-31T00:00:00Z
003e8a0d56fe6b701fe71321d7b4dac0bc4efde848 277.5944 PT6264H PT6264H 2022-08-31T00:00:00Z
003e8d1a82929d306a418cf271396e57c0ee6434d9 238.1001 PT6264H PT6264H 2022-08-31T00:00:00Z
003e8f727dec29146d477396f32ce385ea05a4068f 245.2335 PT6264H PT6264H 2022-08-31T00:00:00Z
003ee3fa369a9fec862be367d491201faa8875e534 3783.1857 PT6264H PT6264H 2022-08-31T00:00:00Z
003ee842ab82e18660f23434a012319836a5fbb751 1810.4893 PT6264H PT6264H 2022-08-31T00:00:00Z
003f74c99f5b6ce2000d130c1250c1993606e93851 1461.2996 PT6264H PT6264H 2022-08-31T00:00:00Z
003f7c99487893feb1e62a0b26969025dc3bbc05e0 668.0510 PT6264H PT6264H 2022-08-31T00:00:00Z
003fe1caea11d44587ecc1f0d47163fa537e41d577 813.9764 PT6264H PT6264H 2022-08-31T00:00:00Z
003ff71fbda67a5d9df51d49c5f5d2a599c622d0a5 1926.7321 PT6264H PT6264H 2022-08-31T00:00:00Z
004006e393c8d4af9c3d2f88d192d3218aba31196b 10735.5045 PT6264H PT6264H 2022-08-31T00:00:00Z
00404aadb526f6d53615c2fb061f1c438c1b1b9342 1257.8633 PT6264H PT6264H 2022-08-31T00:00:00Z
0040bfb43e1432084def40dc42f50c246e05e4daab 137.5325 PT6264H PT6264H 2022-08-31T00:00:00Z
0040ca40b2256c956d14158ec6188ee469441b0521 49.3838 PT6264H PT6264H 2022-08-31T00:00:00Z
004121528010e5bc4ff46dfb0f8b67c74b73544191 821.2338 PT6264H PT6264H 2022-08-31T00:00:00Z
00419b02a8c38343e11101639b09e9d267953dd5bc 727.1621 PT6264H PT6264H 2022-08-31T00:00:00Z
0042b6e26a341031811f4e6f166f9b6800ec015a5b 693.5692 PT6264H PT6264H 2022-08-31T00:00:00Z
0042bdbb4cfeef2bb8dddd876b74a41dcfa4631627 85.7052 PT6264H PT6264H 2022-08-31T00:00:00Z
0043223e21cd1ae646288a3096aedad938de3d7220 222.5710 PT6264H PT6264H 2022-08-31T00:00:00Z
004336fe935b0975a028e65a959234fac580f03ff0 153.4406 PT6264H PT6264H 2022-08-31T00:00:00Z
00435b8be8d13c913c1a9a00c6632f403ef4abc526 134.1076 PT6264H PT6264H 2022-08-31T00:00:00Z
0044688dc81f373e40022b0eb7291f143c362f77b1 5.3019 PT6264H PT6264H 2022-08-31T00:00:00Z
0044b9d97051379b20f5e51c84deb930cf7343be05 207.7358 PT6264H PT6264H 2022-08-31T00:00:00Z
0044c09c7c78bc77fa76cfd0307d50de8a56a12ac4 595.0247 PT6264H PT6264H 2022-08-31T00:00:00Z
00455a86385e4530068253bdd4764273d6b87dbd0e 1096.9236 PT6264H PT6264H 2022-08-31T00:00:00Z
0045f9b28c4b1ecbdfcb52e1e92f6f1b2b2f319635 68.7674 PT6264H PT6264H 2022-08-31T00:00:00Z
004608f9647ac7f1cda974d90510c09c4db64bc3b4 33.5537 PT6264H PT6264H 2022-08-31T00:00:00Z
00460de8e68bfb92bfb32c6bbf48554ba5f66bfc9c 5656.9763 PT6264H PT6264H 2022-08-31T00:00:00Z
00463da0a411bb84771b7bacdabd62e7ee331c2d2a 2413.1785 PT6264H PT6264H 2022-08-31T00:00:00Z
004685041187517df45e49906d2dc2335d153f5463 129.6421 PT6264H PT6264H 2022-08-31T00:00:00Z
00476a2e6cb857f19befd052d72daf939dad8aab2d 612.4576 PT6264H PT6264H 2022-08-31T00:00:00Z
00476c389ad5e893120ba2caf03b01eb5e31d74945 88.6029 PT6264H PT6264H 2022-08-31T00:00:00Z
0047a52232a88a791c1b0c0efc7efc02f50687e46b 276.4721 PT6264H PT6264H 2022-08-31T00:00:00Z
0047b1d23d1a14e3c4e7d0f36358646ed2fa462d71 2161.9401 PT6264H PT6264H 2022-08-31T00:00:00Z
0048070764e394a8d915b458059e398030e0430cfa 225.6537 PT6264H PT6264H 2022-08-31T00:00:00Z
0048131385447eae82f8c9899e5f2fd5b63465708e 63.1171 PT6264H PT6264H 2022-08-31T00:00:00Z
004814a6ad50026b138242c0ba29dad11ae32a2efc 42.0390 PT6264H PT6264H 2022-08-31T00:00:00Z
00488bec2fe110c0a922786432623069e744d978de 1073.0099 PT6264H PT6264H 2022-08-31T00:00:00Z
00489b6260e9db67bebdb40d137fef3a7c66b70c2b 570.0036 PT6264H PT6264H 2022-08-31T00:00:00Z
0048fa9cc711b0f341ee32d2915d4c65c3ef0251c8 321.5170 PT6264H PT6264H 2022-08-31T00:00:00Z
004927076e817474824aef45851548cdb204db6a39 510.2243 PT6264H PT6264H 2022-08-31T00:00:00Z
00496728751f132621158594d20331a783c4da3e21 237.3679 PT6264H PT6264H 2022-08-31T00:00:00Z
0049a1dad7cfdc5b03a3c666f7a750e69a764e9637 237.5002 PT6264H PT6264H 2022-08-31T00:00:00Z
0049c00463b97db1c72797ba4059806aa2d247b23a 1449.8879 PT6264H PT6264H 2022-08-31T00:00:00Z
0049d84cfb76b1bb13240256b0a11b98e7bc38c0dc 206.4484 PT6264H PT6264H 2022-08-31T00:00:00Z
004a291e78ad5ac1f06e9e9a17b5257c4d92ad4a05 131.2013 PT6264H PT6264H 2022-08-31T00:00:00Z
004a8082ffcb040c58edec4a39667c98d94b51a0c2 52.3879 PT6264H PT6264H 2022-08-31T00:00:00Z
004af9754a4e879f2ca2b6fb3b289148b3fc384b4f 50.5415 PT6264H PT6264H 2022-08-31T00:00:00Z
004b15bef2c6559de77f599e2fd758bc65b653451d 5667.4059 PT6264H PT6264H 2022-08-31T00:00:00Z
004b46f553f8e23c5f135f204b010e4f3cadde9034 1.1520 PT6264H PT6264H 2022-08-31T00:00:00Z
004b76cddad2858fc97e83ff3cbe45643c5cb85c1d 3235.3688 PT6264H PT6264H 2022-08-31T00:00:00Z
004b92f8e8e5be575c6d57fefc9b09b852819be082 3191.3462 PT6264H PT6264H 2022-08-31T00:00:00Z
004bb18e20c423acb76b84cdb7c6a43a24be7097a1 3581.0722 PT6264H PT6264H 2022-08-31T00:00:00Z
004c0627dbc8ed242586ed33462e760f28cac3070b 4967.5041 PT6264H PT6264H 2022-08-31T00:00:00Z
004c0ac99f066f00b45f2c3c1d9c8cab47cb80a782 462.8273 PT6264H PT6264H 2022-08-31T00:00:00Z
004c2118d2012c41b06f5bafcc1297731afe1a6232 3546.0770 PT6264H PT6264H 2022-08-31T00:00:00Z
004c8aa32e2d6681ff36185d3e85189eb23c757b44 151.1954 PT6264H PT6264H 2022-08-31T00:00:00Z
004cd0949afd2f52963adb5687eba6fc2ad275c438 227.5676 PT6264H PT6264H 2022-08-31T00:00:00Z
004d8603f590cac4ceb828f1ae24da1f4848065ba2 9044.2637 PT6264H PT6264H 2022-08-31T00:00:00Z
004daf5f8f41f205ca0fdaaa822aa143c6a3ad0949 729.9270 PT6264H PT6264H 2022-08-31T00:00:00Z
004dc529187c40295c4e197654f35c8847317d4968 65.4919 PT6264H PT6264H 2022-08-31T00:00:00Z
004df997534cb3f9d18b2171c554f44187677b6013 419.8551 PT6264H PT6264H 2022-08-31T00:00:00Z
004ec47f8f66685783e6d8a3c34646e025d366d707 230.5252 PT6264H PT6264H 2022-08-31T00:00:00Z
004ef9e9c11b8972f47ac696c2f381870620f97e4e 903.3069 PT6264H PT6264H 2022-08-31T00:00:00Z
004f1aeb4d2eff932aa9f0bd825f8a46f4951b906d 899.9225 PT6264H PT6264H 2022-08-31T00:00:00Z
004f1ee37f9f372a7f8cf805ffb6c6bf0c3a5eca05 18.3703 PT6264H PT6264H 2022-08-31T00:00:00Z
004f9dac9fcb9efb800f0286d42866cf58782c6ab5 1986.9819 PT6264H PT6264H 2022-08-31T00:00:00Z
004ffa7ea02038f317760cb71803d028d2d56ff8d6 191.6923 PT6264H PT6264H 2022-08-31T00:00:00Z
005053703c4a32a217b9081d5fd620a2a9670e3538 14032.5901 PT6264H PT6264H 2022-08-31T00:00:00Z
005128fc0e7ef4b47ba36003d15955e388bdeccc6b 298.5119 PT6264H PT6264H 2022-08-31T00:00:00Z
005137378867ccb2b788719257b0c890268d08cbfe 2.0504 PT6264H PT6264H 2022-08-31T00:00:00Z
0051504254719d611f9ac23ca0d822e014da64e85b 217.2304 PT6264H PT6264H 2022-08-31T00:00:00Z
0051e3238844a394e10cf0b53e2252eac3e53f2b4e 4.1100 PT6264H PT6264H 2022-08-31T00:00:00Z
0052021bdabe4c59479e06483414579975be775006 108.3397 PT6264H PT6264H 2022-08-31T00:00:00Z
0053874db2bcac6da323ff439f6653924a85e68cc9 1085.1308 PT6264H PT6264H 2022-08-31T00:00:00Z
0053b1f0a09fa6b0fef5191c041fd3dea69e1bf0be 399.2750 PT6264H PT6264H 2022-08-31T00:00:00Z
0053ba94ed78e411a5270852016924d6f17f9b4d25 245.0513 PT6264H PT6264H 2022-08-31T00:00:00Z
0053bd7bd542d88e371bf4f31e2947e657063b2125 576.9619 PT6264H PT6264H 2022-08-31T00:00:00Z
0054a7f9d721969f16beea44089355da89752cf23f 433.0484 PT6264H PT6264H 2022-08-31T00:00:00Z
005590fa495f29385777451123b3a538488b3db698 1002.5739 PT6264H PT6264H 2022-08-31T00:00:00Z
0055c38f55cc3df675e65aeacf78c058846f1d6c1e 74.7137 PT6264H PT6264H 2022-08-31T00:00:00Z
0055cd569388f730236fdbeba9dd40e7cfbaf80f59 206.4850 PT6264H PT6264H 2022-08-31T00:00:00Z
005606414027a97673f1c82b9f6a19920750e5deb8 107.5147 PT6264H PT6264H 2022-08-31T00:00:00Z
0056511d5cbc65d768e37fb8105fbbb83e0063c8dc 337.8368 PT6264H PT6264H 2022-08-31T00:00:00Z
0056a72697cf468bf297083f5dab03250f23bba974 2267.9683 PT6264H PT6264H 2022-08-31T00:00:00Z
0056b011bed290bbf0f328b9a9892943c4a6a214d9 448.2375 PT6264H PT6264H 2022-08-31T00:00:00Z
0056e2139d4b8fa3899ddc155015bc254868dd5f29 407.3017 PT6264H PT6264H 2022-08-31T00:00:00Z
0057027cec1230d2b24b31064235a8d984e0e0bac0 789.5116 PT6264H PT6264H 2022-08-31T00:00:00Z
00575f9968d82494b474672caea6399a909562334b 114.9599 PT6264H PT6264H 2022-08-31T00:00:00Z
00580cda3b45cb18a26dee16414facdd5f0e6215b5 2885.4145 PT6264H PT6264H 2022-08-31T00:00:00Z
0058bf32fdf49b2a32340a2e7841cb5b4dfc3cc753 9.6442 PT6264H PT6264H 2022-08-31T00:00:00Z
0059a7f72215cc58a46599c66d19b584072b7125ae 415.3702 PT6264H PT6264H 2022-08-31T00:00:00Z
0059ddee2a742fe86d081bcafc964dcfa92f73f6e4 15.7098 PT6264H PT6264H 2022-08-31T00:00:00Z
0059f49f2c738dfc9f8079dd8b6209eb0fef10d78a 35.9152 PT6264H PT6264H 2022-08-31T00:00:00Z
005a49ac1bfae72e07305261ec737fa9fd7fca2975 50.7297 PT6264H PT6264H 2022-08-31T00:00:00Z
005a97296c37a98149f7aeabdd7918b679810ed1e0 32.3815 PT6264H PT6264H 2022-08-31T00:00:00Z
005b0b38e19158f341b9a5548724831869d59b1cb4 3300.5264 PT6264H PT6264H 2022-08-31T00:00:00Z
005b27a7a99357ee02f8cbd40f6bf069aaab70a3b2 116.5600 PT6264H PT6264H 2022-08-31T00:00:00Z
005b559b16afddaadad4c8befd0ab813b105c947ec 254.9080 PT6264H PT6264H 2022-08-31T00:00:00Z
005c14d980973c264bb900d104ba926f47d96b0e58 89.2089 PT6264H PT6264H 2022-08-31T00:00:00Z
005c79fc2d54ca89f63d07af8bb57081c1e5691317 149.6508 PT6264H PT6264H 2022-08-31T00:00:00Z
005cc9223af28ed7f5dd5b76991e74c71687d11cad 951.3864 PT6264H PT6264H 2022-08-31T00:00:00Z
005ceecceb06faf5125a0c6f5d2f4139b243c4d4ea 262.2877 PT6264H PT6264H 2022-08-31T00:00:00Z
005d0873215bd74b030cdf3737f0adf5f51c60ca1d 1414.3505 PT6264H PT6264H 2022-08-31T00:00:00Z
005e0d493f7ba7c7e73b83cca1db088027b40e1738 2093.8690 PT6264H PT6264H 2022-08-31T00:00:00Z
005e1e2efa72a5b2bab7d961b807216d32845a6b8a 289.5814 PT6264H PT6264H 2022-08-31T00:00:00Z
005e1efaca0ea84d640ea57680d2556ee363a31f94 3503.1795 PT6264H PT6264H 2022-08-31T00:00:00Z
005e54d2555f464a722277c1f97cefcbd2c76f0acc 67.5370 PT6264H PT6264H 2022-08-31T00:00:00Z
005ed2db9c00aa2b6413d885354faa477948e82522 760.7126 PT6264H PT6264H 2022-08-31T00:00:00Z
005f2eaac85c404b97d9b72f665174114b69dc2a87 221.2066 PT6264H PT6264H 2022-08-31T00:00:00Z
00604acb4ac4a48485514c4eb56e1d2a26c768a606 3033.1447 PT6264H PT6264H 2022-08-31T00:00:00Z
00608e54dd1e432ea177ff9a16d77b8159b9ccc0ea 65.3970 PT6264H PT6264H 2022-08-31T00:00:00Z
0060e5947cd65466d347223b4055eeeb164d2895ff 890.9095 PT6264H PT6264H 2022-08-31T00:00:00Z
0061aff734946314fe0902995774e313cd70bbd2bd 46.4201 PT6264H PT6264H 2022-08-31T00:00:00Z
0061b27421833ce6c95743568e00b7bb4b93e28bbb 48.4773 PT6264H PT6264H 2022-08-31T00:00:00Z
0061da6ef7632cee1d8d1567f46b385a8af1e43db4 1784.7417 PT6264H PT6264H 2022-08-31T00:00:00Z
0061e08db72944aeef5bc112184c9460ef4ddafe50 32.4103 PT6264H PT6264H 2022-08-31T00:00:00Z
006217f4e5689905af2ef683f6f994ac39c4728de6 1202.8895 PT6264H PT6264H 2022-08-31T00:00:00Z
006250425bf281a77a8b8b13dc975e930da8cdea20 237.5511 PT6264H PT6264H 2022-08-31T00:00:00Z
00625dbe1f50e8fe30838f47b0f77d681ff97d933a 2746.9368 PT6264H PT6264H 2022-08-31T00:00:00Z
0062a8a1dd01517b5da75e75842c80cc17cc9fb5b6 244.6475 PT6264H PT6264H 2022-08-31T00:00:00Z
0062d94eaeed9a9ede50e487cebacacad599a331a6 117.0317 PT6264H PT6264H 2022-08-31T00:00:00Z
0062ea27ae2f820f0a2230928cb8d1674455d769a7 457.8480 PT6264H PT6264H 2022-08-31T00:00:00Z
0063506c57f7f946e7a7889faa6f24d89f2b2211e0 63.7896 PT6264H PT6264H 2022-08-31T00:00:00Z
0063828892b720fc5cd3b2b30682619cd0d310a81d 4.0419 PT6264H PT6264H 2022-08-31T00:00:00Z
0063f7338f217086fadbf98b9ab80142949595fb96 310.5297 PT6264H PT6264H 2022-08-31T00:00:00Z
00645db784d2dffd521d30ab9894f75afbaca01c4a 2111.0928 PT6264H PT6264H 2022-08-31T00:00:00Z
0064ad102872415691ff678186f72b2d75fbc38928 224.3587 PT6264H PT6264H 2022-08-31T00:00:00Z
0064ba590621892e12a65b617f2bedf3c223710eb7 32.6839 PT6264H PT6264H 2022-08-31T00:00:00Z
006531c0b0a372e801628f985816d69b225b5a5f38 371.1040 PT6264H PT6264H 2022-08-31T00:00:00Z
00654f3bc844e5c54a06ed119005446482ffb32f0e 25.4698 PT6264H PT6264H 2022-08-31T00:00:00Z
0065775c573d6e19edbf5725ac2711c7bbdb23e706 395.2197 PT6264H PT6264H 2022-08-31T00:00:00Z
0065a7065035426750e2cc1ff68d3b0100863be079 369.8421 PT6264H PT6264H 2022-08-31T00:00:00Z
0065e7d784dbf2bbf4b853b86501ff75372b1002fc 503.9780 PT6264H PT6264H 2022-08-31T00:00:00Z
0065f5c1a7d82c4edadf3a88f22e82d319b764e00b 930.0535 PT6264H PT6264H 2022-08-31T00:00:00Z
006628964455ece1c66aace59cd2b5366b0b707453 987.8214 PT6264H PT6264H 2022-08-31T00:00:00Z
00664b2904a285323f9ec2b274509591fd546c0ed8 268.1424 PT6264H PT6264H 2022-08-31T00:00:00Z
006679b71f43483a402f79719f1ba6a9b8a2ced062 4833.2858 PT6264H PT6264H 2022-08-31T00:00:00Z
0066f578f1296b45a50bb24132596bf93f4a951ed4 222301.6012 PT6264H PT6264H 2022-08-31T00:00:00Z
00674cd03a0af9ba19cb2b69e0d768d07d1a3b0e0f 5721.7608 PT6264H PT6264H 2022-08-31T00:00:00Z
00675134055e64b29dfda8c64f4988baeec6648225 17233.4876 PT6264H PT6264H 2022-08-31T00:00:00Z
0067e0a9d19fa3e0d5bb4d7484b35129061ea20ac4 2.0558 PT6264H PT6264H 2022-08-31T00:00:00Z
0068332380f49ff88c8c17831a880d04282fe7e32c 3763.0976 PT6264H PT6264H 2022-08-31T00:00:00Z
00695eef3559e82351f6d0f924832326ece7080f71 395.1415 PT6264H PT6264H 2022-08-31T00:00:00Z
0069ab8f6c8d3dc67c84d149f0907c9b6561748eac 243.2244 PT6264H PT6264H 2022-08-31T00:00:00Z
0069b7aba7d8d358f3f9274c80d61d5052c88c4304 1896.7676 PT6264H PT6264H 2022-08-31T00:00:00Z
006a967608e02b6bf9ea81df8d2401a908dfe55f4a 21.9267 PT6264H PT6264H 2022-08-31T00:00:00Z
006af52e3758cff9b9b78a61a13efdacf2e237f0c0 2533.1887 PT6264H PT6264H 2022-08-31T00:00:00Z
006b5e85264328f0435a8a8f72a470acefc769c1d2 19765.3734 PT6264H PT6264H 2022-08-31T00:00:00Z
006b732117e299581ec277c37857d6e4644eb7576a 2923.9338 PT6264H PT6264H 2022-08-31T00:00:00Z
006c300d3d47c5454eff96bd7e228f3225f1ffb8d7 244.9962 PT6264H PT6264H 2022-08-31T00:00:00Z
006c346a51cf9bc4aa3ba23e544af58625bc717609 316.0616 PT6264H PT6264H 2022-08-31T00:00:00Z
006c5c707279939a5fc59e6e4a40f7b1aec95296db 1835.2052 PT6264H PT6264H 2022-08-31T00:00:00Z
006c6546e22aa72b7b2ea90b1ceefe6bb2e0e6f791 487.8646 PT6264H PT6264H 2022-08-31T00:00:00Z
006d499c6e563a91cefece50e79f37220651a99da5 256.7917 PT6264H PT6264H 2022-08-31T00:00:00Z
006d65b13b337004ce821791a861dd6c156cb58029 600.7263 PT6264H PT6264H 2022-08-31T00:00:00Z
006d794d9adffa1adce3ba1da53271726997c6fa2f 2738.2301 PT6264H PT6264H 2022-08-31T00:00:00Z
006dab14da3815c50fea37170c30351d3c1ac9594a 611.9700 PT6264H PT6264H 2022-08-31T00:00:00Z
006dcd2720dbf7a87a6e9baa7fb8dd0cfb8f6615ee 3.8522 PT6264H PT6264H 2022-08-31T00:00:00Z
006e47d23e14ddba263eb9ace6bfb3d1f023470eb6 20.7336 PT6264H PT6264H 2022-08-31T00:00:00Z
006e793e96657fda16272eec30c871e5de4b7bb6ca 2565.7970 PT6264H PT6264H 2022-08-31T00:00:00Z
006eb8b0b81908f533b34d62422da540f38b2285c1 6.8148 PT6264H PT6264H 2022-08-31T00:00:00Z
006ef7f7ea6fcf74d2d5d96977e343cee36e49ab38 2616.2967 PT6264H PT6264H 2022-08-31T00:00:00Z
006f718b15aa61709eceae53494e70d129f9ba24a0 195.9260 PT6264H PT6264H 2022-08-31T00:00:00Z
006faa67c7d674231cf6abb4dcf2a9fa14fa46093a 18.4396 PT6264H PT6264H 2022-08-31T00:00:00Z
006fd5cd64898387c84ab5b779f1ad386a533d0a4f 779.6973 PT6264H PT6264H 2022-08-31T00:00:00Z
00705e1aad7e3509f3360e2b4f8da35c6409bbee04 229.3641 PT6264H PT6264H 2022-08-31T00:00:00Z
0071afa38f24c7bd5422a1101ca160636407250431 11.1318 PT6264H PT6264H 2022-08-31T00:00:00Z
0071f26dcad0013cef17490a35c6761585ccf14ad7 1339.0975 PT6264H PT6264H 2022-08-31T00:00:00Z
007211e1a0d842e1ab5a1b4368eb90c77c98aa8116 1574.2052 PT6264H PT6264H 2022-08-31T00:00:00Z
00725b17e7326f9ff75f3cfd04b6e61f38fc85b3c9 137.9039 PT6264H PT6264H 2022-08-31T00:00:00Z
007286ffaae3590759da37a64278018cbc016154a2 89.5721 PT6264H PT6264H 2022-08-31T00:00:00Z
00728da1a50b4f492b031a1e6dc984ac930a87a661 21.1256 PT6264H PT6264H 2022-08-31T00:00:00Z
0072b3f9582ab37e395611a096a3623e86567ec930 1560.7459 PT6264H PT6264H 2022-08-31T00:00:00Z
0073e61dbb60b448d615a3699ccb72de476817c51d 633.9600 PT6264H PT6264H 2022-08-31T00:00:00Z
0073f36afe58f3c929933519b6cf8fd4edd914e759 1241.4857 PT6264H PT6264H 2022-08-31T00:00:00Z
0073f8b94806c0b92915ab9cc9d6135abae30ea52e 1857.0399 PT6264H PT6264H 2022-08-31T00:00:00Z
0074043255f1530bac32e180d4cfebccde623f1cf0 9.6567 PT6264H PT6264H 2022-08-31T00:00:00Z
007411a0e69c28923472c92446946b0b6132f0526b 17.4909 PT6264H PT6264H 2022-08-31T00:00:00Z
00748ce632c3a6b161a3301e126ebe57b8f1302ea8 235.2167 PT6264H PT6264H 2022-08-31T00:00:00Z
0074b305fa9f68ad4a01ab574486aafe1314f80399 173.9975 PT6264H PT6264H 2022-08-31T00:00:00Z
00758f4c1d33884c9d56ba69d15f295addab3d10e1 46.4412 PT6264H PT6264H 2022-08-31T00:00:00Z
00762c040f54f97db847059c95cec0a03955d1b85b 1057.3446 PT6264H PT6264H 2022-08-31T00:00:00Z
0076db1c3a250a8a294928c2911f3d5ae62f338ec9 922.4895 PT6264H PT6264H 2022-08-31T00:00:00Z
007707a6acc37b8b0498d08ae1d0550b8a588c6aa0 45.0652 PT6264H PT6264H 2022-08-31T00:00:00Z
00771c50c7ef5ab971bf508460871bb1be28464700 674.0353 PT6264H PT6264H 2022-08-31T00:00:00Z
007724f99f66606de0a6d26559260e0336e5851f25 251.0598 PT6264H PT6264H 2022-08-31T00:00:00Z
00773788290cacf4fe755c4f3d67ebbdad94b6d18b 456.5752 PT6264H PT6264H 2022-08-31T00:00:00Z
00782a958916eb9f9a0f5915a5a6a99fab5ba13af3 1354.7520 PT6264H PT6264H 2022-08-31T00:00:00Z
007878abf6c038bb08544c5e20957f6d31e1831bcf 2583.7169 PT6264H PT6264H 2022-08-31T00:00:00Z
0078b61333aa7fc97c78e208d79257876789c88798 3369.1736 PT6264H PT6264H 2022-08-31T00:00:00Z
0078f00fca629e074ea0bbf19218fd332d17eb3a14 494.8730 PT6264H PT6264H 2022-08-31T00:00:00Z
0079d0ee60d19e27ecb515dfb486911742a1f5b590 6.2883 PT6264H PT6264H 2022-08-31T00:00:00Z
0079de0384110176359931f71231fb8d7d359f00d1 3378.4760 PT6264H PT6264H 2022-08-31T00:00:00Z
007a0ab56fb0dd11c333d7b34498a60f2b1de76429 30628.8394 PT6264H PT6264H 2022-08-31T00:00:00Z
007a2a9a4eff7cc34bb4150b83c15d5f792d2158aa 1630.5899 PT6264H PT6264H 2022-08-31T00:00:00Z
007a3866451dbbdd00faf9456f992e76374ff52e4e 46.4538 PT6264H PT6264H 2022-08-31T00:00:00Z
007a4fbe9a8d86bcfe494fd7b5452ea2e6f804f5f5 28.1363 PT6264H PT6264H 2022-08-31T00:00:00Z
007a51261f99cb7b9d5cd9f724fe7778f239861904 2670.7002 PT6264H PT6264H 2022-08-31T00:00:00Z
007a62fb67ba47c4e6ca2f95db585b0fe52132919e 1023.1842 PT6264H PT6264H 2022-08-31T00:00:00Z
007a6d4ce4bf7f64623d294d429a7f8f8211b8160e 816.4375 PT6264H PT6264H 2022-08-31T00:00:00Z
007a78c50966d78295d41c1018f677c18aa17ed8ad 1.6144 PT6264H PT6264H 2022-08-31T00:00:00Z
007ab2079d19d913861c3234a9b54b68b112e2c43d 189.5436 PT6264H PT6264H 2022-08-31T00:00:00Z
007b2225dd08ccb73842e97ff02ccd2e4a5d20b6c3 38.3075 PT6264H PT6264H 2022-08-31T00:00:00Z
007c39e4eae5ea4e27a8877cca97f01ea799a19e62 226.6135 PT6264H PT6264H 2022-08-31T00:00:00Z
007c4f4f5ccb2d726eaaeaf8f7994af98f15e01c5c 5835.1598 PT6264H PT6264H 2022-08-31T00:00:00Z
007cc0b170027526f161e7116911c4ffd2dd1ec38f 609.5689 PT6264H PT6264H 2022-08-31T00:00:00Z
007cc0ffad255d2ff183c1962705c63ea7baf6401e 253.0123 PT6264H PT6264H 2022-08-31T00:00:00Z
007ced19cf219d5ceca0e40ec72e9482c11a1da0b4 48.7649 PT6264H PT6264H 2022-08-31T00:00:00Z
007cf52836951cab8ea0d6a23544702f628f499ae5 76.5235 PT6264H PT6264H 2022-08-31T00:00:00Z
007cfa6d2a423fab07b79ed8bf55d30fd4307ba33e 68.8358 PT6264H PT6264H 2022-08-31T00:00:00Z
007cfd88d07979a7ac3ce9fd7c11862f6d5a61c0fa 218.0545 PT6264H PT6264H 2022-08-31T00:00:00Z
007d84e3ec27e1520793c1b3c360f53788881d2214 57.6123 PT6264H PT6264H 2022-08-31T00:00:00Z
007ddf310d3e586bf369dd637663276075e1930c83 126.2789 PT6264H PT6264H 2022-08-31T00:00:00Z
007e0bae44fbc450426a1f0ee13b28ed5aa933adb0 4967.0076 PT6264H PT6264H 2022-08-31T00:00:00Z
007e2aad6eea9b4dceaff704d3d206d8202bdb603b 344.7952 PT6264H PT6264H 2022-08-31T00:00:00Z
007e733e2f15ffef4d05de565bdc27b158af3e9cad 409.1562 PT6264H PT6264H 2022-08-31T00:00:00Z
007e8d6a90e99beb2de56cf1fe340736af55192e0b 189.5796 PT6264H PT6264H 2022-08-31T00:00:00Z
007f43de8770983945e66469ced04a5b6b7f248a25 43719.5068 PT6264H PT6264H 2022-08-31T00:00:00Z
007f65b762645069d1bdf4e83ffb07fa1148b9e10a 230.1295 PT6264H PT6264H 2022-08-31T00:00:00Z
007fe5a37361761a361376c2b174283987b45c16d2 136.6470 PT6264H PT6264H 2022-08-31T00:00:00Z
00803c974202d4dd8db22bd3833b8d123f89ea199b 4288.6142 PT6264H PT6264H 2022-08-31T00:00:00Z
008040a0ad5d63f1a07c032bcc9744cbc71727ae08 844.1707 PT6264H PT6264H 2022-08-31T00:00:00Z
008096bad17b2006bd1276900650728b77afec9748 450.0572 PT6264H PT6264H 2022-08-31T00:00:00Z
008108ce010ea881db64a963f75dd0bd58cd866cc2 1753.7214 PT6264H PT6264H 2022-08-31T00:00:00Z
008137ac5c10e66293299230dba5a8017b71225283 1330.4592 PT6264H PT6264H 2022-08-31T00:00:00Z
008148efe190c847f9dad2e8191bed23a5fcbdc2d6 17.9298 PT6264H PT6264H 2022-08-31T00:00:00Z
0081603bb0a13a6ce956394972da3b05ddf076be97 17.0777 PT6264H PT6264H 2022-08-31T00:00:00Z
00816362a309834d9d64e78980bb675fe80e53df03 2507.4164 PT6264H PT6264H 2022-08-31T00:00:00Z
008196a5dd0831fbec1207faee2bee4a04eb1439a5 584.8473 PT6264H PT6264H 2022-08-31T00:00:00Z
0081a333ca572de57720c74541b3f65b9334d67f2e 474.4742 PT6264H PT6264H 2022-08-31T00:00:00Z
0081ec2575f63d14f427855579585aa837768ea0cf 1177.1770 PT6264H PT6264H 2022-08-31T00:00:00Z
0081f748b7fbe7d3b6b599d1cdced6eb47caf4a44a 92.0667 PT6264H PT6264H 2022-08-31T00:00:00Z
00821365f05dca5211ed65d4c237daf79fa251e8e3 2063.3198 PT6264H PT6264H 2022-08-31T00:00:00Z
00822c2dc5f01e0f270c13cda29383eeb31a38b689 3033.6020 PT6264H PT6264H 2022-08-31T00:00:00Z
0082865cdb46a9aeeb24e48834c4ed9178d27bceb1 2395.4685 PT6264H PT6264H 2022-08-31T00:00:00Z
0083f136357ad6873194dd6c971a832b4c7ce942e8 59.6637 PT6264H PT6264H 2022-08-31T00:00:00Z
0084233a55687ee683409bf6a28137eb1e0599e334 3364.4499 PT6264H PT6264H 2022-08-31T00:00:00Z
0084edb623a13be32834db996523d9b8191e7f848d 9348.2706 PT6264H PT6264H 2022-08-31T00:00:00Z
00850054fc265ea06507e4055c26b8e8c10cb7285a 7343.0459 PT6264H PT6264H 2022-08-31T00:00:00Z
00855902d298ddcbbaa55e52bbc1f98ee39e00c951 465.7292 PT6264H PT6264H 2022-08-31T00:00:00Z
00857de08e31ae766b410d5d44aa6541f4b7ce3d20 917.0678 PT6264H PT6264H 2022-08-31T00:00:00Z
008589da40c3710374507916e6760b4ece69899f68 806.1845 PT6264H PT6264H 2022-08-31T00:00:00Z
0085a81dfa2b292cb9d29a4f9927ea4064cc56c660 250.4410 PT6264H PT6264H 2022-08-31T00:00:00Z
0085b2bc04a6fd0a51d11c6cc7e0b618543cb3bfcf 20.6708 PT6264H PT6264H 2022-08-31T00:00:00Z
0086243a5f7465be25768c6afbc37a7eae10b932e5 13705.5210 PT6264H PT6264H 2022-08-31T00:00:00Z
0086364335e8f9814e8438a503dbe7d1c30ad890fa 3099.5721 PT6264H PT6264H 2022-08-31T00:00:00Z
008642c480aee423a95dbe328ee878856ce9f935fb 5287.0220 PT6264H PT6264H 2022-08-31T00:00:00Z
008690b01f8da3cb9ddbca0bf2cd0157cde5ac055f 13880.8991 PT6264H PT6264H 2022-08-31T00:00:00Z
0086b9b81da108879123f1bdadd12438b2228f1b25 11440.6094 PT6264H PT6264H 2022-08-31T00:00:00Z
00870090a090138d8d7a2f7ee2e1926b0c3d4d2cb9 235.5042 PT6264H PT6264H 2022-08-31T00:00:00Z
0087134cde483ce0b7f162e5716c71733518d25a5a 1397.5391 PT6264H PT6264H 2022-08-31T00:00:00Z
008769a4de5e4cd742cc39d7d01cd5789bf79f2f23 424.7493 PT6264H PT6264H 2022-08-31T00:00:00Z
0087c2e18fe56380bfb0b9e6ce2f2ce32968f8be75 6143.8484 PT6264H PT6264H 2022-08-31T00:00:00Z
0088165dfdd32d3b221e7997d9c982280f9790e14b 16150.9655 PT6264H PT6264H 2022-08-31T00:00:00Z
00888fcb0ac44babd37eec3f356e44f8136449092f 11604.6906 PT6264H PT6264H 2022-08-31T00:00:00Z
0088b63e4b50cc6e3e7f088cadcadf978ec345d061 446.1917 PT6264H PT6264H 2022-08-31T00:00:00Z
0088fe87134b8a8826f237dc69951eba1d1933f74b 4779.2465 PT6264H PT6264H 2022-08-31T00:00:00Z
0089df38fa28a7b21ee74f37869ed1df997f15c028 3727.3563 PT6264H PT6264H 2022-08-31T00:00:00Z
008a71dac5fcfaf42c74c45cd3aaad058fb948d922 2916.3658 PT6264H PT6264H 2022-08-31T00:00:00Z
008aaac20888644972b3bb1b210753f9ca50817d39 293.6534 PT6264H PT6264H 2022-08-31T00:00:00Z
008ab7319e3272eee8bf5779939289eef215950d37 43.1227 PT6264H PT6264H 2022-08-31T00:00:00Z
008b0fa9021b4d5e4e76b863eb58da571cb8bc5042 67.2430 PT6264H PT6264H 2022-08-31T00:00:00Z
008b4c2150c028e19691e7ddcbcd05a4b40762fdf2 51.4623 PT6264H PT6264H 2022-08-31T00:00:00Z
008b5870b2e2ce1bf2461a7beaa79234bc0376a0bf 1071.5198 PT6264H PT6264H 2022-08-31T00:00:00Z
008b8abc011a2cfaedb8d20a743e2fa6507ae901a4 2664.2880 PT6264H PT6264H 2022-08-31T00:00:00Z
008bb5aef7a1eb91ca6e9ea276cfdf6271ba73a0b0 118.9044 PT6264H PT6264H 2022-08-31T00:00:00Z
008be84c3d4985e5ed4d010d2fc345d89cfb5b0a5a 56.8846 PT6264H PT6264H 2022-08-31T00:00:00Z
008c024fc8ceb706aa08d1378b4a0c2e40b1425664 65.1850 PT6264H PT6264H 2022-08-31T00:00:00Z
008c28bf39f42caa606acb4944d84c986fc70290b4 63.1053 PT6264H PT6264H 2022-08-31T00:00:00Z
008c339a579abc43130f39e614cd3b428380b06eb7 1480.8431 PT6264H PT6264H 2022-08-31T00:00:00Z
008c80f5e31067a7617c0c53e2dc8a42a2c76b57fd 133.7099 PT6264H PT6264H 2022-08-31T00:00:00Z
008ce4ac46d34ed522fa3eea48df2c36b461b34bfe 234.0454 PT6264H PT6264H 2022-08-31T00:00:00Z
008d3d1df0c6e4d1443d91cc02a403e36d1b225563 3415.8423 PT6264H PT6264H 2022-08-31T00:00:00Z
008d537edae634401fcd00a2b7180ff077a43527ca 187.8496 PT6264H PT6264H 2022-08-31T00:00:00Z
008df0146c11b18bb474c0917a65cb909a298e8278 38.8818 PT6264H PT6264H 2022-08-31T00:00:00Z
008e0774d18e361ef15d17c24d6a799fbf7a667a10 231.4037 PT6264H PT6264H 2022-08-31T00:00:00Z
008e50a18d1cd826843dba0fe4234e337f19168346 978.6028 PT6264H PT6264H 2022-08-31T00:00:00Z
008ef60f792c22d86c63c3cf362e2eebbdee482c3f 9.6057 PT6264H PT6264H 2022-08-31T00:00:00Z
008f25a19f539b8609da03ef5dcf6d7e21605b1cec 20.6312 PT6264H PT6264H 2022-08-31T00:00:00Z
008f3c862afe8d64433832c24e7299f09001fd6f48 231.2869 PT6264H PT6264H 2022-08-31T00:00:00Z
008f3db408fb67fa5d9c9470f39453e709265ec620 50.2621 PT6264H PT6264H 2022-08-31T00:00:00Z
008fe038c5f7ebba8b6e429b5cee352e9e52351c52 338.9436 PT6264H PT6264H 2022-08-31T00:00:00Z
00903907d17b5e4ef609176a619f5f0ccfc3b34166 454.1779 PT6264H PT6264H 2022-08-31T00:00:00Z
0090c55c6f7b632c2b57fc7b38ffbca67560a262e1 2889.2373 PT6264H PT6264H 2022-08-31T00:00:00Z
0090c62209b6e5a881fa9658fa29f5a9bfe74507da 2879.9243 PT6264H PT6264H 2022-08-31T00:00:00Z
0091b0dcccd7195d07546e1d9a95cb5fae6f4f7bcd 13.8347 PT6264H PT6264H 2022-08-31T00:00:00Z
0092c5792a7552669f35090b7f6dc2f66e1c32fd99 1518.9214 PT6264H PT6264H 2022-08-31T00:00:00Z
0092ce530e70b52baf24fdbb95c90f407cd0eaa719 16206.4461 PT6264H PT6264H 2022-08-31T00:00:00Z
0092ec3baff84fd5f5f7a45350c5c7a72be48a14d8 1281.8358 PT6264H PT6264H 2022-08-31T00:00:00Z
0092fc5b169870d9d56478b8b8ef077e14f22acfe3 138.5410 PT6264H PT6264H 2022-08-31T00:00:00Z
0093de7b8a76d7a514b522fe0baa3c8461e2781189 2944.1553 PT6264H PT6264H 2022-08-31T00:00:00Z
0094182c7d9eb84e5683e75eb47195aae2e9748354 324.9634 PT6264H PT6264H 2022-08-31T00:00:00Z
00942f6c6f120392d2d3b49bc7e0b23dba0536ca99 136.5357 PT6264H PT6264H 2022-08-31T00:00:00Z
009504c1c6b8710e7cbf05104c6778e2eeb734cb52 187.1806 PT6264H PT6264H 2022-08-31T00:00:00Z
00951233c1edb8a905705f83e47d1a9bd0ce1c04ea 0.0139 PT6264H PT6264H 2022-08-31T00:00:00Z
00959095b44083c071c9bc578cd9dac2a09c984ec4 2108.6533 PT6264H PT6264H 2022-08-31T00:00:00Z
0095b14bfa7b44f73907fe46a96210ba4a64a7ab63 288.4609 PT6264H PT6264H 2022-08-31T00:00:00Z
0095c0ddbb3a80032e024410b4a2fd3f51d754f0ba 1936.9623 PT6264H PT6264H 2022-08-31T00:00:00Z
0096399fcc8b88aa236783bb358eb445d4e4dcbc8a 148.3694 PT6264H PT6264H 2022-08-31T00:00:00Z
009669a5e23d4d50f858edcf125a523ef1ec1cd6e3 237.0699 PT6264H PT6264H 2022-08-31T00:00:00Z
0096e627d12e1d5ccfca8ff78ac02449e3668c3ebb 221.9127 PT6264H PT6264H 2022-08-31T00:00:00Z
00973bbe1778557d99d7dabce6ec8217ce0808b70b 0.1600 PT6264H PT6264H 2022-08-31T00:00:00Z
0097604cdb055a69f522460b7e2d91f81c4b0c988f 32411.2820 PT6264H PT6264H 2022-08-31T00:00:00Z
009770be684ff67b92e6b8c8bf25994c9c30115baa 102.8116 PT6264H PT6264H 2022-08-31T00:00:00Z
009811cfd3a95e441af057731b5deee0116c4b14dd 2.1920 PT6264H PT6264H 2022-08-31T00:00:00Z
00983564123f8f57a65c593d69eca6c521aa90148a 944.7167 PT6264H PT6264H 2022-08-31T00:00:00Z
00983abd8d9dd3c0bf9195a279d7a22424c0d9852d 282.1787 PT6264H PT6264H 2022-08-31T00:00:00Z
00986fdaff74d68238d417bb8c0f8fe5e6f2cf251f 868.6231 PT6264H PT6264H 2022-08-31T00:00:00Z
009990900643298f27edb177d5e8b81ebbde7ffa3c 6906.3419 PT6264H PT6264H 2022-08-31T00:00:00Z
0099ba5ab6024ddd90840090d1105ed5fdd7cb853e 54.9391 PT6264H PT6264H 2022-08-31T00:00:00Z
009a015cf857dc0d4275447c704cd9ba33c47536d7 247.6075 PT6264H PT6264H 2022-08-31T00:00:00Z
009a016a43a36d00df85b4a75a0cea44c9e160fe2d 72.5554 PT6264H PT6264H 2022-08-31T00:00:00Z
009a0d5bce9d74287eff6868aed231dcef4e3cef1f 162.4394 PT6264H PT6264H 2022-08-31T00:00:00Z
009a10b43ad264215ebab2a92a40201b13c0b62d0d 88480.2706 PT6264H PT6264H 2022-08-31T00:00:00Z
009a1291962dae65be24b19eb21c6642ff09c07e2c 187.8404 PT6264H PT6264H 2022-08-31T00:00:00Z
009af7d53a9a17587c0b04af596bf619f18bfddd8c 283.5652 PT6264H PT6264H 2022-08-31T00:00:00Z
009b142a9268a15326188079c7f7f2d86f1231de13 411.7894 PT6264H PT6264H 2022-08-31T00:00:00Z
009b966b1edcee9dd021c98cfb296088a21a201ac5 53.7831 PT6264H PT6264H 2022-08-31T00:00:00Z
009d2e5ae513415892adb225867801faa38f165dc3 374.7269 PT6264H PT6264H 2022-08-31T00:00:00Z
009d70b474adcbfbff832a67d5e464fcba7fd7f40a 2894.3536 PT6264H PT6264H 2022-08-31T00:00:00Z
009dd560e0420b6f28965f666b81d22080d533f6db 6122.2010 PT6264H PT6264H 2022-08-31T00:00:00Z
009ddf8a4688747f9566a32af5c8a038d0ee713225 32.5590 PT6264H PT6264H 2022-08-31T00:00:00Z
009df375ee901d99f8a3eee4dba59de9acbb8bd9f6 80.7840 PT6264H PT6264H 2022-08-31T00:00:00Z
009e5662211136296c1b9189026584ba7efee099f7 217.4099 PT6264H PT6264H 2022-08-31T00:00:00Z
009e7f984e0b80d7b72cbec77f238c395c37242670 397.7048 PT6264H PT6264H 2022-08-31T00:00:00Z
009ebdd90e6e0a4f7a8cfdc66179d8b3b386badff5 15345.6980 PT6264H PT6264H 2022-08-31T00:00:00Z
009ef85210e6e76693649ed08ecb5d036011a743dd 40281.7174 PT6264H PT6264H 2022-08-31T00:00:00Z
009f1b1ae52e1c0287aa656ca0713efc99329dd620 1400.6974 PT6264H PT6264H 2022-08-31T00:00:00Z
009facd6d3b7407d9743e73f09e8ad5245eaf0901f 331.7013 PT6264H PT6264H 2022-08-31T00:00:00Z
009faf479970921eb7595e1a3362df880673d3dad4 243.1815 PT6264H PT6264H 2022-08-31T00:00:00Z
009fe2ecbcd0073b4afc91f805cbbdcd37f42235d9 238.3137 PT6264H PT6264H 2022-08-31T00:00:00Z
009fe99ea19d35f382b6091995fcc138deb5e6a32e 482.4292 PT6264H PT6264H 2022-08-31T00:00:00Z
00a05a23518f52534e73545fefb4b180a1959895e7 569.5059 PT6264H PT6264H 2022-08-31T00:00:00Z
00a0d4795404137823f62c9cf2fac3ba50f7dd4c43 919.4888 PT6264H PT6264H 2022-08-31T00:00:00Z
00a0e4ab4500714e06c4db31814eb145c9e3850a0d 454.4187 PT6264H PT6264H 2022-08-31T00:00:00Z
00a0ea7251b606d22fa28c0ebc227b9b45d7315920 386.9800 PT6264H PT6264H 2022-08-31T00:00:00Z
00a1074b13fcbc29c219a52d6f12af4d8fddc0b09c 1437.8761 PT6264H PT6264H 2022-08-31T00:00:00Z
00a146f5cca89e84dfb701a00ee95519c6ed010882 346.8104 PT6264H PT6264H 2022-08-31T00:00:00Z
00a14a47eb479014049cfc536a6f43887fb4ddbdbb 3185.1404 PT6264H PT6264H 2022-08-31T00:00:00Z
00a1867413280e5220f9218f74943f843b203f251a 88.4653 PT6264H PT6264H 2022-08-31T00:00:00Z
00a1ae0209acc8848013e68be3354cc64a7bbe3977 9.4188 PT6264H PT6264H 2022-08-31T00:00:00Z
00a1bf93e9ecc06ac98fcf7090ae2dcb3955bd15bb 1026.2410 PT6264H PT6264H 2022-08-31T00:00:00Z
00a28862bf5ce379b3dd0e2b65c3247725459f8a5b 5195.8576 PT6264H PT6264H 2022-08-31T00:00:00Z
00a2bfbd9d9c8aaf65adeb422631ec91cf924e2dc2 1189.5549 PT6264H PT6264H 2022-08-31T00:00:00Z
00a2df0b8eba964217008c1b2e54e476fd67362781 614.4235 PT6264H PT6264H 2022-08-31T00:00:00Z
00a32433ea7bad4c8110d784e89a9711f02a5cac45 357.0813 PT6264H PT6264H 2022-08-31T00:00:00Z
00a327e0bdf695cc2d749d97bc9fe2ee08ee89e2a9 298962.0878 PT6264H PT6264H 2022-08-31T00:00:00Z
00a42c3b3f60c4023c756750b6d59f117dd118295b 89.2208 PT6264H PT6264H 2022-08-31T00:00:00Z
00a4d4590fcb6b946c7e040e9d3432a0d3f5c0c949 682.8209 PT6264H PT6264H 2022-08-31T00:00:00Z
00a561d0208cffc300ff3e8e084a0e903ac73631ce 738.8404 PT6264H PT6264H 2022-08-31T00:00:00Z
00a565524c5479842d692e49a74f94785401952741 216.1570 PT6264H PT6264H 2022-08-31T00:00:00Z
00a56faad71ae09a7d7422897e8628442d27a458c9 251.2346 PT6264H PT6264H 2022-08-31T00:00:00Z
00a618ffbd39178b90f7c44dd5089ff588818f2e73 241.9999 PT6264H PT6264H 2022-08-31T00:00:00Z
00a65dc475af4440feb95e47cc36a028463ebab1ff 775.9317 PT6264H PT6264H 2022-08-31T00:00:00Z
00a6d31084268ab9e20811c4b7fdebafb1851be5e5 24665.7310 PT6264H PT6264H 2022-08-31T00:00:00Z
00a7a1ed2dc69fe47f46f3c0c08622e86a8ab22476 239.2358 PT6264H PT6264H 2022-08-31T00:00:00Z
00a7cd3060573227a8673616587be7a5d5407f62e3 11.6555 PT6264H PT6264H 2022-08-31T00:00:00Z
00a83b632f1fa16b752fa69d3498d2e6f542cf298c 263.8196 PT6264H PT6264H 2022-08-31T00:00:00Z
00a90afd1ac71001aed439c5c78b81b8b81648007c 252.6927 PT6264H PT6264H 2022-08-31T00:00:00Z
00a9b7c1358bf834b85bbece695737fcd41582ad03 260.7816 PT6264H PT6264H 2022-08-31T00:00:00Z
00aaa42a08592f8657138b1ef1aa2b7cafb2cd4439 7.6351 PT6264H PT6264H 2022-08-31T00:00:00Z
00ab5b9198f329edfd8efb8b8b196cbcde74599b48 2015.1795 PT6264H PT6264H 2022-08-31T00:00:00Z
00ab9f6b4cb7521f29a2914887b71d90957a37cc16 2328.4569 PT6264H PT6264H 2022-08-31T00:00:00Z
00ac711e46567cbde5ce7b7176521d5e287f96193d 16.4507 PT6264H PT6264H 2022-08-31T00:00:00Z
00ac88287b451f428df99f694d2a760b19adb9e77b 4.5413 PT6264H PT6264H 2022-08-31T00:00:00Z
00acb67deb8768cb62372591efb2cd6c2e2ea75618 281.9894 PT6264H PT6264H 2022-08-31T00:00:00Z
00acd32dd6f90fc0b877fc3fac3d86d8e777e97179 0.0135 PT6264H PT6264H 2022-08-31T00:00:00Z
00ad5db8f0c8726b088ece10794f3eadb48e270e02 3344.8045 PT6264H PT6264H 2022-08-31T00:00:00Z
00add78c95d7769da4a78cd05818ae8550ac33c7c9 3224.7012 PT6264H PT6264H 2022-08-31T00:00:00Z
00ade0c0ac27ed13d3153a93f67a3448532674fb7d 240.8687 PT6264H PT6264H 2022-08-31T00:00:00Z
00adf37a93e51f6b70dff6dd91a5d90e9f341feaf9 688.7318 PT6264H PT6264H 2022-08-31T00:00:00Z
00ae9d0c61cd4a2e842797b65bec78e7bf659ea642 101.8731 PT6264H PT6264H 2022-08-31T00:00:00Z
00aeb30f0c95adf763d21227eb0f40b9ee5ac899be 100.6072 PT6264H PT6264H 2022-08-31T00:00:00Z
00aecaa587bd7b5ad5229a01549f0a971645e45e67 5506.0558 PT6264H PT6264H 2022-08-31T00:00:00Z
00aed8e1dc9a1cd9e55c661b52c4b72a697c2dd451 46.0441 PT6264H PT6264H 2022-08-31T00:00:00Z
00af21e245541c7df4e3c69035b7bd32e3127723e7 539.6589 PT6264H PT6264H 2022-08-31T00:00:00Z
00af30468f11657c54ef9dd6ddaa3e0f326334f1f2 718.5752 PT6264H PT6264H 2022-08-31T00:00:00Z
00af83d3a69a3cf191d11a252ae9696f6932928904 539.7791 PT6264H PT6264H 2022-08-31T00:00:00Z
00af9ef8da2344028f58fd249d4c3b1f3f6a5482f5 360.4607 PT6264H PT6264H 2022-08-31T00:00:00Z
00b09ac0eef8be2d5520555fdb142af58846cb20e2 18669.7397 PT6264H PT6264H 2022-08-31T00:00:00Z
00b0ad1e398131a0843105d5dd2efa98f44fde7e5d 22.4713 PT6264H PT6264H 2022-08-31T00:00:00Z
00b0b064e4880325ad339018265744c2cd8028e969 102.5315 PT6264H PT6264H 2022-08-31T00:00:00Z
00b1ade35c764fae5e8955a8548288f05b4d136c1a 195.0469 PT6264H PT6264H 2022-08-31T00:00:00Z
00b1c98d1b6b0f55c7dc74428f4ed83cd7b08c1269 648.8457 PT6264H PT6264H 2022-08-31T00:00:00Z
00b21737c18facf1dbadd51607296636673a2a9b4c 37.9343 PT6264H PT6264H 2022-08-31T00:00:00Z
00b33c83eaa40aa5e9dd699190c4d8f515077b674e 218.5728 PT6264H PT6264H 2022-08-31T00:00:00Z
00b35c475557dca47664a3436fc6cca48f03a27fe3 58.5573 PT6264H PT6264H 2022-08-31T00:00:00Z
00b38951b436d5fcdf69b8fab89d91343c623f6806 327.9107 PT6264H PT6264H 2022-08-31T00:00:00Z
00b3c7d72e7f19a8a3de46dfe850ad663ccf80f702 383.9190 PT6264H PT6264H 2022-08-31T00:00:00Z
00b4146862cd1c6cf00fcb857180f32350803b9826 1.3467 PT6264H PT6264H 2022-08-31T00:00:00Z
00b4aa0d9635ace6a0f75d7251832c13d5cb441e8f 15984.7796 PT6264H PT6264H 2022-08-31T00:00:00Z
00b4b756b1ef697f11b324a9c67346e31292eda0df 345.8138 PT6264H PT6264H 2022-08-31T00:00:00Z
00b4ea334212ab90793cf66609f0e3fb50652be010 7.3698 PT6264H PT6264H 2022-08-31T00:00:00Z
00b4ea43d2ce9949df03741a757ceab5c6310c2535 11.0117 PT6264H PT6264H 2022-08-31T00:00:00Z
00b4ef08393daef3506b89499b7cc9e5645b5538ee 43.8945 PT6264H PT6264H 2022-08-31T00:00:00Z
00b4f0ca31a0cc4e56eb835b5cf729a7dba330ddf5 10039.8186 PT6264H PT6264H 2022-08-31T00:00:00Z
00b52c5192820dd2f30dae6bfec29953ab6d4fce6a 665.1022 PT6264H PT6264H 2022-08-31T00:00:00Z
00b5787ce59988e97f4eecba542145e079cc09e090 2635.4269 PT6264H PT6264H 2022-08-31T00:00:00Z
00b5daabf9a664fa3c56e81b8795bfa4bb2a1f446c 3841.9372 PT6264H PT6264H 2022-08-31T00:00:00Z
00b5ffff62f8d57310260341b5cb3bac9993d39d47 257.9259 PT6264H PT6264H 2022-08-31T00:00:00Z
00b60bce10208d795a17c5e8ee7431dfa11a8516e1 182.6374 PT6264H PT6264H 2022-08-31T00:00:00Z
00b68eb221da8747ad6f00257ecfb98b00c4425329 348.9027 PT6264H PT6264H 2022-08-31T00:00:00Z
00b74cc6bab60b82db1b9c3ab30c5890d4b90f24bc 153.2005 PT6264H PT6264H 2022-08-31T00:00:00Z
00b76bb2a448a1a312934d8dae3210b2a87e76976e 308.3886 PT6264H PT6264H 2022-08-31T00:00:00Z
00b78b3a71a0c68a3328549e0f0de79ba9af063782 255.6617 PT6264H PT6264H 2022-08-31T00:00:00Z
00b7f1f50232353a573d20dba8e0cf4649bba867d9 848.1598 PT6264H PT6264H 2022-08-31T00:00:00Z
00b87446a29c44c687a9d84defb4e32a0833f2ca19 304.0529 PT6264H PT6264H 2022-08-31T00:00:00Z
00b878b938b37354bf4d453ad71de96d7b535e3fc6 5702.9474 PT6264H PT6264H 2022-08-31T00:00:00Z
00b90dac72c5ad4b39c8a25ebb5906ffd580984de0 921.7764 PT6264H PT6264H 2022-08-31T00:00:00Z
00b9e0cd10605f7ce71c8fba99c8537abec9a46e19 8435.4820 PT6264H PT6264H 2022-08-31T00:00:00Z
00ba3ad531c6e637f00d2f561cd082880b20074165 2340.4759 PT6264H PT6264H 2022-08-31T00:00:00Z
00bab91a09d27e81762b529f834fd956b3e0144b7a 87.1540 PT6264H PT6264H 2022-08-31T00:00:00Z
00bb0be266879971b7eabc5752aaf087cf991af00d 1009.4741 PT6264H PT6264H 2022-08-31T00:00:00Z
00bc12e360f691aa37cffafc405befca70d1e75215 224.7059 PT6264H PT6264H 2022-08-31T00:00:00Z
00bc65232bd889b7e40e486ea58bf7d59eb391a0a5 24.3239 PT6264H PT6264H 2022-08-31T00:00:00Z
00bd2d60545c98bb267fc9dbb5774a7b2e9766df61 2221.6955 PT6264H PT6264H 2022-08-31T00:00:00Z
00be15cbd68e9147517051d10b92b1dee2a8ba0198 344.1093 PT6264H PT6264H 2022-08-31T00:00:00Z
00be2512f20d0cb1888fb092489d8fae9f1608c41b 80.8141 PT6264H PT6264H 2022-08-31T00:00:00Z
00be33473d3969ae619a931af176df9f730607b3a9 218.9508 PT6264H PT6264H 2022-08-31T00:00:00Z
00be773eda360041ff684d943c43f572d414497513 6815.3761 PT6264H PT6264H 2022-08-31T00:00:00Z
00bec046271df26d10fdea6a3b877a729a71d83775 78.7346 PT6264H PT6264H 2022-08-31T00:00:00Z
00bf515c7bc2349e96f80e4921eebe4b81aa94eba7 207.8035 PT6264H PT6264H 2022-08-31T00:00:00Z
00c02d11f4805cc882aeade494bc67ae1b3c791d21 3791.7585 PT6264H PT6264H 2022-08-31T00:00:00Z
00c02e09264e9429e1fb44c094857cd9bff4020c24 1971.0572 PT6264H PT6264H 2022-08-31T00:00:00Z
00c0aa1158cc9718917158977432c0469e9f9bb12f 226.8303 PT6264H PT6264H 2022-08-31T00:00:00Z
00c0ba1cd12676ddf3befafd665434de75644d780b 224.4162 PT6264H PT6264H 2022-08-31T00:00:00Z
00c139ff8f7cd73ea7d19f49210839655745af93f6 24676.2501 PT6264H PT6264H 2022-08-31T00:00:00Z
00c1533d7112da2a15383d839d243d6d02e2954921 2860.3805 PT6264H PT6264H 2022-08-31T00:00:00Z
00c153479a4e6133fd988b44b09ce7841a2bb9b88d 38.0177 PT6264H PT6264H 2022-08-31T00:00:00Z
00c17ffa6c6d829b5b90d1fea02c6a61c430d30bc5 4493.1189 PT6264H PT6264H 2022-08-31T00:00:00Z
00c199e61b223c02e0ef22241a93856817b28e651b 15.6172 PT6264H PT6264H 2022-08-31T00:00:00Z
00c30663ad7ef0e2f691d3d3f5f9bab11ed8979b60 6389.7461 PT6264H PT6264H 2022-08-31T00:00:00Z
00c3a7159620a092d4fa591c5ad17ae80cddf6e268 8048.9069 PT6264H PT6264H 2022-08-31T00:00:00Z
00c3b14a5f66a049ba970d5cc28f0e5dfe19107e62 362.6342 PT6264H PT6264H 2022-08-31T00:00:00Z
00c441c9e6c6855e82647bd659c0bfd70e4f5a297f 498.0318 PT6264H PT6264H 2022-08-31T00:00:00Z
00c447a87c9815429396a1f4672603fdf39dff0730 234.7793 PT6264H PT6264H 2022-08-31T00:00:00Z
00c453d4fea90b7acb0049ccbebc96098bec8b4039 257.2986 PT6264H PT6264H 2022-08-31T00:00:00Z
00c45a55cf8de7d1ce6dd3a5658fda74c9dc376c22 218.9078 PT6264H PT6264H 2022-08-31T00:00:00Z
00c4c1ad0ecb6b0db9322af0a76502429b8d87ae0c 1507.3807 PT6264H PT6264H 2022-08-31T00:00:00Z
00c51ebe02bcdadeac72b8c19b7b19b87a5eab3eaa 35.3922 PT6264H PT6264H 2022-08-31T00:00:00Z
00c60c1a85efcf3631c0a0dc9fc738c9fdc1818ac8 187.9572 PT6264H PT6264H 2022-08-31T00:00:00Z
00c62a9bc02c9b1c3d35efc3f9ed85a770b56b84a7 49.8425 PT6264H PT6264H 2022-08-31T00:00:00Z
00c71d1b9673625b3d17ec454bb47d2a4d2ba54dbd 9906.8653 PT6264H PT6264H 2022-08-31T00:00:00Z
00c744ad30409887487ae610d0694ac7d67ff2d64f 8790.9549 PT6264H PT6264H 2022-08-31T00:00:00Z
00c774fff889a942b555d39d0df927d88cc1da3039 286.9211 PT6264H PT6264H 2022-08-31T00:00:00Z
00c7915f11747847628884ee036558dcfc0b65d0aa 210.8024 PT6264H PT6264H 2022-08-31T00:00:00Z
00c7d598e3ffb4bbbcdeb997f32e02e1b5a484d774 2253.3651 PT6264H PT6264H 2022-08-31T00:00:00Z
00c9153c54cedb2ec1425a8c58abd546976b709c53 50.5395 PT6264H PT6264H 2022-08-31T00:00:00Z
00c94a1520c04e233eae0e55d08868ca46a6b589d1 289.3842 PT6264H PT6264H 2022-08-31T00:00:00Z
00c950e7d858976e709d22a3c04de052ed13e2c443 120.1531 PT6264H PT6264H 2022-08-31T00:00:00Z
00c9e4abf7b14fb470c47fd188a3f292fb22589eb6 123.1743 PT6264H PT6264H 2022-08-31T00:00:00Z
00ca4be5d52674f3fc5048128b111f0b9866375255 239.9366 PT6264H PT6264H 2022-08-31T00:00:00Z
00ca9db3d5c590cffb9518e1ad1311246a59a8da21 592.9857 PT6264H PT6264H 2022-08-31T00:00:00Z
00cb940e655ad4df1379826749014b82e52ba5e2b5 67.5247 PT6264H PT6264H 2022-08-31T00:00:00Z
00cc0417e2d76d4773ee5792392843a85589db14bb 883.5599 PT6264H PT6264H 2022-08-31T00:00:00Z
00cd1fe739b204551d1a07e0721c598935188486bb 58.6318 PT6264H PT6264H 2022-08-31T00:00:00Z
00cd5e9f783fcbe37ae2910213aa08822ffb1c3266 25.5140 PT6264H PT6264H 2022-08-31T00:00:00Z
00ce9b4a5f03f9569530a782d20f48b582bfb73b4b 181.0964 PT6264H PT6264H 2022-08-31T00:00:00Z
00cf3ab49abbf6d95b7c5cbb34de69f67a287434e9 367.8931 PT6264H PT6264H 2022-08-31T00:00:00Z
00cf5765d2858b9baadbfe002439d39fc2f7752df3 710.7250 PT6264H PT6264H 2022-08-31T00:00:00Z
00cfc8bd7b41a84788de70e842ab6959262fec33ef 456.5566 PT6264H PT6264H 2022-08-31T00:00:00Z
00cfd53c4bdb671689b75699ffc8ad2d2765b191fe 6425.3940 PT6264H PT6264H 2022-08-31T00:00:00Z
00cfeecc6d19cd106c14c04ce533620a2712b3a00c 110.0761 PT6264H PT6264H 2022-08-31T00:00:00Z
00d0105d2e717229b47b71b82e713fb97a1c143270 266.0587 PT6264H PT6264H 2022-08-31T00:00:00Z
00d01e90f71e84e5f63d3607f097c43a30b575c816 184.3063 PT6264H PT6264H 2022-08-31T00:00:00Z
00d029980f44a2b4aec0b4da2c390d373ea15eed1a 260.3634 PT6264H PT6264H 2022-08-31T00:00:00Z
00d0858cad38d2b16f99770238c15bc79a74aa60ae 927.7420 PT6264H PT6264H 2022-08-31T00:00:00Z
00d0bf77d0f8318355c3677728e64c2f53ec57f939 333.8355 PT6264H PT6264H 2022-08-31T00:00:00Z
00d0d42ed20328110b70cc049c425388b58366d693 1242.6287 PT6264H PT6264H 2022-08-31T00:00:00Z
00d12c001dd117c56877593424fe621e42693f7732 1794.7412 PT6264H PT6264H 2022-08-31T00:00:00Z
00d163d76f4ee87d21c88c5c245577aaa98f7e660f 377.6898 PT6264H PT6264H 2022-08-31T00:00:00Z
00d1912d0791256aeff5c22de228d65a09cb58667e 2919.0593 PT6264H PT6264H 2022-08-31T00:00:00Z
00d206b9c77cd3965f9f298a67629f2fa7f1f71b3b 3608.6586 PT6264H PT6264H 2022-08-31T00:00:00Z
00d27a028ec882a7282632138198b381648a0aaabb 210.1100 PT6264H PT6264H 2022-08-31T00:00:00Z
00d3bcaad520cf34b11e951d7e8b647a37f82fe288 14803.4176 PT6264H PT6264H 2022-08-31T00:00:00Z
00d48ca32da7b6f4a03a56f7ca1031b723b61aefa1 20384.6192 PT6264H PT6264H 2022-08-31T00:00:00Z
00d494fd3591fd3d9c0ffc4eaa8c79698917da66c2 147.1613 PT6264H PT6264H 2022-08-31T00:00:00Z
00d4c2f1385403f7ac748a5a2ba5df56a1473cb1ad 22.6989 PT6264H PT6264H 2022-08-31T00:00:00Z
00d4cd15f43ee2a9067ce3957f4aec1ab464ae7839 1306.3398 PT6264H PT6264H 2022-08-31T00:00:00Z
00d4f5c69d23a1919d4021a3a79769d52a32bc381c 25.9933 PT6264H PT6264H 2022-08-31T00:00:00Z
00d52235b604dab92de67da8605b79858ac3a2f218 89.3323 PT6264H PT6264H 2022-08-31T00:00:00Z
00d555eafd5cc47260b59831ef186e0746361d20d6 1917.4615 PT6264H PT6264H 2022-08-31T00:00:00Z
00d5abc335c54cfaf7116ebea2132c89115eff6142 371.5951 PT6264H PT6264H 2022-08-31T00:00:00Z
00d5bdcf82749c811edffae84acf943dd722510c94 185.2381 PT6264H PT6264H 2022-08-31T00:00:00Z
00d6660f20517c70d9ce09ad2cc4efd97edfbbc6cb 17.2334 PT6264H PT6264H 2022-08-31T00:00:00Z
00d72ef3a5a298539780aed09861a7f9d3b7a83dad 202.5585 PT6264H PT6264H 2022-08-31T00:00:00Z
00d73b71d9b3140493898a07e8d8807bb59bd65289 235.7323 PT6264H PT6264H 2022-08-31T00:00:00Z
00d82d1af87114ca1d65a446dc599c9c395abfe499 13660.3066 PT6264H PT6264H 2022-08-31T00:00:00Z
00d852b81a4311c8e7689aee1d48183d1a11e9e5bb 135.0755 PT6264H PT6264H 2022-08-31T00:00:00Z
00d86581012fb24bac86646469874e30c4d75aad53 187.6691 PT6264H PT6264H 2022-08-31T00:00:00Z
00d86b62452eadae13bf13566dcb9e319ceeee1894 208.1366 PT6264H PT6264H 2022-08-31T00:00:00Z
00d8de5e00d4dc39eafbfaadbee2ec22a20bb489a3 606.6341 PT6264H PT6264H 2022-08-31T00:00:00Z
00d9b7e9a1b70afc38227df3c2aa2ad8b42f0386a0 66.7624 PT6264H PT6264H 2022-08-31T00:00:00Z
00d9e0d62e471bae1d22c8bf69891e018f9b1bb467 369.4216 PT6264H PT6264H 2022-08-31T00:00:00Z
00da020bf4a271401be020e491ea441a9527b2c071 55.7043 PT6264H PT6264H 2022-08-31T00:00:00Z
00daabf55e460aab3dacaf339950d5134d2d7e1c54 192.8167 PT6264H PT6264H 2022-08-31T00:00:00Z
00dac63fbb760d82c1c05cdf7c5074ed622fcd358d 2445.8030 PT6264H PT6264H 2022-08-31T00:00:00Z
00dae0d98dbbe72eb56a8efbcc957d08dfa817dfbe 30232.8682 PT6264H PT6264H 2022-08-31T00:00:00Z
00db4a89cd0231136c59ea80488449877e52a8384d 263.3004 PT6264H PT6264H 2022-08-31T00:00:00Z
00db7e737804963aa68aa6f5e0920238014d4e2229 26.3722 PT6264H PT6264H 2022-08-31T00:00:00Z
00dba8ea0786edfd8a49409c1ad229ad16a5519b80 2247.1751 PT6264H PT6264H 2022-08-31T00:00:00Z
00dcf971b2265105e66684ef63b9f734dec4e34a6a 292.7635 PT6264H PT6264H 2022-08-31T00:00:00Z
00dd4f4e815374cc0eeebfa046d649ef89ddb3e12c 608.9634 PT6264H PT6264H 2022-08-31T00:00:00Z
00dd51fb618eb72dd50e5850a9a6a2b248cb70c24c 27220.7368 PT6264H PT6264H 2022-08-31T00:00:00Z
00dd5889a75c371712c694f13044bbc485798f93e3 1453.8369 PT6264H PT6264H 2022-08-31T00:00:00Z
00dd611213e24915ed39104d8540f002056f20be9e 23362.5616 PT6264H PT6264H 2022-08-31T00:00:00Z
00dd8e8efaf383ac92ccbbf10b80e4b3defee9b7a0 774.9145 PT6264H PT6264H 2022-08-31T00:00:00Z
00de288fa2f6118117fd5a66f80ee523b2fdf03d3d 74.2356 PT6264H PT6264H 2022-08-31T00:00:00Z
00de46c449e045bf90a909d6aa661c72695bd318af 78.3951 PT6264H PT6264H 2022-08-31T00:00:00Z
00de53d14bc1811ead882312913ef639cf4a45bcf1 111.3292 PT6264H PT6264H 2022-08-31T00:00:00Z
00df78980bcf8a4d4a11b17464fe26fc32871ab1a7 125.3021 PT6264H PT6264H 2022-08-31T00:00:00Z
00e01535db644fccbe194a356406b6c5071c405584 22763.8872 PT6264H PT6264H 2022-08-31T00:00:00Z
00e037842c74b82774d486dba00150c94f8d19359e 65.1594 PT6264H PT6264H 2022-08-31T00:00:00Z
00e0f2f83d361743b236aea3b27f2b9ab29cefcf86 491.0211 PT6264H PT6264H 2022-08-31T00:00:00Z
00e20b4042fcd389ae4a8ecc6204b14839f469e037 61.9008 PT6264H PT6264H 2022-08-31T00:00:00Z
00e2a66feb5d154263be9311df2056b22e492946d5 438.9752 PT6264H PT6264H 2022-08-31T00:00:00Z
00e2b875c8176d8a4aabf55d996264c4f2dc552083 0.7241 PT6264H PT6264H 2022-08-31T00:00:00Z
00e3ce432f24d301fbb4ce706334eccde1edc9249c 227.8952 PT6264H PT6264H 2022-08-31T00:00:00Z
00e44c8e1464ec47d90b9d403625c9e58cbe295eea 224.8692 PT6264H PT6264H 2022-08-31T00:00:00Z
00e46ada75a810bf6ff0f28e47f2c435c6b8ee9ad9 14457.1301 PT6264H PT6264H 2022-08-31T00:00:00Z
00e489223627fab44016d39d51b12622baa3740d7f 216.7787 PT6264H PT6264H 2022-08-31T00:00:00Z
00e4b041adf21c946885d3a6633cb03652c236b129 80.2563 PT6264H PT6264H 2022-08-31T00:00:00Z
00e4e6c50539fbb1319183539370f008400c3d7fc6 5066.3889 PT6264H PT6264H 2022-08-31T00:00:00Z
00e522ea0b460584691c6588acccc5b0203bbcd54c 8324.3072 PT6264H PT6264H 2022-08-31T00:00:00Z
00e526fcf4a28ae3ac2b034792d82694090801e703 948.1308 PT6264H PT6264H 2022-08-31T00:00:00Z
00e53a66dbb7bb3b286869b34ec2e63122fe750ead 0.6848 PT6264H PT6264H 2022-08-31T00:00:00Z
00e55aa3a69fdb2105de9a6b5f1c08088f68b2ac50 179.0332 PT6264H PT6264H 2022-08-31T00:00:00Z
00e6a53d215fafbce407ea14729aec6fdfcc280a8c 1693.2337 PT6264H PT6264H 2022-08-31T00:00:00Z
00e6a70b4b85e2fd678b5223dae1e701b334d6faf7 334.1930 PT6264H PT6264H 2022-08-31T00:00:00Z
00e737ec7b32186837e9efa9b2c223c3332546fed7 864.0446 PT6264H PT6264H 2022-08-31T00:00:00Z
00e783ac0501fd88ec9444f145ecb8ba2d8dd056cd 136.8501 PT6264H PT6264H 2022-08-31T00:00:00Z
00e7e18b7b33dc24b9d88158043f6e0a1a69b52f79 2808.9755 PT6264H PT6264H 2022-08-31T00:00:00Z
00e8a99474b9109d58fde61fb675e2f9464d704750 428.1932 PT6264H PT6264H 2022-08-31T00:00:00Z
00e92f08f42333c842771b0652b0aa2ef6eaaeabfb 16.5209 PT6264H PT6264H 2022-08-31T00:00:00Z
00e95783aaf01659a4462b069c0024adf307867675 77.3323 PT6264H PT6264H 2022-08-31T00:00:00Z
00eae26c14b21808e4a9b5c33be9443c92d18097bb 13923.9278 PT6264H PT6264H 2022-08-31T00:00:00Z
00eb39fa1b00ac977c93cdd06bd8c6e0b030dfc9df 20466.6730 PT6264H PT6264H 2022-08-31T00:00:00Z
00eb9be72269d40ffc199bc089f35f4faeff024bea 728.1949 PT6264H PT6264H 2022-08-31T00:00:00Z
00ebbc29bca33c7a1c659a546caf60574c4c6c36e0 218.1654 PT6264H PT6264H 2022-08-31T00:00:00Z
00ebbde1133624b2ee723ec96547b37b40e158e58c 3172.0918 PT6264H PT6264H 2022-08-31T00:00:00Z
00ec90d639f295627e4a4be29cdbd05a726d9402fc 131.8424 PT6264H PT6264H 2022-08-31T00:00:00Z
00ecb988b7c624f21cb7128033758df32fb54747a7 493.9950 PT6264H PT6264H 2022-08-31T00:00:00Z
00ed3e0342f724aaa0eb0998388c1b46ecc6f730ab 16.1756 PT6264H PT6264H 2022-08-31T00:00:00Z
00ed458d9f727b468c4ad042aa18f5a6973d889c67 347.7141 PT6264H PT6264H 2022-08-31T00:00:00Z
00ed6af636838e62de986c3cfbd0001befd95048a6 233.2830 PT6264H PT6264H 2022-08-31T00:00:00Z
00ed7d6295501ae86f1deda943ac05ecde1f0a97b1 38.5090 PT6264H PT6264H 2022-08-31T00:00:00Z
00eda7b0f41d0a6e6ddf5723603a49039ced9e76d5 8543.3416 PT6264H PT6264H 2022-08-31T00:00:00Z
00edf6c851ed71d03bcc0e7e52df90a8d58236cec1 3549.3347 PT6264H PT6264H 2022-08-31T00:00:00Z
00eec031fab956a8264ee64bbd14883962d2aec0b7 8782.2186 PT6264H PT6264H 2022-08-31T00:00:00Z
00eecb2100435327cd6e5a57b43faed31040afe05c 160.5490 PT6264H PT6264H 2022-08-31T00:00:00Z
00ef1799a8a4e9d9f49d601580c26b2c72306c147f 926.5086 PT6264H PT6264H 2022-08-31T00:00:00Z
00ef7a8be9d4bb67f1856ec238c8ae9122b58aaa7c 4524.0658 PT6264H PT6264H 2022-08-31T00:00:00Z
00f09e30bd1e8711b35742ce923e3732366ebc7fe0 94.7551 PT6264H PT6264H 2022-08-31T00:00:00Z
00f0e9ff67e35b9e673f7ee87d4ec091edd118ec9d 15496.8656 PT6264H PT6264H 2022-08-31T00:00:00Z
00f1233d3a7046f203ff22056a01318b62b71602a9 257.1526 PT6264H PT6264H 2022-08-31T00:00:00Z
00f21c74882af0c66edafc76758bfb7e8ed4389ab2 1006.6059 PT6264H PT6264H 2022-08-31T00:00:00Z
00f2224da26e66314628e7d50c5a2446c8752b350d 2025.5359 PT6264H PT6264H 2022-08-31T00:00:00Z
00f2a3bf6f35250faab57662b8cf410bd374afda90 345.7856 PT6264H PT6264H 2022-08-31T00:00:00Z
00f2f757b418ddd41cc74929334f047a388142cfb2 262.8816 PT6264H PT6264H 2022-08-31T00:00:00Z
00f3a778fbcf663e4f0d47b41aa4ec51e0f9d39d60 4846.7347 PT6264H PT6264H 2022-08-31T00:00:00Z
00f3dc5417900b23a96c2c8d1826e931211f41343c 488.6477 PT6264H PT6264H 2022-08-31T00:00:00Z
00f3e45a321f4bbf71982963db9b8f02b6423f4216 216.1760 PT6264H PT6264H 2022-08-31T00:00:00Z
00f50760cc3c263fbfc96c4f078482f3c93106adb7 20.0562 PT6264H PT6264H 2022-08-31T00:00:00Z
00f545920937d58b8d26071539c9cb6d8bb9ee30b3 816.0137 PT6264H PT6264H 2022-08-31T00:00:00Z
00f5591948acef6203971826ec8869f93562968c96 14.6381 PT6264H PT6264H 2022-08-31T00:00:00Z
00f58c1bbbf2b9a06cf6ea0e23701341ace184bf4d 140.2288 PT6264H PT6264H 2022-08-31T00:00:00Z
00f593c82c1080637b0f695d0a5743613af620b254 128.6540 PT6264H PT6264H 2022-08-31T00:00:00Z
00f5b42c979d22d23d65633f10f1c5be3a43041b7f 210.5566 PT6264H PT6264H 2022-08-31T00:00:00Z
00f5ec0728aa1bb85965744d86ef0dd5627b58230e 12.9429 PT6264H PT6264H 2022-08-31T00:00:00Z
00f5f50f29b54f0c28a6c64ce31acbc9e24f124317 1667.5627 PT6264H PT6264H 2022-08-31T00:00:00Z
00f635dcaee8eadf03d9cc0f63c5529a9a3f6111d3 39663.2334 PT6264H PT6264H 2022-08-31T00:00:00Z
00f66b5e6e16b78a0ab30bd24531668d589c7f3f98 476.3813 PT6264H PT6264H 2022-08-31T00:00:00Z
00f685027dbe0a92b22f7c0e9f5dfcaa32d92ee837 403.0781 PT6264H PT6264H 2022-08-31T00:00:00Z
00f6c13954f07c9cd31c67ebcd0173085492d243de 4730.8747 PT6264H PT6264H 2022-08-31T00:00:00Z
00f6dbe4acecec6b4fb239055e7f80556e493a7071 1951.5964 PT6264H PT6264H 2022-08-31T00:00:00Z
00f6e5cb01d2bb9d520e01ec7fa522acd3d3110c6b 6.3916 PT6264H PT6264H 2022-08-31T00:00:00Z
00f79f0f4bbdbc45b9765db725c716c203e69f5c4f 8029.4691 PT6264H PT6264H 2022-08-31T00:00:00Z
00f7db7a1ad63e28f77cc893c8d3a1c253c8abb8c4 117.3181 PT6264H PT6264H 2022-08-31T00:00:00Z
00f84acf77f77252b11b8684518fb08fcce72b05d2 71.2679 PT6264H PT6264H 2022-08-31T00:00:00Z
00f854d4943716b4e7b75091e58930c5bd1ba1754a 254.1484 PT6264H PT6264H 2022-08-31T00:00:00Z
00f910caa11b18e223a77662357f40822071610a43 220.0313 PT6264H PT6264H 2022-08-31T00:00:00Z
00f9629f3f42e0dfaa9fca359e88a2ce622e5017b7 252.2781 PT6264H PT6264H 2022-08-31T00:00:00Z
00f96b168869db5416759fe61cb0507d38987f2740 7369.3010 PT6264H PT6264H 2022-08-31T00:00:00Z
00f9bbefae773b5a9aec5a01e0005139af1dddf7ed 23562.7714 PT6264H PT6264H 2022-08-31T00:00:00Z
00f9d7d8b228f42a1d148bd132bf3ba092206ad8a2 197.6380 PT6264H PT6264H 2022-08-31T00:00:00Z
00fa8713e2703636d5f5fc6fb760de3cb28f5f2bee 70.4103 PT6264H PT6264H 2022-08-31T00:00:00Z
00fadb0912153099487ffc49e4b24e4d024f6e64a8 104.9054 PT6264H PT6264H 2022-08-31T00:00:00Z
00fafaf3e6fe89a141e3fb2e64afd2888e71707690 65.8479 PT6264H PT6264H 2022-08-31T00:00:00Z
00fbebd01d5b00a3687985d46d004c7dc044be9ddf 90.6356 PT6264H PT6264H 2022-08-31T00:00:00Z
00fc2158411c6283ac1202c3d5e66dfa6230aabd37 7.5614 PT6264H PT6264H 2022-08-31T00:00:00Z
00fc28a78dea16c765b3d5b52f34faa94861d52f9b 17925.7990 PT6264H PT6264H 2022-08-31T00:00:00Z
00fc813b57536a7fdff0002ae6b5937d685b8805dc 136.4589 PT6264H PT6264H 2022-08-31T00:00:00Z
00fcdd97a29405d585b450d52bb5fc4a9c9ffbc1e1 485.2579 PT6264H PT6264H 2022-08-31T00:00:00Z
00fd562412392806c5d687fdaef05f7e7c2a93a9cf 1027.1924 PT6264H PT6264H 2022-08-31T00:00:00Z
00fd79226ee6c4322305758a32ff1c4f7dc2d67894 567.2963 PT6264H PT6264H 2022-08-31T00:00:00Z
00fd7e31fdc870320e01f611638446bd623a626deb 154.0134 PT6264H PT6264H 2022-08-31T00:00:00Z
00fe0813844b18103c12cd2b3448d9060b958d194f 9425.3618 PT6264H PT6264H 2022-08-31T00:00:00Z
00fe34a7bc8d4907b46e06cc25f71ba43da2700212 1032.0759 PT6264H PT6264H 2022-08-31T00:00:00Z
00fe5f2d17cb74e0be8b673e12cbda5056ecab2fa6 63.4731 PT6264H PT6264H 2022-08-31T00:00:00Z
00fe99083a319caf9ceea1d68b1a48ada78da808a6 284.3408 PT6264H PT6264H 2022-08-31T00:00:00Z
00ff0c9b6623b49b664bc384a8bfb4418ace76b67b 422.0186 PT6264H PT6264H 2022-08-31T00:00:00Z
00ff1dded9dc1d57802f93092a41581d6fe28388d2 258.4069 PT6264H PT6264H 2022-08-31T00:00:00Z
00ff4fc197e9d4b52c9920e3020a0a4b7626886a01 773.6715 PT6264H PT6264H 2022-08-31T00:00:00Z
00ff581c3520a683a5c1bc301e7699d492b8b042ce 727.1469 PT6264H PT6264H 2022-08-31T00:00:00Z
00ff71ded534c1b41dc963e0aea18d994fb79930e9 396.3792 PT6264H PT6264H 2022-08-31T00:00:00Z
00ff789ef75e05c667667d1f60ef5d3b9dd656251e 3.3155 PT6264H PT6264H 2022-08-31T00:00:00Z
