Identity;WeeklyRewardInQuarter;SumOfRewardable;RewardableForHolder;Rewards
00032e337076db13fbc19b89b21385f2e1134f146f;384615384;1.2252371504652866E10;7.809375E7;2451448.491652717
0003756b37ad7f0d51edb1aa3263d23d352c9eee37;384615384;1.2252371504652866E10;1.5625E7;490485.8926876185
0010c669fa9d10bd561d90ded99df8589e1011591a;384615384;1.2252371504652866E10;3.4051875E8;1.0689257156519806E7
00129ff2a896abc6e155c3a5a3e901dac9e90772c3;384615384;1.2252371504652866E10;3.09125E7;970377.2900931843
0013153a0218b8df737a0851ccda76fc1f817d18d2;384615384;1.2252371504652866E10;1.5404430076E8;4835619.607789349
0018bcbedac3e9978ade38f666e7b54eb7fe114ad2;384615384;1.2252371504652866E10;2.79949618876E7;878792.5678205019
001c0163e8aa581f85bdf2e18cd3c77927427cd9ec;384615384;1.2252371504652866E10;8.984375E7;2820293.882953806
001d112b141056df59222685dd37dc919f0efa4d59;384615384;1.2252371504652866E10;8.5517875E7;2684499.920647883
002211b08201dd32ccf0fca91047c84475ee1b8d9a;384615384;1.2252371504652866E10;3.1494337400000002E7;988641.8044316191
0023d1b568e99095e1d6ebfce8a583efab67ce5968;384615384;1.2252371504652866E10;7.59375E7;2383761.4384618257
002b905e734975ef780c774f553dec1119a2c13b5f;384615384;1.2252371504652866E10;7.8109375E7;2451938.977545405
002ca69e438fbdf90074db1908fd6a3ac2ec5a7df5;384615384;1.2252371504652866E10;2.03125E8;6376316.60493904
002e418e4ff8ea1c6d2bb197b59e1f0fc2ebf7550c;384615384;1.2252371504652866E10;2.8000562E7;878968.3614928005
00303090471738b78f6fc910e8e06d1b08bc144bd8;384615384;1.2252371504652866E10;7.1875E7;2256235.106363045
0031020ab94157055e4dbf826d751472e48397f16f;384615384;1.2252371504652866E10;6.8695E8;2.156411417483261E7
00325b43248386ad6b61e9ae4ff974c5515a68f978;384615384;1.2252371504652866E10;6.4976375E7;2039679.6989107493
0036997527f23a4ddc38e3c7a78a19dbdc30897438;384615384;1.2252371504652866E10;7.6953125E7;2415643.021486521
00385790e3944be9d9fb3a665e7d227d9889ea9925;384615384;1.2252371504652866E10;7.5949999267625E7;2384153.8041859213
0038f20279b127950067cbfb5e08ac74831521ee74;384615384;1.2252371504652866E10;7.65625E7;2403380.8741693306
003a47250d2dac46dcdfd81fcf1ba434da00645ab7;384615384;1.2252371504652866E10;1.53125E7;480676.17483386607
003a83e0f374fdb6788e2f8e01c55430eb27de53ab;384615384;1.2252371504652866E10;8.6821875E7;2725433.911308021
003b550ca8ec20c93f9b57aeb7de1adee573176f5a;384615384;1.2252371504652866E10;3.36875E8;1.0574875846345054E7
003b62392f196cc3369d2649f0dceef81210380162;384615384;1.2252371504652866E10;2.954875E8;9275676.813794091
003ee3fa369a9fec862be367d491201faa8875e534;384615384;1.2252371504652866E10;1.0177387452050254E8;3194793.5805738466
003f7c99487893feb1e62a0b26969025dc3bbc05e0;384615384;1.2252371504652866E10;1.5312499726567993E7;480676.1662505354
004006e393c8d4af9c3d2f88d192d3218aba31196b;384615384;1.2252371504652866E10;1.3733854116439998E8;4311207.485659901
0049c00463b97db1c72797ba4059806aa2d247b23a;384615384;1.2252371504652866E10;3.21399996786E7;1008909.8517336249
004b15bef2c6559de77f599e2fd758bc65b653451d;384615384;1.2252371504652866E10;7.434208005E7;2333679.455845033
004b92f8e8e5be575c6d57fefc9b09b852819be082;384615384;1.2252371504652866E10;5.7575E7;1807342.4173753366
004bb18e20c423acb76b84cdb7c6a43a24be7097a1;384615384;1.2252371504652866E10;6.888108E7;2162252.6728375847
004d8603f590cac4ceb828f1ae24da1f4848065ba2;384615384;1.2252371504652866E10;1.28125E7;402198.4320038471
005053703c4a32a217b9081d5fd620a2a9670e3538;384615384;1.2252371504652866E10;2.303316660144E8;7230363.70043516
005d0873215bd74b030cdf3737f0adf5f51c60ca1d;384615384;1.2252371504652866E10;1.4375E7;451247.021272609
00645db784d2dffd521d30ab9894f75afbaca01c4a;384615384;1.2252371504652866E10;7.4625E7;2342560.6234760657
00674cd03a0af9ba19cb2b69e0d768d07d1a3b0e0f;384615384;1.2252371504652866E10;1.028357141486E8;3228125.8914780687
0068332380f49ff88c8c17831a880d04282fe7e32c;384615384;1.2252371504652866E10;7.34375E7;2305283.6956318067
006b5e85264328f0435a8a8f72a470acefc769c1d2;384615384;1.2252371504652866E10;3.2993125E8;1.0356903915634675E7
006c5c707279939a5fc59e6e4a40f7b1aec95296db;384615384;1.2252371504652866E10;1.4374999743308729E7;451247.01321478834
006c6546e22aa72b7b2ea90b1ceefe6bb2e0e6f791;384615384;1.2252371504652866E10;1.0075109925E8;3162687.5427132864
0073e61dbb60b448d615a3699ccb72de476817c51d;384615384;1.2252371504652866E10;1.4974999732594658E7;470081.6711576664
007a2a9a4eff7cc34bb4150b83c15d5f792d2158aa;384615384;1.2252371504652866E10;3.999999998616674E8;1.255643884846062E7
00803c974202d4dd8db22bd3833b8d123f89ea199b;384615384;1.2252371504652866E10;8.064161952E7;2531428.9112347183
0082629d25f92e67e3745b01d3c43f85774ba1dff5;384615384;1.2252371504652866E10;2.9575E7;928391.6976791243
0084edb623a13be32834db996523d9b8191e7f848d;384615384;1.2252371504652866E10;3.2773125E8;1.0287843501944259E7
00850054fc265ea06507e4055c26b8e8c10cb7285a;384615384;1.2252371504652866E10;1.4412452051999998E8;4524226.822747339
0086b9b81da108879123f1bdadd12438b2228f1b25;384615384;1.2252371504652866E10;1.2147468738008133E8;3813223.710628388
008769a4de5e4cd742cc39d7d01cd5789bf79f2f23;384615384;1.2252371504652866E10;3.1618125E8;9925276.330069572
0087e83fc9df70ba11b1ffdf8e5d5bcbc2599029da;384615384;1.2252371504652866E10;9.78412806084E7;3071345.1430982947
0088165dfdd32d3b221e7997d9c982280f9790e14b;384615384;1.2252371504652866E10;3.1625E8;9927434.467997396
00888fcb0ac44babd37eec3f356e44f8136449092f;384615384;1.2252371504652866E10;1.803243345754E8;5660578.701921014
008b0fa9021b4d5e4e76b863eb58da571cb8bc5042;384615384;1.2252371504652866E10;1.4684374737784285E7;460958.6337165849
008d3d1df0c6e4d1443d91cc02a403e36d1b225563;384615384;1.2252371504652866E10;7.33047767E7;2301117.365629826
00983564123f8f57a65c593d69eca6c521aa90148a;384615384;1.2252371504652866E10;1.7271987541149113E7;542186.6385670366
009dd560e0420b6f28965f666b81d22080d533f6db;384615384;1.2252371504652866E10;3.6828370682660535E7;1156082.9613129774
009f1b1ae52e1c0287aa656ca0713efc99329dd620;384615384;1.2252371504652866E10;1.4059374999999998E7;441339.206240319
00a0ea7251b606d22fa28c0ebc227b9b45d7315920;384615384;1.2252371504652866E10;2.811875E7;882678.4124806382
00ab5b9198f329edfd8efb8b8b196cbcde74599b48;384615384;1.2252371504652866E10;1.7716482389339998E8;5561398.195212736
00add78c95d7769da4a78cd05818ae8550ac33c7c9;384615384;1.2252371504652866E10;4.928055E7;1546970.531768756
00b04ced8f4f349111178fa245761ba98ba3bb9c95;384615384;1.2252371504652866E10;6.643058779194563E7;2085329.033913322
00b09ac0eef8be2d5520555fdb142af58846cb20e2;384615384;1.2252371504652866E10;3.111842088666376E8;9768413.726479556
00b4f0ca31a0cc4e56eb835b5cf729a7dba330ddf5;384615384;1.2252371504652866E10;1.8386931774483007E8;5771859.612923926
00b4f4d043656c019ad00965c8be3a932e9d601a51;384615384;1.2252371504652866E10;2.2946574435999998E8;7203181.46967318
00b5daabf9a664fa3c56e81b8795bfa4bb2a1f446c;384615384;1.2252371504652866E10;7.03125E7;2207186.517094283
00b878b938b37354bf4d453ad71de96d7b535e3fc6;384615384;1.2252371504652866E10;4999999.990384265;156955.4853581894
00b8d4eaf07a2730198c8d6efc88940433e7d26a8d;384615384;1.2252371504652866E10;8.90662493736E7;2795887.285270287
00b9e0cd10605f7ce71c8fba99c8537abec9a46e19;384615384;1.2252371504652866E10;1.5252066581358498E8;4787791.035192714
00bd2d60545c98bb267fc9dbb5774a7b2e9766df61;384615384;1.2252371504652866E10;6.832291604200001E7;2144731.293816421
00c02d11f4805cc882aeade494bc67ae1b3c791d21;384615384;1.2252371504652866E10;1.95484365804E7;613646.8714742265
00c02e09264e9429e1fb44c094857cd9bff4020c24;384615384;1.2252371504652866E10;8.141248875E7;2555627.3421097244
00c3a7159620a092d4fa591c5ad17ae80cddf6e268;384615384;1.2252371504652866E10;2.2686920387173373E7;712167.3214998824
00c4c1ad0ecb6b0db9322af0a76502429b8d87ae0c;384615384;1.2252371504652866E10;1.5312499726567993E7;480676.1662505354
00c744ad30409887487ae610d0694ac7d67ff2d64f;384615384;1.2252371504652866E10;3.0624999999999996E7;961352.349667732
00d3bcaad520cf34b11e951d7e8b647a37f82fe288;384615384;1.2252371504652866E10;3.62516874342E8;1.1379802414461508E7
00d48ca32da7b6f4a03a56f7ca1031b723b61aefa1;384615384;1.2252371504652866E10;3.36875E8;1.0574875846345054E7
00dae0d98dbbe72eb56a8efbcc957d08dfa817dfbe;384615384;1.2252371504652866E10;5.36595534425E8;1.6844322541736692E7
00e01535db644fccbe194a356406b6c5071c405584;384615384;1.2252371504652866E10;3.2510425E8;1.0205379089778475E7
00e2aa4548e1d4b122832cabcdfca21cc1177614fc;384615384;1.2252371504652866E10;7.65625E7;2403380.8741693306
00e46ada75a810bf6ff0f28e47f2c435c6b8ee9ad9;384615384;1.2252371504652866E10;3.36875E8;1.0574875846345054E7
00e4e6c50539fbb1319183539370f008400c3d7fc6;384615384;1.2252371504652866E10;7.8109375E7;2451938.977545405
00e73ad9a447cb725783d0131765b70c44db624e58;384615384;1.2252371504652866E10;3.2640625E7;1024625.0298244349
00e7e18b7b33dc24b9d88158043f6e0a1a69b52f79;384615384;1.2252371504652866E10;7.3421875E7;2304793.209739119
00eae26c14b21808e4a9b5c33be9443c92d18097bb;384615384;1.2252371504652866E10;2.844869572472E8;8930357.707736144
00eda7b0f41d0a6e6ddf5723603a49039ced9e76d5;384615384;1.2252371504652866E10;1.71840625E8;5394265.75059989
00ef7a8be9d4bb67f1856ec238c8ae9122b58aaa7c;384615384;1.2252371504652866E10;9.31125E7;2922903.531704056
00f63b1a5ff831ce6a8c8cf0419fccf7e8d2a20e95;384615384;1.2252371504652866E10;3.7272375E8;1.170020743965611E7
00f9bbefae773b5a9aec5a01e0005139af1dddf7ed;384615384;1.2252371504652866E10;3.436125E8;1.0786373363271955E7
00fc28a78dea16c765b3d5b52f34faa94861d52f9b;384615384;1.2252371504652866E10;2.692561025E8;8452244.46696329
00fe0813844b18103c12cd2b3448d9060b958d194f;384615384;1.2252371504652866E10;2.302448343468E8;7227637.959123394
00ff4fc197e9d4b52c9920e3020a0a4b7626886a01;384615384;1.2252371504652866E10;7.4984375E7;2353841.799007881
