Identity;WeeklyRewardInQuarter;SumOfRewardable;RewardableForHolder;Rewards
00032e337076db13fbc19b89b21385f2e1134f146f;384615384;1.246723433807503E10;7.53208705357143E7;2323656.134050097
0003756b37ad7f0d51edb1aa3263d23d352c9eee37;384615384;1.246723433807503E10;1.3671875E7;421778.66482109553
0010c669fa9d10bd561d90ded99df8589e1011591a;384615384;1.246723433807503E10;3.3116629464285713E8;1.0216512189309351E7
00129ff2a896abc6e155c3a5a3e901dac9e90772c3;384615384;1.246723433807503E10;2.9095982142857157E7;897613.8605621196
0013153a0218b8df737a0851ccda76fc1f817d18d2;384615384;1.246723433807503E10;1.4873920366750002E8;4588618.8053526785
0018bcbedac3e9978ade38f666e7b54eb7fe114ad2;384615384;1.246723433807503E10;2.5500511821428582E7;786693.253726845
001c0163e8aa581f85bdf2e18cd3c77927427cd9ec;384615384;1.246723433807503E10;8.178989955357143E7;2523226.3043333027
001d112b141056df59222685dd37dc919f0efa4d59;384615384;1.246723433807503E10;1.5328521281250006E8;4728863.626742766
002211b08201dd32ccf0fca91047c84475ee1b8d9a;384615384;1.246723433807503E10;1.4903570376785707E8;4597765.862098583
0023d1b568e99095e1d6ebfce8a583efab67ce5968;384615384;1.246723433807503E10;5.3013392857142895E7;1635468.2921634326
002b905e734975ef780c774f553dec1119a2c13b5f;384615384;1.246723433807503E10;7.373046875E7;2274592.0852851933
002ca69e438fbdf90074db1908fd6a3ac2ec5a7df5;384615384;1.246723433807503E10;1.77734375E8;5483122.642674241
002e418e4ff8ea1c6d2bb197b59e1f0fc2ebf7550c;384615384;1.246723433807503E10;2.5980521455714293E7;801501.5973264091
00303090471738b78f6fc910e8e06d1b08bc144bd8;384615384;1.246723433807503E10;6.19419642857143E7;1910915.5834751679
0031020ab94157055e4dbf826d751472e48397f16f;384615384;1.246723433807503E10;6.4453125E8;1.988385134156593E7
00325b43248386ad6b61e9ae4ff974c5515a68f978;384615384;1.246723433807503E10;5.917491294642859E7;1825551.7822865706
0036997527f23a4ddc38e3c7a78a19dbdc30897438;384615384;1.246723433807503E10;7.07728794642857E7;2183350.1700381804
00385790e3944be9d9fb3a665e7d227d9889ea9925;384615384;1.246723433807503E10;7.473214213651146E7;2305493.8060476803
0038f20279b127950067cbfb5e08ac74831521ee74;384615384;1.246723433807503E10;7.529296875E7;2322795.361264747
003a47250d2dac46dcdfd81fcf1ba434da00645ab7;384615384;1.246723433807503E10;1.4508928571428578E7;447601.84838157095
003a83e0f374fdb6788e2f8e01c55430eb27de53ab;384615384;1.246723433807503E10;8.542968749999997E7;2635514.1141821016
003b550ca8ec20c93f9b57aeb7de1adee573176f5a;384615384;1.246723433807503E10;3.252120535714287E8;1.003282327691584E7
003b62392f196cc3369d2649f0dceef81210380162;384615384;1.246723433807503E10;2.945814732142858E8;9087866.913159518
003ee3fa369a9fec862be367d491201faa8875e534;384615384;1.246723433807503E10;1.0222111558982402E8;3153531.2932570586
003f7c99487893feb1e62a0b26969025dc3bbc05e0;384615384;1.246723433807503E10;1.5066964016666753E7;464817.2957884118
004006e393c8d4af9c3d2f88d192d3218aba31196b;384615384;1.246723433807503E10;1.380208328285714E8;4257956.029288629
0049c00463b97db1c72797ba4059806aa2d247b23a;384615384;1.246723433807503E10;3.063095207464284E7;944967.8312771161
004b15bef2c6559de77f599e2fd758bc65b653451d;384615384;1.246723433807503E10;7.05635175E7;2176891.3332099663
004b92f8e8e5be575c6d57fefc9b09b852819be082;384615384;1.246723433807503E10;5.54453125E7;1710493.2481344654
004bb18e20c423acb76b84cdb7c6a43a24be7097a1;384615384;1.246723433807503E10;6.148815158482145E7;1896915.4178021024
004d8603f590cac4ceb828f1ae24da1f4848065ba2;384615384;1.246723433807503E10;1.409040178571428E7;434690.2566013329
005053703c4a32a217b9081d5fd620a2a9670e3538;384615384;1.246723433807503E10;2.2049293092321432E8;6802228.224532727
005d0873215bd74b030cdf3737f0adf5f51c60ca1d;384615384;1.246723433807503E10;1.506417410714286E7;464731.2268100194
00645db784d2dffd521d30ab9894f75afbaca01c4a;384615384;1.246723433807503E10;7.14425223214286E7;2204008.716886562
00674cd03a0af9ba19cb2b69e0d768d07d1a3b0e0f;384615384;1.246723433807503E10;1.0310586720946433E8;3180825.966213781
0068332380f49ff88c8c17831a880d04282fe7e32c;384615384;1.246723433807503E10;8.28348830357143E7;2555464.1457309397
006b5e85264328f0435a8a8f72a470acefc769c1d2;384615384;1.246723433807503E10;3.358314732142858E8;1.0360433399019737E7
006c5c707279939a5fc59e6e4a40f7b1aec95296db;384615384;1.246723433807503E10;1.5954343450364957E7;492193.037062738
006c6546e22aa72b7b2ea90b1ceefe6bb2e0e6f791;384615384;1.246723433807503E10;1.1700174107142863E8;3609515.0175707936
0073e61dbb60b448d615a3699ccb72de476817c51d;384615384;1.246723433807503E10;1.533761133326244E7;473166.79165720387
007a2a9a4eff7cc34bb4150b83c15d5f792d2158aa;384615384;1.246723433807503E10;3.943452379588609E8;1.2165588695394417E7
00803c974202d4dd8db22bd3833b8d123f89ea199b;384615384;1.246723433807503E10;8.097162614749996E7;2497982.4906887636
0082629d25f92e67e3745b01d3c43f85774ba1dff5;384615384;1.246723433807503E10;3.012834821428572E7;929462.4536200388
0084edb623a13be32834db996523d9b8191e7f848d;384615384;1.246723433807503E10;3.375502232142858E8;1.0413457002597244E7
00850054fc265ea06507e4055c26b8e8c10cb7285a;384615384;1.246723433807503E10;1.505860301785714E8;4645593.581672377
0086b9b81da108879123f1bdadd12438b2228f1b25;384615384;1.246723433807503E10;1.825514951912839E8;5631731.266038811
008769a4de5e4cd742cc39d7d01cd5789bf79f2f23;384615384;1.246723433807503E10;3.433816964285713E8;1.0593358514735214E7
0087e83fc9df70ba11b1ffdf8e5d5bcbc2599029da;384615384;1.246723433807503E10;9.910049243250003E7;3057259.767317427
0088165dfdd32d3b221e7997d9c982280f9790e14b;384615384;1.246723433807503E10;2.576897321428571E8;7949753.136370834
00888fcb0ac44babd37eec3f356e44f8136449092f;384615384;1.246723433807503E10;1.8502253646428564E8;5707963.128080007
008b0fa9021b4d5e4e76b863eb58da571cb8bc5042;384615384;1.246723433807503E10;1.558593722168528E7;480827.66931001283
008d3d1df0c6e4d1443d91cc02a403e36d1b225563;384615384;1.246723433807503E10;7.659123705357142E7;2362847.063877586
00983564123f8f57a65c593d69eca6c521aa90148a;384615384;1.246723433807503E10;1.80424619684981E7;556611.6951155948
009dd560e0420b6f28965f666b81d22080d533f6db;384615384;1.246723433807503E10;5.365152587192405E7;1655154.7573302554
009f1b1ae52e1c0287aa656ca0713efc99329dd620;384615384;1.246723433807503E10;1.6141978210101329E7;497981.58753117296
00a0ea7251b606d22fa28c0ebc227b9b45d7315920;384615384;1.246723433807503E10;2.966517857142856E7;915173.6253832419
00ab5b9198f329edfd8efb8b8b196cbcde74599b48;384615384;1.246723433807503E10;1.850110248583928E8;5707607.9939258825
00add78c95d7769da4a78cd05818ae8550ac33c7c9;384615384;1.246723433807503E10;5.63353685290577E7;1737951.5626342632
00b04ced8f4f349111178fa245761ba98ba3bb9c95;384615384;1.246723433807503E10;7.208654984492993E7;2223877.0282169706
00b09ac0eef8be2d5520555fdb142af58846cb20e2;384615384;1.246723433807503E10;2.7726124107329994E8;8553536.078009514
00b4f0ca31a0cc4e56eb835b5cf729a7dba330ddf5;384615384;1.246723433807503E10;1.988636358910124E8;6134962.382817257
00b4f4d043656c019ad00965c8be3a932e9d601a51;384615384;1.246723433807503E10;2.310350389642856E8;7127453.2762511475
00b5daabf9a664fa3c56e81b8795bfa4bb2a1f446c;384615384;1.246723433807503E10;7.26981026785714E7;2242743.492227273
00b878b938b37354bf4d453ad71de96d7b535e3fc6;384615384;1.246723433807503E10;1395089.2830313242;43038.6391846891
00b8d4eaf07a2730198c8d6efc88940433e7d26a8d;384615384;1.246723433807503E10;9.448697850214283E7;2914932.416776291
00b9e0cd10605f7ce71c8fba99c8537abec9a46e19;384615384;1.246723433807503E10;1.618458324280939E8;4992959.569070095
00bd2d60545c98bb267fc9dbb5774a7b2e9766df61;384615384;1.246723433807503E10;6.463541607571425E7;1994008.8314566016
00c02d11f4805cc882aeade494bc67ae1b3c791d21;384615384;1.246723433807503E10;3.4208774071071446E7;1055343.9855808385
00c02e09264e9429e1fb44c094857cd9bff4020c24;384615384;1.246723433807503E10;8.959016350446433E7;2763865.2009337856
00c3a7159620a092d4fa591c5ad17ae80cddf6e268;384615384;1.246723433807503E10;1.8478374639290532E8;5700596.431304377
00c4c1ad0ecb6b0db9322af0a76502429b8d87ae0c;384615384;1.246723433807503E10;1.5622209542466149E7;481946.6739109851
00c744ad30409887487ae610d0694ac7d67ff2d64f;384615384;1.246723433807503E10;3.0691964285714276E7;946850.0638840916
00d3bcaad520cf34b11e951d7e8b647a37f82fe288;384615384;1.246723433807503E10;3.6722607820250016E8;1.132895999646996E7
00d48ca32da7b6f4a03a56f7ca1031b723b61aefa1;384615384;1.246723433807503E10;3.381640625E8;1.0432394003874924E7
00dae0d98dbbe72eb56a8efbcc957d08dfa817dfbe;384615384;1.246723433807503E10;5.295148900669644E8;1.6335585523955815E7
00e01535db644fccbe194a356406b6c5071c405584;384615384;1.246723433807503E10;3.144222532142857E8;9699956.893312864
00e2aa4548e1d4b122832cabcdfca21cc1177614fc;384615384;1.246723433807503E10;7.54324776785714E7;2327099.225191492
00e46ada75a810bf6ff0f28e47f2c435c6b8ee9ad9;384615384;1.246723433807503E10;3.3147321428571415E8;1.0225980689948188E7
00e4e6c50539fbb1319183539370f008400c3d7fc6;384615384;1.246723433807503E10;7.53348214285714E7;2324086.5204427703
00e73ad9a447cb725783d0131765b70c44db624e58;384615384;1.246723433807503E10;0.0;0.0
00e7e18b7b33dc24b9d88158043f6e0a1a69b52f79;384615384;1.246723433807503E10;7.53348214285714E7;2324086.5204427703
00eae26c14b21808e4a9b5c33be9443c92d18097bb;384615384;1.246723433807503E10;2.842020109735714E8;8767659.500098068
00eda7b0f41d0a6e6ddf5723603a49039ced9e76d5;384615384;1.246723433807503E10;1.6573660714285707E8;5112990.344974094
00ef7a8be9d4bb67f1856ec238c8ae9122b58aaa7c;384615384;1.246723433807503E10;9.040178571428569E7;2788903.824531324
00f63b1a5ff831ce6a8c8cf0419fccf7e8d2a20e95;384615384;1.246723433807503E10;3.73078125E8;1.1509496205638053E7
00f9bbefae773b5a9aec5a01e0005139af1dddf7ed;384615384;1.246723433807503E10;3.310435267857142E8;1.0212724789053813E7
00fc28a78dea16c765b3d5b52f34faa94861d52f9b;384615384;1.246723433807503E10;2.6493858482142848E8;8173380.941939029
00fe0813844b18103c12cd2b3448d9060b958d194f;384615384;1.246723433807503E10;2.265991064999999E8;6990604.331097467
00ff4fc197e9d4b52c9920e3020a0a4b7626886a01;384615384;1.246723433807503E10;7.39397321428571E7;2281047.8811753113
