Identity;WeeklyRewardInQuarter;SumOfRewardable;RewardableForHolder;Rewards
00032e337076db13fbc19b89b21385f2e1134f146f;384615384;1.2492414091464035E10;7.8125E7;2405305.8644230827
0003756b37ad7f0d51edb1aa3263d23d352c9eee37;384615384;1.2492414091464035E10;1.5625E7;481061.17288461654
0010c669fa9d10bd561d90ded99df8589e1011591a;384615384;1.2492414091464035E10;3.305288461538463E8;1.017629404178997E7
00129ff2a896abc6e155c3a5a3e901dac9e90772c3;384615384;1.2492414091464035E10;1.5612980769230781E7;480691.1258285518
0013153a0218b8df737a0851ccda76fc1f817d18d2;384615384;1.2492414091464035E10;1.5640212169E8;4815295.238517371
0018bcbedac3e9978ade38f666e7b54eb7fe114ad2;384615384;1.2492414091464035E10;2.8000562E7;862078.9246174991
001c0163e8aa581f85bdf2e18cd3c77927427cd9ec;384615384;1.2492414091464035E10;4.4921875E7;1383050.8720432727
001d112b141056df59222685dd37dc919f0efa4d59;384615384;1.2492414091464035E10;1.61212760625E8;4963404.781454683
002211b08201dd32ccf0fca91047c84475ee1b8d9a;384615384;1.2492414091464035E10;1.57471687E8;4848224.92443771
0023d1b568e99095e1d6ebfce8a583efab67ce5968;384615384;1.2492414091464035E10;7.8125E7;2405305.8644230827
002b905e734975ef780c774f553dec1119a2c13b5f;384615384;1.2492414091464035E10;7.512019230769235E7;2312794.1004068116
002ca69e438fbdf90074db1908fd6a3ac2ec5a7df5;384615384;1.2492414091464035E10;1.8742187500000006E8;5770328.768750977
002e418e4ff8ea1c6d2bb197b59e1f0fc2ebf7550c;384615384;1.2492414091464035E10;2.7979023106153842E7;861415.7869831779
00303090471738b78f6fc910e8e06d1b08bc144bd8;384615384;1.2492414091464035E10;7.648737980769233E7;2354886.953034215
0031020ab94157055e4dbf826d751472e48397f16f;384615384;1.2492414091464035E10;6.670072115384618E8;2.0535761376332156E7
00325b43248386ad6b61e9ae4ff974c5515a68f978;384615384;1.2492414091464035E10;6.372682932692309E7;1962016.2086545536
0036997527f23a4ddc38e3c7a78a19dbdc30897438;384615384;1.2492414091464035E10;7.361778846153843E7;2266538.2183986735
00385790e3944be9d9fb3a665e7d227d9889ea9925;384615384;1.2492414091464035E10;7.599471080565539E7;2339718.701644533
0038f20279b127950067cbfb5e08ac74831521ee74;384615384;1.2492414091464035E10;7.509014423076922E7;2311868.9827666474
003a47250d2dac46dcdfd81fcf1ba434da00645ab7;384615384;1.2492414091464035E10;1.409254807692308E7;433880.1732363177
003a83e0f374fdb6788e2f8e01c55430eb27de53ab;384615384;1.2492414091464035E10;8.518629807692312E7;2622708.509861324
003b550ca8ec20c93f9b57aeb7de1adee573176f5a;384615384;1.2492414091464035E10;3.253725961538463E8;1.0017543854738047E7
003b62392f196cc3369d2649f0dceef81210380162;384615384;1.2492414091464035E10;3.305288461538463E8;1.017629404178997E7
003ee3fa369a9fec862be367d491201faa8875e534;384615384;1.2492414091464035E10;9.796153800000244E7;3016031.5115431747
003f7c99487893feb1e62a0b26969025dc3bbc05e0;384615384;1.2492414091464035E10;1.5297475688374743E7;470977.3821967015
004006e393c8d4af9c3d2f88d192d3218aba31196b;384615384;1.2492414091464035E10;1.7878605703846157E8;5504449.938837649
0049c00463b97db1c72797ba4059806aa2d247b23a;384615384;1.2492414091464035E10;3.269230736538462E7;1006527.982431764
004b15bef2c6559de77f599e2fd758bc65b653451d;384615384;1.2492414091464035E10;7.237283846153848E7;2228208.8035389814
004b92f8e8e5be575c6d57fefc9b09b852819be082;384615384;1.2492414091464035E10;5.310096153846154E7;1634867.8936955663
004bb18e20c423acb76b84cdb7c6a43a24be7097a1;384615384;1.2492414091464035E10;7.03161025E7;2164886.1914447946
004d8603f590cac4ceb828f1ae24da1f4848065ba2;384615384;1.2492414091464035E10;1.5573918269230764E7;479488.4728963397
005053703c4a32a217b9081d5fd620a2a9670e3538;384615384;1.2492414091464035E10;2.35416666E8;7247988.317602946
005d0873215bd74b030cdf3737f0adf5f51c60ca1d;384615384;1.2492414091464035E10;1.5625E7;481061.17288461654
00645db784d2dffd521d30ab9894f75afbaca01c4a;384615384;1.2492414091464035E10;7.662259615384617E7;2359049.982414947
00674cd03a0af9ba19cb2b69e0d768d07d1a3b0e0f;384615384;1.2492414091464035E10;1.0712225260442305E8;3298070.8147152583
0068332380f49ff88c8c17831a880d04282fe7e32c;384615384;1.2492414091464035E10;8.58075E7;2641834.021906991
006b5e85264328f0435a8a8f72a470acefc769c1d2;384615384;1.2492414091464035E10;3.4375E8;1.0583345803461565E7
006c5c707279939a5fc59e6e4a40f7b1aec95296db;384615384;1.2492414091464035E10;2.8578977197692323E7;879887.1225961332
006c6546e22aa72b7b2ea90b1ceefe6bb2e0e6f791;384615384;1.2492414091464035E10;1.234818375E8;3801748.324972648
0073e61dbb60b448d615a3699ccb72de476817c51d;384615384;1.2492414091464035E10;1.5024038193257459E7;462558.8118215493
007a2a9a4eff7cc34bb4150b83c15d5f792d2158aa;384615384;1.2492414091464035E10;4.005608972973709E8;1.2332434884197611E7
00803c974202d4dd8db22bd3833b8d123f89ea199b;384615384;1.2492414091464035E10;8.237011577173077E7;2536004.128242589
0082629d25f92e67e3745b01d3c43f85774ba1dff5;384615384;1.2492414091464035E10;0.0;0.0
0084edb623a13be32834db996523d9b8191e7f848d;384615384;1.2492414091464035E10;3.337680288461537E8;1.0276021723399501E7
00850054fc265ea06507e4055c26b8e8c10cb7285a;384615384;1.2492414091464035E10;1.503754203461539E8;4629745.669423234
0086b9b81da108879123f1bdadd12438b2228f1b25;384615384;1.2492414091464035E10;1.822961784147927E8;5612519.257638623
008769a4de5e4cd742cc39d7d01cd5789bf79f2f23;384615384;1.2492414091464035E10;3.354206730769232E8;1.0326903193608461E7
0087e83fc9df70ba11b1ffdf8e5d5bcbc2599029da;384615384;1.2492414091464035E10;5.018036826923079E7;1544948.9161842023
0088165dfdd32d3b221e7997d9c982280f9790e14b;384615384;1.2492414091464035E10;3.279507211538463E8;1.0096918948264008E7
00888fcb0ac44babd37eec3f356e44f8136449092f;384615384;1.2492414091464035E10;1.858975718219231E8;5723398.6519716205
008b0fa9021b4d5e4e76b863eb58da571cb8bc5042;384615384;1.2492414091464035E10;6613581.612671933;203618.38896384602
008d3d1df0c6e4d1443d91cc02a403e36d1b225563;384615384;1.2492414091464035E10;7.601921298942305E7;2340473.072797269
00983564123f8f57a65c593d69eca6c521aa90148a;384615384;1.2492414091464035E10;1.4677135622943511E7;451878.4049510267
009dd560e0420b6f28965f666b81d22080d533f6db;384615384;1.2492414091464035E10;5.291157670003078E7;1629037.129375434
009f1b1ae52e1c0287aa656ca0713efc99329dd620;384615384;1.2492414091464035E10;1.6237492874066427E7;499918.5514690559
00a0ea7251b606d22fa28c0ebc227b9b45d7315920;384615384;1.2492414091464035E10;3.0649038461538468E7;943619.9929659787
00ab5b9198f329edfd8efb8b8b196cbcde74599b48;384615384;1.2492414091464035E10;1.8520416634615394E8;5702050.1430783
00add78c95d7769da4a78cd05818ae8550ac33c7c9;384615384;1.2492414091464035E10;6.875983753338884E7;2116972.0378347337
00b04ced8f4f349111178fa245761ba98ba3bb9c95;384615384;1.2492414091464035E10;3.333423556183749E7;1026291.6132217369
00b09ac0eef8be2d5520555fdb142af58846cb20e2;384615384;1.2492414091464035E10;3.4808700028930914E8;1.0716873000004025E7
00b4f0ca31a0cc4e56eb835b5cf729a7dba330ddf5;384615384;1.2492414091464035E10;2.1340745141588777E8;6570370.488348402
00b4f4d043656c019ad00965c8be3a932e9d601a51;384615384;1.2492414091464035E10;1.0797283388461532E8;3324258.43892537
00b5daabf9a664fa3c56e81b8795bfa4bb2a1f446c;384615384;1.2492414091464035E10;7.620192307692304E7;2346098.335452667
00b878b938b37354bf4d453ad71de96d7b535e3fc6;384615384;1.2492414091464035E10;0.0;0.0
00b8d4eaf07a2730198c8d6efc88940433e7d26a8d;384615384;1.2492414091464035E10;6.380208288461538E7;1964333.1087970939
00b9e0cd10605f7ce71c8fba99c8537abec9a46e19;384615384;1.2492414091464035E10;1.5808781962860045E8;4867194.363475599
00bd2d60545c98bb267fc9dbb5774a7b2e9766df61;384615384;1.2492414091464035E10;7.151442242307694E7;2201779.963456724
00c02d11f4805cc882aeade494bc67ae1b3c791d21;384615384;1.2492414091464035E10;3.398175311538462E7;1046227.3286631935
00c02e09264e9429e1fb44c094857cd9bff4020c24;384615384;1.2492414091464035E10;4.18802884615385E7;1289406.7640354421
00c3a7159620a092d4fa591c5ad17ae80cddf6e268;384615384;1.2492414091464035E10;1.8455507293372136E8;5682065.910227325
00c4c1ad0ecb6b0db9322af0a76502429b8d87ae0c;384615384;1.2492414091464035E10;1.5324518957122602E7;471809.98805798014
00c744ad30409887487ae610d0694ac7d67ff2d64f;384615384;1.2492414091464035E10;2.944711538461537E7;906615.2873594691
00d3bcaad520cf34b11e951d7e8b647a37f82fe288;384615384;1.2492414091464035E10;3.6008709870538443E8;1.1086331010805178E7
00d48ca32da7b6f4a03a56f7ca1031b723b61aefa1;384615384;1.2492414091464035E10;3.3713942307692313E8;1.0379819922625765E7
00dae0d98dbbe72eb56a8efbcc957d08dfa817dfbe;384615384;1.2492414091464035E10;5.263816658653847E8;1.6206194020234259E7
00e01535db644fccbe194a356406b6c5071c405584;384615384;1.2492414091464035E10;3.218532075E8;9909189.215784056
00e2aa4548e1d4b122832cabcdfca21cc1177614fc;384615384;1.2492414091464035E10;0.0;0.0
00e46ada75a810bf6ff0f28e47f2c435c6b8ee9ad9;384615384;1.2492414091464035E10;3.4375E8;1.0583345803461565E7
00e4e6c50539fbb1319183539370f008400c3d7fc6;384615384;1.2492414091464035E10;7.734375E7;2381252.805778852
00e73ad9a447cb725783d0131765b70c44db624e58;384615384;1.2492414091464035E10;0.0;0.0
00e7e18b7b33dc24b9d88158043f6e0a1a69b52f79;384615384;1.2492414091464035E10;7.8125E7;2405305.8644230827
00eae26c14b21808e4a9b5c33be9443c92d18097bb;384615384;1.2492414091464035E10;2.9472801138E8;9074060.981530458
00eda7b0f41d0a6e6ddf5723603a49039ced9e76d5;384615384;1.2492414091464035E10;1.71875E8;5291672.901730782
00ef7a8be9d4bb67f1856ec238c8ae9122b58aaa7c;384615384;1.2492414091464035E10;8.653846153846154E7;2664338.803668645
00f63b1a5ff831ce6a8c8cf0419fccf7e8d2a20e95;384615384;1.2492414091464035E10;3.8481490384615374E8;1.1847648575213546E7
00f9bbefae773b5a9aec5a01e0005139af1dddf7ed;384615384;1.2492414091464035E10;3.340324519230768E8;1.0284162758632936E7
00fc28a78dea16c765b3d5b52f34faa94861d52f9b;384615384;1.2492414091464035E10;2.739585736778847E8;8434613.29761791
00fe0813844b18103c12cd2b3448d9060b958d194f;384615384;1.2492414091464035E10;2.34991666E8;7234903.453700484
00ff4fc197e9d4b52c9920e3020a0a4b7626886a01;384615384;1.2492414091464035E10;7.8125E7;2405305.8644230827
