Address;Transferable;InTransit;StakedToSelf;PendingUnstakes;DelegatedToOthers;PendingRetractedDelegated;InSchedule;Releaseable;Staked;Unlocked;Total;UnlockedRatio;StakeRatio
00032e337076db13fbc19b89b21385f2e1134f146f;-1250000000;0;1250000000;0;0;0;1318333334;86666665;1250000000;86666665;1318333334;0.06573956886688265;0.9481668768909396
0003756b37ad7f0d51edb1aa3263d23d352c9eee37;-250000000;0;250000000;0;0;0;1856549295;120066411;250000000;120066411;1856549295;0.0646718141680154;0.13465842284570204
0006f63457d7d9433974dd146f3c92b84ed5293429;-1698009000;0;1698009000;0;0;0;1790833492;117728622;1698009000;117728622;1790833492;0.06573956904755052;0.9481668773704172
0010c669fa9d10bd561d90ded99df8589e1011591a;-5500000000;0;5500000000;0;0;0;6273333334;409166665;5500000000;409166665;6273333334;0.06522316657117713;0.8767268861980099
001210f372df2094f1e72ef90024e1002cf19d5e32;-5500000000;0;5500000000;0;0;0;5773333334;377916665;5500000000;377916665;5773333334;0.06545900663216409;0.95265588903549
00129ff2a896abc6e155c3a5a3e901dac9e90772c3;-250000000;0;250000000;0;0;0;10093333334;1261666666;250000000;1261666666;10093333334;0.12499999992569352;0.024768824304836935
0013153a0218b8df737a0851ccda76fc1f817d18d2;-2515009000;0;2515009000;0;0;0;2652496158;174373955;2515009000;174373955;2652496158;0.06573956930119708;0.9481668776087253
00160fa6ffd4c7a4d49b43b6e7759aa663ad80d0dd;-250000000;0;250000000;0;0;0;531066230;37427153;250000000;37427153;531066230;0.07047549041105476;0.4707510775068488
0018bcbedac3e9978ade38f666e7b54eb7fe114ad2;-448009000;0;448009000;0;0;0;472500158;31061955;448009000;31061955;472500158;0.06573956531883318;0.9481668787082184
001a53b7275033cbae5172588df246ab8a11e23e92;-1500000000;0;1500000000;0;0;0;1582000000;104000000;1500000000;104000000;1582000000;0.06573957016434892;0.9481668773704172
001c0163e8aa581f85bdf2e18cd3c77927427cd9ec;-1437500000;0;1437500000;0;0;0;1516083334;99666664;1437500000;99666664;1516083334;0.06573956837652303;0.9481668769534802
001d112b141056df59222685dd37dc919f0efa4d59;-2055125777;0;2055125777;0;0;0;2055125778;171372845;2055125777;171372845;2055125778;0.08338800808910879;0.9999999995134118
00212ebd8b59f240fed393bface4379a8d9e3d4974;-528110000;0;528110000;0;0;0;528110000;66013750;528110000;66013750;528110000;0.125;1.0
002211b08201dd32ccf0fca91047c84475ee1b8d9a;-2519547000;0;2519547000;0;0;0;2909236936;206182927;2519547000;206182927;2909236936;0.07087182362103765;0.8660508083140878
0023d1b568e99095e1d6ebfce8a583efab67ce5968;-1250000000;0;1250000000;0;0;0;1318333334;86666665;1250000000;86666665;1318333334;0.06573956886688265;0.9481668768909396
0027c5693ae004307b5d4a0daa0a783dc51b801bf7;-1250000000;0;1250000000;0;0;0;1250000000;78125000;1250000000;78125000;1250000000;0.0625;1.0
0029989257513b82e30a4e10597a79482e9de20b85;-275120000;0;275120000;0;0;0;275120000;34390000;275120000;34390000;275120000;0.125;1.0
002a9aa5f7a98b3b6c9e50de94ce45e208f78f4cff;-255180000;0;255180000;0;0;0;255180000;21897500;255180000;21897500;255180000;0.08581197586017714;1.0
002b905e734975ef780c774f553dec1119a2c13b5f;-1250000000;0;1250000000;0;0;0;1318333334;86666665;1250000000;86666665;1318333334;0.06573956886688265;0.9481668768909396
002c30b8822473502012d2598aa75a60d98fe6b558;-250000000;0;250000000;0;0;0;464137323;30016601;250000000;30016601;464137323;0.0646718105020828;0.5386336922531869
002c4f1505c3f580bba8a809c6bdf40592ad9ffd13;-1137990000;0;1137990000;0;0;0;1178957640;147369704;1137990000;147369704;1178957640;0.1249999991517931;0.9652509652509652
002ca69e438fbdf90074db1908fd6a3ac2ec5a7df5;-3250000000;0;3250000000;0;0;0;3366999999;217749998;3250000000;217749998;3366999999;0.06467181409702162;0.9652509655376451
002d6bca02ee31ebf862075b13ae35866a4ded44db;-1000000000;0;1000000000;0;0;0;1250000000;78125000;1000000000;78125000;1250000000;0.0625;0.8
002e418e4ff8ea1c6d2bb197b59e1f0fc2ebf7550c;-448009000;0;448009000;0;0;0;472500158;31061955;448009000;31061955;472500158;0.06573956531883318;0.9481668787082184
00303090471738b78f6fc910e8e06d1b08bc144bd8;-1250000000;0;1250000000;0;0;0;1318333334;86666665;1250000000;86666665;1318333334;0.06573956886688265;0.9481668768909396
0031020ab94157055e4dbf826d751472e48397f16f;-5500000000;0;5500000000;0;0;0;20180000001;2522499999;5500000000;2522499999;20180000001;0.12499999994425173;0.27254707629967556
0031b0636472b2f6107637bed28c146707eed0ae49;-250000000;0;250000000;0;0;0;253100000;31637500;250000000;31637500;253100000;0.125;0.9877518767285658
0031f29f99727cea6d917e2d4725d26f9f1a1c0828;-46910000;0;46910000;0;0;0;46910000;5863750;46910000;5863750;46910000;0.125;1.0
00325b43248386ad6b61e9ae4ff974c5515a68f978;-1039622000;0;1039622000;0;0;0;1096454670;72080457;1039622000;72080457;1096454670;0.06573956860432725;0.9481668767939125
003357f9ed428a04d840e39aa7f63d827617f46ebe;-250000000;0;250000000;0;0;0;274000000;17625000;250000000;17625000;274000000;0.06432481751824817;0.9124087591240876
00362761916bdee45e6908b126b87f57b220952fa2;-1250000000;0;1250000000;0;0;0;1318333334;86666665;1250000000;86666665;1318333334;0.06573956886688265;0.9481668768909396
0036997527f23a4ddc38e3c7a78a19dbdc30897438;-1250000000;0;1250000000;0;0;0;1318333334;86666665;1250000000;86666665;1318333334;0.06573956886688265;0.9481668768909396
00385790e3944be9d9fb3a665e7d227d9889ea9925;-930000000;0;930000000;0;0;0;966933333;81977775;930000000;81977775;966933333;0.08478120693766589;0.9618036407066339
0038f20279b127950067cbfb5e08ac74831521ee74;-1250000000;0;1250000000;0;0;0;1318333334;86666665;1250000000;86666665;1318333334;0.06573956886688265;0.9481668768909396
003a47250d2dac46dcdfd81fcf1ba434da00645ab7;-250000000;0;250000000;0;0;0;407466666;25933332;250000000;25933332;407466666;0.06364528478999555;0.6135471214226883
003a83e0f374fdb6788e2f8e01c55430eb27de53ab;-1417500000;0;1417500000;0;0;0;1494990000;98279999;1417500000;98279999;1494990000;0.06573956949544812;0.9481668773704172
003b550ca8ec20c93f9b57aeb7de1adee573176f5a;-5500000000;0;5500000000;0;0;0;5773333334;377916665;5500000000;377916665;5773333334;0.06545900663216409;0.95265588903549
003b62392f196cc3369d2649f0dceef81210380162;-5500000000;0;5500000000;0;0;0;10273333334;659166665;5500000000;659166665;10273333334;0.06416288107954816;0.5353666450009495
003b85237cee0249077fca1d7bc201f5fd7da7a8dd;-2850000000;0;2850000000;0;0;0;4000000000;250000000;2850000000;250000000;4000000000;0.0625;0.7125
003d9c443841eebc6ddd70a7e53f4fe2eb2b7afead;-400000000;0;400000000;0;0;0;446880000;55860000;400000000;55860000;446880000;0.125;0.8950948800572861
003e81f1fa97843437dad9e4ba826e28934ccc6875;-1940010000;0;1930040000;9970000;0;0;1954090000;129431250;1930040000;129431250;1954090000;0.06623607408051829;0.9876924808990374
003ee3fa369a9fec862be367d491201faa8875e534;-1698000000;0;1698000000;0;0;0;1790833492;117728622;1698000000;117728622;1790833492;0.06573956904755052;0.9481618517775633
003f7c99487893feb1e62a0b26969025dc3bbc05e0;-250000000;0;250000000;0;0;0;472500158;31061955;250000000;31061955;472500158;0.06573956531883318;0.5291003521738505
004006e393c8d4af9c3d2f88d192d3218aba31196b;-2916666667;0;2916666667;0;0;0;3076111111;202222219;2916666667;202222219;3076111111;0.06573956911922484;0.9481668775130275
0041aa4c20595a3c860887e58df4b546227b00de10;-2804620000;0;2804620000;0;0;0;2804626000;175289125;2804620000;175289125;2804626000;0.0625;0.9999978606773238
00435b8be8d13c913c1a9a00c6632f403ef4abc526;-250000000;0;250000000;0;0;0;1000648000;69079875;250000000;69079875;1000648000;0.06903514022913153;0.2498381049080196
00460de8e68bfb92bfb32c6bbf48554ba5f66bfc9c;-5000000;0;5000000;0;0;0;3846397000;240399812;5000000;240399812;3846397000;0.06249999987000822;0.0012999178191954704
0046e748d60608b62f50bb4b8e734306a414f6ab54;-250000000;0;250000000;0;0;0;1250000000;78125000;250000000;78125000;1250000000;0.0625;0.2
0049c00463b97db1c72797ba4059806aa2d247b23a;-400000000;0;400000000;0;0;0;407466666;34266665;400000000;34266665;407466666;0.08409685468602233;0.9816753942763013
004b15bef2c6559de77f599e2fd758bc65b653451d;-1213996000;0;1213996000;0;0;0;1401760714;99345338;1213996000;99345338;1401760714;0.07087182356289091;0.8660508087259748
004b92f8e8e5be575c6d57fefc9b09b852819be082;-940000000;0;940000000;0;0;0;980484903;63409736;940000000;63409736;980484903;0.06467181269796665;0.9587093050835073
004bb18e20c423acb76b84cdb7c6a43a24be7097a1;-1148018000;0;1148018000;0;0;0;1210776318;79595913;1148018000;79595913;1210776318;0.06573956875162469;0.9481668768483461
004bfe0cb16d63233ffb94aa74b737eb187819709b;-1177870000;0;1177870000;0;0;0;1177870000;147233750;1177870000;147233750;1177870000;0.125;1.0
004c2118d2012c41b06f5bafcc1297731afe1a6232;-400000000;0;400000000;0;0;0;630249000;50780562;400000000;50780562;630249000;0.08057222145532957;0.6346697892420298
004d8603f590cac4ceb828f1ae24da1f4848065ba2;-250000000;0;250000000;0;0;0;3718133334;236641666;250000000;236641666;3718133334;0.06364528776740205;0.0672380405817905
004f9dac9fcb9efb800f0286d42866cf58782c6ab5;-250000000;0;250000000;0;0;0;297590000;37198750;250000000;37198750;297590000;0.125;0.8400819920024194
005053703c4a32a217b9081d5fd620a2a9670e3538;-3766666667;0;3766666667;0;0;0;4039244449;266711108;3766666667;266711108;4039244449;0.0660299497511298;0.932517631591353
005b0b38e19158f341b9a5548724831869d59b1cb4;-5000000000;0;5000000000;0;0;0;5273333334;346666665;5000000000;346666665;5273333334;0.06573956983998236;0.9481668772505478
005cb2a38a54d01a19cdc9c6f72f77fbee6cb1a048;-2500000000;0;2500000000;0;0;0;2500000000;156250000;2500000000;156250000;2500000000;0.0625;1.0
005d0873215bd74b030cdf3737f0adf5f51c60ca1d;-250000000;0;250000000;0;0;0;335666666;26333332;250000000;26333332;335666666;0.07845084027497684;0.7447864960174508
00604acb4ac4a48485514c4eb56e1d2a26c768a606;-323200000;0;323200000;0;0;0;323200000;40400000;323200000;40400000;323200000;0.125;1.0
00645db784d2dffd521d30ab9894f75afbaca01c4a;-1250000000;0;1250000000;0;0;0;1318333334;86666665;1250000000;86666665;1318333334;0.06573956886688265;0.9481668768909396
0064c70ed8d46a777e1b38d87dc60af98e153f144a;-775040000;0;775040000;0;0;0;775040000;96880000;775040000;96880000;775040000;0.125;1.0
006679b71f43483a402f79719f1ba6a9b8a2ced062;-251020000;0;251020000;0;0;0;251020000;31377500;251020000;31377500;251020000;0.125;1.0
00674cd03a0af9ba19cb2b69e0d768d07d1a3b0e0f;-1714285714;0;1714285714;0;0;0;1808000000;118857141;1714285714;118857141;1808000000;0.06573956913716814;0.9481668772123893
0068332380f49ff88c8c17831a880d04282fe7e32c;-1311460000;0;1311460000;0;0;0;1334793334;88724166;1311460000;88724166;1334793334;0.06647033944507248;0.9825191410492915
00684b231fbb7e4619c3d4b8068d78e29a31154d14;-250000000;0;250000000;0;0;0;928274649;60033205;250000000;60033205;928274649;0.06467181352487845;0.2693168452562147
0069545a15074c4034131dab8fd7e2012d6d4f2881;-2000000000;0;2000000000;0;0;0;2000000000;125000000;2000000000;125000000;2000000000;0.0625;1.0
006af52e3758cff9b9b78a61a13efdacf2e237f0c0;-255000000;0;255000000;0;0;0;258590000;32323750;255000000;32323750;258590000;0.125;0.986117019219614
006b5e85264328f0435a8a8f72a470acefc769c1d2;-5500000000;0;5500000000;0;0;0;5773333334;377916665;5500000000;377916665;5773333334;0.06545900663216409;0.95265588903549
006c5c707279939a5fc59e6e4a40f7b1aec95296db;-473299000;0;473299000;0;0;0;489427323;33177851;473299000;33177851;489427323;0.0677891270896619;0.9670465414535101
006c6546e22aa72b7b2ea90b1ceefe6bb2e0e6f791;-2016030000;0;2016030000;0;0;0;2327842640;164978454;2016030000;164978454;2327842640;0.07087182405078721;0.8660508083140878
0073e61dbb60b448d615a3699ccb72de476817c51d;-250000000;0;250000000;0;0;0;456371834;29045915;250000000;29045915;456371834;0.06364528403389592;0.5477989248565239
0073f36afe58f3c929933519b6cf8fd4edd914e759;-250000000;0;250000000;0;0;0;548009000;34250562;250000000;34250562;548009000;0.06249999908760623;0.4561968872773987
007500a11dbbd1a8ffaf4877fab8386cfc97caa736;-1562500000;0;1562500000;0;0;0;1562500000;97656250;1562500000;97656250;1562500000;0.0625;1.0
007a2a9a4eff7cc34bb4150b83c15d5f792d2158aa;-5000000000;0;5000000000;0;0;0;20514400001;1720922220;5000000000;1720922220;20514400001;0.08388849880650233;0.2437312326832015
007a51261f99cb7b9d5cd9f724fe7778f239861904;-2500000000;0;2500000000;0;0;0;3305151857;206571991;2500000000;206571991;3305151857;0.062499999981090126;0.7563948974705158
007c4f4f5ccb2d726eaaeaf8f7994af98f15e01c5c;-500000000;0;500000000;0;0;0;500910000;62613750;500000000;62613750;500910000;0.125;0.9981833063823841
00803c974202d4dd8db22bd3833b8d123f89ea199b;-1344027000;0;1344027000;0;0;0;1417500476;93185870;1344027000;93185870;1417500476;0.06573956875341465;0.9481668773704172
008196a5dd0831fbec1207faee2bee4a04eb1439a5;-250000000;0;250000000;0;0;0;366237333;22889833;250000000;22889833;366237333;0.062499999146728165;0.6826174654346339
0082629d25f92e67e3745b01d3c43f85774ba1dff5;-250000000;0;250000000;0;0;0;414399999;51799998;250000000;51799998;414399999;0.1249999954753861;0.6032818547376493
0084edb623a13be32834db996523d9b8191e7f848d;-5500000000;0;5500000000;0;0;0;5773333334;377916665;5500000000;377916665;5773333334;0.06545900663216409;0.95265588903549
00850054fc265ea06507e4055c26b8e8c10cb7285a;-2503183333;0;2503183333;0;0;0;2587290689;170087376;2503183333;170087376;2587290689;0.06573956947440629;0.9674921119773721
0086b9b81da108879123f1bdadd12438b2228f1b25;-2499940000;0;2499940000;0;0;0;2610692966;199714683;2499940000;199714683;2610692966;0.07649872489831498;0.957577176848302
008769a4de5e4cd742cc39d7d01cd5789bf79f2f23;-5500000000;0;5500000000;0;0;0;5773333334;377916665;5500000000;377916665;5773333334;0.06545900663216409;0.95265588903549
0087e83fc9df70ba11b1ffdf8e5d5bcbc2599029da;-1670002667;0;1670002667;0;0;0;1761296147;115786849;1670002667;115786849;1761296147;0.06573956866777839;0.9481668769017071
0088165dfdd32d3b221e7997d9c982280f9790e14b;-5500000000;0;5500000000;0;0;0;5773333334;377916665;5500000000;377916665;5773333334;0.06545900663216409;0.95265588903549
00888fcb0ac44babd37eec3f356e44f8136449092f;-3070003571;0;3070003571;0;0;0;3287687932;219085766;3070003571;219085766;3287687932;0.06663824868156616;0.9337880098408318
008b0fa9021b4d5e4e76b863eb58da571cb8bc5042;-250000000;0;250000000;0;0;0;472500158;31061955;250000000;31061955;472500158;0.06573956531883318;0.5291003521738505
008d3d1df0c6e4d1443d91cc02a403e36d1b225563;-1247740893;0;1247740893;0;0;0;1360724818;91519571;1247740893;91519571;1360724818;0.06725795678108959;0.9169678369164572
0097604cdb055a69f522460b7e2d91f81c4b0c988f;-1406250000;0;1406250000;0;0;0;1406250000;87890625;1406250000;87890625;1406250000;0.0625;1.0
00983564123f8f57a65c593d69eca6c521aa90148a;-250000000;0;250000000;0;0;0;255988217;19238720;250000000;19238720;255988217;0.07515470917163347;0.9766074506468397
009dd560e0420b6f28965f666b81d22080d533f6db;-650000000;0;650000000;0;0;0;672679000;56084312;650000000;56084312;672679000;0.08337455457952456;0.9662855537336531
009ef85210e6e76693649ed08ecb5d036011a743dd;-14000000000;0;14000000000;0;0;0;14180000001;897499999;14000000000;897499999;14180000001;0.06329337087000753;0.9873060648104862
009f1b1ae52e1c0287aa656ca0713efc99329dd620;-250000000;0;250000000;0;0;0;509326729;34709715;250000000;34709715;509326729;0.06814822985659565;0.49084406092498634
00a0ea7251b606d22fa28c0ebc227b9b45d7315920;-250000000;0;250000000;0;0;0;250000000;31250000;250000000;31250000;250000000;0.125;1.0
00a14a47eb479014049cfc536a6f43887fb4ddbdbb;-250000000;0;250000000;0;0;0;1500000000;93750000;250000000;93750000;1500000000;0.0625;0.16666666666666666
00a2df0b8eba964217008c1b2e54e476fd67362781;-2500000000;0;2500000000;0;0;0;3333333333;208333333;2500000000;208333333;3333333333;0.06249999990625;0.750000000075
00a327e0bdf695cc2d749d97bc9fe2ee08ee89e2a9;-250000000;0;250000000;0;0;0;136227309760;8514206860;250000000;8514206860;136227309760;0.0625;0.0018351680029535951
00a561d0208cffc300ff3e8e084a0e903ac73631ce;-400000000;0;400000000;0;0;0;514776668;40735971;400000000;40735971;514776668;0.07913328931217217;0.7770359941799072
00a56faad71ae09a7d7422897e8628442d27a458c9;-300000000;0;300000000;0;0;0;300000000;18750000;300000000;18750000;300000000;0.0625;1.0
00a8e1442de4b2255a02b5e794df3eb346bbf5bcc5;-250000000;0;250000000;0;0;0;251390000;31423750;250000000;31423750;251390000;0.125;0.9944707426707506
00ab5b9198f329edfd8efb8b8b196cbcde74599b48;-3081797333;0;3081797333;0;0;0;3338255100;220162063;3081797333;220162063;3338255100;0.06595123991572722;0.9231761026890964
00add78c95d7769da4a78cd05818ae8550ac33c7c9;-1008980000;0;1008980000;0;0;0;1041244649;74154455;1008980000;74154455;1041244649;0.07121712949134205;0.9690133831362431
00ae3ef49b1cfb17edd28437aaae1e5d7e2b4619be;-293240000;0;293240000;0;0;0;293240000;36655000;293240000;36655000;293240000;0.125;1.0
00b04ced8f4f349111178fa245761ba98ba3bb9c95;-1000000000;0;1000000000;0;0;0;3002100000;216914583;1000000000;216914583;3002100000;0.07225428300189866;0.33310016321908
00b09ac0eef8be2d5520555fdb142af58846cb20e2;-3120000000;0;3120000000;0;0;0;3179493978;369436183;3120000000;369436183;3179493978;0.1161933897520343;0.9812882243490131
00b1c98d1b6b0f55c7dc74428f4ed83cd7b08c1269;-300000000;0;300000000;0;0;0;305600000;38200000;300000000;38200000;305600000;0.125;0.981675392670157
00b21cb974c720f6c9d5504e3bf24665e45a788cb2;-250000000;0;250000000;0;0;0;1038772000;67346500;250000000;67346500;1038772000;0.06483280257842915;0.2406687896862834
00b4f0ca31a0cc4e56eb835b5cf729a7dba330ddf5;-3500000000;0;3500000000;0;0;0;3798666667;308166664;3500000000;308166664;3798666667;0.0811249554158367;0.9213759212950705
00b4f4d043656c019ad00965c8be3a932e9d601a51;-3661355475;0;3661355475;0;0;0;4054306075;293231316;3661355475;293231316;4054306075;0.07232589512867502;0.9030782104925317
00b59b2d4211a7720f1e7024b20d237450e7bd1146;-109095000;0;109090000;5000;0;0;124680000;15585000;109090000;15585000;124680000;0.125;0.8749598973371832
00b5daabf9a664fa3c56e81b8795bfa4bb2a1f446c;-1250000000;0;1250000000;0;0;0;1318333334;86666665;1250000000;86666665;1318333334;0.06573956886688265;0.9481668768909396
00b878b938b37354bf4d453ad71de96d7b535e3fc6;-2500000000;0;2500000000;0;0;0;2742033491;180260101;2500000000;180260101;2742033491;0.06573956940776111;0.9117321171333571
00b8d4eaf07a2730198c8d6efc88940433e7d26a8d;-1516666667;0;1516666667;0;0;0;1599577779;105155553;1516666667;105155553;1599577779;0.06573956851647413;0.9481668768543202
00b9e0cd10605f7ce71c8fba99c8537abec9a46e19;-1960000000;0;1960000000;0;0;0;2003377779;168477776;1960000000;168477776;2003377779;0.08409685770004739;0.978347678877794
00bd2d60545c98bb267fc9dbb5774a7b2e9766df61;-1166666667;0;1166666667;0;0;0;1230444445;80888887;1166666667;80888887;1230444445;0.06573956859953965;0.948166877213217
00be773eda360041ff684d943c43f572d414497513;-1333333333;0;1333333333;0;0;0;1406222221;92444442;1333333333;92444442;1406222221;0.06573956848318073;0.9481668779574776
00c02d11f4805cc882aeade494bc67ae1b3c791d21;-554369000;0;554369000;0;0;0;595061406;39734610;554369000;39734610;595061406;0.06677396584513162;0.9316164590919547
00c02e09264e9429e1fb44c094857cd9bff4020c24;-1451850000;0;1451850000;0;0;0;1531217800;100661599;1451850000;100661599;1531217800;0.06573956951127397;0.9481668773704172
00c2c37ad8dfe1ce3939b06ba0868828cea7fe2e49;-250100000;0;250100000;0;0;0;254130000;31766250;250100000;31766250;254130000;0.125;0.9841419745799393
00c3a7159620a092d4fa591c5ad17ae80cddf6e268;-2010000000;0;2010000000;0;0;0;2033146000;191353750;2010000000;191353750;2033146000;0.09411707275326021;0.9886156724603152
00c4c1ad0ecb6b0db9322af0a76502429b8d87ae0c;-250000000;0;250000000;0;0;0;472500158;31061955;250000000;31061955;472500158;0.06573956531883318;0.5291003521738505
00c744ad30409887487ae610d0694ac7d67ff2d64f;-250000000;0;250000000;0;0;0;2064644400;258080549;250000000;258080549;2064644400;0.12499999951565509;0.12108622676137354
00c7d598e3ffb4bbbcdeb997f32e02e1b5a484d774;-1225000000;0;1225000000;0;0;0;1291966666;84933331;1225000000;84933331;1291966666;0.065739568392239;0.94816687785968
00ccc8109ba1ee9504a09348f1154fb53815e5ddb4;-250000000;0;250000000;0;0;0;250910000;31363750;250000000;31363750;250910000;0.125;0.9963732015463712
00cfd53c4bdb671689b75699ffc8ad2d2765b191fe;-2310000000;0;2310000000;0;0;0;2550660200;173908650;2310000000;173908650;2550660200;0.06818181818181818;0.9056478789295415
00d3bcaad520cf34b11e951d7e8b647a37f82fe288;-5410000000;0;5410000000;0;0;0;5503333334;378958332;5410000000;378958332;5503333334;0.06885978169971414;0.983040581346694
00d48ca32da7b6f4a03a56f7ca1031b723b61aefa1;-5500000000;0;5500000000;0;0;0;5773333334;377916665;5500000000;377916665;5773333334;0.06545900663216409;0.95265588903549
00d5bdcf82749c811edffae84acf943dd722510c94;-26000000;0;26000000;0;0;0;26910000;3363750;26000000;3363750;26910000;0.125;0.966183574879227
00d82d1af87114ca1d65a446dc599c9c395abfe499;-1327560000;0;1327560000;0;0;0;1327560000;165945000;1327560000;165945000;1327560000;0.125;1.0
00dae0d98dbbe72eb56a8efbcc957d08dfa817dfbe;-4293623000;0;4293623000;0;0;0;4448193429;556024177;4293623000;556024177;4448193429;0.12499999963468315;0.9652509650339668
00dd51fb618eb72dd50e5850a9a6a2b248cb70c24c;-13714280000;0;13714280000;0;0;0;13714285714;857142857;13714280000;857142857;13714285714;0.062499999990885416;0.9999995833541666
00e01535db644fccbe194a356406b6c5071c405584;-5201668000;0;5201668000;0;0;0;5995168134;424291765;5201668000;424291765;5995168134;0.0707722878685824;0.8676433894322537
00e2aa4548e1d4b122832cabcdfca21cc1177614fc;-1250000000;0;1250000000;0;0;0;1318333334;86666665;1250000000;86666665;1318333334;0.06573956886688265;0.9481668768909396
00e46ada75a810bf6ff0f28e47f2c435c6b8ee9ad9;-5500000000;0;5500000000;0;0;0;5773333334;377916665;5500000000;377916665;5773333334;0.06545900663216409;0.95265588903549
00e4e6c50539fbb1319183539370f008400c3d7fc6;-1250000000;0;1250000000;0;0;0;1318333334;86666665;1250000000;86666665;1318333334;0.06573956886688265;0.9481668768909396
00e522ea0b460584691c6588acccc5b0203bbcd54c;-2916666667;0;2916666667;0;0;0;3076111111;202222219;2916666667;202222219;3076111111;0.06573956911922484;0.9481668775130275
00e5b875c196bac31f345b4c317b641b9345656886;-445000000;0;445000000;0;0;0;448009000;28000562;445000000;28000562;448009000;0.06249999888395099;0.9932836170701927
00e73ad9a447cb725783d0131765b70c44db624e58;-1250000000;0;1250000000;0;0;0;1318333334;86666665;1250000000;86666665;1318333334;0.06573956886688265;0.9481668768909396
00e761a2804893619f53a109ff04c93e6d6bd03972;-252750000;0;252750000;0;0;0;252750000;31593750;252750000;31593750;252750000;0.125;1.0
00e7e18b7b33dc24b9d88158043f6e0a1a69b52f79;-1250000000;0;1250000000;0;0;0;1318333334;86666665;1250000000;86666665;1318333334;0.06573956886688265;0.9481668768909396
00eae26c14b21808e4a9b5c33be9443c92d18097bb;-4763281000;0;4763281000;0;0;0;5023673694;330254147;4763281000;330254147;5023673694;0.06573956970860537;0.9481668774962437
00eb39fa1b00ac977c93cdd06bd8c6e0b030dfc9df;-1001000000;0;1001000000;0;0;0;1001058000;69131125;1001000000;69131125;1001058000;0.06905806157085803;0.9999420612991455
00eda7b0f41d0a6e6ddf5723603a49039ced9e76d5;-2750000000;0;2750000000;0;0;0;2900333334;190666665;2750000000;190666665;2900333334;0.06573956957459152;0.9481668771524728
00ef7a8be9d4bb67f1856ec238c8ae9122b58aaa7c;-1500000000;0;1500000000;0;0;0;1582000000;104000000;1500000000;104000000;1582000000;0.06573957016434892;0.9481668773704172
00f08ab2ecb39b35e6ead7b4603a3744c46abb1407;-1000000000;0;1000000000;0;0;0;1910509334;121594915;1000000000;121594915;1910509334;0.06364528706353863;0.5234206304066139
00f5591948acef6203971826ec8869f93562968c96;-252500000;0;252500000;0;0;0;255420000;31927500;252500000;31927500;255420000;0.125;0.9885678490329654
00f63b1a5ff831ce6a8c8cf0419fccf7e8d2a20e95;-4300000000;0;4300000000;0;0;0;4535066666;423133331;4300000000;423133331;4535066666;0.09330256028478855;0.9481668775098002
00f6dbe4acecec6b4fb239055e7f80556e493a7071;-369740000;0;369740000;0;0;0;369740000;46217500;369740000;46217500;369740000;0.125;1.0
00f9bbefae773b5a9aec5a01e0005139af1dddf7ed;-5500000000;0;5500000000;0;0;0;5773333334;377916665;5500000000;377916665;5773333334;0.06545900663216409;0.95265588903549
00fa192ab17c256904bcfcdc5ba036c4a6ec695daa;-250000000;0;250000000;0;0;0;250530000;31316250;250000000;31316250;250530000;0.125;0.9978844848920289
00fb15db4b494414cba7fca9f7f40de6f9c3f0da51;-1250000000;0;1250000000;0;0;0;1318333334;86666665;1250000000;86666665;1318333334;0.06573956886688265;0.9481668768909396
00fc28a78dea16c765b3d5b52f34faa94861d52f9b;-4396018000;0;4396018000;0;0;0;4636333650;304790579;4396018000;304790579;4636333650;0.0657395696705305;0.9481668775067558
00fe0813844b18103c12cd2b3448d9060b958d194f;-2553266667;0;2553266667;0;0;0;2827511915;263661209;2553266667;263661209;2827511915;0.09324848733661305;0.9030082785698889
00ff4fc197e9d4b52c9920e3020a0a4b7626886a01;-1250000000;0;1250000000;0;0;0;1295000000;83749999;1250000000;83749999;1295000000;0.0646718138996139;0.9652509652509652
