From;To;Amount;PendingAmount;Staked;Unlocked;Total;UnlockedRatio;StakeRatio;BpScore;DelegationRatio;RewardableBeforePerformance;Rewardable
00032e337076db13fbc19b89b21385f2e1134f146f;00032e337076db13fbc19b89b21385f2e1134f146f;1250000000;0;1250000000;78125000;1250000000;0.0625;1.0;1.0;1.0;7.8125E7;7.8125E7
0003756b37ad7f0d51edb1aa3263d23d352c9eee37;0003756b37ad7f0d51edb1aa3263d23d352c9eee37;250000000;0;250000000;112002250;1792036000;0.0625;0.1395061259930046;1.0;1.0;1.5625E7;1.5625E7
0010c669fa9d10bd561d90ded99df8589e1011591a;0010c669fa9d10bd561d90ded99df8589e1011591a;5500000000;0;5500000000;375000000;6000000000;0.0625;0.9166666666666666;0.961538461538462;1.0;3.4375E8;3.305288461538463E8
00129ff2a896abc6e155c3a5a3e901dac9e90772c3;00129ff2a896abc6e155c3a5a3e901dac9e90772c3;250000000;0;250000000;1250000000;10000000000;0.125;0.025;0.499615384615385;1.0;3.125E7;1.5612980769230781E7
0013153a0218b8df737a0851ccda76fc1f817d18d2;0013153a0218b8df737a0851ccda76fc1f817d18d2;2515009000;0;2515009000;157188062;2515009000;0.062499999801193556;1.0;0.995;1.0;1.57188062E8;1.5640212169E8
0018bcbedac3e9978ade38f666e7b54eb7fe114ad2;0018bcbedac3e9978ade38f666e7b54eb7fe114ad2;448009000;0;448009000;28000562;448009000;0.06249999888395099;1.0;1.0;1.0;2.8000562E7;2.8000562E7
001c0163e8aa581f85bdf2e18cd3c77927427cd9ec;001c0163e8aa581f85bdf2e18cd3c77927427cd9ec;1437500000;0;1437500000;89843750;1437500000;0.0625;1.0;0.5;1.0;8.984375E7;4.4921875E7
001d112b141056df59222685dd37dc919f0efa4d59;001d112b141056df59222685dd37dc919f0efa4d59;1980326000;0;1980326000;162022875;1980326000;0.08181626408985188;1.0;0.995;1.0;1.62022875E8;1.61212760625E8
002211b08201dd32ccf0fca91047c84475ee1b8d9a;002211b08201dd32ccf0fca91047c84475ee1b8d9a;2519547000;0;2519547000;157471687;2519547000;0.06249999980155163;1.0;1.0;1.0;1.57471687E8;1.57471687E8
0023d1b568e99095e1d6ebfce8a583efab67ce5968;0023d1b568e99095e1d6ebfce8a583efab67ce5968;1250000000;0;1250000000;78125000;1250000000;0.0625;1.0;1.0;1.0;7.8125E7;7.8125E7
002b905e734975ef780c774f553dec1119a2c13b5f;002b905e734975ef780c774f553dec1119a2c13b5f;1250000000;0;1250000000;78125000;1250000000;0.0625;1.0;0.961538461538462;1.0;7.8125E7;7.512019230769235E7
002ca69e438fbdf90074db1908fd6a3ac2ec5a7df5;002ca69e438fbdf90074db1908fd6a3ac2ec5a7df5;3250000000;0;3250000000;203125000;3250000000;0.0625;1.0;0.922692307692308;1.0;2.03125E8;1.8742187500000006E8
002e418e4ff8ea1c6d2bb197b59e1f0fc2ebf7550c;002e418e4ff8ea1c6d2bb197b59e1f0fc2ebf7550c;448009000;0;448009000;28000562;448009000;0.06249999888395099;1.0;0.999230769230769;1.0;2.8000562E7;2.7979023106153842E7
00303090471738b78f6fc910e8e06d1b08bc144bd8;00303090471738b78f6fc910e8e06d1b08bc144bd8;1250000000;0;1250000000;78125000;1250000000;0.0625;1.0;0.979038461538462;1.0;7.8125E7;7.648737980769233E7
0031020ab94157055e4dbf826d751472e48397f16f;0031020ab94157055e4dbf826d751472e48397f16f;5500000000;0;5500000000;2500000000;20000000000;0.125;0.275;0.970192307692308;1.0;6.875E8;6.670072115384618E8
00325b43248386ad6b61e9ae4ff974c5515a68f978;00325b43248386ad6b61e9ae4ff974c5515a68f978;1039622000;0;1039622000;64976375;1039622000;0.0625;1.0;0.980769230769231;1.0;6.4976375E7;6.372682932692309E7
0036997527f23a4ddc38e3c7a78a19dbdc30897438;0036997527f23a4ddc38e3c7a78a19dbdc30897438;1250000000;0;1250000000;78125000;1250000000;0.0625;1.0;0.942307692307692;1.0;7.8125E7;7.361778846153843E7
00385790e3944be9d9fb3a665e7d227d9889ea9925;00385790e3944be9d9fb3a665e7d227d9889ea9925;930000000;0;930000000;77777777;933333333;0.08333333252976191;0.9964285717844388;0.980576923076923;1.0;7.749999925267857E7;7.599471080565539E7
0038f20279b127950067cbfb5e08ac74831521ee74;0038f20279b127950067cbfb5e08ac74831521ee74;1250000000;0;1250000000;78125000;1250000000;0.0625;1.0;0.961153846153846;1.0;7.8125E7;7.509014423076922E7
003a47250d2dac46dcdfd81fcf1ba434da00645ab7;003a47250d2dac46dcdfd81fcf1ba434da00645ab7;250000000;0;250000000;25000000;400000000;0.0625;0.625;0.901923076923077;1.0;1.5625E7;1.409254807692308E7
003a83e0f374fdb6788e2f8e01c55430eb27de53ab;003a83e0f374fdb6788e2f8e01c55430eb27de53ab;1417500000;0;1417500000;88593750;1417500000;0.0625;1.0;0.961538461538462;1.0;8.859375E7;8.518629807692312E7
003b550ca8ec20c93f9b57aeb7de1adee573176f5a;003b550ca8ec20c93f9b57aeb7de1adee573176f5a;5500000000;0;5500000000;343750000;5500000000;0.0625;1.0;0.946538461538462;1.0;3.4375E8;3.253725961538463E8
003b62392f196cc3369d2649f0dceef81210380162;003b62392f196cc3369d2649f0dceef81210380162;5500000000;0;5500000000;625000000;10000000000;0.0625;0.55;0.961538461538462;1.0;3.4375E8;3.305288461538463E8
003ee3fa369a9fec862be367d491201faa8875e534;003ee3fa369a9fec862be367d491201faa8875e534;1698000000;0;1698000000;106125562;1698009000;0.06249999970553748;0.9999946996747368;0.923076923076923;1.0;1.0612499950000265E8;9.796153800000244E7
003f7c99487893feb1e62a0b26969025dc3bbc05e0;003f7c99487893feb1e62a0b26969025dc3bbc05e0;250000000;0;250000000;28000562;448009000;0.06249999888395099;0.5580245039720184;0.979038461538462;1.0;1.5624999720987748E7;1.5297475688374743E7
004006e393c8d4af9c3d2f88d192d3218aba31196b;004006e393c8d4af9c3d2f88d192d3218aba31196b;2916666667;0;2916666667;182291666;2916666667;0.06249999976428571;1.0;0.980769230769231;1.0;1.82291666E8;1.7878605703846157E8
0049c00463b97db1c72797ba4059806aa2d247b23a;0049c00463b97db1c72797ba4059806aa2d247b23a;400000000;0;400000000;33333333;400000000;0.0833333325;1.0;0.980769230769231;1.0;3.3333333E7;3.269230736538462E7
004b15bef2c6559de77f599e2fd758bc65b653451d;004b15bef2c6559de77f599e2fd758bc65b653451d;1213996000;0;1213996000;75874750;1213996000;0.0625;1.0;0.953846153846154;1.0;7.587475E7;7.237283846153848E7
004b92f8e8e5be575c6d57fefc9b09b852819be082;004b92f8e8e5be575c6d57fefc9b09b852819be082;940000000;0;940000000;59150875;946414000;0.0625;0.993222839053522;0.903846153846154;1.0;5.875E7;5.310096153846154E7
004bb18e20c423acb76b84cdb7c6a43a24be7097a1;004bb18e20c423acb76b84cdb7c6a43a24be7097a1;1148018000;0;1148018000;71751125;1148018000;0.0625;1.0;0.98;1.0;7.1751125E7;7.03161025E7
004d8603f590cac4ceb828f1ae24da1f4848065ba2;004d8603f590cac4ceb828f1ae24da1f4848065ba2;250000000;0;250000000;228125000;3650000000;0.0625;0.0684931506849315;0.996730769230769;1.0;1.5625E7;1.5573918269230764E7
005053703c4a32a217b9081d5fd620a2a9670e3538;005053703c4a32a217b9081d5fd620a2a9670e3538;3766666667;0;3766666667;235416666;3766666667;0.06249999981747788;1.0;1.0;1.0;2.35416666E8;2.35416666E8
005d0873215bd74b030cdf3737f0adf5f51c60ca1d;005d0873215bd74b030cdf3737f0adf5f51c60ca1d;250000000;0;250000000;15625000;250000000;0.0625;1.0;1.0;1.0;1.5625E7;1.5625E7
00645db784d2dffd521d30ab9894f75afbaca01c4a;00645db784d2dffd521d30ab9894f75afbaca01c4a;1250000000;0;1250000000;78125000;1250000000;0.0625;1.0;0.980769230769231;1.0;7.8125E7;7.662259615384617E7
00674cd03a0af9ba19cb2b69e0d768d07d1a3b0e0f;00674cd03a0af9ba19cb2b69e0d768d07d1a3b0e0f;1714285714;0;1714285714;107142857;1714285714;0.062499999927083334;1.0;0.999807692307692;1.0;1.07142857E8;1.0712225260442305E8
0068332380f49ff88c8c17831a880d04282fe7e32c;0068332380f49ff88c8c17831a880d04282fe7e32c;1311460000;0;1311460000;85807500;1311460000;0.0654289875406036;1.0;1.0;1.0;8.58075E7;8.58075E7
006b5e85264328f0435a8a8f72a470acefc769c1d2;006b5e85264328f0435a8a8f72a470acefc769c1d2;5500000000;0;5500000000;343750000;5500000000;0.0625;1.0;1.0;1.0;3.4375E8;3.4375E8
006c5c707279939a5fc59e6e4a40f7b1aec95296db;006c5c707279939a5fc59e6e4a40f7b1aec95296db;473299000;0;473299000;31161812;473299000;0.06583958977306101;1.0;0.917115384615385;1.0;3.1161812000000004E7;2.8578977197692323E7
006c6546e22aa72b7b2ea90b1ceefe6bb2e0e6f791;006c6546e22aa72b7b2ea90b1ceefe6bb2e0e6f791;2016030000;0;2016030000;126001875;2016030000;0.0625;1.0;0.98;1.0;1.26001875E8;1.234818375E8
0073e61dbb60b448d615a3699ccb72de476817c51d;0073e61dbb60b448d615a3699ccb72de476817c51d;250000000;0;250000000;28000562;448009000;0.06249999888395099;0.5580245039720184;0.961538461538462;1.0;1.5624999720987748E7;1.5024038193257459E7
007a2a9a4eff7cc34bb4150b83c15d5f792d2158aa;007a2a9a4eff7cc34bb4150b83c15d5f792d2158aa;5000000000;0;5000000000;1686755555;20241066667;0.08333333330451403;0.24702255480200283;0.961346153846154;1.0;4.166666665225702E8;4.005608972973709E8
00803c974202d4dd8db22bd3833b8d123f89ea199b;00803c974202d4dd8db22bd3833b8d123f89ea199b;1344027000;0;1344027000;84001687;1344027000;0.062499999627983666;1.0;0.980576923076923;1.0;8.4001687E7;8.237011577173077E7
0082629d25f92e67e3745b01d3c43f85774ba1dff5;0082629d25f92e67e3745b01d3c43f85774ba1dff5;250000000;0;250000000;50000000;400000000;0.125;0.625;0.0;1.0;3.125E7;0.0
0084edb623a13be32834db996523d9b8191e7f848d;0084edb623a13be32834db996523d9b8191e7f848d;5500000000;0;5500000000;343750000;5500000000;0.0625;1.0;0.970961538461538;1.0;3.4375E8;3.337680288461537E8
00850054fc265ea06507e4055c26b8e8c10cb7285a;00850054fc265ea06507e4055c26b8e8c10cb7285a;2453183333;0;2453183333;153323958;2453183333;0.062499999872614495;1.0;0.980769230769231;1.0;1.53323958E8;1.503754203461539E8
0086b9b81da108879123f1bdadd12438b2228f1b25;0086b9b81da108879123f1bdadd12438b2228f1b25;2499940000;0;2499940000;185870686;2499940978;0.07435002971498153;0.999999608790764;0.980769230769231;1.0;1.8587061328567094E8;1.822961784147927E8
008769a4de5e4cd742cc39d7d01cd5789bf79f2f23;008769a4de5e4cd742cc39d7d01cd5789bf79f2f23;5500000000;0;5500000000;343750000;5500000000;0.0625;1.0;0.975769230769231;1.0;3.4375E8;3.354206730769232E8
0087e83fc9df70ba11b1ffdf8e5d5bcbc2599029da;0087e83fc9df70ba11b1ffdf8e5d5bcbc2599029da;1670002667;0;1670002667;104375166;1670002667;0.06249999958832401;1.0;0.480769230769231;1.0;1.04375166E8;5.018036826923079E7
0088165dfdd32d3b221e7997d9c982280f9790e14b;0088165dfdd32d3b221e7997d9c982280f9790e14b;5500000000;0;5500000000;343750000;5500000000;0.0625;1.0;0.954038461538462;1.0;3.4375E8;3.279507211538463E8
00888fcb0ac44babd37eec3f356e44f8136449092f;00888fcb0ac44babd37eec3f356e44f8136449092f;3070003571;0;3070003571;191875223;3070003571;0.06249999993892515;1.0;0.968846153846154;1.0;1.91875223E8;1.858975718219231E8
008b0fa9021b4d5e4e76b863eb58da571cb8bc5042;008b0fa9021b4d5e4e76b863eb58da571cb8bc5042;250000000;0;250000000;28000562;448009000;0.06249999888395099;0.5580245039720184;0.423269230769231;1.0;1.5624999720987748E7;6613581.612671933
008d3d1df0c6e4d1443d91cc02a403e36d1b225563;008d3d1df0c6e4d1443d91cc02a403e36d1b225563;1247740893;0;1247740893;77983805;1247740893;0.06249999934882314;1.0;0.974807692307692;1.0;7.7983805E7;7.601921298942305E7
00983564123f8f57a65c593d69eca6c521aa90148a;00983564123f8f57a65c593d69eca6c521aa90148a;250000000;0;250000000;18652361;251297333;0.07422426962247149;0.9948374581436564;0.790961538461538;1.0;1.855606740561787E7;1.4677135622943511E7
009dd560e0420b6f28965f666b81d22080d533f6db;009dd560e0420b6f28965f666b81d22080d533f6db;650000000;0;650000000;56084312;672679000;0.08337455457952456;0.9662855537336531;0.976346153846154;1.0;5.419346047669096E7;5.291157670003078E7
009f1b1ae52e1c0287aa656ca0713efc99329dd620;009f1b1ae52e1c0287aa656ca0713efc99329dd620;250000000;0;250000000;32624875;492648000;0.06622350034913366;0.5074617170880629;0.980769230769231;1.0;1.6555875087283414E7;1.6237492874066427E7
00a0ea7251b606d22fa28c0ebc227b9b45d7315920;00a0ea7251b606d22fa28c0ebc227b9b45d7315920;250000000;0;250000000;31250000;250000000;0.125;1.0;0.980769230769231;1.0;3.125E7;3.0649038461538468E7
00ab5b9198f329edfd8efb8b8b196cbcde74599b48;00ab5b9198f329edfd8efb8b8b196cbcde74599b48;3081797333;0;3081797333;192612333;3081797333;0.062499999898598134;1.0;0.961538461538462;1.0;1.92612333E8;1.8520416634615394E8
00add78c95d7769da4a78cd05818ae8550ac33c7c9;00add78c95d7769da4a78cd05818ae8550ac33c7c9;1008980000;0;1008980000;70122375;1008988000;0.06949772940808017;0.9999920712634838;0.980576923076923;1.0;7.012181901816474E7;6.875983753338884E7
00b04ced8f4f349111178fa245761ba98ba3bb9c95;00b04ced8f4f349111178fa245761ba98ba3bb9c95;1000000000;0;1000000000;216914583;3002100000;0.07225428300189866;0.33310016321908;0.461346153846154;1.0;7.225428300189866E7;3.333423556183749E7
00b09ac0eef8be2d5520555fdb142af58846cb20e2;00b09ac0eef8be2d5520555fdb142af58846cb20e2;3120000000;0;3120000000;362153312;3121231000;0.11602900009643631;0.9996056043272671;0.961538461538462;1.0;3.620104803008813E8;3.4808700028930914E8
00b4f0ca31a0cc4e56eb835b5cf729a7dba330ddf5;00b4f0ca31a0cc4e56eb835b5cf729a7dba330ddf5;2750000000;0;2750000000;291666666;3666666667;0.07954545435640496;0.7499999999318182;0.975576923076923;1.0;2.1874999948011366E8;2.1340745141588777E8
00b4f4d043656c019ad00965c8be3a932e9d601a51;00b4f4d043656c019ad00965c8be3a932e9d601a51;3661355475;0;3661355475;244112494;3661355475;0.06667271060316808;1.0;0.442307692307692;1.0;2.44112494E8;1.0797283388461532E8
00b5daabf9a664fa3c56e81b8795bfa4bb2a1f446c;00b5daabf9a664fa3c56e81b8795bfa4bb2a1f446c;1250000000;0;1250000000;78125000;1250000000;0.0625;1.0;0.975384615384615;1.0;7.8125E7;7.620192307692304E7
00b878b938b37354bf4d453ad71de96d7b535e3fc6;00b878b938b37354bf4d453ad71de96d7b535e3fc6;2500000000;0;2500000000;162494083;2599905333;0.062499999879803314;0.9615734727984421;0.0;1.0;1.5624999969950828E8;0.0
00b8d4eaf07a2730198c8d6efc88940433e7d26a8d;00b8d4eaf07a2730198c8d6efc88940433e7d26a8d;1516666667;0;1516666667;94791666;1516666667;0.062499999546703294;1.0;0.673076923076923;1.0;9.4791666E7;6.380208288461538E7
00b9e0cd10605f7ce71c8fba99c8537abec9a46e19;00b9e0cd10605f7ce71c8fba99c8537abec9a46e19;1960000000;0;1960000000;163888888;1966666667;0.08333333286723164;0.9966101693226085;0.967884615384615;1.0;1.6333333241977403E8;1.5808781962860045E8
00bd2d60545c98bb267fc9dbb5774a7b2e9766df61;00bd2d60545c98bb267fc9dbb5774a7b2e9766df61;1166666667;0;1166666667;72916666;1166666667;0.06249999941071428;1.0;0.980769230769231;1.0;7.2916666E7;7.151442242307694E7
00c02d11f4805cc882aeade494bc67ae1b3c791d21;00c02d11f4805cc882aeade494bc67ae1b3c791d21;554369000;0;554369000;34648062;554369000;0.06249999909807367;1.0;0.980769230769231;1.0;3.4648062E7;3.398175311538462E7
00c02e09264e9429e1fb44c094857cd9bff4020c24;00c02e09264e9429e1fb44c094857cd9bff4020c24;1451850000;0;1451850000;90740625;1451850000;0.0625;1.0;0.461538461538462;1.0;9.0740625E7;4.18802884615385E7
00c3a7159620a092d4fa591c5ad17ae80cddf6e268;00c3a7159620a092d4fa591c5ad17ae80cddf6e268;2010000000;0;2010000000;191353750;2033146000;0.09411707275326021;0.9886156724603152;0.975576923076923;1.0;1.8917531623405305E8;1.8455507293372136E8
00c4c1ad0ecb6b0db9322af0a76502429b8d87ae0c;00c4c1ad0ecb6b0db9322af0a76502429b8d87ae0c;250000000;0;250000000;28000562;448009000;0.06249999888395099;0.5580245039720184;0.980769230769231;1.0;1.5624999720987748E7;1.5324518957122602E7
00c744ad30409887487ae610d0694ac7d67ff2d64f;00c744ad30409887487ae610d0694ac7d67ff2d64f;250000000;0;250000000;249112500;1992900000;0.125;0.12544533092478297;0.942307692307692;1.0;3.1249999999999996E7;2.944711538461537E7
00d3bcaad520cf34b11e951d7e8b647a37f82fe288;00d3bcaad520cf34b11e951d7e8b647a37f82fe288;5410000000;0;5410000000;367291666;5410000000;0.06789125064695009;1.0;0.980384615384615;1.0;3.67291666E8;3.6008709870538443E8
00d48ca32da7b6f4a03a56f7ca1031b723b61aefa1;00d48ca32da7b6f4a03a56f7ca1031b723b61aefa1;5500000000;0;5500000000;343750000;5500000000;0.0625;1.0;0.980769230769231;1.0;3.4375E8;3.3713942307692313E8
00dae0d98dbbe72eb56a8efbcc957d08dfa817dfbe;00dae0d98dbbe72eb56a8efbcc957d08dfa817dfbe;4293623000;0;4293623000;536702875;4293623000;0.125;1.0;0.980769230769231;1.0;5.36702875E8;5.263816658653847E8
00e01535db644fccbe194a356406b6c5071c405584;00e01535db644fccbe194a356406b6c5071c405584;5201668000;0;5201668000;325104250;5201668000;0.0625;1.0;0.99;1.0;3.2510425E8;3.218532075E8
00e2aa4548e1d4b122832cabcdfca21cc1177614fc;00e2aa4548e1d4b122832cabcdfca21cc1177614fc;1250000000;0;1250000000;78125000;1250000000;0.0625;1.0;0.0;1.0;7.8125E7;0.0
00e46ada75a810bf6ff0f28e47f2c435c6b8ee9ad9;00e46ada75a810bf6ff0f28e47f2c435c6b8ee9ad9;5500000000;0;5500000000;343750000;5500000000;0.0625;1.0;1.0;1.0;3.4375E8;3.4375E8
00e4e6c50539fbb1319183539370f008400c3d7fc6;00e4e6c50539fbb1319183539370f008400c3d7fc6;1250000000;0;1250000000;78125000;1250000000;0.0625;1.0;0.99;1.0;7.8125E7;7.734375E7
00e73ad9a447cb725783d0131765b70c44db624e58;00e73ad9a447cb725783d0131765b70c44db624e58;1250000000;0;1250000000;78125000;1250000000;0.0625;1.0;0.0;1.0;7.8125E7;0.0
00e7e18b7b33dc24b9d88158043f6e0a1a69b52f79;00e7e18b7b33dc24b9d88158043f6e0a1a69b52f79;1250000000;0;1250000000;78125000;1250000000;0.0625;1.0;1.0;1.0;7.8125E7;7.8125E7
00eae26c14b21808e4a9b5c33be9443c92d18097bb;00eae26c14b21808e4a9b5c33be9443c92d18097bb;4763281000;0;4763281000;297705062;4763281000;0.062499999895030335;1.0;0.99;1.0;2.97705062E8;2.9472801138E8
00eda7b0f41d0a6e6ddf5723603a49039ced9e76d5;00eda7b0f41d0a6e6ddf5723603a49039ced9e76d5;2750000000;0;2750000000;171875000;2750000000;0.0625;1.0;1.0;1.0;1.71875E8;1.71875E8
00ef7a8be9d4bb67f1856ec238c8ae9122b58aaa7c;00ef7a8be9d4bb67f1856ec238c8ae9122b58aaa7c;1500000000;0;1500000000;93750000;1500000000;0.0625;1.0;0.923076923076923;1.0;9.375E7;8.653846153846154E7
00f63b1a5ff831ce6a8c8cf0419fccf7e8d2a20e95;00f63b1a5ff831ce6a8c8cf0419fccf7e8d2a20e95;4300000000;0;4300000000;393750000;4300000000;0.09156976744186046;1.0;0.977307692307692;1.0;3.9375E8;3.8481490384615374E8
00f9bbefae773b5a9aec5a01e0005139af1dddf7ed;00f9bbefae773b5a9aec5a01e0005139af1dddf7ed;5500000000;0;5500000000;343750000;5500000000;0.0625;1.0;0.971730769230769;1.0;3.4375E8;3.340324519230768E8
00fc28a78dea16c765b3d5b52f34faa94861d52f9b;00fc28a78dea16c765b3d5b52f34faa94861d52f9b;4396018000;0;4396018000;274751125;4396018000;0.0625;1.0;0.997115384615385;1.0;2.74751125E8;2.739585736778847E8
00fe0813844b18103c12cd2b3448d9060b958d194f;00fe0813844b18103c12cd2b3448d9060b958d194f;2553266667;0;2553266667;234991666;2553266667;0.09203569256481427;1.0;1.0;1.0;2.34991666E8;2.34991666E8
00ff4fc197e9d4b52c9920e3020a0a4b7626886a01;00ff4fc197e9d4b52c9920e3020a0a4b7626886a01;1250000000;0;1250000000;78125000;1250000000;0.0625;1.0;1.0;1.0;7.8125E7;7.8125E7
