Address;Transferable;InTransit;StakedToSelf;PendingUnstakes;DelegatedToOthers;PendingRetractedDelegated;InSchedule;Releaseable;Staked;Unlocked;Total;UnlockedRatio;StakeRatio
00032e337076db13fbc19b89b21385f2e1134f146f;-1250000000;0;1250000000;0;0;0;1250000000;78125000;1250000000;78125000;1250000000;0.0625;1.0
0003756b37ad7f0d51edb1aa3263d23d352c9eee37;-250000000;0;250000000;0;0;0;1792036000;112002250;250000000;112002250;1792036000;0.0625;0.1395061259930046
0006f63457d7d9433974dd146f3c92b84ed5293429;-1698009000;0;1698009000;0;0;0;1698009000;106125562;1698009000;106125562;1698009000;0.06249999970553748;1.0
0010c669fa9d10bd561d90ded99df8589e1011591a;-5500000000;0;5500000000;0;0;0;6000000000;375000000;5500000000;375000000;6000000000;0.0625;0.9166666666666666
001210f372df2094f1e72ef90024e1002cf19d5e32;-5500000000;0;5500000000;0;0;0;5500000000;343750000;5500000000;343750000;5500000000;0.0625;1.0
00129ff2a896abc6e155c3a5a3e901dac9e90772c3;-250000000;0;250000000;0;0;0;10000000000;1250000000;250000000;1250000000;10000000000;0.125;0.025
0013153a0218b8df737a0851ccda76fc1f817d18d2;-2515009000;0;2515009000;0;0;0;2515009000;157188062;2515009000;157188062;2515009000;0.062499999801193556;1.0
00160fa6ffd4c7a4d49b43b6e7759aa663ad80d0dd;-250000000;0;250000000;0;0;0;522418000;36346125;250000000;36346125;522418000;0.06957288033720124;0.478544001163819
0018bcbedac3e9978ade38f666e7b54eb7fe114ad2;-448009000;0;448009000;0;0;0;448009000;28000562;448009000;28000562;448009000;0.06249999888395099;1.0
001a53b7275033cbae5172588df246ab8a11e23e92;-1500000000;0;1500000000;0;0;0;1500000000;93750000;1500000000;93750000;1500000000;0.0625;1.0
001c0163e8aa581f85bdf2e18cd3c77927427cd9ec;-1437500000;0;1437500000;0;0;0;1437500000;89843750;1437500000;89843750;1437500000;0.0625;1.0
001d112b141056df59222685dd37dc919f0efa4d59;-1980326000;0;1980326000;0;0;0;1980326000;162022875;1980326000;162022875;1980326000;0.08181626408985188;1.0
00212ebd8b59f240fed393bface4379a8d9e3d4974;-528110000;0;528110000;0;0;0;528110000;66013750;528110000;66013750;528110000;0.125;1.0
002211b08201dd32ccf0fca91047c84475ee1b8d9a;-2519547000;0;2519547000;0;0;0;2519547000;157471687;2519547000;157471687;2519547000;0.06249999980155163;1.0
0023d1b568e99095e1d6ebfce8a583efab67ce5968;-1250000000;0;1250000000;0;0;0;1250000000;78125000;1250000000;78125000;1250000000;0.0625;1.0
0027c5693ae004307b5d4a0daa0a783dc51b801bf7;-1250000000;0;1250000000;0;0;0;1250000000;78125000;1250000000;78125000;1250000000;0.0625;1.0
0029989257513b82e30a4e10597a79482e9de20b85;-275120000;0;275120000;0;0;0;275120000;34390000;275120000;34390000;275120000;0.125;1.0
002a9aa5f7a98b3b6c9e50de94ce45e208f78f4cff;-255180000;0;255180000;0;0;0;255180000;21897500;255180000;21897500;255180000;0.08581197586017714;1.0
002b905e734975ef780c774f553dec1119a2c13b5f;-1250000000;0;1250000000;0;0;0;1250000000;78125000;1250000000;78125000;1250000000;0.0625;1.0
002c30b8822473502012d2598aa75a60d98fe6b558;-250000000;0;250000000;0;0;0;448009000;28000562;250000000;28000562;448009000;0.06249999888395099;0.5580245039720184
002c4f1505c3f580bba8a809c6bdf40592ad9ffd13;-1137990000;0;1137990000;0;0;0;1137990000;142248750;1137990000;142248750;1137990000;0.125;1.0
002ca69e438fbdf90074db1908fd6a3ac2ec5a7df5;-3250000000;0;3250000000;0;0;0;3250000000;203125000;3250000000;203125000;3250000000;0.0625;1.0
002d6bca02ee31ebf862075b13ae35866a4ded44db;-1000000000;0;1000000000;0;0;0;1250000000;78125000;1000000000;78125000;1250000000;0.0625;0.8
002e418e4ff8ea1c6d2bb197b59e1f0fc2ebf7550c;-448009000;0;448009000;0;0;0;448009000;28000562;448009000;28000562;448009000;0.06249999888395099;1.0
00303090471738b78f6fc910e8e06d1b08bc144bd8;-1250000000;0;1250000000;0;0;0;1250000000;78125000;1250000000;78125000;1250000000;0.0625;1.0
0031020ab94157055e4dbf826d751472e48397f16f;-5500000000;0;5500000000;0;0;0;20000000000;2500000000;5500000000;2500000000;20000000000;0.125;0.275
0031b0636472b2f6107637bed28c146707eed0ae49;-250000000;0;250000000;0;0;0;253100000;31637500;250000000;31637500;253100000;0.125;0.9877518767285658
0031f29f99727cea6d917e2d4725d26f9f1a1c0828;-46910000;0;46910000;0;0;0;46910000;5863750;46910000;5863750;46910000;0.125;1.0
00325b43248386ad6b61e9ae4ff974c5515a68f978;-1039622000;0;1039622000;0;0;0;1039622000;64976375;1039622000;64976375;1039622000;0.0625;1.0
003357f9ed428a04d840e39aa7f63d827617f46ebe;-250000000;0;250000000;0;0;0;250000000;15625000;250000000;15625000;250000000;0.0625;1.0
00362761916bdee45e6908b126b87f57b220952fa2;-1250000000;0;1250000000;0;0;0;1250000000;78125000;1250000000;78125000;1250000000;0.0625;1.0
0036997527f23a4ddc38e3c7a78a19dbdc30897438;-1250000000;0;1250000000;0;0;0;1250000000;78125000;1250000000;78125000;1250000000;0.0625;1.0
00385790e3944be9d9fb3a665e7d227d9889ea9925;-930000000;0;930000000;0;0;0;933333333;77777777;930000000;77777777;933333333;0.08333333252976191;0.9964285717844388
0038f20279b127950067cbfb5e08ac74831521ee74;-1250000000;0;1250000000;0;0;0;1250000000;78125000;1250000000;78125000;1250000000;0.0625;1.0
003a47250d2dac46dcdfd81fcf1ba434da00645ab7;-250000000;0;250000000;0;0;0;400000000;25000000;250000000;25000000;400000000;0.0625;0.625
003a83e0f374fdb6788e2f8e01c55430eb27de53ab;-1417500000;0;1417500000;0;0;0;1417500000;88593750;1417500000;88593750;1417500000;0.0625;1.0
003b550ca8ec20c93f9b57aeb7de1adee573176f5a;-5500000000;0;5500000000;0;0;0;5500000000;343750000;5500000000;343750000;5500000000;0.0625;1.0
003b62392f196cc3369d2649f0dceef81210380162;-5500000000;0;5500000000;0;0;0;10000000000;625000000;5500000000;625000000;10000000000;0.0625;0.55
003b85237cee0249077fca1d7bc201f5fd7da7a8dd;-2850000000;0;2850000000;0;0;0;4000000000;250000000;2850000000;250000000;4000000000;0.0625;0.7125
003d9c443841eebc6ddd70a7e53f4fe2eb2b7afead;-400000000;0;400000000;0;0;0;446880000;55860000;400000000;55860000;446880000;0.125;0.8950948800572861
003e81f1fa97843437dad9e4ba826e28934ccc6875;-1940010000;0;1930040000;9970000;0;0;1954090000;129431250;1930040000;129431250;1954090000;0.06623607408051829;0.9876924808990374
003ee3fa369a9fec862be367d491201faa8875e534;-1698000000;0;1698000000;0;0;0;1698009000;106125562;1698000000;106125562;1698009000;0.06249999970553748;0.9999946996747368
003f7c99487893feb1e62a0b26969025dc3bbc05e0;-250000000;0;250000000;0;0;0;448009000;28000562;250000000;28000562;448009000;0.06249999888395099;0.5580245039720184
004006e393c8d4af9c3d2f88d192d3218aba31196b;-2916666667;0;2916666667;0;0;0;2916666667;182291666;2916666667;182291666;2916666667;0.06249999976428571;1.0
0041aa4c20595a3c860887e58df4b546227b00de10;-2804620000;0;2804620000;0;0;0;2804626000;175289125;2804620000;175289125;2804626000;0.0625;0.9999978606773238
00435b8be8d13c913c1a9a00c6632f403ef4abc526;-250000000;0;250000000;0;0;0;1000648000;69079875;250000000;69079875;1000648000;0.06903514022913153;0.2498381049080196
00460de8e68bfb92bfb32c6bbf48554ba5f66bfc9c;-5000000;0;5000000;0;0;0;3846397000;240399812;5000000;240399812;3846397000;0.06249999987000822;0.0012999178191954704
0046e748d60608b62f50bb4b8e734306a414f6ab54;-250000000;0;250000000;0;0;0;1250000000;78125000;250000000;78125000;1250000000;0.0625;0.2
0049c00463b97db1c72797ba4059806aa2d247b23a;-400000000;0;400000000;0;0;0;400000000;33333333;400000000;33333333;400000000;0.0833333325;1.0
004b15bef2c6559de77f599e2fd758bc65b653451d;-1213996000;0;1213996000;0;0;0;1213996000;75874750;1213996000;75874750;1213996000;0.0625;1.0
004b92f8e8e5be575c6d57fefc9b09b852819be082;-940000000;0;940000000;0;0;0;946414000;59150875;940000000;59150875;946414000;0.0625;0.993222839053522
004bb18e20c423acb76b84cdb7c6a43a24be7097a1;-1148018000;0;1148018000;0;0;0;1148018000;71751125;1148018000;71751125;1148018000;0.0625;1.0
004bfe0cb16d63233ffb94aa74b737eb187819709b;-1177870000;0;1177870000;0;0;0;1177870000;147233750;1177870000;147233750;1177870000;0.125;1.0
004c2118d2012c41b06f5bafcc1297731afe1a6232;-250000000;0;250000000;0;0;0;630249000;50780562;250000000;50780562;630249000;0.08057222145532957;0.3966686182762686
004d8603f590cac4ceb828f1ae24da1f4848065ba2;-250000000;0;250000000;0;0;0;3650000000;228125000;250000000;228125000;3650000000;0.0625;0.0684931506849315
004f9dac9fcb9efb800f0286d42866cf58782c6ab5;-250000000;0;250000000;0;0;0;297590000;37198750;250000000;37198750;297590000;0.125;0.8400819920024194
005053703c4a32a217b9081d5fd620a2a9670e3538;-3766666667;0;3766666667;0;0;0;3766666667;235416666;3766666667;235416666;3766666667;0.06249999981747788;1.0
005b0b38e19158f341b9a5548724831869d59b1cb4;-5000000000;0;5000000000;0;0;0;5000000000;312500000;5000000000;312500000;5000000000;0.0625;1.0
005cb2a38a54d01a19cdc9c6f72f77fbee6cb1a048;-2500000000;0;2500000000;0;0;0;2500000000;156250000;2500000000;156250000;2500000000;0.0625;1.0
005d0873215bd74b030cdf3737f0adf5f51c60ca1d;-250000000;0;250000000;0;0;0;250000000;15625000;250000000;15625000;250000000;0.0625;1.0
00604acb4ac4a48485514c4eb56e1d2a26c768a606;-323200000;0;323200000;0;0;0;323200000;40400000;323200000;40400000;323200000;0.125;1.0
00645db784d2dffd521d30ab9894f75afbaca01c4a;-1250000000;0;1250000000;0;0;0;1250000000;78125000;1250000000;78125000;1250000000;0.0625;1.0
0064c70ed8d46a777e1b38d87dc60af98e153f144a;-775040000;0;775040000;0;0;0;775040000;96880000;775040000;96880000;775040000;0.125;1.0
006679b71f43483a402f79719f1ba6a9b8a2ced062;-251020000;0;251020000;0;0;0;251020000;31377500;251020000;31377500;251020000;0.125;1.0
00674cd03a0af9ba19cb2b69e0d768d07d1a3b0e0f;-1714285714;0;1714285714;0;0;0;1714285714;107142857;1714285714;107142857;1714285714;0.062499999927083334;1.0
0068332380f49ff88c8c17831a880d04282fe7e32c;-1311460000;0;1311460000;0;0;0;1311460000;85807500;1311460000;85807500;1311460000;0.0654289875406036;1.0
00684b231fbb7e4619c3d4b8068d78e29a31154d14;-250000000;0;250000000;0;0;0;896018000;56001125;250000000;56001125;896018000;0.0625;0.2790122519860092
0069545a15074c4034131dab8fd7e2012d6d4f2881;-2000000000;0;2000000000;0;0;0;2000000000;125000000;2000000000;125000000;2000000000;0.0625;1.0
006af52e3758cff9b9b78a61a13efdacf2e237f0c0;-255000000;0;255000000;0;0;0;258590000;32323750;255000000;32323750;258590000;0.125;0.986117019219614
006b5e85264328f0435a8a8f72a470acefc769c1d2;-5500000000;0;5500000000;0;0;0;5500000000;343750000;5500000000;343750000;5500000000;0.0625;1.0
006c5c707279939a5fc59e6e4a40f7b1aec95296db;-473299000;0;473299000;0;0;0;473299000;31161812;473299000;31161812;473299000;0.06583958977306101;1.0
006c6546e22aa72b7b2ea90b1ceefe6bb2e0e6f791;-2016030000;0;2016030000;0;0;0;2016030000;126001875;2016030000;126001875;2016030000;0.0625;1.0
0073e61dbb60b448d615a3699ccb72de476817c51d;-250000000;0;250000000;0;0;0;448009000;28000562;250000000;28000562;448009000;0.06249999888395099;0.5580245039720184
0073f36afe58f3c929933519b6cf8fd4edd914e759;-250000000;0;250000000;0;0;0;548009000;34250562;250000000;34250562;548009000;0.06249999908760623;0.4561968872773987
007500a11dbbd1a8ffaf4877fab8386cfc97caa736;-1562500000;0;1562500000;0;0;0;1562500000;97656250;1562500000;97656250;1562500000;0.0625;1.0
007a2a9a4eff7cc34bb4150b83c15d5f792d2158aa;-5000000000;0;5000000000;0;0;0;20241066667;1686755555;5000000000;1686755555;20241066667;0.08333333330451403;0.24702255480200283
007a51261f99cb7b9d5cd9f724fe7778f239861904;-2500000000;0;2500000000;0;0;0;3305151857;206571991;2500000000;206571991;3305151857;0.062499999981090126;0.7563948974705158
007c4f4f5ccb2d726eaaeaf8f7994af98f15e01c5c;-500000000;0;500000000;0;0;0;500910000;62613750;500000000;62613750;500910000;0.125;0.9981833063823841
00803c974202d4dd8db22bd3833b8d123f89ea199b;-1344027000;0;1344027000;0;0;0;1344027000;84001687;1344027000;84001687;1344027000;0.062499999627983666;1.0
008196a5dd0831fbec1207faee2bee4a04eb1439a5;-250000000;0;250000000;0;0;0;366237333;22889833;250000000;22889833;366237333;0.062499999146728165;0.6826174654346339
0082629d25f92e67e3745b01d3c43f85774ba1dff5;-250000000;0;250000000;0;0;0;400000000;50000000;250000000;50000000;400000000;0.125;0.625
0084edb623a13be32834db996523d9b8191e7f848d;-5500000000;0;5500000000;0;0;0;5500000000;343750000;5500000000;343750000;5500000000;0.0625;1.0
00850054fc265ea06507e4055c26b8e8c10cb7285a;-2453183333;0;2453183333;0;0;0;2453183333;153323958;2453183333;153323958;2453183333;0.062499999872614495;1.0
0086b9b81da108879123f1bdadd12438b2228f1b25;-2499940000;0;2499940000;0;0;0;2499940978;185870686;2499940000;185870686;2499940978;0.07435002971498153;0.999999608790764
008769a4de5e4cd742cc39d7d01cd5789bf79f2f23;-5500000000;0;5500000000;0;0;0;5500000000;343750000;5500000000;343750000;5500000000;0.0625;1.0
0087e83fc9df70ba11b1ffdf8e5d5bcbc2599029da;-1670002667;0;1670002667;0;0;0;1670002667;104375166;1670002667;104375166;1670002667;0.06249999958832401;1.0
0088165dfdd32d3b221e7997d9c982280f9790e14b;-5500000000;0;5500000000;0;0;0;5500000000;343750000;5500000000;343750000;5500000000;0.0625;1.0
00888fcb0ac44babd37eec3f356e44f8136449092f;-3070003571;0;3070003571;0;0;0;3070003571;191875223;3070003571;191875223;3070003571;0.06249999993892515;1.0
008b0fa9021b4d5e4e76b863eb58da571cb8bc5042;-250000000;0;250000000;0;0;0;448009000;28000562;250000000;28000562;448009000;0.06249999888395099;0.5580245039720184
008d3d1df0c6e4d1443d91cc02a403e36d1b225563;-1247740893;0;1247740893;0;0;0;1247740893;77983805;1247740893;77983805;1247740893;0.06249999934882314;1.0
0090c55c6f7b632c2b57fc7b38ffbca67560a262e1;-448000000;0;250000000;198000000;0;0;448009000;28000562;250000000;28000562;448009000;0.06249999888395099;0.5580245039720184
0097604cdb055a69f522460b7e2d91f81c4b0c988f;-1406250000;0;1406250000;0;0;0;1406250000;87890625;1406250000;87890625;1406250000;0.0625;1.0
00983564123f8f57a65c593d69eca6c521aa90148a;-250000000;0;250000000;0;0;0;251297333;18652361;250000000;18652361;251297333;0.07422426962247149;0.9948374581436564
009dd560e0420b6f28965f666b81d22080d533f6db;-650000000;0;650000000;0;0;0;672679000;56084312;650000000;56084312;672679000;0.08337455457952456;0.9662855537336531
009ef85210e6e76693649ed08ecb5d036011a743dd;-14000000000;0;14000000000;0;0;0;14000000000;875000000;14000000000;875000000;14000000000;0.0625;1.0
009f1b1ae52e1c0287aa656ca0713efc99329dd620;-250000000;0;250000000;0;0;0;492648000;32624875;250000000;32624875;492648000;0.06622350034913366;0.5074617170880629
00a0ea7251b606d22fa28c0ebc227b9b45d7315920;-250000000;0;250000000;0;0;0;250000000;31250000;250000000;31250000;250000000;0.125;1.0
00a14a47eb479014049cfc536a6f43887fb4ddbdbb;-250000000;0;250000000;0;0;0;1500000000;93750000;250000000;93750000;1500000000;0.0625;0.16666666666666666
00a2df0b8eba964217008c1b2e54e476fd67362781;-2500000000;0;2500000000;0;0;0;3333333333;208333333;2500000000;208333333;3333333333;0.06249999990625;0.750000000075
00a327e0bdf695cc2d749d97bc9fe2ee08ee89e2a9;-250000000;0;250000000;0;0;0;136227309760;8514206860;250000000;8514206860;136227309760;0.0625;0.0018351680029535951
00a561d0208cffc300ff3e8e084a0e903ac73631ce;-400000000;0;400000000;0;0;0;497976667;38635972;400000000;38635972;497976667;0.07758590825702281;0.8032504864329316
00a56faad71ae09a7d7422897e8628442d27a458c9;-300000000;0;300000000;0;0;0;300000000;18750000;300000000;18750000;300000000;0.0625;1.0
00a8e1442de4b2255a02b5e794df3eb346bbf5bcc5;-250000000;0;250000000;0;0;0;251390000;31423750;250000000;31423750;251390000;0.125;0.9944707426707506
00ab5b9198f329edfd8efb8b8b196cbcde74599b48;-3081797333;0;3081797333;0;0;0;3081797333;192612333;3081797333;192612333;3081797333;0.062499999898598134;1.0
00add78c95d7769da4a78cd05818ae8550ac33c7c9;-1008980000;0;1008980000;0;0;0;1008988000;70122375;1008980000;70122375;1008988000;0.06949772940808017;0.9999920712634838
00ae3ef49b1cfb17edd28437aaae1e5d7e2b4619be;-293240000;0;293240000;0;0;0;293240000;36655000;293240000;36655000;293240000;0.125;1.0
00b04ced8f4f349111178fa245761ba98ba3bb9c95;-1000000000;0;1000000000;0;0;0;3002100000;216914583;1000000000;216914583;3002100000;0.07225428300189866;0.33310016321908
00b09ac0eef8be2d5520555fdb142af58846cb20e2;-3120000000;0;3120000000;0;0;0;3121231000;362153312;3120000000;362153312;3121231000;0.11602900009643631;0.9996056043272671
00b1c98d1b6b0f55c7dc74428f4ed83cd7b08c1269;-300000000;0;300000000;0;0;0;300000000;37500000;300000000;37500000;300000000;0.125;1.0
00b21cb974c720f6c9d5504e3bf24665e45a788cb2;-250000000;0;250000000;0;0;0;1000000000;62500000;250000000;62500000;1000000000;0.0625;0.25
00b4f0ca31a0cc4e56eb835b5cf729a7dba330ddf5;-3500000000;0;3500000000;0;0;0;3666666667;291666666;3500000000;291666666;3666666667;0.07954545435640496;0.9545454544586777
00b4f4d043656c019ad00965c8be3a932e9d601a51;-3661355475;0;3661355475;0;0;0;3661355475;244112494;3661355475;244112494;3661355475;0.06667271060316808;1.0
00b59b2d4211a7720f1e7024b20d237450e7bd1146;-109095000;0;109090000;5000;0;0;124680000;15585000;109090000;15585000;124680000;0.125;0.8749598973371832
00b5daabf9a664fa3c56e81b8795bfa4bb2a1f446c;-1250000000;0;1250000000;0;0;0;1250000000;78125000;1250000000;78125000;1250000000;0.0625;1.0
00b878b938b37354bf4d453ad71de96d7b535e3fc6;-2500000000;0;2500000000;0;0;0;2599905333;162494083;2500000000;162494083;2599905333;0.062499999879803314;0.9615734727984421
00b8d4eaf07a2730198c8d6efc88940433e7d26a8d;-1516666667;0;1516666667;0;0;0;1516666667;94791666;1516666667;94791666;1516666667;0.062499999546703294;1.0
00b9e0cd10605f7ce71c8fba99c8537abec9a46e19;-1960000000;0;1960000000;0;0;0;1966666667;163888888;1960000000;163888888;1966666667;0.08333333286723164;0.9966101693226085
00bd2d60545c98bb267fc9dbb5774a7b2e9766df61;-1166666667;0;1166666667;0;0;0;1166666667;72916666;1166666667;72916666;1166666667;0.06249999941071428;1.0
00be773eda360041ff684d943c43f572d414497513;-1333333333;0;1333333333;0;0;0;1333333333;83333333;1333333333;83333333;1333333333;0.062499999765625;1.0
00c02d11f4805cc882aeade494bc67ae1b3c791d21;-554369000;0;554369000;0;0;0;554369000;34648062;554369000;34648062;554369000;0.06249999909807367;1.0
00c02e09264e9429e1fb44c094857cd9bff4020c24;-1451850000;0;1451850000;0;0;0;1451850000;90740625;1451850000;90740625;1451850000;0.0625;1.0
00c2c37ad8dfe1ce3939b06ba0868828cea7fe2e49;-250100000;0;250100000;0;0;0;254130000;31766250;250100000;31766250;254130000;0.125;0.9841419745799393
00c3a7159620a092d4fa591c5ad17ae80cddf6e268;-2010000000;0;2010000000;0;0;0;2033146000;191353750;2010000000;191353750;2033146000;0.09411707275326021;0.9886156724603152
00c4c1ad0ecb6b0db9322af0a76502429b8d87ae0c;-250000000;0;250000000;0;0;0;448009000;28000562;250000000;28000562;448009000;0.06249999888395099;0.5580245039720184
00c744ad30409887487ae610d0694ac7d67ff2d64f;-250000000;0;250000000;0;0;0;1992900000;249112500;250000000;249112500;1992900000;0.125;0.12544533092478297
00c7d598e3ffb4bbbcdeb997f32e02e1b5a484d774;-1225000000;0;1225000000;0;0;0;1225000000;76562500;1225000000;76562500;1225000000;0.0625;1.0
00ccc8109ba1ee9504a09348f1154fb53815e5ddb4;-250000000;0;250000000;0;0;0;250910000;31363750;250000000;31363750;250910000;0.125;0.9963732015463712
00cfd53c4bdb671689b75699ffc8ad2d2765b191fe;-2310000000;0;2310000000;0;0;0;2318782000;144923875;2310000000;144923875;2318782000;0.0625;0.9962126668224957
00d3bcaad520cf34b11e951d7e8b647a37f82fe288;-5410000000;0;5410000000;0;0;0;5410000000;367291666;5410000000;367291666;5410000000;0.06789125064695009;1.0
00d48ca32da7b6f4a03a56f7ca1031b723b61aefa1;-5500000000;0;5500000000;0;0;0;5500000000;343750000;5500000000;343750000;5500000000;0.0625;1.0
00d5bdcf82749c811edffae84acf943dd722510c94;-26000000;0;26000000;0;0;0;26910000;3363750;26000000;3363750;26910000;0.125;0.966183574879227
00d82d1af87114ca1d65a446dc599c9c395abfe499;-1327560000;0;1327560000;0;0;0;1327560000;165945000;1327560000;165945000;1327560000;0.125;1.0
00dae0d98dbbe72eb56a8efbcc957d08dfa817dfbe;-4293623000;0;4293623000;0;0;0;4293623000;536702875;4293623000;536702875;4293623000;0.125;1.0
00dd51fb618eb72dd50e5850a9a6a2b248cb70c24c;-13714280000;0;13714280000;0;0;0;13714285714;857142857;13714280000;857142857;13714285714;0.062499999990885416;0.9999995833541666
00e01535db644fccbe194a356406b6c5071c405584;-5201668000;0;5201668000;0;0;0;5201668000;325104250;5201668000;325104250;5201668000;0.0625;1.0
00e2aa4548e1d4b122832cabcdfca21cc1177614fc;-1250000000;0;1250000000;0;0;0;1250000000;78125000;1250000000;78125000;1250000000;0.0625;1.0
00e46ada75a810bf6ff0f28e47f2c435c6b8ee9ad9;-5500000000;0;5500000000;0;0;0;5500000000;343750000;5500000000;343750000;5500000000;0.0625;1.0
00e4e6c50539fbb1319183539370f008400c3d7fc6;-1250000000;0;1250000000;0;0;0;1250000000;78125000;1250000000;78125000;1250000000;0.0625;1.0
00e522ea0b460584691c6588acccc5b0203bbcd54c;-2916666667;0;2916666667;0;0;0;2916666667;182291666;2916666667;182291666;2916666667;0.06249999976428571;1.0
00e5b875c196bac31f345b4c317b641b9345656886;-445000000;0;445000000;0;0;0;448009000;28000562;445000000;28000562;448009000;0.06249999888395099;0.9932836170701927
00e73ad9a447cb725783d0131765b70c44db624e58;-1250000000;0;1250000000;0;0;0;1250000000;78125000;1250000000;78125000;1250000000;0.0625;1.0
00e761a2804893619f53a109ff04c93e6d6bd03972;-252750000;0;252750000;0;0;0;252750000;31593750;252750000;31593750;252750000;0.125;1.0
00e7e18b7b33dc24b9d88158043f6e0a1a69b52f79;-1250000000;0;1250000000;0;0;0;1250000000;78125000;1250000000;78125000;1250000000;0.0625;1.0
00eae26c14b21808e4a9b5c33be9443c92d18097bb;-4763281000;0;4763281000;0;0;0;4763281000;297705062;4763281000;297705062;4763281000;0.062499999895030335;1.0
00eb39fa1b00ac977c93cdd06bd8c6e0b030dfc9df;-1001000000;0;1001000000;0;0;0;1001058000;69131125;1001000000;69131125;1001058000;0.06905806157085803;0.9999420612991455
00eda7b0f41d0a6e6ddf5723603a49039ced9e76d5;-2750000000;0;2750000000;0;0;0;2750000000;171875000;2750000000;171875000;2750000000;0.0625;1.0
00ef7a8be9d4bb67f1856ec238c8ae9122b58aaa7c;-1500000000;0;1500000000;0;0;0;1500000000;93750000;1500000000;93750000;1500000000;0.0625;1.0
00f08ab2ecb39b35e6ead7b4603a3744c46abb1407;-1000000000;0;1000000000;0;0;0;1875500000;117218750;1000000000;117218750;1875500000;0.0625;0.5331911490269261
00f5591948acef6203971826ec8869f93562968c96;-252500000;0;252500000;0;0;0;255420000;31927500;252500000;31927500;255420000;0.125;0.9885678490329654
00f63b1a5ff831ce6a8c8cf0419fccf7e8d2a20e95;-4300000000;0;4300000000;0;0;0;4300000000;393750000;4300000000;393750000;4300000000;0.09156976744186046;1.0
00f6dbe4acecec6b4fb239055e7f80556e493a7071;-369740000;0;369740000;0;0;0;369740000;46217500;369740000;46217500;369740000;0.125;1.0
00f9bbefae773b5a9aec5a01e0005139af1dddf7ed;-5500000000;0;5500000000;0;0;0;5500000000;343750000;5500000000;343750000;5500000000;0.0625;1.0
00fa192ab17c256904bcfcdc5ba036c4a6ec695daa;-250000000;0;250000000;0;0;0;250530000;31316250;250000000;31316250;250530000;0.125;0.9978844848920289
00fb15db4b494414cba7fca9f7f40de6f9c3f0da51;-1250000000;0;1250000000;0;0;0;1250000000;78125000;1250000000;78125000;1250000000;0.0625;1.0
00fc28a78dea16c765b3d5b52f34faa94861d52f9b;-4396018000;0;4396018000;0;0;0;4396018000;274751125;4396018000;274751125;4396018000;0.0625;1.0
00fe0813844b18103c12cd2b3448d9060b958d194f;-2553266667;0;2553266667;0;0;0;2553266667;234991666;2553266667;234991666;2553266667;0.09203569256481427;1.0
00ff4fc197e9d4b52c9920e3020a0a4b7626886a01;-1250000000;0;1250000000;0;0;0;1250000000;78125000;1250000000;78125000;1250000000;0.0625;1.0
