Identity;WeeklyRewardInQuarter;SumOfRewardable;RewardableForHolder;Rewards
00004707b35004e4b8e4f421ecb6419875ccac1622;1625603076;1.7713128140225012E11;6168949.1993596535;56614.86054173264
0000503d867c0d88f573bec12fc53d7972555f8d62;1625603076;1.7713128140225012E11;4.969238301485115E7;456046.4421824367
00007191afc732273eff16baa3a3c7ae8a7eea6255;1625603076;1.7713128140225012E11;4836216.566715856;44383.8517105403
0000f871f03b7d23a21de01b0d5d3d21529b89d784;1625603076;1.7713128140225012E11;2.382189581095224E7;218622.85870610512
00012b872108a70912350c62c0b213e136a58721bd;1625603076;1.7713128140225012E11;2.931411226375315E8;2690270.7804586063
00017b55a55733b7f3b2afa1602277b7839bc10499;1625603076;1.7713128140225012E11;8790803.28235235;80676.64132034752
0001ce2900f5e2770e0ecd7f879a90b33e044cf767;1625603076;1.7713128140225012E11;3.324393624791644E7;305092.6103799663
0001e52268cdee1d9e3f3894574e50220620dcfa94;1625603076;1.7713128140225012E11;1.1583511124931616E8;1063064.1390103924
0001f34f2955daec1e46537cc8f8b56503a4a7ec30;1625603076;1.7713128140225012E11;9729956.40360899;89295.6169787622
000262371407b1b8ef32a243082ea9f529a88b9c44;1625603076;1.7713128140225012E11;4.1194814669882166E8;3780609.326171774
0002a10869a1d354758aaedc3df43173db801d52e2;1625603076;1.7713128140225012E11;4854015.982315619;44547.203911918376
0002f8598a27beb72c752dfcf91d62bee9ac475c6a;1625603076;1.7713128140225012E11;4528066.468702524;41555.83769046101
000305c89fe90d3670bcff971e3fca67f3da4daaaa;1625603076;1.7713128140225012E11;6.133469117662723E7;562892.459496252
00032794ecd33f4b59ad4c8c1a900f733b7b206904;1625603076;1.7713128140225012E11;1.2146027651918316E8;1114688.4816635586
00032e337076db13fbc19b89b21385f2e1134f146f;1625603076;1.7713128140225012E11;2.5328665670389834E8;2324510.752635377
0003756b37ad7f0d51edb1aa3263d23d352c9eee37;1625603076;1.7713128140225012E11;2.7580339785812086E8;2531155.6963857524
00038bb25c4e3f9f6f7e2d59d2b755355ef8439076;1625603076;1.7713128140225012E11;3.8068803339945965E7;349372.3035205745
000418db8ccf62894e3cfe403b0d5799bcad8dc6e9;1625603076;1.7713128140225012E11;2.2449315565221652E8;2060261.5273834637
0004bd4547cb76b6a1dd53710c5f8779eed721b5e2;1625603076;1.7713128140225012E11;2.5908118150642835E7;237768.93739854926
0004f24e1e2454cc88930d8572195b34301747a52d;1625603076;1.7713128140225012E11;1.384720979384275E8;1270812.623083195
0005df53b17afcce35288a216eec6bbdb8f0541665;1625603076;1.7713128140225012E11;5786205.077110261;53102.26797466035
0006b6fd48ed680261135aa28135a0362293c723ff;1625603076;1.7713128140225012E11;1.5351444845660415E7;140886.21594442384
0006f63457d7d9433974dd146f3c92b84ed5293429;1625603076;1.7713128140225012E11;2.8124962625181854E8;2581137.865313262
00071e21ed8adfeff1b62666f96782661fcba8155c;1625603076;1.7713128140225012E11;1.740155540682766E7;159700.88271581897
0007588055ed0ac6aeb03f7906fe78749c1e322f22;1625603076;1.7713128140225012E11;3418315.022075802;31371.21444971855
00079ed702ed81122898099b2cad772cfba478e6a1;1625603076;1.7713128140225012E11;5.259117697179776E7;482649.80854324007
0008260d4ee7a08c16e25b35706814d96005b1e82f;1625603076;1.7713128140225012E11;0.0;0.0
00086a9c130366759950c327738f32cb484f16dd9c;1625603076;1.7713128140225012E11;7.49094002256232E7;687472.8758471076
000881ec6e589ee0ccdab26ac3164b4b1733d775b3;1625603076;1.7713128140225012E11;4.935986460350188E7;452994.7906162264
000896acde8cdb88a2ece5353eaaa4b21af927b8f7;1625603076;1.7713128140225012E11;1.3466796629213482E7;123590.06185136634
00096c682f83de60573239341d599a57ad88c753da;1625603076;1.7713128140225012E11;3017387.6176091246;27691.746787122804
000aa459686bbcb9ca0a9a44bef0ad93c0cf3cb34c;1625603076;1.7713128140225012E11;5103722.298436621;46838.85647813627
000aceb31e26d2c6120ae1ddb598ee4dd3930f379f;1625603076;1.7713128140225012E11;4320563.048074157;39651.497609004844
000b33e693fdb858373a0608829f4cd42b70b0f368;1625603076;1.7713128140225012E11;1.4719062699135091E7;135082.59755211658
000b636d3f54d710a170c275b7cde513c0848bd0cc;1625603076;1.7713128140225012E11;161227.0296860433;1479.6435351065322
000b89b5c7a8bce42fe4243ba4ec30d66a3fe5d061;1625603076;1.7713128140225012E11;1.4412579612985894E8;1322698.8235217012
000b9741970293ff9c5708c59052d41d2625a754ac;1625603076;1.7713128140225012E11;7963676.209938599;73085.77254485867
000cb2cb289f03783dcf99df2656f2cba5b92d3879;1625603076;1.7713128140225012E11;5.350918718568753E7;491074.747468114
000d3d44e8d051d4a18bd88676899e85fcd13cf51a;1625603076;1.7713128140225012E11;2.4557878741382995E8;2253772.6202843403
000ddc65b7b7d2a897635d1bd98bb9408f19ebd858;1625603076;1.7713128140225012E11;3647302.410043547;33472.72130553043
000de023c9f6ae09f1bde00f0e8d6859f02885388f;1625603076;1.7713128140225012E11;8.26814713673141E7;758800.2137108931
000df3cbe7f3793ee856f9c0374748f61e9250d995;1625603076;1.7713128140225012E11;1.9988592012524918E7;183443.12988217772
000e280cee4c1d2e68af0786dde5f660a6be89ef86;1625603076;1.7713128140225012E11;6.896646480932282E7;632932.2322254523
000e9e7c4f29cd3e130639b2c0b1b0367ebe875923;1625603076;1.7713128140225012E11;6196380.852223284;56866.61155330926
000f0ed10e03d86f0ffa7483124a0e5b3cf9d7448f;1625603076;1.7713128140225012E11;7.055722811074157E7;647531.2894642568
000f4268ba45041bd7538d18f863b4b1140e97cb44;1625603076;1.7713128140225012E11;1.4803317288272982E7;135855.83488312556
00109d3769b9c273018f4de74a59a9056049d3f555;1625603076;1.7713128140225012E11;6231083.0743233;57185.08742354088
0010b70ee116a311eb261dda30b59b13760bfeff35;1625603076;1.7713128140225012E11;1.5995073586380606E9;1.4679304873213863E7
0010c669fa9d10bd561d90ded99df8589e1011591a;1625603076;1.7713128140225012E11;1.0130825851756214E9;9297455.275353761
001142a37aa9fafb342d95cb61c712602532f60bd3;1625603076;1.7713128140225012E11;1603555.8341278622;14716.459316840266
0011438fac8d47d0d5b3478cdc2515831473ddf23b;1625603076;1.7713128140225012E11;5018073.459031667;46052.823566894906
00116cc41ed0a6dc9a567fdb29cdf8be9e68636b6d;1625603076;1.7713128140225012E11;1.3154947057445912E7;120728.09631314263
001266d590d12a2fc00d0f7e7394f9e66cef4a583d;1625603076;1.7713128140225012E11;6.667272487698106E7;611881.6833893537
00129ff2a896abc6e155c3a5a3e901dac9e90772c3;1625603076;1.7713128140225012E11;1.8749395787234862E9;1.7207054125947993E7
0012a214d381a701d87711bc946b6fff4a1102afee;1625603076;1.7713128140225012E11;1.1778717754712345E8;1080979.0152149245
0012b463395b13012d25572c1237c77dc83518a8fe;1625603076;1.7713128140225012E11;4.10836338684915E7;377040.5829008426
0013153a0218b8df737a0851ccda76fc1f817d18d2;1625603076;1.7713128140225012E11;3.5670104245016044E8;3273585.0338178687
00131bb42695e57c0aa7becdad60430cac2ce85811;1625603076;1.7713128140225012E11;1.684130222666649E8;1545592.2006990528
001446286d955bcc1bb924b17b5aab9e958e89bbde;1625603076;1.7713128140225012E11;1.2212503032988764E7;112078.91874841748
001484e1b40ebaef37ad83ca5a145d4540dcb2a909;1625603076;1.7713128140225012E11;3595474.692297765;32997.07806102482
001547ca35434ee1aab541f0117f59846f0c2d5633;1625603076;1.7713128140225012E11;1.1582909818326127E7;106300.89547504603
0016eda591187bf7a1d9c693eb0d0642cba3d17161;1625603076;1.7713128140225012E11;8.608616861524872E7;790046.4525190596
0017026ebddd7fc980bc0bfa818bc13056cb47b49d;1625603076;1.7713128140225012E11;5.873327671325273E7;539018.2611043311
00186b1022b20980b81cbbcefa1d768c8a7e36e4c3;1625603076;1.7713128140225012E11;5.9873482098355085E7;549482.3720542483
0018ba5cc0217a9e76782f9e99f21e295dd21a05de;1625603076;1.7713128140225012E11;0.0;0.0
0018bcbedac3e9978ade38f666e7b54eb7fe114ad2;1625603076;1.7713128140225012E11;8.625236600779618E7;791571.7110189109
0018e3c6327648e0ae3f513fc77287f23e19a78e7a;1625603076;1.7713128140225012E11;5.701596360934231E7;523257.8068126228
00191d8c2edaa9194eb4d591cc7364b51855b7fc00;1625603076;1.7713128140225012E11;1.35647795024781E7;124489.28901730415
0019ec0aed9fe789a9620e32d9dda8521c6d564581;1625603076;1.7713128140225012E11;1.1051708660910252E8;1014258.5460911889
001a53b7275033cbae5172588df246ab8a11e23e92;1625603076;1.7713128140225012E11;1.8453559940533432E8;1693555.3994191594
001aa2b91b329f6364bb91bc4c55dbf28d50c787fd;1625603076;1.7713128140225012E11;8.27124916596551E7;759084.8990710889
001b5a966673b3d9d87d84758e86a946ce33254d92;1625603076;1.7713128140225012E11;1.8730044762478106E7;171892.94933376642
001bc1d4da9fceeebf17b9f2a4c9c7cc49665c65f1;1625603076;1.7713128140225012E11;5.9607341238119856E7;547039.8932463116
001c55bce7420948369cce8f014b7ab2b37139f99d;1625603076;1.7713128140225012E11;2.238773424670225E7;205460.99688322702
001c7bf916cb56e4bc233defb6c05c94b87efad397;1625603076;1.7713128140225012E11;3.553223723002143E7;326093.24384163134
001d112b141056df59222685dd37dc919f0efa4d59;1625603076;1.7713128140225012E11;7.44544842656263E8;6832979.3408618225
001da977086819ab273cd3fed706ce6eec5976f28a;1625603076;1.7713128140225012E11;7.613281141844165E7;698700.5990505668
001daf29ea3cdfc1b581fa4357fa0cc5116e70bc43;1625603076;1.7713128140225012E11;1246882.0667025768;11443.124596597638
001dd0db367fc3f7c67f260825d2508e673341502f;1625603076;1.7713128140225012E11;1342822.5470973526;12323.607924037078
001e3cc5c5ce71e598dadb6712935cd6c572131be0;1625603076;1.7713128140225012E11;4.526039147468861E7;415372.3217026495
001ecfdd7a8768fc89540f57be69164a782b20ffbf;1625603076;1.7713128140225012E11;9382275.298395814;86104.81143822013
001f049a68c3075ff20ddeaafe0819daac3b64bf4c;1625603076;1.7713128140225012E11;1.2143657845602655E8;1114470.9952655737
001f296817e16efaa140b6fee684f3a96d4a8528fe;1625603076;1.7713128140225012E11;1900711.169889703;17443.570101791232
002043214eff85403fc9029d73785c6136f4e842e7;1625603076;1.7713128140225012E11;4.2432987591972464E8;3894241.2998602074
00205c4c84530297df43ff741aea85a557f82fa8ea;1625603076;1.7713128140225012E11;2.5238790687990797E8;2316262.5738446675
0020e11def65edd308768051dc0ebad1f537069fef;1625603076;1.7713128140225012E11;9067768.753861219;83218.46182131347
0021d63fb6946ad9116785e3ec9840ac47952ebfc8;1625603076;1.7713128140225012E11;3130038.5716479854;28725.588669540193
002211b08201dd32ccf0fca91047c84475ee1b8d9a;1625603076;1.7713128140225012E11;7.577744776144445E8;6954392.877263327
00226304336de6a1d06c695afd350815466f53590d;1625603076;1.7713128140225012E11;1.8839107143009156E7;172893.85747299306
0022aa5a93dc352101c433667b50388d8ca2228f58;1625603076;1.7713128140225012E11;9951501.516155131;91328.82316107348
0022c56e1bd4c20c73569f66eb5845e6159080b0f0;1625603076;1.7713128140225012E11;1.6245263291905094E10;1.4908913755204922E8
0022e47780cbb1b664611389f3b11ddbe951b38700;1625603076;1.7713128140225012E11;1.9347754997311108E7;177561.91785175994
0022f95b126d0cae29113fe0b0012968168b6944c3;1625603076;1.7713128140225012E11;7372609.273162843;67661.31999792214
002319c23cec3792fc24fb574a41460b94ecd65292;1625603076;1.7713128140225012E11;4.916757080634044E7;451230.03520043124
0023d1b568e99095e1d6ebfce8a583efab67ce5968;1625603076;1.7713128140225012E11;2.779654753774941E8;2550997.927742178
00249d60d673df8bb1ac0fbf05c3f1aaf3a84cd2b9;1625603076;1.7713128140225012E11;9889385.58092028;90758.76091917572
0027266a6440eac0597651df7fcfc2384dd149902c;1625603076;1.7713128140225012E11;3.4483418690895903E8;3164678.257343888
00274b7e9713baebbd45efe8715c3abd55ded2d056;1625603076;1.7713128140225012E11;2584673.91891909;23720.563865341483
0027a25bfcaace720f8ce75f0133deda2b1a613a9b;1625603076;1.7713128140225012E11;3.549270177847626E7;325730.4115336725
0027a2c65eef277c18d698a3ed15d91f39757e5ac9;1625603076;1.7713128140225012E11;1.6227778950668288E7;148928.6769113799
00281de2d74669bdd1447e6a546d9e2c64e93bccdf;1625603076;1.7713128140225012E11;1.150889020846025E7;105621.58855348067
0028ae363f88638f25e22bc77a4367fc4cf80dcf80;1625603076;1.7713128140225012E11;1.4068016196324527E7;129107.68905933328
00292777552fd768721c4c38f6af0566c52dcaf8e7;1625603076;1.7713128140225012E11;1.315934562064959E7;120768.4636486989
00293471d309399e77cc36d62fd8edc6b6f85042a5;1625603076;1.7713128140225012E11;1.1781096418173723E7;108119.73144678275
002952575a6f2dde86345a7fcaba24fa875a3e4480;1625603076;1.7713128140225012E11;6.257914869020844E7;574313.3330201943
0029989257513b82e30a4e10597a79482e9de20b85;1625603076;1.7713128140225012E11;1.2289583733731249E8;1127863.1849867767
0029df0cf3c74e9bb22d481f574645daa2e1ef87fa;1625603076;1.7713128140225012E11;1.438236242479204E7;131992.56739296508
0029f80452925b6e566e40b3475a6b0957c5d3175b;1625603076;1.7713128140225012E11;4.89484543513294E7;449219.11775858613
002a2d9df13c0e70cc3da78c3700dfe6d50aaaef39;1625603076;1.7713128140225012E11;2567424.4170787716;23562.25843769987
002b265da2bf8b7c73ca780696652170a3cd25c88b;1625603076;1.7713128140225012E11;1.2673017908316856E7;116305.2439460378
002b796d39db81814b825c4307780e4c8438a2ed5b;1625603076;1.7713128140225012E11;0.0;0.0
002b905e734975ef780c774f553dec1119a2c13b5f;1625603076;1.7713128140225012E11;2.775013322515291E8;2546738.304668829
002b9317ecac737c4a97828990903e855fe9774145;1625603076;1.7713128140225012E11;5833270.480883409;53534.205600477355
002bd6b7e8fd7b3a62871282457664cb4735e1c79c;1625603076;1.7713128140225012E11;6811183.004841402;62508.89146296468
002c30b8822473502012d2598aa75a60d98fe6b558;1625603076;1.7713128140225012E11;3.6623801366766624E7;336110.9550233996
002ca69e438fbdf90074db1908fd6a3ac2ec5a7df5;1625603076;1.7713128140225012E11;7.134291523346062E8;6547418.476070912
002cfc3b6c0b1667f5d1eb13911495e59d02b50cd8;1625603076;1.7713128140225012E11;3.641065329090358E7;334154.8117322573
002e418e4ff8ea1c6d2bb197b59e1f0fc2ebf7550c;1625603076;1.7713128140225012E11;8.843359206935583E7;811589.6760392762
002e86446bdeb027345541e463c8dca1562b45346f;1625603076;1.7713128140225012E11;8.918486802580838E8;8184844.294451452
002f08736bc58103c1d09ef573b764621641af6f14;1625603076;1.7713128140225012E11;5.61471687097414E7;515284.53608356894
002f964ac64c1a177b3161321383f280890516b947;1625603076;1.7713128140225012E11;1.346278058602621E8;1235532.050516701
002fa4650d61984323e94c5eabdd443ebc90fa40a7;1625603076;1.7713128140225012E11;2.1480871330887225E7;197138.3610744144
00300fe2d56402f9f3aa6cd0564e056b4a4ee8202c;1625603076;1.7713128140225012E11;5.098786674164463E7;467935.60323017393
00303090471738b78f6fc910e8e06d1b08bc144bd8;1625603076;1.7713128140225012E11;2.3788302862295884E8;2183145.6307229404
003058133c84fa602fe1c53fee1690c4f29f193019;1625603076;1.7713128140225012E11;2046305.0411165976;18779.742024895615
003083f5e465e029a964c278aee1dded6a893b6a52;1625603076;1.7713128140225012E11;3.911839154163963E8;3590047.8512235256
00308b727e1f5c8b337d1d31b56d75ebcee61959e1;1625603076;1.7713128140225012E11;3.653257978743075E7;335273.77889735316
0031020ab94157055e4dbf826d751472e48397f16f;1625603076;1.7713128140225012E11;1.5803872756900988E9;1.450383239084076E7
0031042a6b5ccb3910230fb4c690e3e2d881af769b;1625603076;1.7713128140225012E11;1.194362196686815E7;109611.29199890378
0031b0636472b2f6107637bed28c146707eed0ae49;1625603076;1.7713128140225012E11;1.2127659118448877E8;1113002.7294760768
00325b43248386ad6b61e9ae4ff974c5515a68f978;1625603076;1.7713128140225012E11;2.4234909255812526E8;2224132.4469032637
0032d633536f15d39cb397d53fdcab77eeb8b81daa;1625603076;1.7713128140225012E11;1.2983628416220637E7;119155.83811037207
0032fb5447c7d9bc485e5c74f6d37378501cad1003;1625603076;1.7713128140225012E11;1.0750145720660921E7;98658.29351321248
003357f9ed428a04d840e39aa7f63d827617f46ebe;1625603076;1.7713128140225012E11;2397054.648261193;21998.708408282277
0033ccca69d00692eaa29f6b04e6bff972f9a3b6f3;1625603076;1.7713128140225012E11;1.6224777833568538E7;148901.13448550136
0033f7de239c0db8f45d53b0a98f00e6423dde79bb;1625603076;1.7713128140225012E11;0.0;0.0
00341498eeb456aa3640cbd9051edc0cec21f03578;1625603076;1.7713128140225012E11;2.6207020198039627E8;2405120.7843961413
00349883b786a0cbf13a054af5f11dbda9759c3a51;1625603076;1.7713128140225012E11;5.8977706054061025E7;541261.4848033699
0034cecabd9edea244833769c97e6d638309b5c8e2;1625603076;1.7713128140225012E11;2508635.839048903;23022.73265477508
0034fd670576673a2ca9d277db12ddabab06e59a97;1625603076;1.7713128140225012E11;2399067.162217598;22017.178036301255
00350c4134bd65c62226189384ba8b6f3a14de40ab;1625603076;1.7713128140225012E11;1.2369007094130337E7;113515.21775322444
00359e2ee09f2e78ada66caf56ac6db054b3d0b03b;1625603076;1.7713128140225012E11;1.2321337631890776E7;113077.73644650979
0035ea8acd943be133e15d4a77f26b0bff1a184be3;1625603076;1.7713128140225012E11;3716604.6638158886;34108.73520445444
0035fe43ed1bf4dc2deac361c646f84d7bc79d0e25;1625603076;1.7713128140225012E11;6345365.710907661;58233.903895110576
00361ad21315abd3a52d5af77a9a9fe2e306ed3391;1625603076;1.7713128140225012E11;1.4629937157504093E7;134264.6575842094
003626c7027842b5f56f266e9eef34d4f241045064;1625603076;1.7713128140225012E11;4902398.434801413;44991.22860909607
00362761916bdee45e6908b126b87f57b220952fa2;1625603076;1.7713128140225012E11;1.7328556334620416E8;1590309.4166765506
00362cfffc8dae9e92a402632127f0ca6caf84f052;1625603076;1.7713128140225012E11;1.2323846179459788E7;113100.7583690759
0036997527f23a4ddc38e3c7a78a19dbdc30897438;1625603076;1.7713128140225012E11;2.800327172696629E8;2569969.8154411907
00381d19f6018e6de718c17a6e1ec85074f584300f;1625603076;1.7713128140225012E11;1.3025667617462248E7;119541.64830894311
003829a72b9c512c378256d603245d0cb4bc71120e;1625603076;1.7713128140225012E11;1352462.0194365918;12412.073133353208
00385790e3944be9d9fb3a665e7d227d9889ea9925;1625603076;1.7713128140225012E11;2.872251883868829E8;2635977.937098947
00389c90db43622e525452be86594321f147ffa67a;1625603076;1.7713128140225012E11;4.3426480239511535E7;398541.8007386831
0038eed148fdaabc14d0bb159a7da149d1b5a95fc4;1625603076;1.7713128140225012E11;3.7481863917172566E7;343985.73078461975
0038f20279b127950067cbfb5e08ac74831521ee74;1625603076;1.7713128140225012E11;2.980145499787554E8;2734996.130006354
0038fdc3067519647f32ecdfb4437cdcb221464995;1625603076;1.7713128140225012E11;3330144.5462497966;30562.03949439461
003a81ac2e0355368028dfa76a104673d4a80fdfa2;1625603076;1.7713128140225012E11;1.219381152908019E7;111907.37950357996
003a83e0f374fdb6788e2f8e01c55430eb27de53ab;1625603076;1.7713128140225012E11;3.2113842051227295E8;2947212.9376234547
003aaa891767534e6c218ad69fc41d70526578b79d;1625603076;1.7713128140225012E11;6592140.855397327;60498.6559523813
003af46fb9a1ae7fef89da57e5d601a7eb38a1a137;1625603076;1.7713128140225012E11;1.3313975239822606E7;122187.56016614313
003b550ca8ec20c93f9b57aeb7de1adee573176f5a;1625603076;1.7713128140225012E11;1.0987580753432288E9;1.0083732771071699E7
003bdb9add4126b7e59084b4ca095d6fce0523d381;1625603076;1.7713128140225012E11;2.3752249917725764E7;217983.69109345393
003be3f896374676423d086a90323a1a316af42d22;1625603076;1.7713128140225012E11;163180.29700655048;1497.5694335663081
003c39b2d0d3b7dac083125945be807e1de4ad3909;1625603076;1.7713128140225012E11;1.9564287168061316E7;179549.11830578445
003ce0624f3062ef13e8cbff694ac92adb857f28aa;1625603076;1.7713128140225012E11;8555007.197718378;78512.64839117498
003d4009fad039382f064b5ac7fa7361a6ef8d3517;1625603076;1.7713128140225012E11;1.7488800689409096E7;160501.566810735
003ddd6e16df72813fded7203c35e7a9bc4f8f46bf;1625603076;1.7713128140225012E11;4292816.53867007;39396.85703576179
003e14f0a73e1432929bad34910b518e3397ae0f53;1625603076;1.7713128140225012E11;1.771656575472531E7;162591.8559333127
003e6cf81b794d6a7f69c2093a24fd69b806660c98;1625603076;1.7713128140225012E11;1.1993463053380357E7;110068.70315126503
003e7acc5bbf87716c33f302b6aac12d741a39b54b;1625603076;1.7713128140225012E11;7.921414818994156E8;7269792.322444806
003e8a0d56fe6b701fe71321d7b4dac0bc4efde848;1625603076;1.7713128140225012E11;1.3982952366301123E7;128327.02500808438
003e8d1a82929d306a418cf271396e57c0ee6434d9;1625603076;1.7713128140225012E11;1.1710515505617978E7;107471.98279589962
003e8f727dec29146d477396f32ce385ea05a4068f;1625603076;1.7713128140225012E11;1.227352071402806E7;112638.90188184615
003ee3fa369a9fec862be367d491201faa8875e534;1625603076;1.7713128140225012E11;3.814604823293801E8;3500812.1012735288
003ee842ab82e18660f23434a012319836a5fbb751;1625603076;1.7713128140225012E11;7.994512926873416E8;7336877.316172398
003f74c99f5b6ce2000d130c1250c1993606e93851;1625603076;1.7713128140225012E11;9.843359264012876E7;903363.594000916
003f7c99487893feb1e62a0b26969025dc3bbc05e0;1625603076;1.7713128140225012E11;4.082342769994644E7;374652.56908062723
003fe1caea11d44587ecc1f0d47163fa537e41d577;1625603076;1.7713128140225012E11;3.984962449498395E7;365715.5960464245
003ff71fbda67a5d9df51d49c5f5d2a599c622d0a5;1625603076;1.7713128140225012E11;1.100631727310921E8;1010092.8008287406
004006e393c8d4af9c3d2f88d192d3218aba31196b;1625603076;1.7713128140225012E11;6.147807558740135E8;5642083.543362806
00404aadb526f6d53615c2fb061f1c438c1b1b9342;1625603076;1.7713128140225012E11;6.5997030974157296E7;605680.5760628034
0040bfb43e1432084def40dc42f50c246e05e4daab;1625603076;1.7713128140225012E11;6822794.935540815;62615.45869442052
004112ed071df0e31e09fe4a0a3cffc5fba627a5d9;1625603076;1.7713128140225012E11;1.2599144681745837E7;115627.28044124508
004121528010e5bc4ff46dfb0f8b67c74b73544191;1625603076;1.7713128140225012E11;4.810222039670406E7;441452.897649047
00419b02a8c38343e11101639b09e9d267953dd5bc;1625603076;1.7713128140225012E11;3.1688822467847392E7;290820.7227472598
004248828eae4533cb52d369c7838fc83700500542;1625603076;1.7713128140225012E11;5026346.519077468;46128.748675954805
0042b6e26a341031811f4e6f166f9b6800ec015a5b;1625603076;1.7713128140225012E11;3.254596656862194E7;298687.0695368487
0042bdbb4cfeef2bb8dddd876b74a41dcfa4631627;1625603076;1.7713128140225012E11;4226413.59136006;38787.451206661026
0043223e21cd1ae646288a3096aedad938de3d7220;1625603076;1.7713128140225012E11;2.7781786684296682E7;254964.3266465684
004336fe935b0975a028e65a959234fac580f03ff0;1625603076;1.7713128140225012E11;1.762976613676691E7;161795.26187701858
00435b8be8d13c913c1a9a00c6632f403ef4abc526;1625603076;1.7713128140225012E11;8339315.037967887;76533.15704676794
0044b9d97051379b20f5e51c84deb930cf7343be05;1625603076;1.7713128140225012E11;1.0765497889695361E7;98799.1863753207
0044c09c7c78bc77fa76cfd0307d50de8a56a12ac4;1625603076;1.7713128140225012E11;2.8934650929475754E7;265544.6129084715
00455a86385e4530068253bdd4764273d6b87dbd0e;1625603076;1.7713128140225012E11;6.951423107224451E7;637959.297546074
004608f9647ac7f1cda974d90510c09c4db64bc3b4;1625603076;1.7713128140225012E11;304255.7799686101;2792.2743396439337
00460de8e68bfb92bfb32c6bbf48554ba5f66bfc9c;1625603076;1.7713128140225012E11;3.198849770616375E7;293570.9596639217
00463da0a411bb84771b7bacdabd62e7ee331c2d2a;1625603076;1.7713128140225012E11;1.7419337375722665E8;1598640.7480196108
004685041187517df45e49906d2dc2335d153f5463;1625603076;1.7713128140225012E11;1.3931849789939119E7;127858.03666978546
00476a2e6cb857f19befd052d72daf939dad8aab2d;1625603076;1.7713128140225012E11;3.321229828183077E7;304802.2563861369
00476c389ad5e893120ba2caf03b01eb5e31d74945;1625603076;1.7713128140225012E11;4754045.919491107;43629.739529857085
0047a52232a88a791c1b0c0efc7efc02f50687e46b;1625603076;1.7713128140225012E11;1.4808870900769E7;135906.80255797648
0047b1d23d1a14e3c4e7d0f36358646ed2fa462d71;1625603076;1.7713128140225012E11;1.1890789622896183E8;1091264.28906438
0047cfa5bf098fe72a4d26b35aa766810acd813dfa;1625603076;1.7713128140225012E11;2.7355625109632414E7;251053.27513063647
0048070764e394a8d915b458059e398030e0430cfa;1625603076;1.7713128140225012E11;2.6827328794529527E7;246204.89313920008
0048131385447eae82f8c9899e5f2fd5b63465708e;1625603076;1.7713128140225012E11;3021770.055673575;27731.96613596707
00488bec2fe110c0a922786432623069e744d978de;1625603076;1.7713128140225012E11;6.726568218813595E7;617323.4846416188
00489b6260e9db67bebdb40d137fef3a7c66b70c2b;1625603076;1.7713128140225012E11;3.414374116586064E7;313350.47218071896
004927076e817474824aef45851548cdb204db6a39;1625603076;1.7713128140225012E11;2.6625228842461877E7;244350.14280295343
00496728751f132621158594d20331a783c4da3e21;1625603076;1.7713128140225012E11;1.4520891148015497E7;133263.8996884449
0049a1dad7cfdc5b03a3c666f7a750e69a764e9637;1625603076;1.7713128140225012E11;1.5791484520002805E7;144924.63221121847
0049c00463b97db1c72797ba4059806aa2d247b23a;1625603076;1.7713128140225012E11;1.0808977651247598E8;991982.1715951378
0049d84cfb76b1bb13240256b0a11b98e7bc38c0dc;1625603076;1.7713128140225012E11;2.0065794429438204E7;184151.6466693615
004a291e78ad5ac1f06e9e9a17b5257c4d92ad4a05;1625603076;1.7713128140225012E11;9099830.647176737;83512.70636120212
004a7d4922c6bd581d5ae912ce85466815d5388623;1625603076;1.7713128140225012E11;5042969.379446747;46281.30316962922
004b15bef2c6559de77f599e2fd758bc65b653451d;1625603076;1.7713128140225012E11;4.1347353493102145E8;3794608.4108208995
004b76cddad2858fc97e83ff3cbe45643c5cb85c1d;1625603076;1.7713128140225012E11;2.260614755549922E8;2074654.6127714396
004b92f8e8e5be575c6d57fefc9b09b852819be082;1625603076;1.7713128140225012E11;1.6277477517298475E8;1493847.8010301974
004bb18e20c423acb76b84cdb7c6a43a24be7097a1;1625603076;1.7713128140225012E11;2.0927671518645665E8;1920614.2994568674
004c0627dbc8ed242586ed33462e760f28cac3070b;1625603076;1.7713128140225012E11;2.887390638891708E8;2649871.3649210585
004c0ac99f066f00b45f2c3c1d9c8cab47cb80a782;1625603076;1.7713128140225012E11;2.258615757815596E7;207282.0054335396
004c2118d2012c41b06f5bafcc1297731afe1a6232;1625603076;1.7713128140225012E11;1.80825158892648E8;1659503.235041483
004cd0949afd2f52963adb5687eba6fc2ad275c438;1625603076;1.7713128140225012E11;1.3376375684704706E7;122760.23346439445
004d8603f590cac4ceb828f1ae24da1f4848065ba2;1625603076;1.7713128140225012E11;5.2404345377558863E8;4809351.819008741
004daf5f8f41f205ca0fdaaa822aa143c6a3ad0949;1625603076;1.7713128140225012E11;4.438486125531324E7;407337.2383086812
004dc529187c40295c4e197654f35c8847317d4968;1625603076;1.7713128140225012E11;3458931.7871473976;31743.97039499743
004df997534cb3f9d18b2171c554f44187677b6013;1625603076;1.7713128140225012E11;2.247036435346201E7;206219.32570383686
004ec47f8f66685783e6d8a3c34646e025d366d707;1625603076;1.7713128140225012E11;1.3242598632800361E7;121532.5091158077
004ef9e9c11b8972f47ac696c2f381870620f97e4e;1625603076;1.7713128140225012E11;4.734427290906735E7;434496.91699111526
004f1aeb4d2eff932aa9f0bd825f8a46f4951b906d;1625603076;1.7713128140225012E11;5.987359550561797E7;549483.412837073
004f1ee37f9f372a7f8cf805ffb6c6bf0c3a5eca05;1625603076;1.7713128140225012E11;961585.6431588085;8824.847689136293
004f9dac9fcb9efb800f0286d42866cf58782c6ab5;1625603076;1.7713128140225012E11;1.384276223609842E8;1270404.4533069343
004ffa7ea02038f317760cb71803d028d2d56ff8d6;1625603076;1.7713128140225012E11;9308410.178154886;85426.92232839044
005053703c4a32a217b9081d5fd620a2a9670e3538;1625603076;1.7713128140225012E11;8.350598194555264E8;7663670.698955741
0051504254719d611f9ac23ca0d822e014da64e85b;1625603076;1.7713128140225012E11;1.0745699403470729E7;98617.48792063714
0053874db2bcac6da323ff439f6653924a85e68cc9;1625603076;1.7713128140225012E11;7.189710250509202E7;659827.8410370051
0053b1f0a09fa6b0fef5191c041fd3dea69e1bf0be;1625603076;1.7713128140225012E11;1.96366227080046E7;180212.9698587402
0053ba94ed78e411a5270852016924d6f17f9b4d25;1625603076;1.7713128140225012E11;1.2298905591919817E7;112871.86883865946
0053bd7bd542d88e371bf4f31e2947e657063b2125;1625603076;1.7713128140225012E11;2.8391892844345577E7;260563.50959500403
0054a7f9d721969f16beea44089355da89752cf23f;1625603076;1.7713128140225012E11;2.1424850930114504E7;196624.23993728965
005590fa495f29385777451123b3a538488b3db698;1625603076;1.7713128140225012E11;6.1212948175241604E7;561775.1763378666
0055cd569388f730236fdbeba9dd40e7cfbaf80f59;1625603076;1.7713128140225012E11;9692350.430249842;88950.49224706799
005606414027a97673f1c82b9f6a19920750e5deb8;1625603076;1.7713128140225012E11;5679421.977242316;52122.27768589851
00564540d3b42fa0863c367f304eea192ec5c2edb4;1625603076;1.7713128140225012E11;2.5078276243613195E7;230153.15352355072
0056511d5cbc65d768e37fb8105fbbb83e0063c8dc;1625603076;1.7713128140225012E11;1.7285395325429045E7;158634.83619859663
0056a72697cf468bf297083f5dab03250f23bba974;1625603076;1.7713128140225012E11;1.385655103268045E8;1271669.9051210145
0056b011bed290bbf0f328b9a9892943c4a6a214d9;1625603076;1.7713128140225012E11;3.248500433587916E7;298127.5952741325
0056e2139d4b8fa3899ddc155015bc254868dd5f29;1625603076;1.7713128140225012E11;2.4092438283779748E7;221105.7328350305
0057027cec1230d2b24b31064235a8d984e0e0bac0;1625603076;1.7713128140225012E11;4.789887584563243E7;439586.72514076356
0059a7f72215cc58a46599c66d19b584072b7125ae;1625603076;1.7713128140225012E11;1.8337092398807798E7;168286.67174097183
0059ddee2a742fe86d081bcafc964dcfa92f73f6e4;1625603076;1.7713128140225012E11;1011112.6085145775;9279.376028737977
005a49ac1bfae72e07305261ec737fa9fd7fca2975;1625603076;1.7713128140225012E11;3330144.5462497966;30562.03949439461
005b0b38e19158f341b9a5548724831869d59b1cb4;1625603076;1.7713128140225012E11;9.071639122687483E8;8325398.171040038
005b27a7a99357ee02f8cbd40f6bf069aaab70a3b2;1625603076;1.7713128140225012E11;6118006.490295553;56147.339368178225
005b559b16afddaadad4c8befd0ab813b105c947ec;1625603076;1.7713128140225012E11;1.2684931492834918E7;116414.57957261619
005c14d980973c264bb900d104ba926f47d96b0e58;1625603076;1.7713128140225012E11;1.1180031098116098E7;102603.51982437765
005c79fc2d54ca89f63d07af8bb57081c1e5691317;1625603076;1.7713128140225012E11;1.191691011235955E7;109366.14685846846
005cc9223af28ed7f5dd5b76991e74c71687d11cad;1625603076;1.7713128140225012E11;4.7023916596555635E7;431556.8817646302
005ceecceb06faf5125a0c6f5d2f4139b243c4d4ea;1625603076;1.7713128140225012E11;3.08197699624619E7;282845.0878691268
005d0873215bd74b030cdf3737f0adf5f51c60ca1d;1625603076;1.7713128140225012E11;8.131246025183934E7;746236.263047994
005dc22421d1f634a69848ea8087d1cc7b29cf9b1f;1625603076;1.7713128140225012E11;1.0197038702672249E7;93582.21399365141
005e0d493f7ba7c7e73b83cca1db088027b40e1738;1625603076;1.7713128140225012E11;1.3249074423414809E8;1215919.3998007425
005e1e2efa72a5b2bab7d961b807216d32845a6b8a;1625603076;1.7713128140225012E11;1.4167324060586516E7;130019.0761860863
005e1efaca0ea84d640ea57680d2556ee363a31f94;1625603076;1.7713128140225012E11;2.2154167636350596E8;2033174.6471187493
005ed2db9c00aa2b6413d885354faa477948e82522;1625603076;1.7713128140225012E11;3.7242048456154004E7;341784.85046569497
005f2eaac85c404b97d9b72f665174114b69dc2a87;1625603076;1.7713128140225012E11;1.3514517710273944E7;124028.01688419741
00604acb4ac4a48485514c4eb56e1d2a26c768a606;1625603076;1.7713128140225012E11;1.5733763342837313E8;1443949.0238367051
00608e54dd1e432ea177ff9a16d77b8159b9ccc0ea;1625603076;1.7713128140225012E11;1.1852346170606486E7;108773.6183029158
0061aff734946314fe0902995774e313cd70bbd2bd;1625603076;1.7713128140225012E11;2473572.400105597;22700.94175623844
0061b27421833ce6c95743568e00b7bb4b93e28bbb;1625603076;1.7713128140225012E11;2273570.378486948;20865.44494858443
0061da6ef7632cee1d8d1567f46b385a8af1e43db4;1625603076;1.7713128140225012E11;1.1736601123595504E8;1077113.8071866026
006217f4e5689905af2ef683f6f994ac39c4728de6;1625603076;1.7713128140225012E11;2.0032221690566403E8;1838435.3650865078
006250425bf281a77a8b8b13dc975e930da8cdea20;1625603076;1.7713128140225012E11;1.2064037792938922E7;110716.39515013769
00625dbe1f50e8fe30838f47b0f77d681ff97d933a;1625603076;1.7713128140225012E11;1.6047392266611204E8;1472731.9773146745
0062a8a1dd01517b5da75e75842c80cc17cc9fb5b6;1625603076;1.7713128140225012E11;1.5432460912502063E7;141629.73208917596
0062d94eaeed9a9ede50e487cebacacad599a331a6;1625603076;1.7713128140225012E11;5722824.159922001;52520.59649842369
0062ea27ae2f820f0a2230928cb8d1674455d769a7;1625603076;1.7713128140225012E11;2.3194213434854772E7;212862.3719459045
0063506c57f7f946e7a7889faa6f24d89f2b2211e0;1625603076;1.7713128140225012E11;1.1120294231911585E7;102055.29122983522
0063828892b720fc5cd3b2b30682619cd0d310a81d;1625603076;1.7713128140225012E11;1699813.0931474813;15599.849845666608
0063f7338f217086fadbf98b9ab80142949595fb96;1625603076;1.7713128140225012E11;2.120907899825699E7;194644.01649304383
00645db784d2dffd521d30ab9894f75afbaca01c4a;1625603076;1.7713128140225012E11;2.3601838710955063E8;2166033.0859717387
0064ad102872415691ff678186f72b2d75fbc38928;1625603076;1.7713128140225012E11;1.2168696189302038E7;111676.88620349801
0064ba590621892e12a65b617f2bedf3c223710eb7;1625603076;1.7713128140225012E11;3511172.3794461708;32223.40275082224
006531c0b0a372e801628f985816d69b225b5a5f38;1625603076;1.7713128140225012E11;2.7025327333642025E7;248022.00320398787
00654f3bc844e5c54a06ed119005446482ffb32f0e;1625603076;1.7713128140225012E11;1340208.5965519694;12299.618677115543
0065a7065035426750e2cc1ff68d3b0100863be079;1625603076;1.7713128140225012E11;1.8806052656293698E7;172590.5035150988
0065e7d784dbf2bbf4b853b86501ff75372b1002fc;1625603076;1.7713128140225012E11;2.504175617002901E7;229817.99451897386
0065f5c1a7d82c4edadf3a88f22e82d319b764e00b;1625603076;1.7713128140225012E11;7.440814116938815E7;682872.6253592329
006628964455ece1c66aace59cd2b5366b0b707453;1625603076;1.7713128140225012E11;6.135363400548389E7;563066.3052484745
006679b71f43483a402f79719f1ba6a9b8a2ced062;1625603076;1.7713128140225012E11;2.8303496372350013E8;2597522.60584406
0066f578f1296b45a50bb24132596bf93f4a951ed4;1625603076;1.7713128140225012E11;1.0837458782113356E10;9.945959964134765E7
00674cd03a0af9ba19cb2b69e0d768d07d1a3b0e0f;1625603076;1.7713128140225012E11;3.866502968388961E8;3548441.0596582415
0068332380f49ff88c8c17831a880d04282fe7e32c;1625603076;1.7713128140225012E11;3.077557244363819E8;2824394.699456149
00695eef3559e82351f6d0f924832326ece7080f71;1625603076;1.7713128140225012E11;2.339352057552164E7;214691.49155917633
006975dad2ddd5ed2381037916ee642be9e0217965;1625603076;1.7713128140225012E11;8900592.277221346;81684.21788365759
0069ab8f6c8d3dc67c84d149f0907c9b6561748eac;1625603076;1.7713128140225012E11;1.1440695750823915E7;104995.74133314677
006a967608e02b6bf9ea81df8d2401a908dfe55f4a;1625603076;1.7713128140225012E11;1681890.7610022472;15435.369591056899
006af52e3758cff9b9b78a61a13efdacf2e237f0c0;1625603076;1.7713128140225012E11;1.2648027124831823E8;1160758.9374779323
006b5e85264328f0435a8a8f72a470acefc769c1d2;1625603076;1.7713128140225012E11;1.2319673221099494E9;1.1306246149744028E7
006b732117e299581ec277c37857d6e4644eb7576a;1625603076;1.7713128140225012E11;1.7464261045344824E8;1602763.568954731
006c300d3d47c5454eff96bd7e228f3225f1ffb8d7;1625603076;1.7713128140225012E11;1.2934852414462063E7;118708.20165753314
006c346a51cf9bc4aa3ba23e544af58625bc717609;1625603076;1.7713128140225012E11;0.0;0.0
006c5c707279939a5fc59e6e4a40f7b1aec95296db;1625603076;1.7713128140225012E11;1.0903663243418133E8;1000671.8388671629
006c6546e22aa72b7b2ea90b1ceefe6bb2e0e6f791;1625603076;1.7713128140225012E11;1.9760119119864577E8;1813463.4475110965
006d499c6e563a91cefece50e79f37220651a99da5;1625603076;1.7713128140225012E11;1.238320454793968E7;113645.51334190382
006d65b13b337004ce821791a861dd6c156cb58029;1625603076;1.7713128140225012E11;3.717618123131402E7;341180.361171315
006d794d9adffa1adce3ba1da53271726997c6fa2f;1625603076;1.7713128140225012E11;1.6715780600957534E8;1534072.5899763354
006dab14da3815c50fea37170c30351d3c1ac9594a;1625603076;1.7713128140225012E11;3.068346789285814E7;281594.190445143
006dcd2720dbf7a87a6e9baa7fb8dd0cfb8f6615ee;1625603076;1.7713128140225012E11;192835.73103423865;1769.728954989567
006e793e96657fda16272eec30c871e5de4b7bb6ca;1625603076;1.7713128140225012E11;1.28762483326308E8;1181703.690684112
006ef7f7ea6fcf74d2d5d96977e343cee36e49ab38;1625603076;1.7713128140225012E11;1.6488386465617543E8;1513203.7404458227
006f718b15aa61709eceae53494e70d129f9ba24a0;1625603076;1.7713128140225012E11;6.331899771546236E7;581103.2170074113
006faa67c7d674231cf6abb4dcf2a9fa14fa46093a;1625603076;1.7713128140225012E11;1147548.0500355253;10531.497458990632
006fd5cd64898387c84ab5b779f1ad386a533d0a4f;1625603076;1.7713128140225012E11;4.1560891651486054E7;381420.5643131547
00705e1aad7e3509f3360e2b4f8da35c6409bbee04;1625603076;1.7713128140225012E11;1.418248967710174E7;130158.25698273283
0071afa38f24c7bd5422a1101ca160636407250431;1625603076;1.7713128140225012E11;587608.0771810699;5392.709239079994
0071f26dcad0013cef17490a35c6761585ccf14ad7;1625603076;1.7713128140225012E11;8.3507266436764E7;766378.8581740068
007211e1a0d842e1ab5a1b4368eb90c77c98aa8116;1625603076;1.7713128140225012E11;1.0501761979267038E8;963787.787327523
00725b17e7326f9ff75f3cfd04b6e61f38fc85b3c9;1625603076;1.7713128140225012E11;1.1823730002696801E7;108510.99653329355
007286ffaae3590759da37a64278018cbc016154a2;1625603076;1.7713128140225012E11;5493402.562432121;50415.104731933
0072b3f9582ab37e395611a096a3623e86567ec930;1625603076;1.7713128140225012E11;8.242745263526618E7;756468.9844163847
0073e61dbb60b448d615a3699ccb72de476817c51d;1625603076;1.7713128140225012E11;4.003378590969785E7;367405.7174065223
0073f36afe58f3c929933519b6cf8fd4edd914e759;1625603076;1.7713128140225012E11;6.644823971320181E7;609821.4952065155
0073f8b94806c0b92915ab9cc9d6135abae30ea52e;1625603076;1.7713128140225012E11;1.1525953283067536E8;1057781.8306546092
0074043255f1530bac32e180d4cfebccde623f1cf0;1625603076;1.7713128140225012E11;942578.8294757553;8650.414723126385
007411a0e69c28923472c92446946b0b6132f0526b;1625603076;1.7713128140225012E11;812512.7739552191;7456.747640364093
00748ce632c3a6b161a3301e126ebe57b8f1302ea8;1625603076;1.7713128140225012E11;1.3589995427636752E7;124720.70542877924
0074b305fa9f68ad4a01ab574486aafe1314f80399;1625603076;1.7713128140225012E11;8194196.836458625;75201.35053077868
00758f4c1d33884c9d56ba69d15f295addab3d10e1;1625603076;1.7713128140225012E11;2390024.6205006368;21934.191092868215
00762c040f54f97db847059c95cec0a03955d1b85b;1625603076;1.7713128140225012E11;5.162137949994036E7;473749.59768907534
0076db1c3a250a8a294928c2911f3d5ae62f338ec9;1625603076;1.7713128140225012E11;5.83639306441744E7;535628.6277134973
007707a6acc37b8b0498d08ae1d0550b8a588c6aa0;1625603076;1.7713128140225012E11;2884398.6288743736;26471.254802590734
00771c50c7ef5ab971bf508460871bb1be28464700;1625603076;1.7713128140225012E11;4.212598367962076E7;386606.6349602289
00773788290cacf4fe755c4f3d67ebbdad94b6d18b;1625603076;1.7713128140225012E11;3.0106260380397014E7;276296.93125795125
00782a958916eb9f9a0f5915a5a6a99fab5ba13af3;1625603076;1.7713128140225012E11;1.0446216423673487E8;958690.1543563057
007878abf6c038bb08544c5e20957f6d31e1831bcf;1625603076;1.7713128140225012E11;1.361644780345692E8;1249634.69231764
0078b61333aa7fc97c78e208d79257876789c88798;1625603076;1.7713128140225012E11;2.600203257588327E8;2386308.26825098
0078f00fca629e074ea0bbf19218fd332d17eb3a14;1625603076;1.7713128140225012E11;2.2363450892965227E7;205238.13904457763
0079de0384110176359931f71231fb8d7d359f00d1;1625603076;1.7713128140225012E11;1.9963129576848537E8;1832094.5114722867
007a0ab56fb0dd11c333d7b34498a60f2b1de76429;1625603076;1.7713128140225012E11;1.9222537026844573E9;1.7641274354245983E7
007a2a9a4eff7cc34bb4150b83c15d5f792d2158aa;1625603076;1.7713128140225012E11;1.026464647147526E8;942026.7694100677
007a4fbe9a8d86bcfe494fd7b5452ea2e6f804f5f5;1625603076;1.7713128140225012E11;1444323.2513403345;13255.119601293323
007a51261f99cb7b9d5cd9f724fe7778f239861904;1625603076;1.7713128140225012E11;4.375195102773372E8;4015287.7350991606
007a62fb67ba47c4e6ca2f95db585b0fe52132919e;1625603076;1.7713128140225012E11;5.437109938278308E7;498984.85294326505
007a6d4ce4bf7f64623d294d429a7f8f8211b8160e;1625603076;1.7713128140225012E11;1.703288100249272E8;1563174.1345513915
007a78c50966d78295d41c1018f677c18aa17ed8ad;1625603076;1.7713128140225012E11;754279.4678654494;6922.317805296143
007ab2079d19d913861c3234a9b54b68b112e2c43d;1625603076;1.7713128140225012E11;8758178.516853932;80377.23108220009
007b2225dd08ccb73842e97ff02ccd2e4a5d20b6c3;1625603076;1.7713128140225012E11;2049600.742600044;18809.987966926044
007c39e4eae5ea4e27a8877cca97f01ea799a19e62;1625603076;1.7713128140225012E11;1.1712396912589524E7;107489.24920382003
007c4f4f5ccb2d726eaaeaf8f7994af98f15e01c5c;1625603076;1.7713128140225012E11;2.7200620785056865E8;2496307.3979510134
007cc0b170027526f161e7116911c4ffd2dd1ec38f;1625603076;1.7713128140225012E11;2.9968450640145775E7;275032.1973505256
007cc0ffad255d2ff183c1962705c63ea7baf6401e;1625603076;1.7713128140225012E11;1.546014832621038E7;141883.8303180964
007ced19cf219d5ceca0e40ec72e9482c11a1da0b4;1625603076;1.7713128140225012E11;0.0;0.0
007cf52836951cab8ea0d6a23544702f628f499ae5;1625603076;1.7713128140225012E11;3997301.905203186;36684.803617733065
007cfa6d2a423fab07b79ed8bf55d30fd4307ba33e;1625603076;1.7713128140225012E11;4518857.402710307;41471.32248859761
007cfd88d07979a7ac3ce9fd7c11862f6d5a61c0fa;1625603076;1.7713128140225012E11;1.1654708841670685E7;106959.82320525113
007d84e3ec27e1520793c1b3c360f53788881d2214;1625603076;1.7713128140225012E11;3773726.8175749783;34632.96755982056
007e0bae44fbc450426a1f0ee13b28ed5aa933adb0;1625603076;1.7713128140225012E11;2.453576420094541E8;2251743.0823803023
007e2aad6eea9b4dceaff704d3d206d8202bdb603b;1625603076;1.7713128140225012E11;1.6213927898752311E7;148801.5603884134
007e733e2f15ffef4d05de565bdc27b158af3e9cad;1625603076;1.7713128140225012E11;2.6113569255115807E7;239654.44257163283
007e8d6a90e99beb2de56cf1fe340736af55192e0b;1625603076;1.7713128140225012E11;9111966.782727055;83624.08442568158
007f43de8770983945e66469ced04a5b6b7f248a25;1625603076;1.7713128140225012E11;2.566757799009659E9;2.3556140622850407E7
007f65b762645069d1bdf4e83ffb07fa1148b9e10a;1625603076;1.7713128140225012E11;1.3368614097979097E7;122689.0023461193
007fe5a37361761a361376c2b174283987b45c16d2;1625603076;1.7713128140225012E11;7027967.090402;64498.40383777143
00803c974202d4dd8db22bd3833b8d123f89ea199b;1625603076;1.7713128140225012E11;2.5150373035862342E8;2308148.1399550196
008096bad17b2006bd1276900650728b77afec9748;1625603076;1.7713128140225012E11;3.2463536462330356E7;297930.57619878993
008108ce010ea881db64a963f75dd0bd58cd866cc2;1625603076;1.7713128140225012E11;1.309820655389118E8;1202073.6651103108
008137ac5c10e66293299230dba5a8017b71225283;1625603076;1.7713128140225012E11;6.535362505161243E7;599775.788164666
008148efe190c847f9dad2e8191bed23a5fcbdc2d6;1625603076;1.7713128140225012E11;960238.451864346;8812.483987508316
0081603bb0a13a6ce956394972da3b05ddf076be97;1625603076;1.7713128140225012E11;2357963.829630865;21639.956670555544
00816362a309834d9d64e78980bb675fe80e53df03;1625603076;1.7713128140225012E11;1.2833146516003853E8;1177748.0683267692
008196a5dd0831fbec1207faee2bee4a04eb1439a5;1625603076;1.7713128140225012E11;3.462396220940646E7;317757.64859455195
0081a333ca572de57720c74541b3f65b9334d67f2e;1625603076;1.7713128140225012E11;2.3750607683274698E7;217968.61966533554
0081ec2575f63d14f427855579585aa837768ea0cf;1625603076;1.7713128140225012E11;5.8294903472877786E7;534995.1383540852
0081f748b7fbe7d3b6b599d1cdced6eb47caf4a44a;1625603076;1.7713128140225012E11;7860543.361678598;72139.28204334545
00821365f05dca5211ed65d4c237daf79fa251e8e3;1625603076;1.7713128140225012E11;1.2523008165210927E8;1149285.4583889097
00822c2dc5f01e0f270c13cda29383eeb31a38b689;1625603076;1.7713128140225012E11;1.888481794289307E8;1733133.6336889951
0083a7d2405ab67ecf2ae6d62b4b10000b827b51f6;1625603076;1.7713128140225012E11;7.25007078411236E7;665367.3633798411
0083f136357ad6873194dd6c971a832b4c7ce942e8;1625603076;1.7713128140225012E11;3358284.1455992647;30820.287607871658
0084233a55687ee683409bf6a28137eb1e0599e334;1625603076;1.7713128140225012E11;2.0419624983451873E8;1873988.8810765496
0084edb623a13be32834db996523d9b8191e7f848d;1625603076;1.7713128140225012E11;9.340734868509052E8;8572357.865952797
00850054fc265ea06507e4055c26b8e8c10cb7285a;1625603076;1.7713128140225012E11;5.482923109309375E8;5031893.069030539
00855902d298ddcbbaa55e52bbc1f98ee39e00c951;1625603076;1.7713128140225012E11;2.5554977123987623E7;234528.02402261735
00857de08e31ae766b410d5d44aa6541f4b7ce3d20;1625603076;1.7713128140225012E11;5.7225773865391746E7;525183.317625339
008589da40c3710374507916e6760b4ece69899f68;1625603076;1.7713128140225012E11;5.8208078659095205E7;534198.3130658541
0085a81dfa2b292cb9d29a4f9927ea4064cc56c660;1625603076;1.7713128140225012E11;1.5632998824062666E7;143470.1469685062
0085e8dc36a7c06d74d1f44ff6102b40aebe308411;1625603076;1.7713128140225012E11;6.271607243645185E7;575569.935813945
0086243a5f7465be25768c6afbc37a7eae10b932e5;1625603076;1.7713128140225012E11;8.04907873469063E8;7386954.493015406
0086364335e8f9814e8438a503dbe7d1c30ad890fa;1625603076;1.7713128140225012E11;1.6708110112651685E8;1533368.6392520084
008642c480aee423a95dbe328ee878856ce9f935fb;1625603076;1.7713128140225012E11;2.9127971827802885E8;2673187.944335405
008690b01f8da3cb9ddbca0bf2cd0157cde5ac055f;1625603076;1.7713128140225012E11;1.310420363494637E9;1.202624040703665E7
0086b9b81da108879123f1bdadd12438b2228f1b25;1625603076;1.7713128140225012E11;6.351021057875156E8;5828580.522701214
00870090a090138d8d7a2f7ee2e1926b0c3d4d2cb9;1625603076;1.7713128140225012E11;1.2586813366709178E7;115514.11113825112
0087134cde483ce0b7f162e5716c71733518d25a5a;1625603076;1.7713128140225012E11;6.568380203458742E7;602805.9515265494
008769a4de5e4cd742cc39d7d01cd5789bf79f2f23;1625603076;1.7713128140225012E11;1.2094447118725004E9;1.1099547343120474E7
0087c2e18fe56380bfb0b9e6ce2f2ce32968f8be75;1625603076;1.7713128140225012E11;3.203096764015237E8;2939607.2286544587
0087e83fc9df70ba11b1ffdf8e5d5bcbc2599029da;1625603076;1.7713128140225012E11;2.8950423314502025E8;2656893.6225715564
0088165dfdd32d3b221e7997d9c982280f9790e14b;1625603076;1.7713128140225012E11;1.0009870495851047E9;9186449.812591037
00888fcb0ac44babd37eec3f356e44f8136449092f;1625603076;1.7713128140225012E11;7.049838001713187E8;6469912.174835692
0088b63e4b50cc6e3e7f088cadcadf978ec345d061;1625603076;1.7713128140225012E11;2.6473375405284926E7;242956.52439393036
0088fe87134b8a8826f237dc69951eba1d1933f74b;1625603076;1.7713128140225012E11;3.0615815167548984E8;2809733.149143405
0089df38fa28a7b21ee74f37869ed1df997f15c028;1625603076;1.7713128140225012E11;1.818154212228544E8;1668591.2599080496
008a71dac5fcfaf42c74c45cd3aaad058fb948d922;1625603076;1.7713128140225012E11;1.8564098434528645E7;170369.99495196558
008aaac20888644972b3bb1b210753f9ca50817d39;1625603076;1.7713128140225012E11;1.337118999195584E7;122712.64233301995
008ab7319e3272eee8bf5779939289eef215950d37;1625603076;1.7713128140225012E11;5231364.387121273;48010.27786881447
008b0fa9021b4d5e4e76b863eb58da571cb8bc5042;1625603076;1.7713128140225012E11;6.822579304967625E7;626134.7976828008
008b5870b2e2ce1bf2461a7beaa79234bc0376a0bf;1625603076;1.7713128140225012E11;6.1220322388418935E7;561842.8523775206
008b8abc011a2cfaedb8d20a743e2fa6507ae901a4;1625603076;1.7713128140225012E11;1.3296724412106244E8;1220292.4257041828
008bb5aef7a1eb91ca6e9ea276cfdf6271ba73a0b0;1625603076;1.7713128140225012E11;6409943.829953371;58826.56256122502
008c024fc8ceb706aa08d1378b4a0c2e40b1425664;1625603076;1.7713128140225012E11;3484602.065393258;31979.55658252961
008c28bf39f42caa606acb4944d84c986fc70290b4;1625603076;1.7713128140225012E11;3119076.5126617486;28624.98556507299
008c339a579abc43130f39e614cd3b428380b06eb7;1625603076;1.7713128140225012E11;9.097179122240093E7;834883.7227939016
008c80f5e31067a7617c0c53e2dc8a42a2c76b57fd;1625603076;1.7713128140225012E11;1.7479394537109338E7;160415.24287071286
008ce4ac46d34ed522fa3eea48df2c36b461b34bfe;1625603076;1.7713128140225012E11;1.1363255846627893E7;104285.04503224709
008d3d1df0c6e4d1443d91cc02a403e36d1b225563;1625603076;1.7713128140225012E11;2.0603357722516724E8;1890850.7534359244
008d537edae634401fcd00a2b7180ff077a43527ca;1625603076;1.7713128140225012E11;9405908.609278807;86321.70357925427
008df0146c11b18bb474c0917a65cb909a298e8278;1625603076;1.7713128140225012E11;2015554.9497672464;18497.536404922317
008e0774d18e361ef15d17c24d6a799fbf7a667a10;1625603076;1.7713128140225012E11;1.1475101258666957E7;105311.49414054606
008e50a18d1cd826843dba0fe4234e337f19168346;1625603076;1.7713128140225012E11;5.974079919735163E7;548264.68915659
008ef60f792c22d86c63c3cf362e2eebbdee482c3f;1625603076;1.7713128140225012E11;485057.67063547025;4451.5640330731485
008fe038c5f7ebba8b6e429b5cee352e9e52351c52;1625603076;1.7713128140225012E11;1.8150517564902868E7;166574.40148865382
0090c55c6f7b632c2b57fc7b38ffbca67560a262e1;1625603076;1.7713128140225012E11;3.052370878918402E8;2801280.186414067
0090c62209b6e5a881fa9658fa29f5a9bfe74507da;1625603076;1.7713128140225012E11;1.4141537454024103E8;1297824.2240807707
0092c5792a7552669f35090b7f6dc2f66e1c32fd99;1625603076;1.7713128140225012E11;8.894998267926094E7;816328.7947157393
0092ce530e70b52baf24fdbb95c90f407cd0eaa719;1625603076;1.7713128140225012E11;0.0;0.0
0092ec3baff84fd5f5f7a45350c5c7a72be48a14d8;1625603076;1.7713128140225012E11;6.047089162300815E7;554965.0330118141
0092fc5b169870d9d56478b8b8ef077e14f22acfe3;1625603076;1.7713128140225012E11;8493498.257858822;77948.1567833368
0093de7b8a76d7a514b522fe0baa3c8461e2781189;1625603076;1.7713128140225012E11;2.4789543871595109E8;2275033.435725489
0094182c7d9eb84e5683e75eb47195aae2e9748354;1625603076;1.7713128140225012E11;1.6339137121892748E7;149950.65442007937
00942f6c6f120392d2d3b49bc7e0b23dba0536ca99;1625603076;1.7713128140225012E11;7048591.7054895805;64687.684000271634
009504c1c6b8710e7cbf05104c6778e2eeb734cb52;1625603076;1.7713128140225012E11;1.1367428416903766E7;104323.33834228014
00951233c1edb8a905705f83e47d1a9bd0ce1c04ea;1625603076;1.7713128140225012E11;926.0963543952965;8.499148600176367
0095b14bfa7b44f73907fe46a96210ba4a64a7ab63;1625603076;1.7713128140225012E11;1.727975739205223E7;158583.0946780302
0095c0ddbb3a80032e024410b4a2fd3f51d754f0ba;1625603076;1.7713128140225012E11;1.1990912509505625E8;1100452.9581216932
0096399fcc8b88aa236783bb358eb445d4e4dcbc8a;1625603076;1.7713128140225012E11;1.7184202338756252E7;157706.1485658834
009669a5e23d4d50f858edcf125a523ef1ec1cd6e3;1625603076;1.7713128140225012E11;1.2681836092041168E7;116386.1718683872
0096e627d12e1d5ccfca8ff78ac02449e3668c3ebb;1625603076;1.7713128140225012E11;1.299143045417133E7;119227.44046536725
00973bbe1778557d99d7dabce6ec8217ce0808b70b;1625603076;1.7713128140225012E11;9837.217450140062;90.27999357105888
0097604cdb055a69f522460b7e2d91f81c4b0c988f;1625603076;1.7713128140225012E11;1.8809701553319697E9;1.726239908708189E7
00983564123f8f57a65c593d69eca6c521aa90148a;1625603076;1.7713128140225012E11;5.204964158859273E7;477679.92644374917
00983abd8d9dd3c0bf9195a279d7a22424c0d9852d;1625603076;1.7713128140225012E11;1.4167448495862858E7;130020.21817730537
00986fdaff74d68238d417bb8c0f8fe5e6f2cf251f;1625603076;1.7713128140225012E11;5.2019335026158124E7;477401.79126216704
009990900643298f27edb177d5e8b81ebbde7ffa3c;1625603076;1.7713128140225012E11;4.306859762686573E8;3952573.7197286407
009a015cf857dc0d4275447c704cd9ba33c47536d7;1625603076;1.7713128140225012E11;8846282.022803482;81185.79142876434
009a016a43a36d00df85b4a75a0cea44c9e160fe2d;1625603076;1.7713128140225012E11;1.6136339017984902E7;148089.49687122772
009a0d5bce9d74287eff6868aed231dcef4e3cef1f;1625603076;1.7713128140225012E11;1.1274726310314981E7;103472.57483834437
009a10b43ad264215ebab2a92a40201b13c0b62d0d;1625603076;1.7713128140225012E11;7.897874225821259E9;7.248188199011731E7
009af7d53a9a17587c0b04af596bf619f18bfddd8c;1625603076;1.7713128140225012E11;1.506509509927029E7;138258.27228106538
009b142a9268a15326188079c7f7f2d86f1231de13;1625603076;1.7713128140225012E11;2.0370272093618516E7;186945.95732723337
009b966b1edcee9dd021c98cfb296088a21a201ac5;1625603076;1.7713128140225012E11;1.1994720710893156E7;110080.24516634658
009d2e5ae513415892adb225867801faa38f165dc3;1625603076;1.7713128140225012E11;2.459896704342294E7;225754.34545297083
009d70b474adcbfbff832a67d5e464fcba7fd7f40a;1625603076;1.7713128140225012E11;1.350607466775253E8;1239505.3177944936
009dd560e0420b6f28965f666b81d22080d533f6db;1625603076;1.7713128140225012E11;4.058400745106786E8;3724553.1577814673
009df375ee901d99f8a3eee4dba59de9acbb8bd9f6;1625603076;1.7713128140225012E11;4265743.144837087;39148.39390748626
009e1ad336657569acc9ddd2584f81ca72f7afb2b5;1625603076;1.7713128140225012E11;4.952884027646297E7;454545.5464824979
009e7f984e0b80d7b72cbec77f238c395c37242670;1625603076;1.7713128140225012E11;7.543454068420996E7;692292.295308496
009ebdd90e6e0a4f7a8cfdc66179d8b3b386badff5;1625603076;1.7713128140225012E11;8.958270369627548E8;8221355.230551168
009ef85210e6e76693649ed08ecb5d036011a743dd;1625603076;1.7713128140225012E11;2.300559454144828E9;2.1113134255975667E7
009f1b1ae52e1c0287aa656ca0713efc99329dd620;1625603076;1.7713128140225012E11;4.073024453270689E7;373797.3906948737
009facd6d3b7407d9743e73f09e8ad5245eaf0901f;1625603076;1.7713128140225012E11;1.532681240449438E7;140660.15439385016
009faf479970921eb7595e1a3362df880673d3dad4;1625603076;1.7713128140225012E11;1.2029413720302839E7;110398.63648811434
009fe2ecbcd0073b4afc91f805cbbdcd37f42235d9;1625603076;1.7713128140225012E11;1.224499375877667E7;112377.09885169551
00a05a23518f52534e73545fefb4b180a1959895e7;1625603076;1.7713128140225012E11;7.393675733993524E7;678546.5515168881
00a0d4795404137823f62c9cf2fac3ba50f7dd4c43;1625603076;1.7713128140225012E11;5.711852397175433E7;524199.0433875113
00a0e4ab4500714e06c4db31814eb145c9e3850a0d;1625603076;1.7713128140225012E11;1.376918504362087E8;1263651.9864660644
00a0ea7251b606d22fa28c0ebc227b9b45d7315920;1625603076;1.7713128140225012E11;8.32073362534347E7;763626.2815272082
00a1074b13fcbc29c219a52d6f12af4d8fddc0b09c;1625603076;1.7713128140225012E11;8.771080085860974E7;804956.3382900485
00a146f5cca89e84dfb701a00ee95519c6ed010882;1625603076;1.7713128140225012E11;1.9493984943090573E7;178903.92727991164
00a14a47eb479014049cfc536a6f43887fb4ddbdbb;1625603076;1.7713128140225012E11;1.8044735076971474E8;1656035.9420714548
00a1867413280e5220f9218f74943f843b203f251a;1625603076;1.7713128140225012E11;4834420.219649743;44367.36593065366
00a1ae0209acc8848013e68be3354cc64a7bbe3977;1625603076;1.7713128140225012E11;2597829.49250656;23841.297711565796
00a1bf93e9ecc06ac98fcf7090ae2dcb3955bd15bb;1625603076;1.7713128140225012E11;6.052637121621092E7;555474.1909462664
00a28862bf5ce379b3dd0e2b65c3247725459f8a5b;1625603076;1.7713128140225012E11;3.6451903971458495E8;3345333.853679602
00a2bfbd9d9c8aaf65adeb422631ec91cf924e2dc2;1625603076;1.7713128140225012E11;1.556405978145049E8;1428374.664005135
00a2df0b8eba964217008c1b2e54e476fd67362781;1625603076;1.7713128140225012E11;1.0065611318051456E8;923760.5346108563
00a327e0bdf695cc2d749d97bc9fe2ee08ee89e2a9;1625603076;1.7713128140225012E11;1.7863411210134415E10;1.6393951413416752E8
00a561d0208cffc300ff3e8e084a0e903ac73631ce;1625603076;1.7713128140225012E11;9.777464487117068E7;897316.17249715
00a565524c5479842d692e49a74f94785401952741;1625603076;1.7713128140225012E11;1.3681494379573997E7;125560.42711171666
00a618ffbd39178b90f7c44dd5089ff588818f2e73;1625603076;1.7713128140225012E11;1.4143914227792636E7;129804.23499091672
00a65dc475af4440feb95e47cc36a028463ebab1ff;1625603076;1.7713128140225012E11;5.856796444821087E7;537501.1257659247
00a6d31084268ab9e20811c4b7fdebafb1851be5e5;1625603076;1.7713128140225012E11;1.2346770740105894E9;1.1331114603187177E7
00a7a1ed2dc69fe47f46f3c0c08622e86a8ab22476;1625603076;1.7713128140225012E11;1.1919665594829086E7;109391.43499923548
00a7aba4ab460e7dad066220e88bbbd86d31df598b;1625603076;1.7713128140225012E11;2.6503045479514368E7;243228.8182742134
00a7cd3060573227a8673616587be7a5d5407f62e3;1625603076;1.7713128140225012E11;1.4739606893798754E7;135271.13966492022
00a83b632f1fa16b752fa69d3498d2e6f542cf298c;1625603076;1.7713128140225012E11;1.3090878883320276E7;120140.11761108706
00a90afd1ac71001aed439c5c78b81b8b81648007c;1625603076;1.7713128140225012E11;1.1921484174309155E7;109408.12481468392
00a9b7c1358bf834b85bbece695737fcd41582ad03;1625603076;1.7713128140225012E11;1.3346775898867175E7;122488.58464818586
00ab9f6b4cb7521f29a2914887b71d90957a37cc16;1625603076;1.7713128140225012E11;1.1748729925485457E8;1078226.914792691
00ac88287b451f428df99f694d2a760b19adb9e77b;1625603076;1.7713128140225012E11;239462.2715041165;2197.638960557387
00acb67deb8768cb62372591efb2cd6c2e2ea75618;1625603076;1.7713128140225012E11;1.851105030035515E7;169883.1514683877
00ad5db8f0c8726b088ece10794f3eadb48e270e02;1625603076;1.7713128140225012E11;2.1880447218762952E8;2008054.2534044392
00add78c95d7769da4a78cd05818ae8550ac33c7c9;1625603076;1.7713128140225012E11;2.2796613242153084E8;2092134.3940752202
00ade0c0ac27ed13d3153a93f67a3448532674fb7d;1625603076;1.7713128140225012E11;1.242658298784763E7;114043.6142577229
00ae9d0c61cd4a2e842797b65bec78e7bf659ea642;1625603076;1.7713128140225012E11;1.2972819982822837E7;119056.6448880394
00aeb30f0c95adf763d21227eb0f40b9ee5ac899be;1625603076;1.7713128140225012E11;5358896.036845779;49180.68571794369
00aecaa587bd7b5ad5229a01549f0a971645e45e67;1625603076;1.7713128140225012E11;2.7650865900376403E8;2537628.153868501
00aed8e1dc9a1cd9e55c661b52c4b72a697c2dd451;1625603076;1.7713128140225012E11;2202739.205373654;20215.399558644647
00af30468f11657c54ef9dd6ddaa3e0f326334f1f2;1625603076;1.7713128140225012E11;4.3540984225833334E7;399592.6486234013
00af83d3a69a3cf191d11a252ae9696f6932928904;1625603076;1.7713128140225012E11;2.4986016444495335E7;229306.44924833832
00af9ef8da2344028f58fd249d4c3b1f3f6a5482f5;1625603076;1.7713128140225012E11;6.1583368925268196E7;565174.6724962555
00b09ac0eef8be2d5520555fdb142af58846cb20e2;1625603076;1.7713128140225012E11;1.1659508228508866E9;1.0700386905613247E7
00b0ad1e398131a0843105d5dd2efa98f44fde7e5d;1625603076;1.7713128140225012E11;1202919.8346229065;11039.66599159694
00b0b064e4880325ad339018265744c2cd8028e969;1625603076;1.7713128140225012E11;694361.4525864149;6372.426734818198
00b1ade35c764fae5e8955a8548288f05b4d136c1a;1625603076;1.7713128140225012E11;1.9663450869773578E7;180459.1823964118
00b1c98d1b6b0f55c7dc74428f4ed83cd7b08c1269;1625603076;1.7713128140225012E11;4.330150423512862E7;397394.84704680694
00b21737c18facf1dbadd51607296636673a2a9b4c;1625603076;1.7713128140225012E11;1880879.8255262324;17261.57009511108
00b2e5260709aad12ce12fe44d23508064ab844072;1625603076;1.7713128140225012E11;3.689026983457123E7;338556.44041418424
00b33c83eaa40aa5e9dd699190c4d8f515077b674e;1625603076;1.7713128140225012E11;1.3227531832435463E7;121394.23519363673
00b35c475557dca47664a3436fc6cca48f03a27fe3;1625603076;1.7713128140225012E11;3092683.964929184;28382.770827857243
00b38951b436d5fcdf69b8fab89d91343c623f6806;1625603076;1.7713128140225012E11;1.6089260687471474E7;147657.44061165728
00b3c7d72e7f19a8a3de46dfe850ad663ccf80f702;1625603076;1.7713128140225012E11;2.4990797783313163E7;229350.32946547514
00b3e0a7734f2a30f739e1a193511db01d96c37d04;1625603076;1.7713128140225012E11;2.1685987008319054E7;199020.78790229803
00b4aa0d9635ace6a0f75d7251832c13d5cb441e8f;1625603076;1.7713128140225012E11;9.765803241226387E8;8962459.743345322
00b4b756b1ef697f11b324a9c67346e31292eda0df;1625603076;1.7713128140225012E11;2.424021129638101E7;222461.9035911652
00b4ea334212ab90793cf66609f0e3fb50652be010;1625603076;1.7713128140225012E11;346510.29102480627;3180.0605206282034
00b4ef08393daef3506b89499b7cc9e5645b5538ee;1625603076;1.7713128140225012E11;2217573.684628482;20351.541379087663
00b4f0ca31a0cc4e56eb835b5cf729a7dba330ddf5;1625603076;1.7713128140225012E11;5.960456011464336E8;5470143.6978799105
00b5787ce59988e97f4eecba542145e079cc09e090;1625603076;1.7713128140225012E11;1.6542572235368606E8;1518176.5805498087
00b5daabf9a664fa3c56e81b8795bfa4bb2a1f446c;1625603076;1.7713128140225012E11;2.3451584708017552E8;2152243.6882198052
00b5ffff62f8d57310260341b5cb3bac9993d39d47;1625603076;1.7713128140225012E11;1.3585490292541057E7;124679.36004127127
00b68eb221da8747ad6f00257ecfb98b00c4425329;1625603076;1.7713128140225012E11;1.6707596773778649E7;153332.1528135077
00b74cc6bab60b82db1b9c3ab30c5890d4b90f24bc;1625603076;1.7713128140225012E11;1.2736517551212959E7;116888.00501454942
00b76bb2a448a1a312934d8dae3210b2a87e76976e;1625603076;1.7713128140225012E11;2.414839677270884E7;221619.28578294188
00b78b3a71a0c68a3328549e0f0de79ba9af063782;1625603076;1.7713128140225012E11;1.2026110625928368E7;110368.32269863035
00b7f1f50232353a573d20dba8e0cf4649bba867d9;1625603076;1.7713128140225012E11;4.8356511608662575E7;443786.6275983086
00b87446a29c44c687a9d84defb4e32a0833f2ca19;1625603076;1.7713128140225012E11;1.5136320840188708E7;138911.93877413624
00b878b938b37354bf4d453ad71de96d7b535e3fc6;1625603076;1.7713128140225012E11;3.534004516558087E8;3243294.2206682083
00b90dac72c5ad4b39c8a25ebb5906ffd580984de0;1625603076;1.7713128140225012E11;5.6329085224298224E7;516954.0551165579
00b9e0cd10605f7ce71c8fba99c8537abec9a46e19;1625603076;1.7713128140225012E11;6.100835356465342E8;5598975.315442862
00bab91a09d27e81762b529f834fd956b3e0144b7a;1625603076;1.7713128140225012E11;8518508.024044018;78177.68119324817
00bb0be266879971b7eabc5752aaf087cf991af00d;1625603076;1.7713128140225012E11;5.935221323878783E7;544698.4837719115
00bb824a607292b2b3bf5fcf7b5190238cf35bcd39;1625603076;1.7713128140225012E11;1.1227325181690976E7;103037.55613421122
00bc65232bd889b7e40e486ea58bf7d59eb391a0a5;1625603076;1.7713128140225012E11;592897.7585495261;5441.2547147043415
00bd2d60545c98bb267fc9dbb5774a7b2e9766df61;1625603076;1.7713128140225012E11;2.6190609052459726E8;2403614.6693539997
00be15cbd68e9147517051d10b92b1dee2a8ba0198;1625603076;1.7713128140225012E11;1.8414613707219493E7;168998.11512020996
00be2512f20d0cb1888fb092489d8fae9f1608c41b;1625603076;1.7713128140225012E11;2.4381517608330328E7;223758.72690517586
00be33473d3969ae619a931af176df9f730607b3a9;1625603076;1.7713128140225012E11;1.3989481064639699E7;128386.9414272366
00be773eda360041ff684d943c43f572d414497513;1625603076;1.7713128140225012E11;5.846269553259308E8;5365350.317384849
00bec046271df26d10fdea6a3b877a729a71d83775;1625603076;1.7713128140225012E11;1.432882924291076E7;131501.27243678705
00bf515c7bc2349e96f80e4921eebe4b81aa94eba7;1625603076;1.7713128140225012E11;1.0518021054451304E7;96527.99462744474
00c02d11f4805cc882aeade494bc67ae1b3c791d21;1625603076;1.7713128140225012E11;2.146167090409637E8;1969621.5124515872
00c02e09264e9429e1fb44c094857cd9bff4020c24;1625603076;1.7713128140225012E11;1.84744360693872E7;169547.12834465885
00c0aa1158cc9718917158977432c0469e9f9bb12f;1625603076;1.7713128140225012E11;1.3698973821888432E7;125720.84279305859
00c0ba1cd12676ddf3befafd665434de75644d780b;1625603076;1.7713128140225012E11;1.2004783391798185E7;110172.59432626078
00c139ff8f7cd73ea7d19f49210839655745af93f6;1625603076;1.7713128140225012E11;1.2147671382640762E9;1.1148393332634212E7
00c1533d7112da2a15383d839d243d6d02e2954921;1625603076;1.7713128140225012E11;1.7833309639979905E8;1636632.6024694766
00c17ffa6c6d829b5b90d1fea02c6a61c430d30bc5;1625603076;1.7713128140225012E11;2.368331827454781E7;217351.0784329643
00c30663ad7ef0e2f691d3d3f5f9bab11ed8979b60;1625603076;1.7713128140225012E11;3.8732934608516043E8;3554672.9602843993
00c3a7159620a092d4fa591c5ad17ae80cddf6e268;1625603076;1.7713128140225012E11;5.29201239529554E8;4856686.836971799
00c3b14a5f66a049ba970d5cc28f0e5dfe19107e62;1625603076;1.7713128140225012E11;1.762615445319101E7;161762.11604369062
00c4388e201455859a506d93850f8e300e6ce9102e;1625603076;1.7713128140225012E11;2.5539195425148904E7;234383.18919743216
00c441c9e6c6855e82647bd659c0bfd70e4f5a297f;1625603076;1.7713128140225012E11;2.337050101343371E7;214480.23203097738
00c447a87c9815429396a1f4672603fdf39dff0730;1625603076;1.7713128140225012E11;1.1828125466844227E7;108551.33542759804
00c453d4fea90b7acb0049ccbebc96098bec8b4039;1625603076;1.7713128140225012E11;0.0;0.0
00c45a55cf8de7d1ce6dd3a5658fda74c9dc376c22;1625603076;1.7713128140225012E11;1.2710105044926351E7;116645.60710987396
00c4c1ad0ecb6b0db9322af0a76502429b8d87ae0c;1625603076;1.7713128140225012E11;4.137363316519527E7;379702.01991539745
00c51ebe02bcdadeac72b8c19b7b19b87a5eab3eaa;1625603076;1.7713128140225012E11;1917182.8449650947;17594.73710886901
00c578d6b2994533ea89e8fd90b08a4a8a983f68fb;1625603076;1.7713128140225012E11;1003249.6346526257;9207.214441042637
00c60c1a85efcf3631c0a0dc9fc738c9fdc1818ac8;1625603076;1.7713128140225012E11;9398469.286810417;86253.43000616072
00c71d1b9673625b3d17ec454bb47d2a4d2ba54dbd;1625603076;1.7713128140225012E11;2.209429407172802E9;2.027679815824636E7
00c744ad30409887487ae610d0694ac7d67ff2d64f;1625603076;1.7713128140225012E11;4.952963185006216E8;4545528.110631385
00c774fff889a942b555d39d0df927d88cc1da3039;1625603076;1.7713128140225012E11;1.5010700600946479E7;137759.07268688493
00c7915f11747847628884ee036558dcfc0b65d0aa;1625603076;1.7713128140225012E11;9865371.280576952;90538.37228879343
00c7d598e3ffb4bbbcdeb997f32e02e1b5a484d774;1625603076;1.7713128140225012E11;2.125028118600133E8;1950221.450912502
00c94a1520c04e233eae0e55d08868ca46a6b589d1;1625603076;1.7713128140225012E11;2.0899964158418745E7;191807.1486597605
00c950e7d858976e709d22a3c04de052ed13e2c443;1625603076;1.7713128140225012E11;5633903.975299049;51704.541172129866
00c9e4abf7b14fb470c47fd188a3f292fb22589eb6;1625603076;1.7713128140225012E11;6010289.000737262;55158.77381962724
00ca4be5d52674f3fc5048128b111f0b9866375255;1625603076;1.7713128140225012E11;1.2565196363599395E7;115315.72344257719
00ca9db3d5c590cffb9518e1ad1311246a59a8da21;1625603076;1.7713128140225012E11;3.0643882374989487E7;281230.898658944
00cb940e655ad4df1379826749014b82e52ba5e2b5;1625603076;1.7713128140225012E11;4073181.9025814384;37381.18404341768
00cd1fe739b204551d1a07e0721c598935188486bb;1625603076;1.7713128140225012E11;1.2800536993675616E7;117475.53648706646
00cd5e9f783fcbe37ae2910213aa08822ffb1c3266;1625603076;1.7713128140225012E11;1275191.0000292393;11702.926754239099
00ce9b4a5f03f9569530a782d20f48b582bfb73b4b;1625603076;1.7713128140225012E11;1.7508579737460196E7;160683.0868736944
00cf3ab49abbf6d95b7c5cbb34de69f67a287434e9;1625603076;1.7713128140225012E11;1.7378744273607187E7;159491.53602088915
00cfc8bd7b41a84788de70e842ab6959262fec33ef;1625603076;1.7713128140225012E11;2.4827525704844877E7;227851.91771752294
00cfd53c4bdb671689b75699ffc8ad2d2765b191fe;1625603076;1.7713128140225012E11;4.204826988634402E8;3858934.2507207035
00cfd9783430ca486182267435dd6dc6d1a5524d44;1625603076;1.7713128140225012E11;1.348659644195505E8;1237717.7248001483
00cfeecc6d19cd106c14c04ce533620a2712b3a00c;1625603076;1.7713128140225012E11;7241802.924331307;66460.85895378851
00d0105d2e717229b47b71b82e713fb97a1c143270;1625603076;1.7713128140225012E11;1.35346093964975E7;124212.40614999212
00d01e90f71e84e5f63d3607f097c43a30b575c816;1625603076;1.7713128140225012E11;6306305.085794648;57875.42925510613
00d0858cad38d2b16f99770238c15bc79a74aa60ae;1625603076;1.7713128140225012E11;5.590273460674158E7;513041.26868003537
00d0bf77d0f8318355c3677728e64c2f53ec57f939;1625603076;1.7713128140225012E11;1.68291979212999E7;154448.13412347616
00d0d42ed20328110b70cc049c425388b58366d693;1625603076;1.7713128140225012E11;7.367013933947858E7;676099.6938064474
00d12c001dd117c56877593424fe621e42693f7732;1625603076;1.7713128140225012E11;8.892745745173818E7;816122.0718892645
00d163d76f4ee87d21c88c5c245577aaa98f7e660f;1625603076;1.7713128140225012E11;2.316488722679904E7;212593.2338600429
00d1912d0791256aeff5c22de228d65a09cb58667e;1625603076;1.7713128140225012E11;1.4216607718781024E8;1304713.7160066974
00d206b9c77cd3965f9f298a67629f2fa7f1f71b3b;1625603076;1.7713128140225012E11;1.7702691768594557E8;1624645.2893408374
00d27a028ec882a7282632138198b381648a0aaabb;1625603076;1.7713128140225012E11;1.0492298597105006E7;96291.9295718916
00d3bcaad520cf34b11e951d7e8b647a37f82fe288;1625603076;1.7713128140225012E11;1.2778072515258996E9;1.1726937117890805E7
00d48ca32da7b6f4a03a56f7ca1031b723b61aefa1;1625603076;1.7713128140225012E11;1.2823772610529268E9;1.176887788343867E7
00d494fd3591fd3d9c0ffc4eaa8c79698917da66c2;1625603076;1.7713128140225012E11;9471524.173215093;86923.88328305303
00d4c2f1385403f7ac748a5a2ba5df56a1473cb1ad;1625603076;1.7713128140225012E11;1198839.3733442754;11002.218001871295
00d4cd15f43ee2a9067ce3957f4aec1ab464ae7839;1625603076;1.7713128140225012E11;7.677525484363575E7;704596.5537339174
00d4f5c69d23a1919d4021a3a79769d52a32bc381c;1625603076;1.7713128140225012E11;1344360.3346130329;12337.720801762202
00d52235b604dab92de67da8605b79858ac3a2f218;1625603076;1.7713128140225012E11;7862059.357122025;72153.19492669686
00d555eafd5cc47260b59831ef186e0746361d20d6;1625603076;1.7713128140225012E11;1.184939372096112E8;1087465.225173084
00d5abc335c54cfaf7116ebea2132c89115eff6142;1625603076;1.7713128140225012E11;1.8211089539575573E7;167130.2942003637
00d5bdcf82749c811edffae84acf943dd722510c94;1625603076;1.7713128140225012E11;1.1669876848915217E7;107099.02594255596
00d72ef3a5a298539780aed09861a7f9d3b7a83dad;1625603076;1.7713128140225012E11;1.0651380090541465E7;97751.88268134672
00d73b71d9b3140493898a07e8d8807bb59bd65289;1625603076;1.7713128140225012E11;1.2321333747132657E7;113077.70079456453
00d82d1af87114ca1d65a446dc599c9c395abfe499;1625603076;1.7713128140225012E11;6.552260695641433E8;6013266.01222979
00d852b81a4311c8e7689aee1d48183d1a11e9e5bb;1625603076;1.7713128140225012E11;1.1767001118076596E7;107990.37336269031
00d86b62452eadae13bf13566dcb9e319ceeee1894;1625603076;1.7713128140225012E11;1.378575330251773E7;126517.25204120441
00d8de5e00d4dc39eafbfaadbee2ec22a20bb489a3;1625603076;1.7713128140225012E11;3.7796855032833524E7;346876.5275003523
00d9b7e9a1b70afc38227df3c2aa2ad8b42f0386a0;1625603076;1.7713128140225012E11;3526699.3442440196;32365.899782043998
00d9e0d62e471bae1d22c8bf69891e018f9b1bb467;1625603076;1.7713128140225012E11;2.2372200904739894E7;205318.4413262714
00da020bf4a271401be020e491ea441a9527b2c071;1625603076;1.7713128140225012E11;2802656.2030460904;25721.072577214076
00daabf55e460aab3dacaf339950d5134d2d7e1c54;1625603076;1.7713128140225012E11;1348265.0332434888;12373.555748894478
00dac63fbb760d82c1c05cdf7c5074ed622fcd358d;1625603076;1.7713128140225012E11;2.4376558774860972E8;2237132.177501732
00dae0d98dbbe72eb56a8efbcc957d08dfa817dfbe;1625603076;1.7713128140225012E11;1.9793327443818936E9;1.8165111053353753E7
00db4a89cd0231136c59ea80488449877e52a8384d;1625603076;1.7713128140225012E11;1.3650267996550664E7;125273.85037669148
00dba8ea0786edfd8a49409c1ad229ad16a5519b80;1625603076;1.7713128140225012E11;2.2020377498236078E8;2020896.2026601713
00dcf971b2265105e66684ef63b9f734dec4e34a6a;1625603076;1.7713128140225012E11;1.845523431884491E7;169370.90636681832
00dd4f4e815374cc0eeebfa046d649ef89ddb3e12c;1625603076;1.7713128140225012E11;3.0654291277089424E7;281326.42522623064
00dd51fb618eb72dd50e5850a9a6a2b248cb70c24c;1625603076;1.7713128140225012E11;1.600903479815998E9;1.46921176235274E7
00dd5889a75c371712c694f13044bbc485798f93e3;1625603076;1.7713128140225012E11;8.817763313503268E7;809240.6407493408
00dd611213e24915ed39104d8540f002056f20be9e;1625603076;1.7713128140225012E11;1.4820481105420794E9;1.3601335394881796E7
00dd8e8efaf383ac92ccbbf10b80e4b3defee9b7a0;1625603076;1.7713128140225012E11;3.416129204111409E7;313511.543430092
00de10ecf29b07d150f553de1755bb9582f2f5856c;1625603076;1.7713128140225012E11;1.1895959887720041E7;109173.87844970821
00de288fa2f6118117fd5a66f80ee523b2fdf03d3d;1625603076;1.7713128140225012E11;3699724.0786516853;33953.81546949643
00de46c449e045bf90a909d6aa661c72695bd318af;1625603076;1.7713128140225012E11;3940663.161549521;36165.00770604944
00de53d14bc1811ead882312913ef639cf4a45bcf1;1625603076;1.7713128140225012E11;1.1395038991208265E7;104576.73138592663
00deed6ecc35c5285f376008f6844390eb4f721277;1625603076;1.7713128140225012E11;2.6656818401468176E8;2446400.5254607503
00df78980bcf8a4d4a11b17464fe26fc32871ab1a7;1625603076;1.7713128140225012E11;2.2746017267252922E7;208749.10034905755
00e01535db644fccbe194a356406b6c5071c405584;1625603076;1.7713128140225012E11;1.3613326478326364E9;1.2493482360975267E7
00e037842c74b82774d486dba00150c94f8d19359e;1625603076;1.7713128140225012E11;1201669.7104352235;11028.193112787552
00e0f2f83d361743b236aea3b27f2b9ab29cefcf86;1625603076;1.7713128140225012E11;2.8960437088021483E7;265781.26257485634
00e2a66feb5d154263be9311df2056b22e492946d5;1625603076;1.7713128140225012E11;2.1772910864607845E7;199818.52214236124
00e2aa4548e1d4b122832cabcdfca21cc1177614fc;1625603076;1.7713128140225012E11;2.1228816996933264E8;1948251.59829829
00e2b875c8176d8a4aabf55d996264c4f2dc552083;1625603076;1.7713128140225012E11;4.119370851479574E7;378050.78099914145
00e3ce432f24d301fbb4ce706334eccde1edc9249c;1625603076;1.7713128140225012E11;1.235791011235955E7;113413.37640957187
00e44c8e1464ec47d90b9d403625c9e58cbe295eea;1625603076;1.7713128140225012E11;1.1636218167788714E7;106790.12705614699
00e46ada75a810bf6ff0f28e47f2c435c6b8ee9ad9;1625603076;1.7713128140225012E11;1.3214019584340832E9;1.2127022800590334E7
00e489223627fab44016d39d51b12622baa3740d7f;1625603076;1.7713128140225012E11;1.5347998197884245E7;140854.58470920398
00e4b041adf21c946885d3a6633cb03652c236b129;1625603076;1.7713128140225012E11;0.0;0.0
00e4e6c50539fbb1319183539370f008400c3d7fc6;1625603076;1.7713128140225012E11;3.1525502584150726E8;2893218.7227202184
00e522ea0b460584691c6588acccc5b0203bbcd54c;1625603076;1.7713128140225012E11;5.102212509067721E8;4682500.055035905
00e526fcf4a28ae3ac2b034792d82694090801e703;1625603076;1.7713128140225012E11;5.728021205146E7;525682.918159044
00e55aa3a69fdb2105de9a6b5f1c08088f68b2ac50;1625603076;1.7713128140225012E11;9227504.32414755;84684.41764994203
00e6a53d215fafbce407ea14729aec6fdfcc280a8c;1625603076;1.7713128140225012E11;1.841646241553299E8;1690150.8143975136
00e6a70b4b85e2fd678b5223dae1e701b334d6faf7;1625603076;1.7713128140225012E11;1.8091281293152012E7;166030.76704528136
00e783ac0501fd88ec9444f145ecb8ba2d8dd056cd;1625603076;1.7713128140225012E11;6783239.136280579;62252.43964751906
00e7e18b7b33dc24b9d88158043f6e0a1a69b52f79;1625603076;1.7713128140225012E11;3.5944623337560666E8;3298778.725057975
00e8a99474b9109d58fde61fb675e2f9464d704750;1625603076;1.7713128140225012E11;2.5134407397283316E7;230668.29108334947
00e95783aaf01659a4462b069c0024adf307867675;1625603076;1.7713128140225012E11;1.7246661779672667E7;158279.36329382515
00eae26c14b21808e4a9b5c33be9443c92d18097bb;1625603076;1.7713128140225012E11;9.187318020309502E8;8431561.2215831
00eb39fa1b00ac977c93cdd06bd8c6e0b030dfc9df;1625603076;1.7713128140225012E11;1.2495916463882544E9;1.1467991469556695E7
00eb9be72269d40ffc199bc089f35f4faeff024bea;1625603076;1.7713128140225012E11;4.30418049894131E7;395011.4854557432
00ebbc29bca33c7a1c659a546caf60574c4c6c36e0;1625603076;1.7713128140225012E11;1.1327398819962854E7;103955.97106867918
00ebbde1133624b2ee723ec96547b37b40e158e58c;1625603076;1.7713128140225012E11;2.90127324192777E8;2662611.9729151144
00ec90d639f295627e4a4be29cdbd05a726d9402fc;1625603076;1.7713128140225012E11;5590254.868808779;51303.95624318048
00ecb988b7c624f21cb7128033758df32fb54747a7;1625603076;1.7713128140225012E11;2.4021424216450803E7;220454.00895331224
00ed3e0342f724aaa0eb0998388c1b46ecc6f730ab;1625603076;1.7713128140225012E11;2940956.208399138;26990.30583930617
00ed458d9f727b468c4ad042aa18f5a6973d889c67;1625603076;1.7713128140225012E11;2.0527778388008025E7;188391.4542187028
00ed6af636838e62de986c3cfbd0001befd95048a6;1625603076;1.7713128140225012E11;2.38321854456879E7;218717.29071012378
00ed7d6295501ae86f1deda943ac05ecde1f0a97b1;1625603076;1.7713128140225012E11;2033472.7138485026;18661.974736621545
00eda7b0f41d0a6e6ddf5723603a49039ced9e76d5;1625603076;1.7713128140225012E11;6.464066358355374E8;5932326.618101872
00edf6c851ed71d03bcc0e7e52df90a8d58236cec1;1625603076;1.7713128140225012E11;2.5430017699309015E8;2333812.2248917487
00eea6aeb7910576a371adbd01b32ec2a0c4ca7c0c;1625603076;1.7713128140225012E11;6975194.597832245;64014.090025041965
00eec031fab956a8264ee64bbd14883962d2aec0b7;1625603076;1.7713128140225012E11;4.538700973688828E8;4165343.4703708007
00eecb2100435327cd6e5a57b43faed31040afe05c;1625603076;1.7713128140225012E11;1.4143453558568217E7;129800.00724919711
00ef1799a8a4e9d9f49d601580c26b2c72306c147f;1625603076;1.7713128140225012E11;5.197803027670249E7;477022.72141500656
00ef7a8be9d4bb67f1856ec238c8ae9122b58aaa7c;1625603076;1.7713128140225012E11;3.0003477460148746E8;2753536.521827188
00f09e30bd1e8711b35742ce923e3732366ebc7fe0;1625603076;1.7713128140225012E11;4660355.865168539;42769.90924301178
00f0e9ff67e35b9e673f7ee87d4ec091edd118ec9d;1625603076;1.7713128140225012E11;9.51320440878293E8;8730639.911318252
00f1233d3a7046f203ff22056a01318b62b71602a9;1625603076;1.7713128140225012E11;1.2199429913896596E7;111958.94161935871
00f21c74882af0c66edafc76758bfb7e8ed4389ab2;1625603076;1.7713128140225012E11;4.6657208401154734E7;428191.4571726612
00f2224da26e66314628e7d50c5a2446c8752b350d;1625603076;1.7713128140225012E11;1.4651302625426862E8;1344607.3684305334
00f2a3bf6f35250faab57662b8cf410bd374afda90;1625603076;1.7713128140225012E11;1.6848332484792404E7;154623.73949947237
00f2f757b418ddd41cc74929334f047a388142cfb2;1625603076;1.7713128140225012E11;1.3016714304143675E7;119459.4802494347
00f3a778fbcf663e4f0d47b41aa4ec51e0f9d39d60;1625603076;1.7713128140225012E11;2.840386072712009E8;2606733.435379273
00f3dc5417900b23a96c2c8d1826e931211f41343c;1625603076;1.7713128140225012E11;6.836433127359019E7;627406.2171698345
00f3e45a321f4bbf71982963db9b8f02b6423f4216;1625603076;1.7713128140225012E11;1.0991431556558909E7;100872.66803772275
00f50760cc3c263fbfc96c4f078482f3c93106adb7;1625603076;1.7713128140225012E11;1234527.9448210667;11329.745986264801
00f545920937d58b8d26071539c9cb6d8bb9ee30b3;1625603076;1.7713128140225012E11;5.801712626864049E7;532445.868264262
00f58c1bbbf2b9a06cf6ea0e23701341ace184bf4d;1625603076;1.7713128140225012E11;8346676.5949735325;76600.71693578242
00f5b42c979d22d23d65633f10f1c5be3a43041b7f;1625603076;1.7713128140225012E11;1.1296617436400527E7;103673.47826782364
00f5ec0728aa1bb85965744d86ef0dd5627b58230e;1625603076;1.7713128140225012E11;849636.3544310542;7797.445263821158
00f5f50f29b54f0c28a6c64ce31acbc9e24f124317;1625603076;1.7713128140225012E11;1.0466255573810387E8;960529.2255720213
00f635dcaee8eadf03d9cc0f63c5529a9a3f6111d3;1625603076;1.7713128140225012E11;1.954246989558875E10;1.7934889265980837E8
00f63b1a5ff831ce6a8c8cf0419fccf7e8d2a20e95;1625603076;1.7713128140225012E11;1.1884778573985934E9;1.0907126315863147E7
00f66b5e6e16b78a0ab30bd24531668d589c7f3f98;1625603076;1.7713128140225012E11;2.6032599603479426E7;238911.35239738043
00f685027dbe0a92b22f7c0e9f5dfcaa32d92ee837;1625603076;1.7713128140225012E11;2.5647821195799503E7;235380.09039695255
00f6c13954f07c9cd31c67ebcd0173085492d243de;1625603076;1.7713128140225012E11;3.051143175479387E8;2800153.4749314426
00f6dbe4acecec6b4fb239055e7f80556e493a7071;1625603076;1.7713128140225012E11;1.8447330803234917E8;1692983.7271163834
00f6e5cb01d2bb9d520e01ec7fa522acd3d3110c6b;1625603076;1.7713128140225012E11;3.889504411251477E8;3569550.3837560173
00f79f0f4bbdbc45b9765db725c716c203e69f5c4f;1625603076;1.7713128140225012E11;5.600496165086658E8;5139794.4626258565
00f7db7a1ad63e28f77cc893c8d3a1c253c8abb8c4;1625603076;1.7713128140225012E11;9714742.605736218;89155.99400294543
00f84acf77f77252b11b8684518fb08fcce72b05d2;1625603076;1.7713128140225012E11;1.2574781527419785E7;115403.69024136642
00f854d4943716b4e7b75091e58930c5bd1ba1754a;1625603076;1.7713128140225012E11;1.2842438523846038E7;117860.08322435032
00f910caa11b18e223a77662357f40822071610a43;1625603076;1.7713128140225012E11;1.1601891782479227E7;106475.10038719661
00f9629f3f42e0dfaa9fca359e88a2ce622e5017b7;1625603076;1.7713128140225012E11;1.1900710385397779E7;109217.47562563515
00f96b168869db5416759fe61cb0507d38987f2740;1625603076;1.7713128140225012E11;5.324628830954558E8;4886620.216167001
00f9bbefae773b5a9aec5a01e0005139af1dddf7ed;1625603076;1.7713128140225012E11;1.4200308188705342E9;1.3032178443560986E7
00f9d7d8b228f42a1d148bd132bf3ba092206ad8a2;1625603076;1.7713128140225012E11;3.58940046500958E7;329413.32500524
00fa8713e2703636d5f5fc6fb760de3cb28f5f2bee;1625603076;1.7713128140225012E11;0.0;0.0
00fadb0912153099487ffc49e4b24e4d024f6e64a8;1625603076;1.7713128140225012E11;5245830.535151291;48143.039369489576
00fbebd01d5b00a3687985d46d004c7dc044be9ddf;1625603076;1.7713128140225012E11;4852161.433400686;44530.183990892336
00fc28a78dea16c765b3d5b52f34faa94861d52f9b;1625603076;1.7713128140225012E11;1.0189924404911691E9;9351692.329947481
00fcdd97a29405d585b450d52bb5fc4a9c9ffbc1e1;1625603076;1.7713128140225012E11;2.85900078748671E7;262381.6887470323
00fd562412392806c5d687fdaef05f7e7c2a93a9cf;1625603076;1.7713128140225012E11;5.8926791750051536E7;540794.2243141157
00fd79226ee6c4322305758a32ff1c4f7dc2d67894;1625603076;1.7713128140225012E11;3.427889373130112E7;314590.82015522727
00fd7e31fdc870320e01f611638446bd623a626deb;1625603076;1.7713128140225012E11;7574867.056179775;69517.51881054525
00fdd3675c42e9a57c6c9ec43e7eee90c3a1fb0062;1625603076;1.7713128140225012E11;0.0;0.0
00fe0813844b18103c12cd2b3448d9060b958d194f;1625603076;1.7713128140225012E11;8.29307764830462E8;7610881.843041634
00fe34a7bc8d4907b46e06cc25f71ba43da2700212;1625603076;1.7713128140225012E11;5.066575882283544E7;464979.4928273418
00fe5f2d17cb74e0be8b673e12cbda5056ecab2fa6;1625603076;1.7713128140225012E11;2979983.526010482;27348.47480333549
00fe99083a319caf9ceea1d68b1a48ada78da808a6;1625603076;1.7713128140225012E11;1.5914832599423738E7;146056.64579875648
00ff4fc197e9d4b52c9920e3020a0a4b7626886a01;1625603076;1.7713128140225012E11;4.7384471150701195E7;434865.8319830492
00ff581c3520a683a5c1bc301e7699d492b8b042ce;1625603076;1.7713128140225012E11;4.559477515353473E7;418441.091558506
00ff71ded534c1b41dc963e0aea18d994fb79930e9;1625603076;1.7713128140225012E11;2.2853335682359256E7;209734.00343521615
