Identity;WeeklyRewardInQuarter;SumOfRewardable;RewardableForHolder;Rewards
00004707b35004e4b8e4f421ecb6419875ccac1622;1625603076;1.6860611872597763E11;6255312.481564683;60310.11975252845
0000503d867c0d88f573bec12fc53d7972555f8d62;1625603076;1.6860611872597763E11;4.668174929846115E7;450078.53704272065
00007191afc732273eff16baa3a3c7ae8a7eea6255;1625603076;1.6860611872597763E11;4722930.282578456;45535.773275054795
0000f871f03b7d23a21de01b0d5d3d21529b89d784;1625603076;1.6860611872597763E11;2.2638851504045665E7;218270.76573593947
00012b872108a70912350c62c0b213e136a58721bd;1625603076;1.6860611872597763E11;2.8178600078780556E8;2716818.3047903744
00017b55a55733b7f3b2afa1602277b7839bc10499;1625603076;1.6860611872597763E11;9430392.26740709;90922.41013327846
0001ce2900f5e2770e0ecd7f879a90b33e044cf767;1625603076;1.6860611872597763E11;3.225946606708552E7;311027.18967156974
0001e52268cdee1d9e3f3894574e50220620dcfa94;1625603076;1.6860611872597763E11;1.1661065588790613E8;1124292.7738218035
0001f34f2955daec1e46537cc8f8b56503a4a7ec30;1625603076;1.6860611872597763E11;9740150.034028193;93908.9160918939
000262371407b1b8ef32a243082ea9f529a88b9c44;1625603076;1.6860611872597763E11;3.406020325514365E8;3283888.6037542103
0002a10869a1d354758aaedc3df43173db801d52e2;1625603076;1.6860611872597763E11;4770987.420111668;45999.112513203734
0002f8598a27beb72c752dfcf91d62bee9ac475c6a;1625603076;1.6860611872597763E11;4226462.27413664;40749.11471392475
000305c89fe90d3670bcff971e3fca67f3da4daaaa;1625603076;1.6860611872597763E11;5.8189301397264846E7;561027.7257815239
00032794ecd33f4b59ad4c8c1a900f733b7b206904;1625603076;1.6860611872597763E11;1.1963230902748597E8;1153425.8128563426
00032e337076db13fbc19b89b21385f2e1134f146f;1625603076;1.6860611872597763E11;2.4499772211117166E8;2362126.912631145
0003756b37ad7f0d51edb1aa3263d23d352c9eee37;1625603076;1.6860611872597763E11;2.794636465532573E8;2694427.5029869187
00038bb25c4e3f9f6f7e2d59d2b755355ef8439076;1625603076;1.6860611872597763E11;3.731018813290216E7;359723.3425054798
000418db8ccf62894e3cfe403b0d5799bcad8dc6e9;1625603076;1.6860611872597763E11;2.1089214434021404E8;2033300.5773109444
0004bd4547cb76b6a1dd53710c5f8779eed721b5e2;1625603076;1.6860611872597763E11;2.5238530484013245E7;243335.37298970172
0004f24e1e2454cc88930d8572195b34301747a52d;1625603076;1.6860611872597763E11;1.3306285632737549E8;1282915.4136373613
0005df53b17afcce35288a216eec6bbdb8f0541665;1625603076;1.6860611872597763E11;5112156.592179155;49288.46914948712
0006b6fd48ed680261135aa28135a0362293c723ff;1625603076;1.6860611872597763E11;1.5088856424457818E7;145478.0621383334
0006f63457d7d9433974dd146f3c92b84ed5293429;1625603076;1.6860611872597763E11;2.928100155843494E8;2823105.5053886888
00071e21ed8adfeff1b62666f96782661fcba8155c;1625603076;1.6860611872597763E11;1.6537358400059544E7;159443.683818749
0007588055ed0ac6aeb03f7906fe78749c1e322f22;1625603076;1.6860611872597763E11;3264036.0691983057;31469.9556241324
00079ed702ed81122898099b2cad772cfba478e6a1;1625603076;1.6860611872597763E11;4.997939103319095E7;481872.49913632066
0008260d4ee7a08c16e25b35706814d96005b1e82f;1625603076;1.6860611872597763E11;0.0;0.0
00086a9c130366759950c327738f32cb484f16dd9c;1625603076;1.6860611872597763E11;7.184928243900053E7;692729.3945426465
000896acde8cdb88a2ece5353eaaa4b21af927b8f7;1625603076;1.6860611872597763E11;1.408715725117471E7;135820.25570983638
00096c682f83de60573239341d599a57ad88c753da;1625603076;1.6860611872597763E11;2288150.7454368332;22061.031463389685
000aa459686bbcb9ca0a9a44bef0ad93c0cf3cb34c;1625603076;1.6860611872597763E11;5055009.870589757;48737.493377664636
000aceb31e26d2c6120ae1ddb598ee4dd3930f379f;1625603076;1.6860611872597763E11;4333299.177876974;41779.174599431404
000b33e693fdb858373a0608829f4cd42b70b0f368;1625603076;1.6860611872597763E11;1.792657106896647E7;172837.672155931
000b636d3f54d710a170c275b7cde513c0848bd0cc;1625603076;1.6860611872597763E11;166923.70514568014;1609.38221336523
000b89b5c7a8bce42fe4243ba4ec30d66a3fe5d061;1625603076;1.6860611872597763E11;1.4527812385652006E8;1400687.9868961803
000b9741970293ff9c5708c59052d41d2625a754ac;1625603076;1.6860611872597763E11;7741568.573971037;74639.74487998986
000cb2cb289f03783dcf99df2656f2cba5b92d3879;1625603076;1.6860611872597763E11;5.2733302221844316E7;508424.1245051571
000d3d44e8d051d4a18bd88676899e85fcd13cf51a;1625603076;1.6860611872597763E11;2.458275533890859E8;2370127.667812105
000ddc65b7b7d2a897635d1bd98bb9408f19ebd858;1625603076;1.6860611872597763E11;3707217.8749890407;35742.859313301145
000de023c9f6ae09f1bde00f0e8d6859f02885388f;1625603076;1.6860611872597763E11;8.368034700831735E7;806797.7041719862
000df3cbe7f3793ee856f9c0374748f61e9250d995;1625603076;1.6860611872597763E11;1.9730511787760463E7;190230.22945783485
000e280cee4c1d2e68af0786dde5f660a6be89ef86;1625603076;1.6860611872597763E11;6.8125363819963E7;656825.516275218
000e9e7c4f29cd3e130639b2c0b1b0367ebe875923;1625603076;1.6860611872597763E11;6419776.081903116;61895.783052415565
000f0ed10e03d86f0ffa7483124a0e5b3cf9d7448f;1625603076;1.6860611872597763E11;4.430309159145664E7;427144.8895898547
000f4268ba45041bd7538d18f863b4b1140e97cb44;1625603076;1.6860611872597763E11;1.4722563966735547E7;141946.4812533202
00109d3769b9c273018f4de74a59a9056049d3f555;1625603076;1.6860611872597763E11;1.2370985084968362E7;119273.91223540595
0010b70ee116a311eb261dda30b59b13760bfeff35;1625603076;1.6860611872597763E11;1.6794647217940571E9;1.619243143968572E7
0010c669fa9d10bd561d90ded99df8589e1011591a;1625603076;1.6860611872597763E11;9.998823075141419E8;9640289.255306456
001142a37aa9fafb342d95cb61c712602532f60bd3;1625603076;1.6860611872597763E11;1576126.8071517546;15196.106791569198
0011438fac8d47d0d5b3478cdc2515831473ddf23b;1625603076;1.6860611872597763E11;4990699.452811002;48117.44937362765
00116cc41ed0a6dc9a567fdb29cdf8be9e68636b6d;1625603076;1.6860611872597763E11;1.1622496683625301E7;112057.41821509649
001266d590d12a2fc00d0f7e7394f9e66cef4a583d;1625603076;1.6860611872597763E11;6.524115572600312E7;629017.64319924
00129ff2a896abc6e155c3a5a3e901dac9e90772c3;1625603076;1.6860611872597763E11;1.781826225697115E9;1.7179342097888064E7
0012a214d381a701d87711bc946b6fff4a1102afee;1625603076;1.6860611872597763E11;1.1812167010341191E8;1138861.1025109775
0012b463395b13012d25572c1237c77dc83518a8fe;1625603076;1.6860611872597763E11;3.876504994995831E7;373750.2821137933
0013153a0218b8df737a0851ccda76fc1f817d18d2;1625603076;1.6860611872597763E11;3.278697306878233E8;3161131.0832653577
00131bb42695e57c0aa7becdad60430cac2ce85811;1625603076;1.6860611872597763E11;1.688912823243669E8;1628352.4591552946
001446286d955bcc1bb924b17b5aab9e958e89bbde;1625603076;1.6860611872597763E11;1.181284266330628E7;113892.62450779647
001484e1b40ebaef37ad83ca5a145d4540dcb2a909;1625603076;1.6860611872597763E11;3167235.7870069197;30536.66306229051
001547ca35434ee1aab541f0117f59846f0c2d5633;1625603076;1.6860611872597763E11;1.0881154403969454E7;104909.82298377516
0016eda591187bf7a1d9c693eb0d0642cba3d17161;1625603076;1.6860611872597763E11;8.9089174497176E7;858946.5032184308
0017026ebddd7fc980bc0bfa818bc13056cb47b49d;1625603076;1.6860611872597763E11;5.5174896687603004E7;531964.5719330023
00186b1022b20980b81cbbcefa1d768c8a7e36e4c3;1625603076;1.6860611872597763E11;5.943109060485619E7;573000.34202379
0018ba5cc0217a9e76782f9e99f21e295dd21a05de;1625603076;1.6860611872597763E11;0.0;0.0
0018bcbedac3e9978ade38f666e7b54eb7fe114ad2;1625603076;1.6860611872597763E11;8.12885072867998E7;783736.9633283098
0018e3c6327648e0ae3f513fc77287f23e19a78e7a;1625603076;1.6860611872597763E11;5.284021170339447E7;509454.88414409966
00191d8c2edaa9194eb4d591cc7364b51855b7fc00;1625603076;1.6860611872597763E11;1.1945511724199202E7;115171.74317268947
0019ec0aed9fe789a9620e32d9dda8521c6d564581;1625603076;1.6860611872597763E11;9.996488618092969E7;963803.8506290095
001a53b7275033cbae5172588df246ab8a11e23e92;1625603076;1.6860611872597763E11;2.5451099165578133E8;2453848.377732114
001aa2b91b329f6364bb91bc4c55dbf28d50c787fd;1625603076;1.6860611872597763E11;8.151816514590588E7;785951.1921179373
001b5a966673b3d9d87d84758e86a946ce33254d92;1625603076;1.6860611872597763E11;1.838775158031411E7;177284.1089964374
001bc1d4da9fceeebf17b9f2a4c9c7cc49665c65f1;1625603076;1.6860611872597763E11;5.611649724570923E7;541042.9421320606
001c55bce7420948369cce8f014b7ab2b37139f99d;1625603076;1.6860611872597763E11;2.1857359141203474E7;210736.0665298481
001c7bf916cb56e4bc233defb6c05c94b87efad397;1625603076;1.6860611872597763E11;2.2310796534981113E7;215107.84869094696
001d112b141056df59222685dd37dc919f0efa4d59;1625603076;1.6860611872597763E11;4.665331399544595E8;4498043.802303951
001da977086819ab273cd3fed706ce6eec5976f28a;1625603076;1.6860611872597763E11;7.738347074989232E7;746086.850424601
001daf29ea3cdfc1b581fa4357fa0cc5116e70bc43;1625603076;1.6860611872597763E11;1222264.1159605696;11784.36655563552
001dd0db367fc3f7c67f260825d2508e673341502f;1625603076;1.6860611872597763E11;1300481.5298380759;12538.49380532737
001e3cc5c5ce71e598dadb6712935cd6c572131be0;1625603076;1.6860611872597763E11;4.350718381983197E7;419471.20531586854
001ecfdd7a8768fc89540f57be69164a782b20ffbf;1625603076;1.6860611872597763E11;9120602.808004646;87935.59861112105
001f049a68c3075ff20ddeaafe0819daac3b64bf4c;1625603076;1.6860611872597763E11;1.1403949305522296E8;1099503.1028342424
001f296817e16efaa140b6fee684f3a96d4a8528fe;1625603076;1.6860611872597763E11;1747297.6997869117;16846.437940236494
002043214eff85403fc9029d73785c6136f4e842e7;1625603076;1.6860611872597763E11;3.9846160368964505E8;3841737.260309644
00205c4c84530297df43ff741aea85a557f82fa8ea;1625603076;1.6860611872597763E11;2.5653396801969406E8;2473352.7505550035
0020e11def65edd308768051dc0ebad1f537069fef;1625603076;1.6860611872597763E11;7449897.800562998;71827.62329143712
0021d63fb6946ad9116785e3ec9840ac47952ebfc8;1625603076;1.6860611872597763E11;3007767.477774008;28999.161481847572
002211b08201dd32ccf0fca91047c84475ee1b8d9a;1625603076;1.6860611872597763E11;7.092132807992011E8;6837825.931340904
00226304336de6a1d06c695afd350815466f53590d;1625603076;1.6860611872597763E11;1.716760020196471E7;165520.11223986637
0022aa5a93dc352101c433667b50388d8ca2228f58;1625603076;1.6860611872597763E11;9781279.814029086;94305.46573902338
0022c56e1bd4c20c73569f66eb5845e6159080b0f0;1625603076;1.6860611872597763E11;1.5433472328905193E10;1.488006501828316E8
0022e47780cbb1b664611389f3b11ddbe951b38700;1625603076;1.6860611872597763E11;1.8808144394061144E7;181337.294351271
0022f95b126d0cae29113fe0b0012968168b6944c3;1625603076;1.6860611872597763E11;7712235.436689718;74356.93166684224
002319c23cec3792fc24fb574a41460b94ecd65292;1625603076;1.6860611872597763E11;5.098009674933812E7;491520.7272233656
0023d1b568e99095e1d6ebfce8a583efab67ce5968;1625603076;1.6860611872597763E11;2.697339374582507E8;2600619.2524148654
0027266a6440eac0597651df7fcfc2384dd149902c;1625603076;1.6860611872597763E11;3.3805559797533154E8;3259337.348372568
00274b7e9713baebbd45efe8715c3abd55ded2d056;1625603076;1.6860611872597763E11;2428080.373307762;23410.15233284168
0027a25bfcaace720f8ce75f0133deda2b1a613a9b;1625603076;1.6860611872597763E11;3.559732695160152E7;343208.9216403116
0027a2c65eef277c18d698a3ed15d91f39757e5ac9;1625603076;1.6860611872597763E11;1.5931214891856976E7;153599.59726437586
00281de2d74669bdd1447e6a546d9e2c64e93bccdf;1625603076;1.6860611872597763E11;1.1829061094814181E7;114048.9932822298
0028ae363f88638f25e22bc77a4367fc4cf80dcf80;1625603076;1.6860611872597763E11;1.1396647162216987E7;109879.90722386628
00292777552fd768721c4c38f6af0566c52dcaf8e7;1625603076;1.6860611872597763E11;1.2934253336156089E7;124704.62025871348
00293471d309399e77cc36d62fd8edc6b6f85042a5;1625603076;1.6860611872597763E11;1.1974628456405273E7;115452.46993275553
002952575a6f2dde86345a7fcaba24fa875a3e4480;1625603076;1.6860611872597763E11;6.0155081223195E7;579980.6425316231
0029989257513b82e30a4e10597a79482e9de20b85;1625603076;1.6860611872597763E11;7.716665866207434E7;743996.4731622924
0029df0cf3c74e9bb22d481f574645daa2e1ef87fa;1625603076;1.6860611872597763E11;1.3668104746832818E7;131779.99284624003
0029f80452925b6e566e40b3475a6b0957c5d3175b;1625603076;1.6860611872597763E11;4.688051464299662E7;451994.9180016122
002a2d9df13c0e70cc3da78c3700dfe6d50aaaef39;1625603076;1.6860611872597763E11;2656985.733953612;25617.125965771
002b796d39db81814b825c4307780e4c8438a2ed5b;1625603076;1.6860611872597763E11;0.0;0.0
002b905e734975ef780c774f553dec1119a2c13b5f;1625603076;1.6860611872597763E11;2.5992392500716949E8;2506036.763140003
002b9317ecac737c4a97828990903e855fe9774145;1625603076;1.6860611872597763E11;5731579.844489804;55260.59134713174
002bd6b7e8fd7b3a62871282457664cb4735e1c79c;1625603076;1.6860611872597763E11;6545112.546757774;63104.205050040895
002c30b8822473502012d2598aa75a60d98fe6b558;1625603076;1.6860611872597763E11;2.921148576349996E7;281640.3192867009
002ca69e438fbdf90074db1908fd6a3ac2ec5a7df5;1625603076;1.6860611872597763E11;6.819717094864453E8;6575178.392475126
002cfc3b6c0b1667f5d1eb13911495e59d02b50cd8;1625603076;1.6860611872597763E11;3.508473972849892E7;338266.8508964371
002e418e4ff8ea1c6d2bb197b59e1f0fc2ebf7550c;1625603076;1.6860611872597763E11;8.051745051451956E7;776302.8780752918
002e86446bdeb027345541e463c8dca1562b45346f;1625603076;1.6860611872597763E11;8.378156566073472E8;8077735.961144707
002f08736bc58103c1d09ef573b764621641af6f14;1625603076;1.6860611872597763E11;5.6306615691842385E7;542875.9546773566
002f964ac64c1a177b3161321383f280890516b947;1625603076;1.6860611872597763E11;1.2945051072542058E8;1248087.2581321828
002fa4650d61984323e94c5eabdd443ebc90fa40a7;1625603076;1.6860611872597763E11;2.0803550306056786E7;200575.84875795
00300fe2d56402f9f3aa6cd0564e056b4a4ee8202c;1625603076;1.6860611872597763E11;5.2132226730581656E7;502628.9008508317
00303090471738b78f6fc910e8e06d1b08bc144bd8;1625603076;1.6860611872597763E11;2.1563865368297827E8;2079063.6863022638
003058133c84fa602fe1c53fee1690c4f29f193019;1625603076;1.6860611872597763E11;1989233.4119883692;19179.04271710183
003083f5e465e029a964c278aee1dded6a893b6a52;1625603076;1.6860611872597763E11;3.9374281132036734E8;3796241.3824111084
00308b727e1f5c8b337d1d31b56d75ebcee61959e1;1625603076;1.6860611872597763E11;3.511745286412954E7;338582.2521067169
0031020ab94157055e4dbf826d751472e48397f16f;1625603076;1.6860611872597763E11;1.5012190157068603E9;1.4473889014958786E7
0031042a6b5ccb3910230fb4c690e3e2d881af769b;1625603076;1.6860611872597763E11;2.528149285836508E7;243749.59145594918
0031b0636472b2f6107637bed28c146707eed0ae49;1625603076;1.6860611872597763E11;1.1525374640754697E8;1111210.2342212666
00325b43248386ad6b61e9ae4ff974c5515a68f978;1625603076;1.6860611872597763E11;2.4056716073971522E8;2319409.991986339
0032d633536f15d39cb397d53fdcab77eeb8b81daa;1625603076;1.6860611872597763E11;1.3276029554694198E7;127999.82968739477
0032fb5447c7d9bc485e5c74f6d37378501cad1003;1625603076;1.6860611872597763E11;1.0330204545342496E7;99597.88180587911
003357f9ed428a04d840e39aa7f63d827617f46ebe;1625603076;1.6860611872597763E11;4.820973979658999E7;464810.5412702417
0033ccca69d00692eaa29f6b04e6bff972f9a3b6f3;1625603076;1.6860611872597763E11;1.5693813731495088E7;151310.71202434815
0033f7de239c0db8f45d53b0a98f00e6423dde79bb;1625603076;1.6860611872597763E11;1.087361948928387E7;104837.17567664992
00341498eeb456aa3640cbd9051edc0cec21f03578;1625603076;1.6860611872597763E11;2.729733203660235E8;2631851.516457285
00349883b786a0cbf13a054af5f11dbda9759c3a51;1625603076;1.6860611872597763E11;5.9145191208836555E7;570243.8647315785
0034cecabd9edea244833769c97e6d638309b5c8e2;1625603076;1.6860611872597763E11;2411461.2585168746;23249.92040099601
0034fd670576673a2ca9d277db12ddabab06e59a97;1625603076;1.6860611872597763E11;2306136.8366885474;22234.442994862762
00350c4134bd65c62226189384ba8b6f3a14de40ab;1625603076;1.6860611872597763E11;1.2209306194288766E7;117715.0975019966
00359e2ee09f2e78ada66caf56ac6db054b3d0b03b;1625603076;1.6860611872597763E11;1.230899383222817E7;118676.22828478178
0035ea8acd943be133e15d4a77f26b0bff1a184be3;1625603076;1.6860611872597763E11;3283648.7437702557;31659.049735032164
0035fe43ed1bf4dc2deac361c646f84d7bc79d0e25;1625603076;1.6860611872597763E11;1.1955776834450753E7;115270.71345281035
00361ad21315abd3a52d5af77a9a9fe2e306ed3391;1625603076;1.6860611872597763E11;1.4151165027253196E7;136437.3818169275
003626c7027842b5f56f266e9eef34d4f241045064;1625603076;1.6860611872597763E11;4712499.006559445;45435.20092031914
00362761916bdee45e6908b126b87f57b220952fa2;1625603076;1.6860611872597763E11;1.61670061027211E8;1558729.6029871176
00362cfffc8dae9e92a402632127f0ca6caf84f052;1625603076;1.6860611872597763E11;7237561.776326718;69780.40165587423
0036997527f23a4ddc38e3c7a78a19dbdc30897438;1625603076;1.6860611872597763E11;2.7713947071860313E8;2672019.1383645227
00381d19f6018e6de718c17a6e1ec85074f584300f;1625603076;1.6860611872597763E11;1.2599396023400493E7;121476.11893414843
003829a72b9c512c378256d603245d0cb4bc71120e;1625603076;1.6860611872597763E11;1.0745647339018367E7;103603.34191850478
00385790e3944be9d9fb3a665e7d227d9889ea9925;1625603076;1.6860611872597763E11;2.726691558573867E8;2628918.9374703174
00389c90db43622e525452be86594321f147ffa67a;1625603076;1.6860611872597763E11;4.079546885182775E7;393326.4116005992
0038eed148fdaabc14d0bb159a7da149d1b5a95fc4;1625603076;1.6860611872597763E11;3.562043751889779E7;343431.7404179977
0038f20279b127950067cbfb5e08ac74831521ee74;1625603076;1.6860611872597763E11;2.8640191187934244E8;2761322.2606707653
0038fdc3067519647f32ecdfb4437cdcb221464995;1625603076;1.6860611872597763E11;2942208.2639909773;28367.077306070765
003a81ac2e0355368028dfa76a104673d4a80fdfa2;1625603076;1.6860611872597763E11;1.3413935858214604E7;129329.44282893743
003a83e0f374fdb6788e2f8e01c55430eb27de53ab;1625603076;1.6860611872597763E11;3.1361589172314256E8;3023703.778486153
003aaa891767534e6c218ad69fc41d70526578b79d;1625603076;1.6860611872597763E11;6822099.257329792;65774.75136306517
003af46fb9a1ae7fef89da57e5d601a7eb38a1a137;1625603076;1.6860611872597763E11;1.3051202249497589E7;125832.17431605926
003b550ca8ec20c93f9b57aeb7de1adee573176f5a;1625603076;1.6860611872597763E11;1.0514055741301639E9;1.0137046913506847E7
003be3f896374676423d086a90323a1a316af42d22;1625603076;1.6860611872597763E11;158629.18404701332;1529.4112187546873
003c39b2d0d3b7dac083125945be807e1de4ad3909;1625603076;1.6860611872597763E11;3.034381922426422E8;2925576.26266928
003ce0624f3062ef13e8cbff694ac92adb857f28aa;1625603076;1.6860611872597763E11;8806394.845902152;84906.18643108249
003d4009fad039382f064b5ac7fa7361a6ef8d3517;1625603076;1.6860611872597763E11;1.0981269524244037E7;105875.07530499711
003ddd6e16df72813fded7203c35e7a9bc4f8f46bf;1625603076;1.6860611872597763E11;4217980.4330636235;40667.33768802186
003e14f0a73e1432929bad34910b518e3397ae0f53;1625603076;1.6860611872597763E11;1.6832877369464982E7;162292.9074964649
003e6cf81b794d6a7f69c2093a24fd69b806660c98;1625603076;1.6860611872597763E11;1.1025426028756848E7;106300.80688641197
003e7acc5bbf87716c33f302b6aac12d741a39b54b;1625603076;1.6860611872597763E11;7.257312704107211E8;6997082.872457394
003e8a0d56fe6b701fe71321d7b4dac0bc4efde848;1625603076;1.6860611872597763E11;1.3525353142221274E7;130403.6641025744
003e8d1a82929d306a418cf271396e57c0ee6434d9;1625603076;1.6860611872597763E11;1.1559316638188807E7;111448.27261006479
003e8f727dec29146d477396f32ce385ea05a4068f;1625603076;1.6860611872597763E11;1.1910058485407991E7;114829.92346609377
003ee3fa369a9fec862be367d491201faa8875e534;1625603076;1.6860611872597763E11;3.6686166850750035E8;3537068.8875266793
003ee842ab82e18660f23434a012319836a5fbb751;1625603076;1.6860611872597763E11;7.793333457168034E8;7513883.206608766
003f74c99f5b6ce2000d130c1250c1993606e93851;1625603076;1.6860611872597763E11;9.297442425389959E7;896405.843385218
003f7c99487893feb1e62a0b26969025dc3bbc05e0;1625603076;1.6860611872597763E11;4.0810465086431846E7;393470.9966564978
003fe1caea11d44587ecc1f0d47163fa537e41d577;1625603076;1.6860611872597763E11;3.5550575361037984E7;342758.1697340211
003ff71fbda67a5d9df51d49c5f5d2a599c622d0a5;1625603076;1.6860611872597763E11;9.921237140377949E7;956548.5366124469
004006e393c8d4af9c3d2f88d192d3218aba31196b;1625603076;1.6860611872597763E11;6.413194367169062E8;6183232.595015926
00404aadb526f6d53615c2fb061f1c438c1b1b9342;1625603076;1.6860611872597763E11;6.3418938409184106E7;611448.873466893
0040bfb43e1432084def40dc42f50c246e05e4daab;1625603076;1.6860611872597763E11;7060799.410036424;68076.16073903337
004121528010e5bc4ff46dfb0f8b67c74b73544191;1625603076;1.6860611872597763E11;3.770391883729324E7;363519.46715985256
00419b02a8c38343e11101639b09e9d267953dd5bc;1625603076;1.6860611872597763E11;3.178223458838776E7;306425.9986495764
0042b6e26a341031811f4e6f166f9b6800ec015a5b;1625603076;1.6860611872597763E11;2.0435708380707093E7;197029.32879859995
0042bdbb4cfeef2bb8dddd876b74a41dcfa4631627;1625603076;1.6860611872597763E11;3338815.0999301528;32190.931964116553
0043223e21cd1ae646288a3096aedad938de3d7220;1625603076;1.6860611872597763E11;2.8262838753652386E7;272494.0112588605
004336fe935b0975a028e65a959234fac580f03ff0;1625603076;1.6860611872597763E11;1.7223389267396905E7;166057.9982730603
00435b8be8d13c913c1a9a00c6632f403ef4abc526;1625603076;1.6860611872597763E11;8016283.122324763;77288.38431371974
0044b9d97051379b20f5e51c84deb930cf7343be05;1625603076;1.6860611872597763E11;1.0609497661373936E7;102290.66515180393
0044c09c7c78bc77fa76cfd0307d50de8a56a12ac4;1625603076;1.6860611872597763E11;2.5488390199131764E7;245744.376438297
00455a86385e4530068253bdd4764273d6b87dbd0e;1625603076;1.6860611872597763E11;6.885915942221223E7;663900.3507900335
004608f9647ac7f1cda974d90510c09c4db64bc3b4;1625603076;1.6860611872597763E11;295770.05927419534;2851.6445415972635
00460de8e68bfb92bfb32c6bbf48554ba5f66bfc9c;1625603076;1.6860611872597763E11;3.0609907433253814E7;295123.09550546616
00463da0a411bb84771b7bacdabd62e7ee331c2d2a;1625603076;1.6860611872597763E11;1.655047450856391E8;1595701.417817871
004685041187517df45e49906d2dc2335d153f5463;1625603076;1.6860611872597763E11;1.3688977686558707E7;131981.2377078142
00476a2e6cb857f19befd052d72daf939dad8aab2d;1625603076;1.6860611872597763E11;3.3310201295225248E7;321157.77349517046
00476c389ad5e893120ba2caf03b01eb5e31d74945;1625603076;1.6860611872597763E11;4466020.067919273;43058.792971128
0047a52232a88a791c1b0c0efc7efc02f50687e46b;1625603076;1.6860611872597763E11;1.3911669290973041E7;134128.30188241668
0047b1d23d1a14e3c4e7d0f36358646ed2fa462d71;1625603076;1.6860611872597763E11;1.3056818763525689E8;1258863.2550908516
0048070764e394a8d915b458059e398030e0430cfa;1625603076;1.6860611872597763E11;2.655031059981639E7;255982.80125267542
0048131385447eae82f8c9899e5f2fd5b63465708e;1625603076;1.6860611872597763E11;2993922.4518795386;28865.67571720621
00488bec2fe110c0a922786432623069e744d978de;1625603076;1.6860611872597763E11;6.603639604928304E7;636684.8923207506
00489b6260e9db67bebdb40d137fef3a7c66b70c2b;1625603076;1.6860611872597763E11;3.50888997367256E7;338306.9592995044
004927076e817474824aef45851548cdb204db6a39;1625603076;1.6860611872597763E11;2.5326973799860306E7;244188.09249584423
00496728751f132621158594d20331a783c4da3e21;1625603076;1.6860611872597763E11;1.3796600502255987E7;133018.87490370753
0049a1dad7cfdc5b03a3c666f7a750e69a764e9637;1625603076;1.6860611872597763E11;1.4767023370348625E7;142375.13321338347
0049c00463b97db1c72797ba4059806aa2d247b23a;1625603076;1.6860611872597763E11;1.0152513621721116E8;978846.8827412094
0049d84cfb76b1bb13240256b0a11b98e7bc38c0dc;1625603076;1.6860611872597763E11;1.9722566457584366E7;190153.62516095824
004a291e78ad5ac1f06e9e9a17b5257c4d92ad4a05;1625603076;1.6860611872597763E11;8805102.426926449;84893.72567177992
004af9754a4e879f2ca2b6fb3b289148b3fc384b4f;1625603076;1.6860611872597763E11;1714099.6255970525;16526.361231703635
004b15bef2c6559de77f599e2fd758bc65b653451d;1625603076;1.6860611872597763E11;3.540963225460112E8;3413992.774880219
004b76cddad2858fc97e83ff3cbe45643c5cb85c1d;1625603076;1.6860611872597763E11;2.156559480985828E8;2079230.4290955667
004b92f8e8e5be575c6d57fefc9b09b852819be082;1625603076;1.6860611872597763E11;1.902809101673691E8;1834578.929931188
004bb18e20c423acb76b84cdb7c6a43a24be7097a1;1625603076;1.6860611872597763E11;2.0404542398776028E8;1967288.4435309747
004c0627dbc8ed242586ed33462e760f28cac3070b;1625603076;1.6860611872597763E11;2.6536370583989868E8;2558483.9964982546
004c0ac99f066f00b45f2c3c1d9c8cab47cb80a782;1625603076;1.6860611872597763E11;2.399641366004615E7;231359.59805905467
004c2118d2012c41b06f5bafcc1297731afe1a6232;1625603076;1.6860611872597763E11;1.938715787287449E8;1869198.087897545
004cd0949afd2f52963adb5687eba6fc2ad275c438;1625603076;1.6860611872597763E11;1.3197492756100267E7;127242.62311423963
004d8603f590cac4ceb828f1ae24da1f4848065ba2;1625603076;1.6860611872597763E11;5.2256322163679546E8;5038253.575351193
004daf5f8f41f205ca0fdaaa822aa143c6a3ad0949;1625603076;1.6860611872597763E11;3.909840368792194E7;376964.28683630575
004dc529187c40295c4e197654f35c8847317d4968;1625603076;1.6860611872597763E11;3362461.8727556514;32418.92052664955
004df997534cb3f9d18b2171c554f44187677b6013;1625603076;1.6860611872597763E11;2.11089879726617E7;203520.70280068
004ec47f8f66685783e6d8a3c34646e025d366d707;1625603076;1.6860611872597763E11;1.2810833090342488E7;123514.6733412986
004ef9e9c11b8972f47ac696c2f381870620f97e4e;1625603076;1.6860611872597763E11;4.812201322367407E7;463964.7321865819
004f1aeb4d2eff932aa9f0bd825f8a46f4951b906d;1625603076;1.6860611872597763E11;5.101332229816318E7;491841.06882650516
004f1ee37f9f372a7f8cf805ffb6c6bf0c3a5eca05;1625603076;1.6860611872597763E11;977381.9343399622;9423.353617860585
004f9dac9fcb9efb800f0286d42866cf58782c6ab5;1625603076;1.6860611872597763E11;1.4225954145512733E8;1371584.55415043
004ffa7ea02038f317760cb71803d028d2d56ff8d6;1625603076;1.6860611872597763E11;7397578.122213099;71323.187090049
005053703c4a32a217b9081d5fd620a2a9670e3538;1625603076;1.6860611872597763E11;8.29092099452371E8;7993628.448013238
0051504254719d611f9ac23ca0d822e014da64e85b;1625603076;1.6860611872597763E11;1.1120549382661568E7;107217.93147166063
0053874db2bcac6da323ff439f6653924a85e68cc9;1625603076;1.6860611872597763E11;6.723282992224066E7;648220.218552128
0053b1f0a09fa6b0fef5191c041fd3dea69e1bf0be;1625603076;1.6860611872597763E11;2.049562655630927E7;197607.02533359648
0053ba94ed78e411a5270852016924d6f17f9b4d25;1625603076;1.6860611872597763E11;1.1822494877660494E7;113985.68559871643
0053bd7bd542d88e371bf4f31e2947e657063b2125;1625603076;1.6860611872597763E11;2.9177830177180797E7;281315.8315097542
0054a7f9d721969f16beea44089355da89752cf23f;1625603076;1.6860611872597763E11;2.29466737154615E7;221238.61018618717
005590fa495f29385777451123b3a538488b3db698;1625603076;1.6860611872597763E11;5.920972333009824E7;570866.0462728919
0055cd569388f730236fdbeba9dd40e7cfbaf80f59;1625603076;1.6860611872597763E11;9984528.212934643;96265.06972581535
005606414027a97673f1c82b9f6a19920750e5deb8;1625603076;1.6860611872597763E11;5521022.394465051;53230.51769961933
00564540d3b42fa0863c367f304eea192ec5c2edb4;1625603076;1.6860611872597763E11;2.4257576905611146E7;233877.5836371379
0056511d5cbc65d768e37fb8105fbbb83e0063c8dc;1625603076;1.6860611872597763E11;1.6411164624098783E7;158226.9961212683
0056a72697cf468bf297083f5dab03250f23bba974;1625603076;1.6860611872597763E11;1.3403088356496371E8;1292248.5746576486
0056b011bed290bbf0f328b9a9892943c4a6a214d9;1625603076;1.6860611872597763E11;3.086467783331806E7;297579.4449496479
0056e2139d4b8fa3899ddc155015bc254868dd5f29;1625603076;1.6860611872597763E11;2.3642893008986283E7;227951.1555770447
0057027cec1230d2b24b31064235a8d984e0e0bac0;1625603076;1.6860611872597763E11;4.0810657362370655E7;393472.8504703447
00580cda3b45cb18a26dee16414facdd5f0e6215b5;1625603076;1.6860611872597763E11;2.0952732653582686E8;2020141.7902054943
0059a7f72215cc58a46599c66d19b584072b7125ae;1625603076;1.6860611872597763E11;1.9181807764955666E7;184939.94133528628
0059ddee2a742fe86d081bcafc964dcfa92f73f6e4;1625603076;1.6860611872597763E11;978023.434426515;9429.538592177261
005a49ac1bfae72e07305261ec737fa9fd7fca2975;1625603076;1.6860611872597763E11;2942208.2639909773;28367.077306070765
005a97296c37a98149f7aeabdd7918b679810ed1e0;1625603076;1.6860611872597763E11;1665257.7830287418;16055.456319613273
005b0b38e19158f341b9a5548724831869d59b1cb4;1625603076;1.6860611872597763E11;8.64951396477737E8;8339363.134204381
005b27a7a99357ee02f8cbd40f6bf069aaab70a3b2;1625603076;1.6860611872597763E11;5747344.519601335;55412.58526376471
005b559b16afddaadad4c8befd0ab813b105c947ec;1625603076;1.6860611872597763E11;1.3269274763703058E7;127934.7038835633
005c14d980973c264bb900d104ba926f47d96b0e58;1625603076;1.6860611872597763E11;1.1446712365790261E7;110362.60707808421
005c79fc2d54ca89f63d07af8bb57081c1e5691317;1625603076;1.6860611872597763E11;1.1637761640324648E7;112204.59413464778
005cc9223af28ed7f5dd5b76991e74c71687d11cad;1625603076;1.6860611872597763E11;4.866428578015641E7;469193.01181551244
005ceecceb06faf5125a0c6f5d2f4139b243c4d4ea;1625603076;1.6860611872597763E11;3.0282492969862606E7;291966.353847231
005d0873215bd74b030cdf3737f0adf5f51c60ca1d;1625603076;1.6860611872597763E11;8.221324309235932E7;792652.7332977734
005e0d493f7ba7c7e73b83cca1db088027b40e1738;1625603076;1.6860611872597763E11;1.2446373732683758E8;1200007.6615119297
005e1e2efa72a5b2bab7d961b807216d32845a6b8a;1625603076;1.6860611872597763E11;1.3717650816600844E7;132257.68751134002
005e1efaca0ea84d640ea57680d2556ee363a31f94;1625603076;1.6860611872597763E11;2.0811948165317783E8;2006568.1607959676
005ed2db9c00aa2b6413d885354faa477948e82522;1625603076;1.6860611872597763E11;3.6023283489339754E7;347315.7492170435
005f2eaac85c404b97d9b72f665174114b69dc2a87;1625603076;1.6860611872597763E11;1.3072248248429911E7;126035.08771481602
00608e54dd1e432ea177ff9a16d77b8159b9ccc0ea;1625603076;1.6860611872597763E11;1.1886004516541772E7;114598.00895388982
0061aff734946314fe0902995774e313cd70bbd2bd;1625603076;1.6860611872597763E11;1999703.9072475487;19279.993201160054
0061b27421833ce6c95743568e00b7bb4b93e28bbb;1625603076;1.6860611872597763E11;1427581.5450068046;13763.918939238
0061da6ef7632cee1d8d1567f46b385a8af1e43db4;1625603076;1.6860611872597763E11;1.1771198205894916E8;1134911.1263754051
006217f4e5689905af2ef683f6f994ac39c4728de6;1625603076;1.6860611872597763E11;1.9773578146629277E8;1906454.5048289765
006250425bf281a77a8b8b13dc975e930da8cdea20;1625603076;1.6860611872597763E11;1.1318252475231607E7;109124.07080898143
00625dbe1f50e8fe30838f47b0f77d681ff97d933a;1625603076;1.6860611872597763E11;1.6419154361176023E8;1583040.2856390642
0062a8a1dd01517b5da75e75842c80cc17cc9fb5b6;1625603076;1.6860611872597763E11;1.4688017326282946E7;141613.40244568523
0062d94eaeed9a9ede50e487cebacacad599a331a6;1625603076;1.6860611872597763E11;5403157.5250809;52094.132521720734
0062ea27ae2f820f0a2230928cb8d1674455d769a7;1625603076;1.6860611872597763E11;2.2650899003568094E7;218386.92078671555
0063506c57f7f946e7a7889faa6f24d89f2b2211e0;1625603076;1.6860611872597763E11;8246166.263044607;79504.78513890013
0063828892b720fc5cd3b2b30682619cd0d310a81d;1625603076;1.6860611872597763E11;1041552.8241803942;10042.052373887349
0063f7338f217086fadbf98b9ab80142949595fb96;1625603076;1.6860611872597763E11;2.0499643191019133E7;197645.75141180088
0064ad102872415691ff678186f72b2d75fbc38928;1625603076;1.6860611872597763E11;1.196474141724305E7;115357.1447963009
0064ba590621892e12a65b617f2bedf3c223710eb7;1625603076;1.6860611872597763E11;3449962.573570778;33262.55188162072
006531c0b0a372e801628f985816d69b225b5a5f38;1625603076;1.6860611872597763E11;1.752561892575275E7;168971.92254813467
00654f3bc844e5c54a06ed119005446482ffb32f0e;1625603076;1.6860611872597763E11;1360969.2249045055;13121.681318942727
0065a7065035426750e2cc1ff68d3b0100863be079;1625603076;1.6860611872597763E11;1.90156297479755E7;183337.74861768048
0065e7d784dbf2bbf4b853b86501ff75372b1002fc;1625603076;1.6860611872597763E11;2.4252155613730844E7;233825.31466360894
0065f5c1a7d82c4edadf3a88f22e82d319b764e00b;1625603076;1.6860611872597763E11;6.798401137621896E7;655462.6774346901
006628964455ece1c66aace59cd2b5366b0b707453;1625603076;1.6860611872597763E11;5.97646500278189E7;576216.3298425846
00664b2904a285323f9ec2b274509591fd546c0ed8;1625603076;1.6860611872597763E11;1.357568339212149E7;130888.91938080433
006679b71f43483a402f79719f1ba6a9b8a2ced062;1625603076;1.6860611872597763E11;2.9262636646082556E8;2821334.8663255223
0066f578f1296b45a50bb24132596bf93f4a951ed4;1625603076;1.6860611872597763E11;1.1230749161534966E10;1.082804142621118E8
00674cd03a0af9ba19cb2b69e0d768d07d1a3b0e0f;1625603076;1.6860611872597763E11;3.960358704888553E8;3818349.7380621997
0068332380f49ff88c8c17831a880d04282fe7e32c;1625603076;1.6860611872597763E11;3.026756592126492E8;2918224.3584295367
00695eef3559e82351f6d0f924832326ece7080f71;1625603076;1.6860611872597763E11;2.3530064841128018E7;226863.33137401013
0069ab8f6c8d3dc67c84d149f0907c9b6561748eac;1625603076;1.6860611872597763E11;7183646.598520174;69260.58256776718
0069b7aba7d8d358f3f9274c80d61d5052c88c4304;1625603076;1.6860611872597763E11;1.1549197223617037E8;1113507.0704376453
006a967608e02b6bf9ea81df8d2401a908dfe55f4a;1625603076;1.6860611872597763E11;1056064.168430158;10181.962396296734
006af52e3758cff9b9b78a61a13efdacf2e237f0c0;1625603076;1.6860611872597763E11;1.2019900102432841E8;1158889.5306631017
006b5e85264328f0435a8a8f72a470acefc769c1d2;1625603076;1.6860611872597763E11;1.1970671348391204E9;1.1541431777666334E7
006b732117e299581ec277c37857d6e4644eb7576a;1625603076;1.6860611872597763E11;1.6785234976013955E8;1618335.6698185485
006c300d3d47c5454eff96bd7e228f3225f1ffb8d7;1625603076;1.6860611872597763E11;1.142804137742051E7;110182.5921631145
006c346a51cf9bc4aa3ba23e544af58625bc717609;1625603076;1.6860611872597763E11;0.0;0.0
006c5c707279939a5fc59e6e4a40f7b1aec95296db;1625603076;1.6860611872597763E11;1.083936268519044E8;1045068.9130423805
006c6546e22aa72b7b2ea90b1ceefe6bb2e0e6f791;1625603076;1.6860611872597763E11;1.3515049811360508E8;1303043.253213554
006d499c6e563a91cefece50e79f37220651a99da5;1625603076;1.6860611872597763E11;1.2481779126223834E7;120342.12456143714
006d65b13b337004ce821791a861dd6c156cb58029;1625603076;1.6860611872597763E11;3.284544142853362E7;316676.82657222316
006d794d9adffa1adce3ba1da53271726997c6fa2f;1625603076;1.6860611872597763E11;1.6324220660534012E8;1573887.3250617243
006dab14da3815c50fea37170c30351d3c1ac9594a;1625603076;1.6860611872597763E11;3.0162535876829386E7;290809.7966540739
006dcd2720dbf7a87a6e9baa7fb8dd0cfb8f6615ee;1625603076;1.6860611872597763E11;183259.11229748226;1766.8787995765497
006e793e96657fda16272eec30c871e5de4b7bb6ca;1625603076;1.6860611872597763E11;1.2640933784694457E8;1218766.0210189968
006ef7f7ea6fcf74d2d5d96977e343cee36e49ab38;1625603076;1.6860611872597763E11;1.7057528936622614E8;1644588.6850285747
006faa67c7d674231cf6abb4dcf2a9fa14fa46093a;1625603076;1.6860611872597763E11;1200410.9276486116;11573.67070183877
006fd5cd64898387c84ab5b779f1ad386a533d0a4f;1625603076;1.6860611872597763E11;3.820635745932334E7;368363.6909379988
00705e1aad7e3509f3360e2b4f8da35c6409bbee04;1625603076;1.6860611872597763E11;1.4415470211084409E7;138985.6601539495
0071afa38f24c7bd5422a1101ca160636407250431;1625603076;1.6860611872597763E11;571219.6357806958;5507.370693384157
0071f26dcad0013cef17490a35c6761585ccf14ad7;1625603076;1.6860611872597763E11;7.377931077803539E7;711337.6160497277
007211e1a0d842e1ab5a1b4368eb90c77c98aa8116;1625603076;1.6860611872597763E11;1.0027679228281944E8;966811.0695987979
00725b17e7326f9ff75f3cfd04b6e61f38fc85b3c9;1625603076;1.6860611872597763E11;4082625.4280493273;39362.322697072224
007286ffaae3590759da37a64278018cbc016154a2;1625603076;1.6860611872597763E11;5219395.9571347125;50322.40933420464
0072b3f9582ab37e395611a096a3623e86567ec930;1625603076;1.6860611872597763E11;7.708003119538657E7;743161.2610277756
0073e61dbb60b448d615a3699ccb72de476817c51d;1625603076;1.6860611872597763E11;3.936410696859047E7;379526.04481769924
0073f36afe58f3c929933519b6cf8fd4edd914e759;1625603076;1.6860611872597763E11;7.578584962996583E7;730683.5078504449
0073f8b94806c0b92915ab9cc9d6135abae30ea52e;1625603076;1.6860611872597763E11;1.081015840757398E8;1042253.2048175305
0074043255f1530bac32e180d4cfebccde623f1cf0;1625603076;1.6860611872597763E11;875015.3868163963;8436.394331974538
007411a0e69c28923472c92446946b0b6132f0526b;1625603076;1.6860611872597763E11;805332.3919645662;7764.5510345190805
00748ce632c3a6b161a3301e126ebe57b8f1302ea8;1625603076;1.6860611872597763E11;1.2968767136302117E7;125037.38243902923
0074b305fa9f68ad4a01ab574486aafe1314f80399;1625603076;1.6860611872597763E11;5145160.356842074;49606.672437487694
00758f4c1d33884c9d56ba69d15f295addab3d10e1;1625603076;1.6860611872597763E11;2297444.567093434;22150.63713836118
00762c040f54f97db847059c95cec0a03955d1b85b;1625603076;1.6860611872597763E11;4.895364933828822E7;471982.88856337743
0076db1c3a250a8a294928c2911f3d5ae62f338ec9;1625603076;1.6860611872597763E11;5.4827927603911966E7;528619.2958897186
007707a6acc37b8b0498d08ae1d0550b8a588c6aa0;1625603076;1.6860611872597763E11;2778556.7358382577;26789.243538427236
00773788290cacf4fe755c4f3d67ebbdad94b6d18b;1625603076;1.6860611872597763E11;2.884904976256635E7;278145.9201366419
00782a958916eb9f9a0f5915a5a6a99fab5ba13af3;1625603076;1.6860611872597763E11;9.890614306488138E7;953596.0593629102
007878abf6c038bb08544c5e20957f6d31e1831bcf;1625603076;1.6860611872597763E11;1.2143594295512484E8;1170815.412254647
0078b61333aa7fc97c78e208d79257876789c88798;1625603076;1.6860611872597763E11;2.3667800338274306E8;2281912.9769888166
0078f00fca629e074ea0bbf19218fd332d17eb3a14;1625603076;1.6860611872597763E11;2.3143571272952385E7;223136.98301828036
0079de0384110176359931f71231fb8d7d359f00d1;1625603076;1.6860611872597763E11;1.9705378107161897E8;1899879.0498704482
007a0ab56fb0dd11c333d7b34498a60f2b1de76429;1625603076;1.6860611872597763E11;1.8871243506106973E9;1.819456596431693E7
007a2a9a4eff7cc34bb4150b83c15d5f792d2158aa;1625603076;1.6860611872597763E11;9.069854883624609E7;874463.1635614621
007a4fbe9a8d86bcfe494fd7b5452ea2e6f804f5f5;1625603076;1.6860611872597763E11;1230587.989599556;11864.620550532129
007a51261f99cb7b9d5cd9f724fe7778f239861904;1625603076;1.6860611872597763E11;4.4541448076403934E8;4294429.855192474
007a62fb67ba47c4e6ca2f95db585b0fe52132919e;1625603076;1.6860611872597763E11;5.3377462855935544E7;514634.75028866535
007a6d4ce4bf7f64623d294d429a7f8f8211b8160e;1625603076;1.6860611872597763E11;1.7081251054531714E8;1646875.8349928616
007a78c50966d78295d41c1018f677c18aa17ed8ad;1625603076;1.6860611872597763E11;733242.546593162;7069.502270751627
007ab2079d19d913861c3234a9b54b68b112e2c43d;1625603076;1.6860611872597763E11;5499286.117043998;53020.9490332895
007b2225dd08ccb73842e97ff02ccd2e4a5d20b6c3;1625603076;1.6860611872597763E11;1925424.8281753822;18563.837107095616
007c39e4eae5ea4e27a8877cca97f01ea799a19e62;1625603076;1.6860611872597763E11;1.1331475492528332E7;109251.5595250137
007c4f4f5ccb2d726eaaeaf8f7994af98f15e01c5c;1625603076;1.6860611872597763E11;2.9241972118263584E8;2819342.5115853483
007cc0b170027526f161e7116911c4ffd2dd1ec38f;1625603076;1.6860611872597763E11;3.127829928213939E7;301567.3447043199
007cc0ffad255d2ff183c1962705c63ea7baf6401e;1625603076;1.6860611872597763E11;1.4954207113445979E7;144179.85104246048
007ced19cf219d5ceca0e40ec72e9482c11a1da0b4;1625603076;1.6860611872597763E11;2439040.410081162;23515.82269419356
007cf52836951cab8ea0d6a23544702f628f499ae5;1625603076;1.6860611872597763E11;3753813.6256294176;36192.1087008197
007cfa6d2a423fab07b79ed8bf55d30fd4307ba33e;1625603076;1.6860611872597763E11;3992445.195516678;38492.85684074868
007cfd88d07979a7ac3ce9fd7c11862f6d5a61c0fa;1625603076;1.6860611872597763E11;1.094860345358825E7;105560.12786809426
007d84e3ec27e1520793c1b3c360f53788881d2214;1625603076;1.6860611872597763E11;3711851.6885562968;35787.535874540205
007ddf310d3e586bf369dd637663276075e1930c83;1625603076;1.6860611872597763E11;6930881.503630927;66823.56712098386
007e0bae44fbc450426a1f0ee13b28ed5aa933adb0;1625603076;1.6860611872597763E11;2.385145956076824E8;2299620.3413050035
007e2aad6eea9b4dceaff704d3d206d8202bdb603b;1625603076;1.6860611872597763E11;1.018077313961743E7;98157.15026758624
007e733e2f15ffef4d05de565bdc27b158af3e9cad;1625603076;1.6860611872597763E11;2.5341954865034327E7;244332.53129683595
007e8d6a90e99beb2de56cf1fe340736af55192e0b;1625603076;1.6860611872597763E11;9614100.45725547;92693.61867992242
007f43de8770983945e66469ced04a5b6b7f248a25;1625603076;1.6860611872597763E11;2.6681164196796594E9;2.572444162602683E7
007f65b762645069d1bdf4e83ffb07fa1148b9e10a;1625603076;1.6860611872597763E11;1.2947083552875653E7;124828.32181784234
007fe5a37361761a361376c2b174283987b45c16d2;1625603076;1.6860611872597763E11;6018673.868747661;58028.58655668451
00803c974202d4dd8db22bd3833b8d123f89ea199b;1625603076;1.6860611872597763E11;2.5945840030542153E8;2501548.442118004
008040a0ad5d63f1a07c032bcc9744cbc71727ae08;1625603076;1.6860611872597763E11;4.625139199060231E7;445929.2797754243
008096bad17b2006bd1276900650728b77afec9748;1625603076;1.6860611872597763E11;3.0844280760441005E7;297382.7881221206
008108ce010ea881db64a963f75dd0bd58cd866cc2;1625603076;1.6860611872597763E11;1.2570614609888218E8;1211986.2512377717
008137ac5c10e66293299230dba5a8017b71225283;1625603076;1.6860611872597763E11;6.817333339949411E7;657288.011329546
008148efe190c847f9dad2e8191bed23a5fcbdc2d6;1625603076;1.6860611872597763E11;902062.0054239942;8697.16224915414
0081603bb0a13a6ce956394972da3b05ddf076be97;1625603076;1.6860611872597763E11;2376534.785312728;22913.179464762452
00816362a309834d9d64e78980bb675fe80e53df03;1625603076;1.6860611872597763E11;1.3830978593035454E8;1333503.286524824
008196a5dd0831fbec1207faee2bee4a04eb1439a5;1625603076;1.6860611872597763E11;4.3181755455781184E7;416333.6124834378
0081a333ca572de57720c74541b3f65b9334d67f2e;1625603076;1.6860611872597763E11;2.4844701710238103E7;239538.3028068179
0081ec2575f63d14f427855579585aa837768ea0cf;1625603076;1.6860611872597763E11;6.0980312896612175E7;587937.0509754935
0081f748b7fbe7d3b6b599d1cdced6eb47caf4a44a;1625603076;1.6860611872597763E11;7317220.45531068;70548.42475352279
00821365f05dca5211ed65d4c237daf79fa251e8e3;1625603076;1.6860611872597763E11;1.066981607300486E8;1028722.2053204505
00822c2dc5f01e0f270c13cda29383eeb31a38b689;1625603076;1.6860611872597763E11;1.5474306688508204E8;1491943.5155665318
0082865cdb46a9aeeb24e48834c4ed9178d27bceb1;1625603076;1.6860611872597763E11;1.1307442614267407E8;1090198.4835627738
0083f136357ad6873194dd6c971a832b4c7ce942e8;1625603076;1.6860611872597763E11;3264621.3028589333;31475.598109980976
0084233a55687ee683409bf6a28137eb1e0599e334;1625603076;1.6860611872597763E11;2.0510390086933595E8;1977493.6679176458
00850054fc265ea06507e4055c26b8e8c10cb7285a;1625603076;1.6860611872597763E11;4.2496099784854543E8;4097229.1545679746
00855902d298ddcbbaa55e52bbc1f98ee39e00c951;1625603076;1.6860611872597763E11;2.4842246544970553E7;239514.63151753627
00857de08e31ae766b410d5d44aa6541f4b7ce3d20;1625603076;1.6860611872597763E11;5.0559410392453544E7;487464.71169468696
008589da40c3710374507916e6760b4ece69899f68;1625603076;1.6860611872597763E11;5.530470541218686E7;533216.1128828187
0085a81dfa2b292cb9d29a4f9927ea4064cc56c660;1625603076;1.6860611872597763E11;1.3811874437377121E7;133166.1373880299
0086243a5f7465be25768c6afbc37a7eae10b932e5;1625603076;1.6860611872597763E11;8.329860551017048E8;8031171.725381792
0086364335e8f9814e8438a503dbe7d1c30ad890fa;1625603076;1.6860611872597763E11;1.605360310117578E8;1547795.9388038318
008642c480aee423a95dbe328ee878856ce9f935fb;1625603076;1.6860611872597763E11;1.8541214846550235E8;1787637.134113394
008690b01f8da3cb9ddbca0bf2cd0157cde5ac055f;1625603076;1.6860611872597763E11;1.241190591682325E9;1.1966844732487025E7
0086b9b81da108879123f1bdadd12438b2228f1b25;1625603076;1.6860611872597763E11;6.53218100359172E8;6297952.655968118
00870090a090138d8d7a2f7ee2e1926b0c3d4d2cb9;1625603076;1.6860611872597763E11;1.1824236037857836E7;114002.47286239344
0087134cde483ce0b7f162e5716c71733518d25a5a;1625603076;1.6860611872597763E11;6.577170934098247E7;634132.9355445614
008769a4de5e4cd742cc39d7d01cd5789bf79f2f23;1625603076;1.6860611872597763E11;9.884638341885856E7;953019.8912788013
0087c2e18fe56380bfb0b9e6ce2f2ce32968f8be75;1625603076;1.6860611872597763E11;3.1446267422504586E8;3031867.9676045454
0087e83fc9df70ba11b1ffdf8e5d5bcbc2599029da;1625603076;1.6860611872597763E11;2.1049686578386778E8;2029489.5291596157
0088165dfdd32d3b221e7997d9c982280f9790e14b;1625603076;1.6860611872597763E11;9.812743259833697E8;9460881.815984897
00888fcb0ac44babd37eec3f356e44f8136449092f;1625603076;1.6860611872597763E11;6.563730206379844E8;6328370.579994395
0088b63e4b50cc6e3e7f088cadcadf978ec345d061;1625603076;1.6860611872597763E11;2.568940540612217E7;247682.44927500977
0088fe87134b8a8826f237dc69951eba1d1933f74b;1625603076;1.6860611872597763E11;3.0706064283614266E8;2960501.844682248
0089df38fa28a7b21ee74f37869ed1df997f15c028;1625603076;1.6860611872597763E11;1.8136303649483013E8;1748597.9288678786
008a71dac5fcfaf42c74c45cd3aaad058fb948d922;1625603076;1.6860611872597763E11;1.9688418649259362E8;1898243.9166296162
008aaac20888644972b3bb1b210753f9ca50817d39;1625603076;1.6860611872597763E11;1.4904462395965217E7;143700.24113053965
008ab7319e3272eee8bf5779939289eef215950d37;1625603076;1.6860611872597763E11;5095498.523805105;49127.86164963071
008b0fa9021b4d5e4e76b863eb58da571cb8bc5042;1625603076;1.6860611872597763E11;6.483765014062249E7;625127.274772908
008b5870b2e2ce1bf2461a7beaa79234bc0376a0bf;1625603076;1.6860611872597763E11;5.816670079010723E7;560809.8237457466
008b8abc011a2cfaedb8d20a743e2fa6507ae901a4;1625603076;1.6860611872597763E11;1.3164721087084146E8;1269266.5755877339
008bb5aef7a1eb91ca6e9ea276cfdf6271ba73a0b0;1625603076;1.6860611872597763E11;6158847.018190418;59380.0553208584
008c024fc8ceb706aa08d1378b4a0c2e40b1425664;1625603076;1.6860611872597763E11;3381853.146084916;32605.880014299226
008c28bf39f42caa606acb4944d84c986fc70290b4;1625603076;1.6860611872597763E11;3227881.507289484;31121.37416401391
008c339a579abc43130f39e614cd3b428380b06eb7;1625603076;1.6860611872597763E11;8.799469311135755E7;848394.1441412207
008c80f5e31067a7617c0c53e2dc8a42a2c76b57fd;1625603076;1.6860611872597763E11;1.6606393044220343E7;160109.2760923055
008ce4ac46d34ed522fa3eea48df2c36b461b34bfe;1625603076;1.6860611872597763E11;1.092308848427656E7;105314.12723116281
008d3d1df0c6e4d1443d91cc02a403e36d1b225563;1625603076;1.6860611872597763E11;2.0960112598677903E8;2020853.322001502
008d537edae634401fcd00a2b7180ff077a43527ca;1625603076;1.6860611872597763E11;8938791.855860095;86182.68213756762
008df0146c11b18bb474c0917a65cb909a298e8278;1625603076;1.6860611872597763E11;1893441.7138777038;18255.4743420001
008e0774d18e361ef15d17c24d6a799fbf7a667a10;1625603076;1.6860611872597763E11;1.1875395488620454E7;114495.72281770108
008e50a18d1cd826843dba0fe4234e337f19168346;1625603076;1.6860611872597763E11;5.778575117584072E7;557136.9270001717
008ef60f792c22d86c63c3cf362e2eebbdee482c3f;1625603076;1.6860611872597763E11;466109.49136452406;4493.959226630506
008f3c862afe8d64433832c24e7299f09001fd6f48;1625603076;1.6860611872597763E11;1.2157640965399403E7;117216.97112532998
008fe038c5f7ebba8b6e429b5cee352e9e52351c52;1625603076;1.6860611872597763E11;1.70508609005305E7;164394.5791397897
0090c55c6f7b632c2b57fc7b38ffbca67560a262e1;1625603076;1.6860611872597763E11;3.036203422583188E8;2927332.448198101
0090c62209b6e5a881fa9658fa29f5a9bfe74507da;1625603076;1.6860611872597763E11;1.2572923313613674E8;1212208.8431523493
0092c5792a7552669f35090b7f6dc2f66e1c32fd99;1625603076;1.6860611872597763E11;8.732441408020929E7;841931.6998180477
0092ce530e70b52baf24fdbb95c90f407cd0eaa719;1625603076;1.6860611872597763E11;1.1904634771465185E9;1.1477763114043329E7
0092ec3baff84fd5f5f7a45350c5c7a72be48a14d8;1625603076;1.6860611872597763E11;6.6493928647916384E7;641096.158088142
0092fc5b169870d9d56478b8b8ef077e14f22acfe3;1625603076;1.6860611872597763E11;8069849.235547781;77804.83792218115
0093de7b8a76d7a514b522fe0baa3c8461e2781189;1625603076;1.6860611872597763E11;2.4237045477232736E8;2336796.3143125824
0094182c7d9eb84e5683e75eb47195aae2e9748354;1625603076;1.6860611872597763E11;1.5700868895121703E7;151378.73384810975
00942f6c6f120392d2d3b49bc7e0b23dba0536ca99;1625603076;1.6860611872597763E11;6817922.958947829;65734.4858997041
009504c1c6b8710e7cbf05104c6778e2eeb734cb52;1625603076;1.6860611872597763E11;1.1281028660490762E7;108765.18022896924
00951233c1edb8a905705f83e47d1a9bd0ce1c04ea;1625603076;1.6860611872597763E11;748.6817439800536;7.218358118645808
00959095b44083c071c9bc578cd9dac2a09c984ec4;1625603076;1.6860611872597763E11;7.449475511883375E7;718235.5182723558
0095b14bfa7b44f73907fe46a96210ba4a64a7ab63;1625603076;1.6860611872597763E11;1.7584414987133402E7;169538.80030416916
0095c0ddbb3a80032e024410b4a2fd3f51d754f0ba;1625603076;1.6860611872597763E11;1.2187891267326584E8;1175086.2711168642
0096399fcc8b88aa236783bb358eb445d4e4dcbc8a;1625603076;1.6860611872597763E11;1.6704933411086123E7;161059.34554825167
009669a5e23d4d50f858edcf125a523ef1ec1cd6e3;1625603076;1.6860611872597763E11;1.2306282205230238E7;118650.08433922326
0096e627d12e1d5ccfca8ff78ac02449e3668c3ebb;1625603076;1.6860611872597763E11;1.3444619888619166E7;129625.28057543581
00973bbe1778557d99d7dabce6ec8217ce0808b70b;1625603076;1.6860611872597763E11;8665.555961052016;83.54829902958858
0097604cdb055a69f522460b7e2d91f81c4b0c988f;1625603076;1.6860611872597763E11;1.6393348994734159E9;1.5805522808512082E7
00983564123f8f57a65c593d69eca6c521aa90148a;1625603076;1.6860611872597763E11;5.005752650301846E7;482625.836328684
00983abd8d9dd3c0bf9195a279d7a22424c0d9852d;1625603076;1.6860611872597763E11;1.4343182492106844E7;138288.7036068509
00986fdaff74d68238d417bb8c0f8fe5e6f2cf251f;1625603076;1.6860611872597763E11;4.542149214064822E7;437927.8634623552
009990900643298f27edb177d5e8b81ebbde7ffa3c;1625603076;1.6860611872597763E11;3.805143653568046E8;3668700.32630023
009a015cf857dc0d4275447c704cd9ba33c47536d7;1625603076;1.6860611872597763E11;8847926.691231297;85306.61256050867
009a016a43a36d00df85b4a75a0cea44c9e160fe2d;1625603076;1.6860611872597763E11;3637803.873164242;35073.60949166655
009a0d5bce9d74287eff6868aed231dcef4e3cef1f;1625603076;1.6860611872597763E11;1.0863327732280836E7;104737.94848390036
009a10b43ad264215ebab2a92a40201b13c0b62d0d;1625603076;1.6860611872597763E11;6.764956096259604E9;6.522380991971796E7
009af7d53a9a17587c0b04af596bf619f18bfddd8c;1625603076;1.6860611872597763E11;1.4789779188041782E7;142594.53169973977
009b142a9268a15326188079c7f7f2d86f1231de13;1625603076;1.6860611872597763E11;1.8465453693151332E7;178033.2680103233
009b966b1edcee9dd021c98cfb296088a21a201ac5;1625603076;1.6860611872597763E11;1.2028783372687966E7;115974.60044115508
009d2e5ae513415892adb225867801faa38f165dc3;1625603076;1.6860611872597763E11;2.1733376169003006E7;209540.69412875356
009d70b474adcbfbff832a67d5e464fcba7fd7f40a;1625603076;1.6860611872597763E11;8.480504110894893E7;817641.35684225
009dd560e0420b6f28965f666b81d22080d533f6db;1625603076;1.6860611872597763E11;3.874634986453502E8;3735699.86661794
009df375ee901d99f8a3eee4dba59de9acbb8bd9f6;1625603076;1.6860611872597763E11;3768816.806146257;36336.76072520794
009e1ad336657569acc9ddd2584f81ca72f7afb2b5;1625603076;1.6860611872597763E11;5.169401257084113E7;498403.89234340796
009e5662211136296c1b9189026584ba7efee099f7;1625603076;1.6860611872597763E11;1.1771198205894915E7;113491.11263754051
009e7f984e0b80d7b72cbec77f238c395c37242670;1625603076;1.6860611872597763E11;7.564876003194681E7;729361.7689129066
009ebdd90e6e0a4f7a8cfdc66179d8b3b386badff5;1625603076;1.6860611872597763E11;9.206250987183453E8;8876136.901956718
009ef85210e6e76693649ed08ecb5d036011a743dd;1625603076;1.6860611872597763E11;2.1150884730767772E9;2.0392464720890373E7
009facd6d3b7407d9743e73f09e8ad5245eaf0901f;1625603076;1.6860611872597763E11;9623750.704826998;92786.66080825664
009faf479970921eb7595e1a3362df880673d3dad4;1625603076;1.6860611872597763E11;1.2449044431476193E7;120026.5154905696
009fe2ecbcd0073b4afc91f805cbbdcd37f42235d9;1625603076;1.6860611872597763E11;1.1903479796568455E7;114766.49553776943
00a05a23518f52534e73545fefb4b180a1959895e7;1625603076;1.6860611872597763E11;7.498103304319596E7;722923.9299124982
00a0d4795404137823f62c9cf2fac3ba50f7dd4c43;1625603076;1.6860611872597763E11;5.570275881032127E7;537053.9144602999
00a0e4ab4500714e06c4db31814eb145c9e3850a0d;1625603076;1.6860611872597763E11;1.380828683720453E8;1331315.4781370077
00a0ea7251b606d22fa28c0ebc227b9b45d7315920;1625603076;1.6860611872597763E11;8.546600264964788E7;824013.9672895857
00a1074b13fcbc29c219a52d6f12af4d8fddc0b09c;1625603076;1.6860611872597763E11;8.56562132339834E7;825847.8681783554
00a146f5cca89e84dfb701a00ee95519c6ed010882;1625603076;1.6860611872597763E11;1.334261357332833E7;128641.79444123621
00a14a47eb479014049cfc536a6f43887fb4ddbdbb;1625603076;1.6860611872597763E11;1.9708572880354118E8;1900187.0714990606
00a1867413280e5220f9218f74943f843b203f251a;1625603076;1.6860611872597763E11;4645041.41445587;44784.81367428245
00a1ae0209acc8848013e68be3354cc64a7bbe3977;1625603076;1.6860611872597763E11;2467693.2633566028;23792.077000814737
00a1bf93e9ecc06ac98fcf7090ae2dcb3955bd15bb;1625603076;1.6860611872597763E11;5.309251086219031E7;511887.40730345965
00a28862bf5ce379b3dd0e2b65c3247725459f8a5b;1625603076;1.6860611872597763E11;3.648540242469696E8;3517712.338012977
00a2bfbd9d9c8aaf65adeb422631ec91cf924e2dc2;1625603076;1.6860611872597763E11;1.5292733576154393E8;1474437.2819736123
00a2df0b8eba964217008c1b2e54e476fd67362781;1625603076;1.6860611872597763E11;1.0247243685111518E8;987980.2097877437
00a327e0bdf695cc2d749d97bc9fe2ee08ee89e2a9;1625603076;1.6860611872597763E11;1.759630648751709E10;1.6965345130110833E8
00a561d0208cffc300ff3e8e084a0e903ac73631ce;1625603076;1.6860611872597763E11;8.615025417191498E7;830611.1263236706
00a565524c5479842d692e49a74f94785401952741;1625603076;1.6860611872597763E11;1.2852595345743487E7;123917.32095191642
00a618ffbd39178b90f7c44dd5089ff588818f2e73;1625603076;1.6860611872597763E11;1.2459303748288276E7;120125.42991368425
00a65dc475af4440feb95e47cc36a028463ebab1ff;1625603076;1.6860611872597763E11;5.962710799606779E7;574890.2287996131
00a6d31084268ab9e20811c4b7fdebafb1851be5e5;1625603076;1.6860611872597763E11;1.2187356942189307E9;1.1750347545649558E7
00a7a1ed2dc69fe47f46f3c0c08622e86a8ab22476;1625603076;1.6860611872597763E11;1.1715778195220971E7;112956.78481774215
00a7cd3060573227a8673616587be7a5d5407f62e3;1625603076;1.6860611872597763E11;4382971.573166078;42258.0872224394
00a83b632f1fa16b752fa69d3498d2e6f542cf298c;1625603076;1.6860611872597763E11;1.2297762535256969E7;118567.9425888544
00a90afd1ac71001aed439c5c78b81b8b81648007c;1625603076;1.6860611872597763E11;1.1805481247290393E7;113821.64997490546
00a9b7c1358bf834b85bbece695737fcd41582ad03;1625603076;1.6860611872597763E11;1.2829774854220089E7;123697.29891774245
00ab9f6b4cb7521f29a2914887b71d90957a37cc16;1625603076;1.6860611872597763E11;1.1289780290605175E8;1088495.5840540496
00ac88287b451f428df99f694d2a760b19adb9e77b;1625603076;1.6860611872597763E11;211566.7546403897;2039.8047812351751
00acb67deb8768cb62372591efb2cd6c2e2ea75618;1625603076;1.6860611872597763E11;1.6354655004447438E7;157682.16291934808
00ad5db8f0c8726b088ece10794f3eadb48e270e02;1625603076;1.6860611872597763E11;2.1270199604776907E8;2050750.1249616253
00add78c95d7769da4a78cd05818ae8550ac33c7c9;1625603076;1.6860611872597763E11;2.2324575942185736E8;2152407.0179797863
00ade0c0ac27ed13d3153a93f67a3448532674fb7d;1625603076;1.6860611872597763E11;1.201991674282007E7;115889.1135033386
00adf37a93e51f6b70dff6dd91a5d90e9f341feaf9;1625603076;1.6860611872597763E11;4.5028299871849634E7;434136.9300938147
00ae9d0c61cd4a2e842797b65bec78e7bf659ea642;1625603076;1.6860611872597763E11;1.2746666519821897E7;122896.01622966572
00aeb30f0c95adf763d21227eb0f40b9ee5ac899be;1625603076;1.6860611872597763E11;4359574.635802955;42032.50742952402
00aecaa587bd7b5ad5229a01549f0a971645e45e67;1625603076;1.6860611872597763E11;2.442975223108868E8;2355375.989486965
00aed8e1dc9a1cd9e55c661b52c4b72a697c2dd451;1625603076;1.6860611872597763E11;2304210.4535916345;22215.86991868048
00af30468f11657c54ef9dd6ddaa3e0f326334f1f2;1625603076;1.6860611872597763E11;4.26612410851233E7;411315.11274904304
00af83d3a69a3cf191d11a252ae9696f6932928904;1625603076;1.6860611872597763E11;2.6187256608983774E7;252482.44379998566
00af9ef8da2344028f58fd249d4c3b1f3f6a5482f5;1625603076;1.6860611872597763E11;5.980736561765799E7;576628.1689547133
00b09ac0eef8be2d5520555fdb142af58846cb20e2;1625603076;1.6860611872597763E11;1.1468335520253062E9;1.1057108507801184E7
00b0ad1e398131a0843105d5dd2efa98f44fde7e5d;1625603076;1.6860611872597763E11;1162464.1857414758;11207.810074510813
00b0b064e4880325ad339018265744c2cd8028e969;1625603076;1.6860611872597763E11;717077.7965433497;6913.651062015529
00b1ade35c764fae5e8955a8548288f05b4d136c1a;1625603076;1.6860611872597763E11;1.9304099610559095E7;186119.0088678575
00b21737c18facf1dbadd51607296636673a2a9b4c;1625603076;1.6860611872597763E11;1946491.912463194;18766.953798704402
00b33c83eaa40aa5e9dd699190c4d8f515077b674e;1625603076;1.6860611872597763E11;1.256775293353307E7;121171.03448874805
00b35c475557dca47664a3436fc6cca48f03a27fe3;1625603076;1.6860611872597763E11;3006428.7347896225;28986.254093136922
00b38951b436d5fcdf69b8fab89d91343c623f6806;1625603076;1.6860611872597763E11;1.4172949776285896E7;136647.41781861614
00b3c7d72e7f19a8a3de46dfe850ad663ccf80f702;1625603076;1.6860611872597763E11;2.3744276417646505E7;228928.63600431953
00b3e0a7734f2a30f739e1a193511db01d96c37d04;1625603076;1.6860611872597763E11;2.2442474927213904E7;216377.4158992655
00b4aa0d9635ace6a0f75d7251832c13d5cb441e8f;1625603076;1.6860611872597763E11;9.446212365949466E8;9107493.841070656
00b4b756b1ef697f11b324a9c67346e31292eda0df;1625603076;1.6860611872597763E11;2.4309048757387795E7;234373.84558307313
00b4ea334212ab90793cf66609f0e3fb50652be010;1625603076;1.6860611872597763E11;217574.83353172135;2097.7312171225494
00b4ef08393daef3506b89499b7cc9e5645b5538ee;1625603076;1.6860611872597763E11;2130946.905450195;20545.362591036257
00b4f0ca31a0cc4e56eb835b5cf729a7dba330ddf5;1625603076;1.6860611872597763E11;5.879864871985829E8;5669027.016687877
00b5787ce59988e97f4eecba542145e079cc09e090;1625603076;1.6860611872597763E11;1.4948809858424577E8;1441278.1381847928
00b5daabf9a664fa3c56e81b8795bfa4bb2a1f446c;1625603076;1.6860611872597763E11;2.3354525919649324E8;2251708.8620731216
00b5ffff62f8d57310260341b5cb3bac9993d39d47;1625603076;1.6860611872597763E11;1.3271239993519332E7;127953.6514974371
00b68eb221da8747ad6f00257ecfb98b00c4425329;1625603076;1.6860611872597763E11;1.5877863179014876E7;153085.21078088804
00b74cc6bab60b82db1b9c3ab30c5890d4b90f24bc;1625603076;1.6860611872597763E11;1.1926314173084904E7;114986.65144304834
00b76bb2a448a1a312934d8dae3210b2a87e76976e;1625603076;1.6860611872597763E11;2.38229081862092E7;229686.75822320877
00b78b3a71a0c68a3328549e0f0de79ba9af063782;1625603076;1.6860611872597763E11;7551230.324882651;72804.61312121068
00b7f1f50232353a573d20dba8e0cf4649bba867d9;1625603076;1.6860611872597763E11;4.866537855281182E7;469203.5476999953
00b87446a29c44c687a9d84defb4e32a0833f2ca19;1625603076;1.6860611872597763E11;1.538028564485544E7;148287.85481189942
00b878b938b37354bf4d453ad71de96d7b535e3fc6;1625603076;1.6860611872597763E11;3.5010563306428075E8;3375516.845620468
00b90dac72c5ad4b39c8a25ebb5906ffd580984de0;1625603076;1.6860611872597763E11;5.4485687276817046E7;525319.6117936692
00b9e0cd10605f7ce71c8fba99c8537abec9a46e19;1625603076;1.6860611872597763E11;4.887868123130736E8;4712600.892591123
00bab91a09d27e81762b529f834fd956b3e0144b7a;1625603076;1.6860611872597763E11;8158504.08044882;78659.59686961683
00bb0be266879971b7eabc5752aaf087cf991af00d;1625603076;1.6860611872597763E11;6.1189779002679035E7;589956.6025132015
00bc65232bd889b7e40e486ea58bf7d59eb391a0a5;1625603076;1.6860611872597763E11;576361.7874665284;5556.94835794883
00bd2d60545c98bb267fc9dbb5774a7b2e9766df61;1625603076;1.6860611872597763E11;2.370922560400855E8;2285906.9624924595
00be15cbd68e9147517051d10b92b1dee2a8ba0198;1625603076;1.6860611872597763E11;1.7172453695096366E7;165566.90682492522
00be2512f20d0cb1888fb092489d8fae9f1608c41b;1625603076;1.6860611872597763E11;1.4751924002713159E7;142229.55380820326
00be33473d3969ae619a931af176df9f730607b3a9;1625603076;1.6860611872597763E11;1.4030719172898006E7;135276.11226864107
00be773eda360041ff684d943c43f572d414497513;1625603076;1.6860611872597763E11;5.657880062000921E8;5455002.049703601
00bec046271df26d10fdea6a3b877a729a71d83775;1625603076;1.6860611872597763E11;1.436952031660734E7;138542.63773953047
00bf515c7bc2349e96f80e4921eebe4b81aa94eba7;1625603076;1.6860611872597763E11;9880782.369263532;95264.81206097896
00c02d11f4805cc882aeade494bc67ae1b3c791d21;1625603076;1.6860611872597763E11;1.8976409359249687E8;1829596.0822137485
00c02e09264e9429e1fb44c094857cd9bff4020c24;1625603076;1.6860611872597763E11;1.1600152885795798E7;111841.99218693323
00c0aa1158cc9718917158977432c0469e9f9bb12f;1625603076;1.6860611872597763E11;1.3253243540269697E7;127780.14006154881
00c0ba1cd12676ddf3befafd665434de75644d780b;1625603076;1.6860611872597763E11;1.1277468591328567E7;108730.85609278387
00c139ff8f7cd73ea7d19f49210839655745af93f6;1625603076;1.6860611872597763E11;1.1673452840898798E9;1.1254870813168345E7
00c1533d7112da2a15383d839d243d6d02e2954921;1625603076;1.6860611872597763E11;1.7335937052095142E8;1671431.1918317263
00c17ffa6c6d829b5b90d1fea02c6a61c430d30bc5;1625603076;1.6860611872597763E11;2.3377534050244596E7;225392.717349333
00c30663ad7ef0e2f691d3d3f5f9bab11ed8979b60;1625603076;1.6860611872597763E11;3.7581113820415205E8;3623354.519254493
00c3a7159620a092d4fa591c5ad17ae80cddf6e268;1625603076;1.6860611872597763E11;5.25538817671306E8;5066942.558308538
00c3b14a5f66a049ba970d5cc28f0e5dfe19107e62;1625603076;1.6860611872597763E11;1.6750803396164034E7;161501.5975222735
00c4388e201455859a506d93850f8e300e6ce9102e;1625603076;1.6860611872597763E11;2.1759829127626877E7;209795.738318331
00c441c9e6c6855e82647bd659c0bfd70e4f5a297f;1625603076;1.6860611872597763E11;1.4674406501787698E7;141482.1747160301
00c447a87c9815429396a1f4672603fdf39dff0730;1625603076;1.6860611872597763E11;1.2617461662575822E7;121650.29742087968
00c45a55cf8de7d1ce6dd3a5658fda74c9dc376c22;1625603076;1.6860611872597763E11;1.2873181622477502E7;124115.80197404699
00c4c1ad0ecb6b0db9322af0a76502429b8d87ae0c;1625603076;1.6860611872597763E11;1.073028449889547E8;1034552.222633666
00c51ebe02bcdadeac72b8c19b7b19b87a5eab3eaa;1625603076;1.6860611872597763E11;1886713.708066919;18190.60678544877
00c578d6b2994533ea89e8fd90b08a4a8a983f68fb;1625603076;1.6860611872597763E11;975268.9133420425;9402.981086544249
00c60c1a85efcf3631c0a0dc9fc738c9fdc1818ac8;1625603076;1.6860611872597763E11;7884249.515351763;76015.39232948748
00c62a9bc02c9b1c3d35efc3f9ed85a770b56b84a7;1625603076;1.6860611872597763E11;2735626.4630499785;26375.33457696442
00c71d1b9673625b3d17ec454bb47d2a4d2ba54dbd;1625603076;1.6860611872597763E11;2.2157037547353663E9;2.1362539310073167E7
00c744ad30409887487ae610d0694ac7d67ff2d64f;1625603076;1.6860611872597763E11;3.109980189273296E8;2998463.7569400393
00c774fff889a942b555d39d0df927d88cc1da3039;1625603076;1.6860611872597763E11;1.5257286434681218E7;147101.96727759382
00c7915f11747847628884ee036558dcfc0b65d0aa;1625603076;1.6860611872597763E11;8716131.238729568;84035.91672450629
00c7d598e3ffb4bbbcdeb997f32e02e1b5a484d774;1625603076;1.6860611872597763E11;2.0876948515144414E8;2012835.120110236
00c94a1520c04e233eae0e55d08868ca46a6b589d1;1625603076;1.6860611872597763E11;1.985749036102233E7;191454.48371883266
00c950e7d858976e709d22a3c04de052ed13e2c443;1625603076;1.6860611872597763E11;3537544.9194714986;34106.97041147785
00c9e4abf7b14fb470c47fd188a3f292fb22589eb6;1625603076;1.6860611872597763E11;6590836.700852199;63545.051005721754
00ca4be5d52674f3fc5048128b111f0b9866375255;1625603076;1.6860611872597763E11;1.2214751922336912E7;117767.60207498017
00ca9db3d5c590cffb9518e1ad1311246a59a8da21;1625603076;1.6860611872597763E11;2.9641045747198075E7;285781.88921371556
00cb940e655ad4df1379826749014b82e52ba5e2b5;1625603076;1.6860611872597763E11;4140386.305673149;39919.219807611524
00cd1fe739b204551d1a07e0721c598935188486bb;1625603076;1.6860611872597763E11;1.2150093500531998E7;117144.2028165808
00cd5e9f783fcbe37ae2910213aa08822ffb1c3266;1625603076;1.6860611872597763E11;1211862.394078847;11684.07914486779
00ce9b4a5f03f9569530a782d20f48b582bfb73b4b;1625603076;1.6860611872597763E11;1.720766944362888E7;165906.4367872461
00cf3ab49abbf6d95b7c5cbb34de69f67a287434e9;1625603076;1.6860611872597763E11;1.8151529914139178E7;175006.5957599462
00cf5765d2858b9baadbfe002439d39fc2f7752df3;1625603076;1.6860611872597763E11;3.0602448697137978E7;295051.1826682299
00cfc8bd7b41a84788de70e842ab6959262fec33ef;1625603076;1.6860611872597763E11;2.1985517695127927E7;211971.69748470027
00cfd53c4bdb671689b75699ffc8ad2d2765b191fe;1625603076;1.6860611872597763E11;4.321226806101109E8;4166277.974471467
00cfeecc6d19cd106c14c04ce533620a2712b3a00c;1625603076;1.6860611872597763E11;7000091.770812191;67490.85265054104
00d0105d2e717229b47b71b82e713fb97a1c143270;1625603076;1.6860611872597763E11;1.1957931273917086E7;115291.4853171412
00d01e90f71e84e5f63d3607f097c43a30b575c816;1625603076;1.6860611872597763E11;1.2193631197616298E7;117563.96821321634
00d0858cad38d2b16f99770238c15bc79a74aa60ae;1625603076;1.6860611872597763E11;5.559778056065784E7;536041.774646778
00d0bf77d0f8318355c3677728e64c2f53ec57f939;1625603076;1.6860611872597763E11;1.7231601857436392E7;166137.17933559231
00d0d42ed20328110b70cc049c425388b58366d693;1625603076;1.6860611872597763E11;7.001152880628525E7;675010.8326016802
00d12c001dd117c56877593424fe621e42693f7732;1625603076;1.6860611872597763E11;8.601726120252694E7;829328.8847196461
00d163d76f4ee87d21c88c5c245577aaa98f7e660f;1625603076;1.6860611872597763E11;2.3565995948260136E7;227209.7584118864
00d1912d0791256aeff5c22de228d65a09cb58667e;1625603076;1.6860611872597763E11;1.3990952064848498E8;1348927.0071953845
00d206b9c77cd3965f9f298a67629f2fa7f1f71b3b;1625603076;1.6860611872597763E11;1.3968087820553672E8;1346722.5684634491
00d27a028ec882a7282632138198b381648a0aaabb;1625603076;1.6860611872597763E11;9971229.484042978;96136.8510421962
00d3bcaad520cf34b11e951d7e8b647a37f82fe288;1625603076;1.6860611872597763E11;7.619144704873954E8;7345940.445294119
00d48ca32da7b6f4a03a56f7ca1031b723b61aefa1;1625603076;1.6860611872597763E11;1.2560161599542303E9;1.2109784321918095E7
00d494fd3591fd3d9c0ffc4eaa8c79698917da66c2;1625603076;1.6860611872597763E11;9161563.730028424;88330.520226901
00d4c2f1385403f7ac748a5a2ba5df56a1473cb1ad;1625603076;1.6860611872597763E11;1165403.6368704562;11236.15056910928
00d4cd15f43ee2a9067ce3957f4aec1ab464ae7839;1625603076;1.6860611872597763E11;7.945346140794864E7;766044.5079903769
00d4f5c69d23a1919d4021a3a79769d52a32bc381c;1625603076;1.6860611872597763E11;1300365.459290048;12537.374719962425
00d52235b604dab92de67da8605b79858ac3a2f218;1625603076;1.6860611872597763E11;7711136.159139073;74346.33306590648
00d555eafd5cc47260b59831ef186e0746361d20d6;1625603076;1.6860611872597763E11;1.1067613212357801E8;1067075.5140996596
00d5abc335c54cfaf7116ebea2132c89115eff6142;1625603076;1.6860611872597763E11;1.7838385086401653E7;171987.43370906636
00d5bdcf82749c811edffae84acf943dd722510c94;1625603076;1.6860611872597763E11;1.145084773613787E7;110402.47793691348
00d72ef3a5a298539780aed09861a7f9d3b7a83dad;1625603076;1.6860611872597763E11;1.0469186876174761E7;100937.86938294781
00d73b71d9b3140493898a07e8d8807bb59bd65289;1625603076;1.6860611872597763E11;9960904.81749813;96037.30655460109
00d82d1af87114ca1d65a446dc599c9c395abfe499;1625603076;1.6860611872597763E11;6.841037511818597E8;6595734.310400374
00d852b81a4311c8e7689aee1d48183d1a11e9e5bb;1625603076;1.6860611872597763E11;1.1593961433905378E7;111782.29777421545
00d86b62452eadae13bf13566dcb9e319ceeee1894;1625603076;1.6860611872597763E11;1.2854467054021046E7;123935.36688498435
00d8de5e00d4dc39eafbfaadbee2ec22a20bb489a3;1625603076;1.6860611872597763E11;3.7119435528379805E7;357884.21577028395
00d9b7e9a1b70afc38227df3c2aa2ad8b42f0386a0;1625603076;1.6860611872597763E11;3428339.3866730644;33054.073568974345
00d9e0d62e471bae1d22c8bf69891e018f9b1bb467;1625603076;1.6860611872597763E11;2.1358640469740197E7;205927.70837229548
00da020bf4a271401be020e491ea441a9527b2c071;1625603076;1.6860611872597763E11;2693173.8973636054;25966.0313922086
00daabf55e460aab3dacaf339950d5134d2d7e1c54;1625603076;1.6860611872597763E11;1304142.3746729642;12573.789562499891
00dac63fbb760d82c1c05cdf7c5074ed622fcd358d;1625603076;1.6860611872597763E11;2.446475312865876E8;2358750.574417963
00dae0d98dbbe72eb56a8efbcc957d08dfa817dfbe;1625603076;1.6860611872597763E11;1.8811305346950517E9;1.813677704382534E7
00db4a89cd0231136c59ea80488449877e52a8384d;1625603076;1.6860611872597763E11;1.2616531343978092E7;121641.32782484393
00db7e737804963aa68aa6f5e0920238014d4e2229;1625603076;1.6860611872597763E11;1316047.1338533496;12688.568393119473
00dba8ea0786edfd8a49409c1ad229ad16a5519b80;1625603076;1.6860611872597763E11;2.1651743612535515E8;2087536.4004140475
00dcf971b2265105e66684ef63b9f734dec4e34a6a;1625603076;1.6860611872597763E11;1.7372749741471823E7;167498.04592924064
00dd4f4e815374cc0eeebfa046d649ef89ddb3e12c;1625603076;1.6860611872597763E11;2.9215018183888018E7;281674.37684933236
00dd51fb618eb72dd50e5850a9a6a2b248cb70c24c;1625603076;1.6860611872597763E11;1.6798833003664782E9;1.6196467133170731E7
00dd5889a75c371712c694f13044bbc485798f93e3;1625603076;1.6860611872597763E11;8.57183511244965E7;826446.9659259196
00dd611213e24915ed39104d8540f002056f20be9e;1625603076;1.6860611872597763E11;1.4514346720559368E9;1.3993897050330795E7
00dd8e8efaf383ac92ccbbf10b80e4b3defee9b7a0;1625603076;1.6860611872597763E11;2.2331718708153192E7;215309.5682330498
00de288fa2f6118117fd5a66f80ee523b2fdf03d3d;1625603076;1.6860611872597763E11;3403495.8351131994;32814.54635525491
00de46c449e045bf90a909d6aa661c72695bd318af;1625603076;1.6860611872597763E11;3812512.3789151656;36758.048268254715
00de53d14bc1811ead882312913ef639cf4a45bcf1;1625603076;1.6860611872597763E11;1.1196390776532913E7;107949.15050509178
00df78980bcf8a4d4a11b17464fe26fc32871ab1a7;1625603076;1.6860611872597763E11;2.281061150933892E7;219926.77676951454
00e01535db644fccbe194a356406b6c5071c405584;1625603076;1.6860611872597763E11;1.308236083257634E9;1.261325874260896E7
00e037842c74b82774d486dba00150c94f8d19359e;1625603076;1.6860611872597763E11;1168118.3996760438;11262.32474831891
00e0f2f83d361743b236aea3b27f2b9ab29cefcf86;1625603076;1.6860611872597763E11;3.0294526794642627E7;292082.37705401774
00e2a66feb5d154263be9311df2056b22e492946d5;1625603076;1.6860611872597763E11;2.253243101104765E7;217244.7206429487
00e2b875c8176d8a4aabf55d996264c4f2dc552083;1625603076;1.6860611872597763E11;2.1067679502790984E7;203122.43032875494
00e3ce432f24d301fbb4ce706334eccde1edc9249c;1625603076;1.6860611872597763E11;1.20128701409654E7;115821.17422725033
00e44c8e1464ec47d90b9d403625c9e58cbe295eea;1625603076;1.6860611872597763E11;1.1428984153614178E7;110191.68186811447
00e46ada75a810bf6ff0f28e47f2c435c6b8ee9ad9;1625603076;1.6860611872597763E11;1.2353734894205532E9;1.1910759583255216E7
00e489223627fab44016d39d51b12622baa3740d7f;1625603076;1.6860611872597763E11;1.489348984939676E7;143594.45015694975
00e4b041adf21c946885d3a6633cb03652c236b129;1625603076;1.6860611872597763E11;4761853.908586075;45911.05245617332
00e4e6c50539fbb1319183539370f008400c3d7fc6;1625603076;1.6860611872597763E11;3.0967943512408704E8;2985750.731441845
00e522ea0b460584691c6588acccc5b0203bbcd54c;1625603076;1.6860611872597763E11;4.791420636120734E8;4619611.781199063
00e526fcf4a28ae3ac2b034792d82694090801e703;1625603076;1.6860611872597763E11;5.506140432646292E7;530870.343960934
00e55aa3a69fdb2105de9a6b5f1c08088f68b2ac50;1625603076;1.6860611872597763E11;8925529.554563154;86054.8146678337
00e6a53d215fafbce407ea14729aec6fdfcc280a8c;1625603076;1.6860611872597763E11;1.670784733164276E8;1610874.3989177772
00e6a70b4b85e2fd678b5223dae1e701b334d6faf7;1625603076;1.6860611872597763E11;1.7382591299303774E7;167592.93256090704
00e783ac0501fd88ec9444f145ecb8ba2d8dd056cd;1625603076;1.6860611872597763E11;6637785.175763351;63997.70115748234
00e7e18b7b33dc24b9d88158043f6e0a1a69b52f79;1625603076;1.6860611872597763E11;3.522677711421093E8;3396362.9355287882
00e8a99474b9109d58fde61fb675e2f9464d704750;1625603076;1.6860611872597763E11;2.380897178333017E7;229552.3914543174
00e95783aaf01659a4462b069c0024adf307867675;1625603076;1.6860611872597763E11;1.7295638927323714E7;166754.58787671433
00e9be684316c1ca80bd4ccb3ff491e52b303687fb;1625603076;1.6860611872597763E11;0.0;0.0
00eae26c14b21808e4a9b5c33be9443c92d18097bb;1625603076;1.6860611872597763E11;9.059274683879699E8;8734430.81646287
00eb39fa1b00ac977c93cdd06bd8c6e0b030dfc9df;1625603076;1.6860611872597763E11;1.2334576989465544E9;1.1892288635041494E7
00eb9be72269d40ffc199bc089f35f4faeff024bea;1625603076;1.6860611872597763E11;4.260086167101562E7;410732.96921805973
00ebbc29bca33c7a1c659a546caf60574c4c6c36e0;1625603076;1.6860611872597763E11;1.1042202622671936E7;106462.5571412618
00ebbde1133624b2ee723ec96547b37b40e158e58c;1625603076;1.6860611872597763E11;3.0004528824443376E8;2892863.8367043342
00ec90d639f295627e4a4be29cdbd05a726d9402fc;1625603076;1.6860611872597763E11;5847775.204403134;56380.880076386115
00ecb988b7c624f21cb7128033758df32fb54747a7;1625603076;1.6860611872597763E11;2.3310065138337187E7;224742.22096426814
00ed3e0342f724aaa0eb0998388c1b46ecc6f730ab;1625603076;1.6860611872597763E11;2949307.949060266;28435.52837993733
00ed458d9f727b468c4ad042aa18f5a6973d889c67;1625603076;1.6860611872597763E11;1.9677872686610866E7;189722.71356580642
00ed6af636838e62de986c3cfbd0001befd95048a6;1625603076;1.6860611872597763E11;2.3267590666656837E7;224332.7065745367
00ed7d6295501ae86f1deda943ac05ecde1f0a97b1;1625603076;1.6860611872597763E11;1976758.9794661608;19058.77142426451
00eda7b0f41d0a6e6ddf5723603a49039ced9e76d5;1625603076;1.6860611872597763E11;6.033612199919556E8;5817261.334104342
00edf6c851ed71d03bcc0e7e52df90a8d58236cec1;1625603076;1.6860611872597763E11;2.5792868821051422E8;2486799.8392460216
00eec031fab956a8264ee64bbd14883962d2aec0b7;1625603076;1.6860611872597763E11;3.881903896329739E8;3742708.130815742
00eecb2100435327cd6e5a57b43faed31040afe05c;1625603076;1.6860611872597763E11;1.4257810049547633E7;137465.59169206067
00ef1799a8a4e9d9f49d601580c26b2c72306c147f;1625603076;1.6860611872597763E11;3.2637158484712105E7;314668.6824033578
00ef7a8be9d4bb67f1856ec238c8ae9122b58aaa7c;1625603076;1.6860611872597763E11;2.9244806008997405E8;2819615.7390060825
00f09e30bd1e8711b35742ce923e3732366ebc7fe0;1625603076;1.6860611872597763E11;4600184.258863733;44352.32681875084
00f0e9ff67e35b9e673f7ee87d4ec091edd118ec9d;1625603076;1.6860611872597763E11;8.408255291225791E8;8106755.418185175
00f1233d3a7046f203ff22056a01318b62b71602a9;1625603076;1.6860611872597763E11;1.1800197368681803E7;113770.70586098933
00f21c74882af0c66edafc76758bfb7e8ed4389ab2;1625603076;1.6860611872597763E11;2.9296198738897894E7;282457.07299898943
00f2224da26e66314628e7d50c5a2446c8752b350d;1625603076;1.6860611872597763E11;1.4115370878519756E8;1360922.7525304027
00f2a3bf6f35250faab57662b8cf410bd374afda90;1625603076;1.6860611872597763E11;1.6195695056757187E7;156149.5626680723
00f2f757b418ddd41cc74929334f047a388142cfb2;1625603076;1.6860611872597763E11;1.3470785733357988E7;129877.5565783174
00f3a778fbcf663e4f0d47b41aa4ec51e0f9d39d60;1625603076;1.6860611872597763E11;2.9811849932274485E8;2874286.8477933286
00f3dc5417900b23a96c2c8d1826e931211f41343c;1625603076;1.6860611872597763E11;6.040041134607435E7;582345.974260991
00f3e45a321f4bbf71982963db9b8f02b6423f4216;1625603076;1.6860611872597763E11;1.0890038599508638E7;104995.47927967599
00f50760cc3c263fbfc96c4f078482f3c93106adb7;1625603076;1.6860611872597763E11;1172950.6605312652;11308.914623998622
00f545920937d58b8d26071539c9cb6d8bb9ee30b3;1625603076;1.6860611872597763E11;5.194769670885335E7;500849.7686745943
00f58c1bbbf2b9a06cf6ea0e23701341ace184bf4d;1625603076;1.6860611872597763E11;8000892.563468231;77139.99741051845
00f5b42c979d22d23d65633f10f1c5be3a43041b7f;1625603076;1.6860611872597763E11;1.030667346481603E7;99371.00868185215
00f5ec0728aa1bb85965744d86ef0dd5627b58230e;1625603076;1.6860611872597763E11;750660.2397212287;7237.4336349260575
00f5f50f29b54f0c28a6c64ce31acbc9e24f124317;1625603076;1.6860611872597763E11;9.247017123321189E7;891544.1262203478
00f635dcaee8eadf03d9cc0f63c5529a9a3f6111d3;1625603076;1.6860611872597763E11;1.918919852745867E10;1.8501119881010187E8
00f63b1a5ff831ce6a8c8cf0419fccf7e8d2a20e95;1625603076;1.6860611872597763E11;6.103004336580775E8;5884165.235136558
00f66b5e6e16b78a0ab30bd24531668d589c7f3f98;1625603076;1.6860611872597763E11;2.9381372771018434E7;283278.2719546186
00f685027dbe0a92b22f7c0e9f5dfcaa32d92ee837;1625603076;1.6860611872597763E11;2.437413158908501E7;235001.33675718482
00f6c13954f07c9cd31c67ebcd0173085492d243de;1625603076;1.6860611872597763E11;2.6957084117038035E8;2599046.771954194
00f6dbe4acecec6b4fb239055e7f80556e493a7071;1625603076;1.6860611872597763E11;1.5292393047649446E8;1474404.4501766828
00f6e5cb01d2bb9d520e01ec7fa522acd3d3110c6b;1625603076;1.6860611872597763E11;3.6610260950020456E8;3529750.4778126706
00f79f0f4bbdbc45b9765db725c716c203e69f5c4f;1625603076;1.6860611872597763E11;5.411237802478001E8;5217203.790196977
00f7db7a1ad63e28f77cc893c8d3a1c253c8abb8c4;1625603076;1.6860611872597763E11;9096930.076242782;87707.35976747653
00f84acf77f77252b11b8684518fb08fcce72b05d2;1625603076;1.6860611872597763E11;1.2223143384873986E7;117848.5077230995
00f854d4943716b4e7b75091e58930c5bd1ba1754a;1625603076;1.6860611872597763E11;1.3020062402662087E7;125531.94185009383
00f910caa11b18e223a77662357f40822071610a43;1625603076;1.6860611872597763E11;1.1278313991440708E7;108739.00695369646
00f9629f3f42e0dfaa9fca359e88a2ce622e5017b7;1625603076;1.6860611872597763E11;1.276591436202291E7;123081.59283699619
00f96b168869db5416759fe61cb0507d38987f2740;1625603076;1.6860611872597763E11;5.0590405268284124E8;4877635.464337294
00f9bbefae773b5a9aec5a01e0005139af1dddf7ed;1625603076;1.6860611872597763E11;1.3725034928082876E9;1.323288808608425E7
00f9d7d8b228f42a1d148bd132bf3ba092206ad8a2;1625603076;1.6860611872597763E11;3.59959366058559E7;347052.0863188861
00fa8713e2703636d5f5fc6fb760de3cb28f5f2bee;1625603076;1.6860611872597763E11;3406265.5595899187;32841.25044323848
00fadb0912153099487ffc49e4b24e4d024f6e64a8;1625603076;1.6860611872597763E11;4985311.809065934;48065.50481603655
00fbebd01d5b00a3687985d46d004c7dc044be9ddf;1625603076;1.6860611872597763E11;4558191.212564274;43947.45405523057
00fc28a78dea16c765b3d5b52f34faa94861d52f9b;1625603076;1.6860611872597763E11;1.0154979320032215E9;9790846.111694124
00fcdd97a29405d585b450d52bb5fc4a9c9ffbc1e1;1625603076;1.6860611872597763E11;2.9591907887880538E7;285308.1302786412
00fd562412392806c5d687fdaef05f7e7c2a93a9cf;1625603076;1.6860611872597763E11;4.8996165937923566E7;472392.8091265844
00fd79226ee6c4322305758a32ff1c4f7dc2d67894;1625603076;1.6860611872597763E11;3.3157099509105086E7;319681.65426332626
00fd7e31fdc870320e01f611638446bd623a626deb;1625603076;1.6860611872597763E11;7477065.1003844505;72089.55474736574
00fdd3675c42e9a57c6c9ec43e7eee90c3a1fb0062;1625603076;1.6860611872597763E11;0.0;0.0
00fe0813844b18103c12cd2b3448d9060b958d194f;1625603076;1.6860611872597763E11;6.039423405509657E8;5822864.163796359
00fe34a7bc8d4907b46e06cc25f71ba43da2700212;1625603076;1.6860611872597763E11;5.134373553279021E7;495026.72290963924
00fe5f2d17cb74e0be8b673e12cbda5056ecab2fa6;1625603076;1.6860611872597763E11;1871140.4434236172;18040.45833829391
00fe99083a319caf9ceea1d68b1a48ada78da808a6;1625603076;1.6860611872597763E11;9992970.319190154;96346.46365149596
00ff0c9b6623b49b664bc384a8bfb4418ace76b67b;1625603076;1.6860611872597763E11;2.320338590346006E7;223713.6812311199
00ff4fc197e9d4b52c9920e3020a0a4b7626886a01;1625603076;1.6860611872597763E11;4.061376545303267E7;391574.5320944884
00ff581c3520a683a5c1bc301e7699d492b8b042ce;1625603076;1.6860611872597763E11;4.0283333767782256E7;388388.70012107154
00ff71ded534c1b41dc963e0aea18d994fb79930e9;1625603076;1.6860611872597763E11;2.1162936232531898E7;204040.8408469888
