Identity;WeeklyRewardInQuarter;SumOfRewardable;RewardableForHolder;Rewards
00004707b35004e4b8e4f421ecb6419875ccac1622;1625603076;1.6472736494619135E11;6048595.109593946;59690.233124571176
0000503d867c0d88f573bec12fc53d7972555f8d62;1625603076;1.6472736494619135E11;4.558317595315413E7;449835.10218536924
00007191afc732273eff16baa3a3c7ae8a7eea6255;1625603076;1.6472736494619135E11;4715042.286853524;46530.1393455962
0000f871f03b7d23a21de01b0d5d3d21529b89d784;1625603076;1.6472736494619135E11;2.340990011270955E7;231019.33090779564
00017b55a55733b7f3b2afa1602277b7839bc10499;1625603076;1.6472736494619135E11;8350932.113707569;82410.7211084486
0001ce2900f5e2770e0ecd7f879a90b33e044cf767;1625603076;1.6472736494619135E11;3.174445031203414E7;313268.3879817322
0001e52268cdee1d9e3f3894574e50220620dcfa94;1625603076;1.6472736494619135E11;1.0873525242600146E8;1073047.9472617297
0001f34f2955daec1e46537cc8f8b56503a4a7ec30;1625603076;1.6472736494619135E11;9357443.572400002;92343.42490550218
000262371407b1b8ef32a243082ea9f529a88b9c44;1625603076;1.6472736494619135E11;4.097992666031875E8;4044081.8594426755
0002a10869a1d354758aaedc3df43173db801d52e2;1625603076;1.6472736494619135E11;4736320.192983084;46740.119209393284
0002f8598a27beb72c752dfcf91d62bee9ac475c6a;1625603076;1.6472736494619135E11;5974337.766604567;58957.42855856266
000305c89fe90d3670bcff971e3fca67f3da4daaaa;1625603076;1.6472736494619135E11;5.466890011672843E7;539497.0788267032
00032794ecd33f4b59ad4c8c1a900f733b7b206904;1625603076;1.6472736494619135E11;1.1861174259484056E8;1170513.5553821116
00032e337076db13fbc19b89b21385f2e1134f146f;1625603076;1.6472736494619135E11;2.5435457425093332E8;2510084.334998328
0003756b37ad7f0d51edb1aa3263d23d352c9eee37;1625603076;1.6472736494619135E11;2.5800701792452064E8;2546128.277500776
00038bb25c4e3f9f6f7e2d59d2b755355ef8439076;1625603076;1.6472736494619135E11;3.686037018923052E7;363754.5661079747
000418db8ccf62894e3cfe403b0d5799bcad8dc6e9;1625603076;1.6472736494619135E11;2.1095625279468057E8;2081810.3510396448
0004bd4547cb76b6a1dd53710c5f8779eed721b5e2;1625603076;1.6472736494619135E11;2.4597451666666668E7;242738.61907616927
0004f24e1e2454cc88930d8572195b34301747a52d;1625603076;1.6472736494619135E11;1.3191191104324585E8;1301765.5471086123
0005df53b17afcce35288a216eec6bbdb8f0541665;1625603076;1.6472736494619135E11;5773146.147347259;56971.979964536185
0006b6fd48ed680261135aa28135a0362293c723ff;1625603076;1.6472736494619135E11;1.4855111229475763E7;146596.86031429033
0006f63457d7d9433974dd146f3c92b84ed5293429;1625603076;1.6472736494619135E11;2.6366896685887438E8;2602002.9137935797
00071e21ed8adfeff1b62666f96782661fcba8155c;1625603076;1.6472736494619135E11;1.6202314076666668E7;159891.65861999305
0007588055ed0ac6aeb03f7906fe78749c1e322f22;1625603076;1.6472736494619135E11;3290590.2726076758;32473.01182019178
00079ed702ed81122898099b2cad772cfba478e6a1;1625603076;1.6472736494619135E11;4.962176075443698E7;489689.6574852537
0008260d4ee7a08c16e25b35706814d96005b1e82f;1625603076;1.6472736494619135E11;0.0;0.0
00086a9c130366759950c327738f32cb484f16dd9c;1625603076;1.6472736494619135E11;6.936838553584538E7;684558.1542633146
000881ec6e589ee0ccdab26ac3164b4b1733d775b3;1625603076;1.6472736494619135E11;5.372553149369701E7;530187.4966822751
00096c682f83de60573239341d599a57ad88c753da;1625603076;1.6472736494619135E11;3223180.333333333;31807.780486750973
0009d811aa4a43df2680c7ad6bf2ec2cb841ebf3d4;1625603076;1.6472736494619135E11;1.171855796857698E7;115643.95439838243
000aa459686bbcb9ca0a9a44bef0ad93c0cf3cb34c;1625603076;1.6472736494619135E11;5393367.201757422;53224.15201650495
000b33e693fdb858373a0608829f4cd42b70b0f368;1625603076;1.6472736494619135E11;1.7993758283847507E7;177570.42871764392
000b636d3f54d710a170c275b7cde513c0848bd0cc;1625603076;1.6472736494619135E11;165748.55213652243;1635.6806064595946
000b89b5c7a8bce42fe4243ba4ec30d66a3fe5d061;1625603076;1.6472736494619135E11;3.1121277833496056E7;307118.64414092613
000b9741970293ff9c5708c59052d41d2625a754ac;1625603076;1.6472736494619135E11;8100297.562442252;79937.347618732
000cb2cb289f03783dcf99df2656f2cba5b92d3879;1625603076;1.6472736494619135E11;4.939148128354932E7;487417.1570034006
000d3d44e8d051d4a18bd88676899e85fcd13cf51a;1625603076;1.6472736494619135E11;2.41316006262249E8;2381413.9332350027
000ddc65b7b7d2a897635d1bd98bb9408f19ebd858;1625603076;1.6472736494619135E11;3542429.1851953487;34958.27048436542
000de023c9f6ae09f1bde00f0e8d6859f02885388f;1625603076;1.6472736494619135E11;7.736065829818231E7;763429.4649950189
000df3cbe7f3793ee856f9c0374748f61e9250d995;1625603076;1.6472736494619135E11;1.8964042999999996E7;187145.63086871643
000e280cee4c1d2e68af0786dde5f660a6be89ef86;1625603076;1.6472736494619135E11;6.3901860668693736E7;630612.0497895681
000e9e7c4f29cd3e130639b2c0b1b0367ebe875923;1625603076;1.6472736494619135E11;6090138.105656659;60100.19793040573
000f0ed10e03d86f0ffa7483124a0e5b3cf9d7448f;1625603076;1.6472736494619135E11;7.054072841666667E7;696127.3564648571
000f4268ba45041bd7538d18f863b4b1140e97cb44;1625603076;1.6472736494619135E11;1.4712692992908826E7;145191.41366298666
00109d3769b9c273018f4de74a59a9056049d3f555;1625603076;1.6472736494619135E11;5966800.277874368;58883.04525941179
0010c669fa9d10bd561d90ded99df8589e1011591a;1625603076;1.6472736494619135E11;9.657118693453788E8;9530075.260114543
001142a37aa9fafb342d95cb61c712602532f60bd3;1625603076;1.6472736494619135E11;1606183.728311358;15850.537099388363
0011438fac8d47d0d5b3478cdc2515831473ddf23b;1625603076;1.6472736494619135E11;4987353.5483402135;49217.42827568261
00116cc41ed0a6dc9a567fdb29cdf8be9e68636b6d;1625603076;1.6472736494619135E11;1.3029628157380441E7;128582.17952246545
001266d590d12a2fc00d0f7e7394f9e66cef4a583d;1625603076;1.6472736494619135E11;6.158440768454348E7;607742.3905756868
00129ff2a896abc6e155c3a5a3e901dac9e90772c3;1625603076;1.6472736494619135E11;1.8893850485888524E9;1.8645293984625604E7
0012a214d381a701d87711bc946b6fff4a1102afee;1625603076;1.6472736494619135E11;1.0981818175066258E8;1083734.7766287553
0012b463395b13012d25572c1237c77dc83518a8fe;1625603076;1.6472736494619135E11;2.188614827408807E7;215982.26844563062
0013153a0218b8df737a0851ccda76fc1f817d18d2;1625603076;1.6472736494619135E11;3.2880880081650096E8;3244831.835911267
00131bb42695e57c0aa7becdad60430cac2ce85811;1625603076;1.6472736494619135E11;1.568619475434821E8;1547983.6305117249
001446286d955bcc1bb924b17b5aab9e958e89bbde;1625603076;1.6472736494619135E11;1.13631813848E7;112136.93983577505
001484e1b40ebaef37ad83ca5a145d4540dcb2a909;1625603076;1.6472736494619135E11;3793043.7310452145;37431.44655172353
001547ca35434ee1aab541f0117f59846f0c2d5633;1625603076;1.6472736494619135E11;1.1187160596724225E7;110399.88822550136
0016eda591187bf7a1d9c693eb0d0642cba3d17161;1625603076;1.6472736494619135E11;8.011351611530297E7;790595.8932127213
0017026ebddd7fc980bc0bfa818bc13056cb47b49d;1625603076;1.6472736494619135E11;5.353711112068169E7;528328.0804398381
00186b1022b20980b81cbbcefa1d768c8a7e36e4c3;1625603076;1.6472736494619135E11;5.772538851014306E7;569659.8689357791
0018ba5cc0217a9e76782f9e99f21e295dd21a05de;1625603076;1.6472736494619135E11;0.0;0.0
0018bcbedac3e9978ade38f666e7b54eb7fe114ad2;1625603076;1.6472736494619135E11;7.77708662178743E7;767477.5796253275
0018e3c6327648e0ae3f513fc77287f23e19a78e7a;1625603076;1.6472736494619135E11;5.376237584041691E7;530551.0931216441
00191d8c2edaa9194eb4d591cc7364b51855b7fc00;1625603076;1.6472736494619135E11;1.3627006024096644E7;134477.37063406606
0019e9a28c978dd65114cc4e0bcb876770805b0349;1625603076;1.6472736494619135E11;1.0888581354680836E7;107453.37515249719
0019ec0aed9fe789a9620e32d9dda8521c6d564581;1625603076;1.6472736494619135E11;9.989205448012468E7;985779.3274596101
001a53b7275033cbae5172588df246ab8a11e23e92;1625603076;1.6472736494619135E11;2.370193890062652E8;2339012.9986361675
001aa2b91b329f6364bb91bc4c55dbf28d50c787fd;1625603076;1.6472736494619135E11;8.125270273932263E7;801837.8946904318
001b5a966673b3d9d87d84758e86a946ce33254d92;1625603076;1.6472736494619135E11;1.878103062554967E7;185339.58316711144
001bc1d4da9fceeebf17b9f2a4c9c7cc49665c65f1;1625603076;1.6472736494619135E11;5.445668262927105E7;537402.8220497287
001c55bce7420948369cce8f014b7ab2b37139f99d;1625603076;1.6472736494619135E11;2.033791986822451E7;200703.66030578385
001c7bf916cb56e4bc233defb6c05c94b87efad397;1625603076;1.6472736494619135E11;3.698368865855795E7;364971.5277411057
001d112b141056df59222685dd37dc919f0efa4d59;1625603076;1.6472736494619135E11;7.655088148923103E8;7554382.264298013
001da977086819ab273cd3fed706ce6eec5976f28a;1625603076;1.6472736494619135E11;7.042045432108463E7;694940.4380690876
001daf29ea3cdfc1b581fa4357fa0cc5116e70bc43;1625603076;1.6472736494619135E11;1278951.962870617;12621.268151638595
001dd0db367fc3f7c67f260825d2508e673341502f;1625603076;1.6472736494619135E11;1312918.8515851086;12956.468552582688
001e3cc5c5ce71e598dadb6712935cd6c572131be0;1625603076;1.6472736494619135E11;4.4316934666666664E7;437339.26865494996
001ecfdd7a8768fc89540f57be69164a782b20ffbf;1625603076;1.6472736494619135E11;9534434.090120723;94090.04624023681
001f049a68c3075ff20ddeaafe0819daac3b64bf4c;1625603076;1.6472736494619135E11;1.0942693866734603E8;1079873.8154586982
001f296817e16efaa140b6fee684f3a96d4a8528fe;1625603076;1.6472736494619135E11;1850442.7746867288;18260.99426452503
002043214eff85403fc9029d73785c6136f4e842e7;1625603076;1.6472736494619135E11;4.0904977035246265E8;4036685.4963002987
00205c4c84530297df43ff741aea85a557f82fa8ea;1625603076;1.6472736494619135E11;2.3345086796315143E8;2303797.242065598
0020e11def65edd308768051dc0ebad1f537069fef;1625603076;1.6472736494619135E11;9055889.777313042;89367.55761694959
0021d63fb6946ad9116785e3ec9840ac47952ebfc8;1625603076;1.6472736494619135E11;3012123.7755165794;29724.980281035554
002211b08201dd32ccf0fca91047c84475ee1b8d9a;1625603076;1.6472736494619135E11;6.78506552059828E8;6695805.147340898
00226304336de6a1d06c695afd350815466f53590d;1625603076;1.6472736494619135E11;1.8646343412877742E7;184010.42970624674
0022aa5a93dc352101c433667b50388d8ca2228f58;1625603076;1.6472736494619135E11;1.2647097242311269E7;124807.19391272982
0022c56e1bd4c20c73569f66eb5845e6159080b0f0;1625603076;1.6472736494619135E11;1.648057395709729E10;1.626376511738299E8
0022e47780cbb1b664611389f3b11ddbe951b38700;1625603076;1.6472736494619135E11;1.9679612323636856E7;194207.18796929464
0022f95b126d0cae29113fe0b0012968168b6944c3;1625603076;1.6472736494619135E11;7653333.333333333;75526.50534040885
002319c23cec3792fc24fb574a41460b94ecd65292;1625603076;1.6472736494619135E11;4.9655199092279606E7;490019.6419105559
0023d1b568e99095e1d6ebfce8a583efab67ce5968;1625603076;1.6472736494619135E11;2.5329987906430006E8;2499676.1326926975
00249d60d673df8bb1ac0fbf05c3f1aaf3a84cd2b9;1625603076;1.6472736494619135E11;9706018.138616277;95783.3141263468
0027266a6440eac0597651df7fcfc2384dd149902c;1625603076;1.6472736494619135E11;3.1726430084292775E8;3130905.563406071
00274b7e9713baebbd45efe8715c3abd55ded2d056;1625603076;1.6472736494619135E11;3642609.5379149327;35946.89486738107
0027a25bfcaace720f8ce75f0133deda2b1a613a9b;1625603076;1.6472736494619135E11;1.5647758601368893E7;154419.05795797688
0027a2c65eef277c18d698a3ed15d91f39757e5ac9;1625603076;1.6472736494619135E11;1.5166064627915053E7;149665.48707925246
00281de2d74669bdd1447e6a546d9e2c64e93bccdf;1625603076;1.6472736494619135E11;1.0927822742754735E7;107840.62666459585
0028ae363f88638f25e22bc77a4367fc4cf80dcf80;1625603076;1.6472736494619135E11;1.4152426912954085E7;139662.45820831528
0029255bb866e8d834cd62210074dfad0b1fb82f16;1625603076;1.6472736494619135E11;0.0;0.0
00292777552fd768721c4c38f6af0566c52dcaf8e7;1625603076;1.6472736494619135E11;1.2729055683720531E7;125615.99635124745
00293471d309399e77cc36d62fd8edc6b6f85042a5;1625603076;1.6472736494619135E11;1.116450398823449E7;110176.30271216134
002952575a6f2dde86345a7fcaba24fa875a3e4480;1625603076;1.6472736494619135E11;5.8982291666666664E7;582063.5496365923
0029989257513b82e30a4e10597a79482e9de20b85;1625603076;1.6472736494619135E11;1.2790627203000194E8;1262236.1155329787
0029df0cf3c74e9bb22d481f574645daa2e1ef87fa;1625603076;1.6472736494619135E11;1.462338389329887E7;144310.07165227606
0029f80452925b6e566e40b3475a6b0957c5d3175b;1625603076;1.6472736494619135E11;4.806295133146906E7;474306.631151395
002a2d9df13c0e70cc3da78c3700dfe6d50aaaef39;1625603076;1.6472736494619135E11;2520320.26016929;24871.643935873242
002b265da2bf8b7c73ca780696652170a3cd25c88b;1625603076;1.6472736494619135E11;1.1451154313293194E7;113005.095914214
002b796d39db81814b825c4307780e4c8438a2ed5b;1625603076;1.6472736494619135E11;0.0;0.0
002b905e734975ef780c774f553dec1119a2c13b5f;1625603076;1.6472736494619135E11;2.5067417307049662E8;2473764.495354282
002b9317ecac737c4a97828990903e855fe9774145;1625603076;1.6472736494619135E11;5615386.883147439;55415.14121321824
002bd6b7e8fd7b3a62871282457664cb4735e1c79c;1625603076;1.6472736494619135E11;6555609.073670128;64693.6729589085
002c30b8822473502012d2598aa75a60d98fe6b558;1625603076;1.6472736494619135E11;3.421430610922062E7;337642.02609883726
002ca69e438fbdf90074db1908fd6a3ac2ec5a7df5;1625603076;1.6472736494619135E11;6.173340940460602E8;6092128.05977172
002cfc3b6c0b1667f5d1eb13911495e59d02b50cd8;1625603076;1.6472736494619135E11;3.2683420387242224E7;322534.56329528015
002e418e4ff8ea1c6d2bb197b59e1f0fc2ebf7550c;1625603076;1.6472736494619135E11;8.015687070108812E7;791023.7355935794
002e86446bdeb027345541e463c8dca1562b45346f;1625603076;1.6472736494619135E11;8.867437586964593E8;8750782.738688461
002f08736bc58103c1d09ef573b764621641af6f14;1625603076;1.6472736494619135E11;5.543344661364924E7;547041.9645082381
002f964ac64c1a177b3161321383f280890516b947;1625603076;1.6472736494619135E11;1.2315890000253505E8;1215386.9318937731
002fa4650d61984323e94c5eabdd443ebc90fa40a7;1625603076;1.6472736494619135E11;2.0934652843533333E7;206592.48734147116
00300fe2d56402f9f3aa6cd0564e056b4a4ee8202c;1625603076;1.6472736494619135E11;4.933801299899051E7;486889.5081341575
00303090471738b78f6fc910e8e06d1b08bc144bd8;1625603076;1.6472736494619135E11;2.1711675362484375E8;2142604.9197045728
003058133c84fa602fe1c53fee1690c4f29f193019;1625603076;1.6472736494619135E11;2081410.5608406395;20540.287348290152
003083f5e465e029a964c278aee1dded6a893b6a52;1625603076;1.6472736494619135E11;3.5780412616971284E8;3530970.6331851664
00308b727e1f5c8b337d1d31b56d75ebcee61959e1;1625603076;1.6472736494619135E11;3.4571049793813705E7;341162.5318217785
0031020ab94157055e4dbf826d751472e48397f16f;1625603076;1.6472736494619135E11;1.5209636058679523E9;1.5009546938304018E7
0031042a6b5ccb3910230fb4c690e3e2d881af769b;1625603076;1.6472736494619135E11;1.1974168463076288E7;118166.43271430575
0031b0636472b2f6107637bed28c146707eed0ae49;1625603076;1.6472736494619135E11;1.1914529835660847E8;1175778.921508928
00325b43248386ad6b61e9ae4ff974c5515a68f978;1625603076;1.6472736494619135E11;2.160217222378059E8;2131798.661790675
0032d633536f15d39cb397d53fdcab77eeb8b81daa;1625603076;1.6472736494619135E11;1.275569082591398E7;125878.84380888456
0032fb5447c7d9bc485e5c74f6d37378501cad1003;1625603076;1.6472736494619135E11;1.0346149584934302E7;102100.41662184794
003357f9ed428a04d840e39aa7f63d827617f46ebe;1625603076;1.6472736494619135E11;4.1582329911707774E7;410352.96979223524
0033ccca69d00692eaa29f6b04e6bff972f9a3b6f3;1625603076;1.6472736494619135E11;1.51073431726E7;149085.99757901957
0033f7de239c0db8f45d53b0a98f00e6423dde79bb;1625603076;1.6472736494619135E11;0.0;0.0
00341498eeb456aa3640cbd9051edc0cec21f03578;1625603076;1.6472736494619135E11;2.4498857175327697E8;2417656.4468026585
00349883b786a0cbf13a054af5f11dbda9759c3a51;1625603076;1.6472736494619135E11;5.498958548642432E7;542661.7450227303
0034cecabd9edea244833769c97e6d638309b5c8e2;1625603076;1.6472736494619135E11;2374015.885175045;23427.847138051635
0034fd670576673a2ca9d277db12ddabab06e59a97;1625603076;1.6472736494619135E11;2270290.2809717525;22404.236632851665
00350c4134bd65c62226189384ba8b6f3a14de40ab;1625603076;1.6472736494619135E11;8025941.090507659;79203.56480409848
00359e2ee09f2e78ada66caf56ac6db054b3d0b03b;1625603076;1.6472736494619135E11;1.2105358708464282E7;119461.07654299554
0035ea8acd943be133e15d4a77f26b0bff1a184be3;1625603076;1.6472736494619135E11;3808133.705716975;37580.36114919304
0035fe43ed1bf4dc2deac361c646f84d7bc79d0e25;1625603076;1.6472736494619135E11;6255993.466009696;61736.93256796309
00361ad21315abd3a52d5af77a9a9fe2e306ed3391;1625603076;1.6472736494619135E11;1.3470233155548997E7;132930.26607479842
003626c7027842b5f56f266e9eef34d4f241045064;1625603076;1.6472736494619135E11;4639530.194669937;45784.952355147274
00362761916bdee45e6908b126b87f57b220952fa2;1625603076;1.6472736494619135E11;1.589571848586111E8;1568660.3664355727
00362cfffc8dae9e92a402632127f0ca6caf84f052;1625603076;1.6472736494619135E11;1.2176117029182153E7;120159.35119729563
0036997527f23a4ddc38e3c7a78a19dbdc30897438;1625603076;1.6472736494619135E11;2.4797254271535715E8;2447103.602569624
00381d19f6018e6de718c17a6e1ec85074f584300f;1625603076;1.6472736494619135E11;1.1992630197739013E7;118348.62134256326
003829a72b9c512c378256d603245d0cb4bc71120e;1625603076;1.6472736494619135E11;1375655.3571104007;13575.580358278843
00385790e3944be9d9fb3a665e7d227d9889ea9925;1625603076;1.6472736494619135E11;2.5969523850215134E8;2562788.3908028947
00389c90db43622e525452be86594321f147ffa67a;1625603076;1.6472736494619135E11;3.959758332203537E7;390766.60560613975
0038eed148fdaabc14d0bb159a7da149d1b5a95fc4;1625603076;1.6472736494619135E11;3.529744143940151E7;348330.8884201734
0038f20279b127950067cbfb5e08ac74831521ee74;1625603076;1.6472736494619135E11;2.68468697789459E8;2649368.7984313834
0038fdc3067519647f32ecdfb4437cdcb221464995;1625603076;1.6472736494619135E11;3412156.241369772;33672.67899644471
003a81ac2e0355368028dfa76a104673d4a80fdfa2;1625603076;1.6472736494619135E11;1.207750647882763E7;119186.21832386729
003a83e0f374fdb6788e2f8e01c55430eb27de53ab;1625603076;1.6472736494619135E11;2.935820792489302E8;2897198.842714634
003aaa891767534e6c218ad69fc41d70526578b79d;1625603076;1.6472736494619135E11;6704367.071396524;66161.68319972442
003af46fb9a1ae7fef89da57e5d601a7eb38a1a137;1625603076;1.6472736494619135E11;1.2347538110834798E7;121851.01085394596
003b550ca8ec20c93f9b57aeb7de1adee573176f5a;1625603076;1.6472736494619135E11;1.0268976004617946E9;1.0133883332578063E7
003bdb9add4126b7e59084b4ca095d6fce0523d381;1625603076;1.6472736494619135E11;2.4229980512982875E7;239112.24990572347
003be3f896374676423d086a90323a1a316af42d22;1625603076;1.6472736494619135E11;165979.78398099265;1637.9625053885475
003c39b2d0d3b7dac083125945be807e1de4ad3909;1625603076;1.6472736494619135E11;1.963981447782172E7;193814.44508412562
003ce0624f3062ef13e8cbff694ac92adb857f28aa;1625603076;1.6472736494619135E11;8066643.361809544;79605.23296318148
003d4009fad039382f064b5ac7fa7361a6ef8d3517;1625603076;1.6472736494619135E11;1.775574772469731E7;175221.63441014424
003ddd6e16df72813fded7203c35e7a9bc4f8f46bf;1625603076;1.6472736494619135E11;4091638.729227962;40378.11511333529
003e14f0a73e1432929bad34910b518e3397ae0f53;1625603076;1.6472736494619135E11;1.5824837744217478E7;156166.5538849841
003e6cf81b794d6a7f69c2093a24fd69b806660c98;1625603076;1.6472736494619135E11;1.1472558906426987E7;113216.3259818484
003e7acc5bbf87716c33f302b6aac12d741a39b54b;1625603076;1.6472736494619135E11;7.310201603581865E8;7214032.845632288
003e8a0d56fe6b701fe71321d7b4dac0bc4efde848;1625603076;1.6472736494619135E11;1.3019795349516666E7;128485.14499080587
003e8d1a82929d306a418cf271396e57c0ee6434d9;1625603076;1.6472736494619135E11;1.1774589166666666E7;116196.89524094558
003e8f727dec29146d477396f32ce385ea05a4068f;1625603076;1.6472736494619135E11;1.1719891095580857E7;115657.11028999102
003ee3fa369a9fec862be367d491201faa8875e534;1625603076;1.6472736494619135E11;3.467855311461886E8;3422234.225185863
003ee842ab82e18660f23434a012319836a5fbb751;1625603076;1.6472736494619135E11;7.836895293394024E8;7733797.659783305
003f74c99f5b6ce2000d130c1250c1993606e93851;1625603076;1.6472736494619135E11;9.486524262979421E7;936172.5070685977
003f7c99487893feb1e62a0b26969025dc3bbc05e0;1625603076;1.6472736494619135E11;4.002665712380435E7;395000.8971715667
003fe1caea11d44587ecc1f0d47163fa537e41d577;1625603076;1.6472736494619135E11;3.8344147438009016E7;378397.141496108
003ff71fbda67a5d9df51d49c5f5d2a599c622d0a5;1625603076;1.6472736494619135E11;1.0627650714869717E8;1048783.9527081111
004006e393c8d4af9c3d2f88d192d3218aba31196b;1625603076;1.6472736494619135E11;5.665018934510522E8;5590493.242301737
00404aadb526f6d53615c2fb061f1c438c1b1b9342;1625603076;1.6472736494619135E11;6.0249897982881635E7;594572.8538889197
0040bfb43e1432084def40dc42f50c246e05e4daab;1625603076;1.6472736494619135E11;6733350.73257072;66447.70688967967
004112ed071df0e31e09fe4a0a3cffc5fba627a5d9;1625603076;1.6472736494619135E11;1.185744189047339E7;117014.5228568501
004121528010e5bc4ff46dfb0f8b67c74b73544191;1625603076;1.6472736494619135E11;4.638158524135603E7;457714.16098796664
004248828eae4533cb52d369c7838fc83700500542;1625603076;1.6472736494619135E11;5073723.951883947;50069.769923483
0042b6e26a341031811f4e6f166f9b6800ec015a5b;1625603076;1.6472736494619135E11;3.387285812983333E7;334272.4652139942
0042bdbb4cfeef2bb8dddd876b74a41dcfa4631627;1625603076;1.6472736494619135E11;2904942.645774398;28667.26910927633
0043223e21cd1ae646288a3096aedad938de3d7220;1625603076;1.6472736494619135E11;2.816214239105635E7;277916.576353938
004336fe935b0975a028e65a959234fac580f03ff0;1625603076;1.6472736494619135E11;1.5916119927178271E7;157067.3671618403
00435b8be8d13c913c1a9a00c6632f403ef4abc526;1625603076;1.6472736494619135E11;8198237.459142306;80903.8621829074
0044b9d97051379b20f5e51c84deb930cf7343be05;1625603076;1.6472736494619135E11;6063344.0;59835.7817504446
0044c09c7c78bc77fa76cfd0307d50de8a56a12ac4;1625603076;1.6472736494619135E11;3.0103276E7;297072.5482026745
00455a86385e4530068253bdd4764273d6b87dbd0e;1625603076;1.6472736494619135E11;6.250671E7;616844.08100519
004608f9647ac7f1cda974d90510c09c4db64bc3b4;1625603076;1.6472736494619135E11;310270.7271279711;3061.8898601136657
00460de8e68bfb92bfb32c6bbf48554ba5f66bfc9c;1625603076;1.6472736494619135E11;3.1022953231314022E7;306148.3331315452
00463da0a411bb84771b7bacdabd62e7ee331c2d2a;1625603076;1.6472736494619135E11;1.554087924096847E8;1533643.2478061684
004685041187517df45e49906d2dc2335d153f5463;1625603076;1.6472736494619135E11;1.3226347073585536E7;130523.48948875336
00476a2e6cb857f19befd052d72daf939dad8aab2d;1625603076;1.6472736494619135E11;0.0;0.0
00476c389ad5e893120ba2caf03b01eb5e31d74945;1625603076;1.6472736494619135E11;4716488.704996436;46544.41324467222
0047a52232a88a791c1b0c0efc7efc02f50687e46b;1625603076;1.6472736494619135E11;1.430215097525097E7;141140.00200500342
0047b1d23d1a14e3c4e7d0f36358646ed2fa462d71;1625603076;1.6472736494619135E11;1.1305451161309147E8;1115672.322530941
0047cfa5bf098fe72a4d26b35aa766810acd813dfa;1625603076;1.6472736494619135E11;2.685570435691284E7;265024.06339714536
0048070764e394a8d915b458059e398030e0430cfa;1625603076;1.6472736494619135E11;2.4304541558221817E7;239848.05154092715
0048131385447eae82f8c9899e5f2fd5b63465708e;1625603076;1.6472736494619135E11;2967941.6666666665;29288.97153364834
00488bec2fe110c0a922786432623069e744d978de;1625603076;1.6472736494619135E11;6.176702132397738E7;609544.5033823857
00489b6260e9db67bebdb40d137fef3a7c66b70c2b;1625603076;1.6472736494619135E11;3.439682270102665E7;339443.18119627866
0048fa9cc711b0f341ee32d2915d4c65c3ef0251c8;1625603076;1.6472736494619135E11;3.584960932447909E7;353779.9272774618
004927076e817474824aef45851548cdb204db6a39;1625603076;1.6472736494619135E11;2.574064956829886E7;254020.20562966686
00496728751f132621158594d20331a783c4da3e21;1625603076;1.6472736494619135E11;1.365964782338907E7;134799.49446184217
0049a1dad7cfdc5b03a3c666f7a750e69a764e9637;1625603076;1.6472736494619135E11;1.5079903120318016E7;148815.206909784
0049c00463b97db1c72797ba4059806aa2d247b23a;1625603076;1.6472736494619135E11;1.0014741024922259E8;988299.2920317109
0049d84cfb76b1bb13240256b0a11b98e7bc38c0dc;1625603076;1.6472736494619135E11;1.7892840217746507E7;176574.5242500933
004a291e78ad5ac1f06e9e9a17b5257c4d92ad4a05;1625603076;1.6472736494619135E11;8632439.420465443;85188.76071304956
004a7d4922c6bd581d5ae912ce85466815d5388623;1625603076;1.6472736494619135E11;4913289.308564546;48486.52933827621
004b15bef2c6559de77f599e2fd758bc65b653451d;1625603076;1.6472736494619135E11;3.463375017350224E8;3417812.8712161193
004b46f553f8e23c5f135f204b010e4f3cadde9034;1625603076;1.6472736494619135E11;0.0;0.0
004b76cddad2858fc97e83ff3cbe45643c5cb85c1d;1625603076;1.6472736494619135E11;2.1452666768737638E8;2117044.796962206
004b92f8e8e5be575c6d57fefc9b09b852819be082;1625603076;1.6472736494619135E11;1.799572960732051E8;1775898.8261653048
004bb18e20c423acb76b84cdb7c6a43a24be7097a1;1625603076;1.6472736494619135E11;2.0063585151836422E8;1979964.0302063434
004c0627dbc8ed242586ed33462e760f28cac3070b;1625603076;1.6472736494619135E11;2.7582572987917376E8;2721971.2710028207
004c0ac99f066f00b45f2c3c1d9c8cab47cb80a782;1625603076;1.6472736494619135E11;2.3192541198574934E7;228874.3362402207
004c2118d2012c41b06f5bafcc1297731afe1a6232;1625603076;1.6472736494619135E11;1.7290264002967417E8;1706280.3352228194
004cd0949afd2f52963adb5687eba6fc2ad275c438;1625603076;1.6472736494619135E11;1.2650457585040025E7;124840.3552728843
004d8603f590cac4ceb828f1ae24da1f4848065ba2;1625603076;1.6472736494619135E11;4.9576598593931425E8;4892439.771512023
004daf5f8f41f205ca0fdaaa822aa143c6a3ad0949;1625603076;1.6472736494619135E11;4.215655378742935E7;416019.6669981946
004dc529187c40295c4e197654f35c8847317d4968;1625603076;1.6472736494619135E11;3518284.384312162;34719.99882502129
004df997534cb3f9d18b2171c554f44187677b6013;1625603076;1.6472736494619135E11;2.2020236301280484E7;217305.50887705473
004ec47f8f66685783e6d8a3c34646e025d366d707;1625603076;1.6472736494619135E11;1.2701452697923645E7;125343.59778144784
004ef9e9c11b8972f47ac696c2f381870620f97e4e;1625603076;1.6472736494619135E11;4.487699973454429E7;442866.24043282925
004f1ee37f9f372a7f8cf805ffb6c6bf0c3a5eca05;1625603076;1.6472736494619135E11;933803.4718526056;9215.18896826239
004f9dac9fcb9efb800f0286d42866cf58782c6ab5;1625603076;1.6472736494619135E11;1.4339032185774925E8;1415039.6223282549
004ffa7ea02038f317760cb71803d028d2d56ff8d6;1625603076;1.6472736494619135E11;9415886.298124209;92920.16377786943
005053703c4a32a217b9081d5fd620a2a9670e3538;1625603076;1.6472736494619135E11;7.910100652499999E8;7806039.971788494
0051504254719d611f9ac23ca0d822e014da64e85b;1625603076;1.6472736494619135E11;1.0550726578741806E7;104119.27360120254
0053874db2bcac6da323ff439f6653924a85e68cc9;1625603076;1.6472736494619135E11;6.803231152371131E7;671373.1802634071
0053b1f0a09fa6b0fef5191c041fd3dea69e1bf0be;1625603076;1.6472736494619135E11;1.9281624599937655E7;190279.6676810475
0053ba94ed78e411a5270852016924d6f17f9b4d25;1625603076;1.6472736494619135E11;1.21975E7;120370.36788627662
0053bd7bd542d88e371bf4f31e2947e657063b2125;1625603076;1.6472736494619135E11;2.885181338615165E7;284722.557202482
0054a7f9d721969f16beea44089355da89752cf23f;1625603076;1.6472736494619135E11;2.147232731147375E7;211898.4986969986
005590fa495f29385777451123b3a538488b3db698;1625603076;1.6472736494619135E11;5.632553411648512E7;555845.481696441
0055cd569388f730236fdbeba9dd40e7cfbaf80f59;1625603076;1.6472736494619135E11;9403790.04876707;92800.79259646643
005606414027a97673f1c82b9f6a19920750e5deb8;1625603076;1.6472736494619135E11;5776875.092720911;57008.77885992084
00564540d3b42fa0863c367f304eea192ec5c2edb4;1625603076;1.6472736494619135E11;2.5066864831235398E7;247370.9974577884
0056511d5cbc65d768e37fb8105fbbb83e0063c8dc;1625603076;1.6472736494619135E11;1.6933153340350688E7;167103.90629659733
0056a72697cf468bf297083f5dab03250f23bba974;1625603076;1.6472736494619135E11;1.1787134575292143E8;1163206.989262526
0056b011bed290bbf0f328b9a9892943c4a6a214d9;1625603076;1.6472736494619135E11;2.915620592274365E7;287726.4384577733
0056e2139d4b8fa3899ddc155015bc254868dd5f29;1625603076;1.6472736494619135E11;2.3555498240280677E7;232456.15814118684
0057027cec1230d2b24b31064235a8d984e0e0bac0;1625603076;1.6472736494619135E11;4.899999942829064E7;483553.83952536905
0059a7f72215cc58a46599c66d19b584072b7125ae;1625603076;1.6472736494619135E11;1.8522157656708013E7;182784.90929990236
0059ddee2a742fe86d081bcafc964dcfa92f73f6e4;1625603076;1.6472736494619135E11;1015025.8608671607;10016.727713602359
005a49ac1bfae72e07305261ec737fa9fd7fca2975;1625603076;1.6472736494619135E11;3412156.241369772;33672.67899644471
005b0b38e19158f341b9a5548724831869d59b1cb4;1625603076;1.6472736494619135E11;8.586046918969082E8;8473093.882559052
005b27a7a99357ee02f8cbd40f6bf069aaab70a3b2;1625603076;1.6472736494619135E11;5879886.249999999;58025.33888435822
005b559b16afddaadad4c8befd0ab813b105c947ec;1625603076;1.6472736494619135E11;1.2871949999999998E7;127026.14116940013
005c14d980973c264bb900d104ba926f47d96b0e58;1625603076;1.6472736494619135E11;1.08305925E7;106881.11528193059
005c79fc2d54ca89f63d07af8bb57081c1e5691317;1625603076;1.6472736494619135E11;0.0;0.0
005cc9223af28ed7f5dd5b76991e74c71687d11cad;1625603076;1.6472736494619135E11;4.617275377755325E7;455653.31900197204
005ceecceb06faf5125a0c6f5d2f4139b243c4d4ea;1625603076;1.6472736494619135E11;2.8220845975278243E7;278495.8894942563
005d0873215bd74b030cdf3737f0adf5f51c60ca1d;1625603076;1.6472736494619135E11;7.521835374598272E7;742288.2485922552
005dc22421d1f634a69848ea8087d1cc7b29cf9b1f;1625603076;1.6472736494619135E11;1.0303254638215618E7;101677.11016421397
005e0d493f7ba7c7e73b83cca1db088027b40e1738;1625603076;1.6472736494619135E11;1.2083184841337E8;1192422.5493663584
005e1e2efa72a5b2bab7d961b807216d32845a6b8a;1625603076;1.6472736494619135E11;1.375704288954314E7;135760.6323952936
005e1efaca0ea84d640ea57680d2556ee363a31f94;1625603076;1.6472736494619135E11;2.018898176489319E8;1992338.7270256393
005ed2db9c00aa2b6413d885354faa477948e82522;1625603076;1.6472736494619135E11;3.6132712484510235E7;356573.71547362633
005f2eaac85c404b97d9b72f665174114b69dc2a87;1625603076;1.6472736494619135E11;1.2445897330588683E7;122821.66348495905
00604acb4ac4a48485514c4eb56e1d2a26c768a606;1625603076;1.6472736494619135E11;1.5121351828953844E8;1492242.4124525485
00608e54dd1e432ea177ff9a16d77b8159b9ccc0ea;1625603076;1.6472736494619135E11;1.1639768946382415E7;114866.42920166506
0061aff734946314fe0902995774e313cd70bbd2bd;1625603076;1.6472736494619135E11;2370668.2088976996;23394.810776086622
0061b27421833ce6c95743568e00b7bb4b93e28bbb;1625603076;1.6472736494619135E11;2366302.850569822;23351.73147394421
006217f4e5689905af2ef683f6f994ac39c4728de6;1625603076;1.6472736494619135E11;1.919591796287532E8;1894338.763768057
006250425bf281a77a8b8b13dc975e930da8cdea20;1625603076;1.6472736494619135E11;1.1250091209057339E7;111020.91556371374
00625dbe1f50e8fe30838f47b0f77d681ff97d933a;1625603076;1.6472736494619135E11;1.467798224365562E8;1448488.725146188
0062a8a1dd01517b5da75e75842c80cc17cc9fb5b6;1625603076;1.6472736494619135E11;1.4793757638934132E7;145991.39573018378
0062d94eaeed9a9ede50e487cebacacad599a331a6;1625603076;1.6472736494619135E11;5669443.262228629;55948.593661392275
0062ea27ae2f820f0a2230928cb8d1674455d769a7;1625603076;1.6472736494619135E11;2.2621267380656175E7;223236.75151985348
0063506c57f7f946e7a7889faa6f24d89f2b2211e0;1625603076;1.6472736494619135E11;1.0768411447361099E7;106267.48493294921
0063828892b720fc5cd3b2b30682619cd0d310a81d;1625603076;1.6472736494619135E11;1726364.12129917;17036.530796183626
0063f7338f217086fadbf98b9ab80142949595fb96;1625603076;1.6472736494619135E11;2.04897567251774E7;202202.05410206306
00645db784d2dffd521d30ab9894f75afbaca01c4a;1625603076;1.6472736494619135E11;2.3040573445284423E8;2273746.507005257
0064ad102872415691ff678186f72b2d75fbc38928;1625603076;1.6472736494619135E11;1.1787648701933097E7;116325.77255715335
0064ba590621892e12a65b617f2bedf3c223710eb7;1625603076;1.6472736494619135E11;3333768.4132418176;32899.112961636914
006531c0b0a372e801628f985816d69b225b5a5f38;1625603076;1.6472736494619135E11;2.489276895495071E7;245652.94173523283
00654f3bc844e5c54a06ed119005446482ffb32f0e;1625603076;1.6472736494619135E11;1304620.189329673;12874.573653738602
0065a7065035426750e2cc1ff68d3b0100863be079;1625603076;1.6472736494619135E11;1.8487659803995818E7;182444.46910951467
0065e7d784dbf2bbf4b853b86501ff75372b1002fc;1625603076;1.6472736494619135E11;2.2497559176642887E7;222015.943811091
0065f5c1a7d82c4edadf3a88f22e82d319b764e00b;1625603076;1.6472736494619135E11;6.759197106647888E7;667027.7043189693
006628964455ece1c66aace59cd2b5366b0b707453;1625603076;1.6472736494619135E11;5.5960493425865375E7;552243.0974190596
006679b71f43483a402f79719f1ba6a9b8a2ced062;1625603076;1.6472736494619135E11;2.6644685054492226E8;2629416.3084428823
0066f578f1296b45a50bb24132596bf93f4a951ed4;1625603076;1.6472736494619135E11;1.0537086892665699E10;1.039846710981622E8
00674cd03a0af9ba19cb2b69e0d768d07d1a3b0e0f;1625603076;1.6472736494619135E11;3.545621330714286E8;3498977.1999467784
0068332380f49ff88c8c17831a880d04282fe7e32c;1625603076;1.6472736494619135E11;2.836033086666667E8;2798723.8858759524
00695eef3559e82351f6d0f924832326ece7080f71;1625603076;1.6472736494619135E11;2.1617514644198842E7;213331.2720237087
006975dad2ddd5ed2381037916ee642be9e0217965;1625603076;1.6472736494619135E11;9263893.709183875;91420.23314890976
0069ab8f6c8d3dc67c84d149f0907c9b6561748eac;1625603076;1.6472736494619135E11;1.1915394319281746E7;117586.4232606677
006a967608e02b6bf9ea81df8d2401a908dfe55f4a;1625603076;1.6472736494619135E11;1682645.9666333334;16605.10055552481
006af52e3758cff9b9b78a61a13efdacf2e237f0c0;1625603076;1.6472736494619135E11;1.2427409424344575E8;1226392.1658386863
006b5e85264328f0435a8a8f72a470acefc769c1d2;1625603076;1.6472736494619135E11;1.1634310367746148E9;1.1481256151414027E7
006b732117e299581ec277c37857d6e4644eb7576a;1625603076;1.6472736494619135E11;1.595376554730879E8;1574388.7092444883
006c300d3d47c5454eff96bd7e228f3225f1ffb8d7;1625603076;1.6472736494619135E11;1.281587376311981E7;126472.75586397309
006c5c707279939a5fc59e6e4a40f7b1aec95296db;1625603076;1.6472736494619135E11;9.870341762678155E7;974049.3290730474
006c6546e22aa72b7b2ea90b1ceefe6bb2e0e6f791;1625603076;1.6472736494619135E11;5.379452383953229E8;5308683.439091273
006d499c6e563a91cefece50e79f37220651a99da5;1625603076;1.6472736494619135E11;1.1898859452692218E7;117423.24982559233
006d65b13b337004ce821791a861dd6c156cb58029;1625603076;1.6472736494619135E11;3.528018521536317E7;348160.5963081977
006d794d9adffa1adce3ba1da53271726997c6fa2f;1625603076;1.6472736494619135E11;1.5476964926906115E8;1527335.8983518668
006dab14da3815c50fea37170c30351d3c1ac9594a;1625603076;1.6472736494619135E11;2.9652354647411503E7;292622.6552656911
006dcd2720dbf7a87a6e9baa7fb8dd0cfb8f6615ee;1625603076;1.6472736494619135E11;196252.93417822517;1936.711447902783
006e793e96657fda16272eec30c871e5de4b7bb6ca;1625603076;1.6472736494619135E11;1.25868015E8;1242121.6864657006
006ef7f7ea6fcf74d2d5d96977e343cee36e49ab38;1625603076;1.6472736494619135E11;1.6944248145107293E8;1672133.947762185
006f718b15aa61709eceae53494e70d129f9ba24a0;1625603076;1.6472736494619135E11;6.1361676809728555E7;605544.3830051924
006faa67c7d674231cf6abb4dcf2a9fa14fa46093a;1625603076;1.6472736494619135E11;1195833.3333333333;11801.016459438884
006fd5cd64898387c84ab5b779f1ad386a533d0a4f;1625603076;1.6472736494619135E11;3.950653791061745E7;389868.12889642606
00705e1aad7e3509f3360e2b4f8da35c6409bbee04;1625603076;1.6472736494619135E11;1.2839797737973329E7;126708.84831360787
0071afa38f24c7bd5422a1101ca160636407250431;1625603076;1.6472736494619135E11;597683.0326426037;5898.2026250113295
0071f26dcad0013cef17490a35c6761585ccf14ad7;1625603076;1.6472736494619135E11;7.834232326178157E7;773116.9725014351
007211e1a0d842e1ab5a1b4368eb90c77c98aa8116;1625603076;1.6472736494619135E11;9.399009935117328E7;927536.2030390177
00725b17e7326f9ff75f3cfd04b6e61f38fc85b3c9;1625603076;1.6472736494619135E11;1.2297148742783332E7;121353.74610543913
007286ffaae3590759da37a64278018cbc016154a2;1625603076;1.6472736494619135E11;5190435.812247136;51221.53459399818
0072b3f9582ab37e395611a096a3623e86567ec930;1625603076;1.6472736494619135E11;7.865631026121125E7;776215.5361934096
0073e61dbb60b448d615a3699ccb72de476817c51d;1625603076;1.6472736494619135E11;3.8976374023275465E7;384636.235298609
0073f36afe58f3c929933519b6cf8fd4edd914e759;1625603076;1.6472736494619135E11;6.171581471513968E7;609039.1737374583
0073f8b94806c0b92915ab9cc9d6135abae30ea52e;1625603076;1.6472736494619135E11;1.0005139912031336E8;987351.811407978
0074043255f1530bac32e180d4cfebccde623f1cf0;1625603076;1.6472736494619135E11;920384.3695850146;9082.76328458512
007411a0e69c28923472c92446946b0b6132f0526b;1625603076;1.6472736494619135E11;826661.4326308696;8157.863559186247
00748ce632c3a6b161a3301e126ebe57b8f1302ea8;1625603076;1.6472736494619135E11;1.2713823300926562E7;125465.67640693963
0074b305fa9f68ad4a01ab574486aafe1314f80399;1625603076;1.6472736494619135E11;8522824.721483333;84107.0339950975
00758f4c1d33884c9d56ba69d15f295addab3d10e1;1625603076;1.6472736494619135E11;2261857.404987778;22321.017253099228
00762c040f54f97db847059c95cec0a03955d1b85b;1625603076;1.6472736494619135E11;4.946542416940272E7;488146.8583662
0076db1c3a250a8a294928c2911f3d5ae62f338ec9;1625603076;1.6472736494619135E11;5.321809606780766E7;525179.8976748694
007707a6acc37b8b0498d08ae1d0550b8a588c6aa0;1625603076;1.6472736494619135E11;2840519.17739193;28031.509602024227
00771c50c7ef5ab971bf508460871bb1be28464700;1625603076;1.6472736494619135E11;4.8558262715609E7;479194.58470968023
00773788290cacf4fe755c4f3d67ebbdad94b6d18b;1625603076;1.6472736494619135E11;2.8123893467987247E7;277539.11892896716
00782a958916eb9f9a0f5915a5a6a99fab5ba13af3;1625603076;1.6472736494619135E11;9.817838461385863E7;968868.0692314428
007878abf6c038bb08544c5e20957f6d31e1831bcf;1625603076;1.6472736494619135E11;1.2539283401262206E8;1237432.3886371912
0078b61333aa7fc97c78e208d79257876789c88798;1625603076;1.6472736494619135E11;2.4356597886998755E8;2403617.666010369
0078f00fca629e074ea0bbf19218fd332d17eb3a14;1625603076;1.6472736494619135E11;2.195410269356566E7;216652.87295245708
0079de0384110176359931f71231fb8d7d359f00d1;1625603076;1.6472736494619135E11;2.0072357116606665E8;1980829.6867970214
007a0ab56fb0dd11c333d7b34498a60f2b1de76429;1625603076;1.6472736494619135E11;1.767514552889403E9;1.744262160079075E7
007a2a9a4eff7cc34bb4150b83c15d5f792d2158aa;1625603076;1.6472736494619135E11;1.0134867701374179E8;1000153.9280124228
007a4fbe9a8d86bcfe494fd7b5452ea2e6f804f5f5;1625603076;1.6472736494619135E11;1470554.3804102677;14512.086228059807
007a51261f99cb7b9d5cd9f724fe7778f239861904;1625603076;1.6472736494619135E11;4.102566364877567E8;4048595.389368127
007a62fb67ba47c4e6ca2f95db585b0fe52132919e;1625603076;1.6472736494619135E11;5.269204152143052E7;519988.5568857188
007a6d4ce4bf7f64623d294d429a7f8f8211b8160e;1625603076;1.6472736494619135E11;1.605120893681478E8;1584004.8573428048
007a78c50966d78295d41c1018f677c18aa17ed8ad;1625603076;1.6472736494619135E11;766522.1406103703;7564.382214244438
007ab2079d19d913861c3234a9b54b68b112e2c43d;1625603076;1.6472736494619135E11;9477402.666666668;93527.23472785784
007b2225dd08ccb73842e97ff02ccd2e4a5d20b6c3;1625603076;1.6472736494619135E11;1977741.1556711157;19517.23144021005
007c1a889769cf5e245f45a5de7eeaef38c05ae8d2;1625603076;1.6472736494619135E11;4.7435765898297384E7;468117.28568521014
007c39e4eae5ea4e27a8877cca97f01ea799a19e62;1625603076;1.6472736494619135E11;1.1390774623823913E7;112409.24222007368
007c4f4f5ccb2d726eaaeaf8f7994af98f15e01c5c;1625603076;1.6472736494619135E11;2.657415580826607E8;2622456.1679919832
007cc0b170027526f161e7116911c4ffd2dd1ec38f;1625603076;1.6472736494619135E11;2.942643332963442E7;290393.16298168374
007cc0ffad255d2ff183c1962705c63ea7baf6401e;1625603076;1.6472736494619135E11;1.424121264450593E7;140538.63538970062
007ced19cf219d5ceca0e40ec72e9482c11a1da0b4;1625603076;1.6472736494619135E11;0.0;0.0
007cf52836951cab8ea0d6a23544702f628f499ae5;1625603076;1.6472736494619135E11;3844042.1020944198;37934.7212133176
007cfa6d2a423fab07b79ed8bf55d30fd4307ba33e;1625603076;1.6472736494619135E11;4630384.11513831;45694.69476482639
007cfd88d07979a7ac3ce9fd7c11862f6d5a61c0fa;1625603076;1.6472736494619135E11;1.1212372416924797E7;110648.68970716774
007d84e3ec27e1520793c1b3c360f53788881d2214;1625603076;1.6472736494619135E11;3880763.809386506;38297.1073921379
007e0bae44fbc450426a1f0ee13b28ed5aa933adb0;1625603076;1.6472736494619135E11;2.409818464918754E8;2378116.295645934
007e2aad6eea9b4dceaff704d3d206d8202bdb603b;1625603076;1.6472736494619135E11;1.6866583388423346E7;166446.9643327797
007e733e2f15ffef4d05de565bdc27b158af3e9cad;1625603076;1.6472736494619135E11;2.4907779166666664E7;245801.06919629456
007e8d6a90e99beb2de56cf1fe340736af55192e0b;1625603076;1.6472736494619135E11;8658599.480982684;85446.91985290506
007f43de8770983945e66469ced04a5b6b7f248a25;1625603076;1.6472736494619135E11;2.4163974751338663E9;2.3846087562314693E7
007f65b762645069d1bdf4e83ffb07fa1148b9e10a;1625603076;1.6472736494619135E11;1.2367491690795496E7;122047.92167669795
007fe5a37361761a361376c2b174283987b45c16d2;1625603076;1.6472736494619135E11;6989400.905309733;68974.52414648964
00803c974202d4dd8db22bd3833b8d123f89ea199b;1625603076;1.6472736494619135E11;2.3910569966091704E8;2359601.642294745
008096bad17b2006bd1276900650728b77afec9748;1625603076;1.6472736494619135E11;2.933455721972019E7;289486.4885688666
008108ce010ea881db64a963f75dd0bd58cd866cc2;1625603076;1.6472736494619135E11;1.1960486418924084E8;1180314.1220288645
008137ac5c10e66293299230dba5a8017b71225283;1625603076;1.6472736494619135E11;6.416905546797529E7;633248.8471895943
008148efe190c847f9dad2e8191bed23a5fcbdc2d6;1625603076;1.6472736494619135E11;950161.5862830763;9376.618134232594
0081603bb0a13a6ce956394972da3b05ddf076be97;1625603076;1.6472736494619135E11;2319147.6336908615;22886.38277105611
00816362a309834d9d64e78980bb675fe80e53df03;1625603076;1.6472736494619135E11;1.260789767830506E8;1244203.5513917713
008196a5dd0831fbec1207faee2bee4a04eb1439a5;1625603076;1.6472736494619135E11;4.032052857372193E7;397900.95165304665
0081a333ca572de57720c74541b3f65b9334d67f2e;1625603076;1.6472736494619135E11;2.3869150946666665E7;235551.42288037174
0081ec2575f63d14f427855579585aa837768ea0cf;1625603076;1.6472736494619135E11;5.860484277658571E7;578338.7157151074
0081f748b7fbe7d3b6b599d1cdced6eb47caf4a44a;1625603076;1.6472736494619135E11;7373648.560000294;72766.45130816555
00821365f05dca5211ed65d4c237daf79fa251e8e3;1625603076;1.6472736494619135E11;1.1453865580474167E8;1130318.5190749224
00822c2dc5f01e0f270c13cda29383eeb31a38b689;1625603076;1.6472736494619135E11;1.879747102320972E8;1855018.2434067463
0083f136357ad6873194dd6c971a832b4c7ce942e8;1625603076;1.6472736494619135E11;3252143.137337891;32093.598348857697
0084233a55687ee683409bf6a28137eb1e0599e334;1625603076;1.6472736494619135E11;1.912594818839205E8;1887433.8344829816
0084edb623a13be32834db996523d9b8191e7f848d;1625603076;1.6472736494619135E11;1.0276696208358473E9;1.0141501973811137E7
00850054fc265ea06507e4055c26b8e8c10cb7285a;1625603076;1.6472736494619135E11;4.9961537576163185E8;4930427.266412622
00855902d298ddcbbaa55e52bbc1f98ee39e00c951;1625603076;1.6472736494619135E11;2.425318177133379E7;239341.21026670927
00857de08e31ae766b410d5d44aa6541f4b7ce3d20;1625603076;1.6472736494619135E11;5.373410537111008E7;530272.107526991
008589da40c3710374507916e6760b4ece69899f68;1625603076;1.6472736494619135E11;5.194560524375565E7;512622.3909215961
0085a81dfa2b292cb9d29a4f9927ea4064cc56c660;1625603076;1.6472736494619135E11;1.4687124624511221E7;144939.09360475573
0085e8dc36a7c06d74d1f44ff6102b40aebe308411;1625603076;1.6472736494619135E11;6.219267865718117E7;613745.0797128823
0086243a5f7465be25768c6afbc37a7eae10b932e5;1625603076;1.6472736494619135E11;7.536973163048588E8;7437821.130437815
0086364335e8f9814e8438a503dbe7d1c30ad890fa;1625603076;1.6472736494619135E11;0.0;0.0
008642c480aee423a95dbe328ee878856ce9f935fb;1625603076;1.6472736494619135E11;2.985572916666667E8;2946296.4569007633
008690b01f8da3cb9ddbca0bf2cd0157cde5ac055f;1625603076;1.6472736494619135E11;1.200521545196403E9;1.184728182420105E7
0086b9b81da108879123f1bdadd12438b2228f1b25;1625603076;1.6472736494619135E11;6.297315114679631E8;6214471.301904468
00870090a090138d8d7a2f7ee2e1926b0c3d4d2cb9;1625603076;1.6472736494619135E11;1.2095495115732292E7;119363.7382125319
0087134cde483ce0b7f162e5716c71733518d25a5a;1625603076;1.6472736494619135E11;6.316138532806667E7;623304.7090097364
008769a4de5e4cd742cc39d7d01cd5789bf79f2f23;1625603076;1.6472736494619135E11;1.1415357890150316E9;1.1265184085188802E7
0087c2e18fe56380bfb0b9e6ce2f2ce32968f8be75;1625603076;1.6472736494619135E11;3.099693978119552E8;3058916.208084663
0087e83fc9df70ba11b1ffdf8e5d5bcbc2599029da;1625603076;1.6472736494619135E11;2.810863784373945E8;2773885.696276315
0088165dfdd32d3b221e7997d9c982280f9790e14b;1625603076;1.6472736494619135E11;9.530529872985404E8;9405151.768496841
00888fcb0ac44babd37eec3f356e44f8136449092f;1625603076;1.6472736494619135E11;6.298114538965158E8;6215260.209429339
0088b63e4b50cc6e3e7f088cadcadf978ec345d061;1625603076;1.6472736494619135E11;2.398753972961941E7;236719.73617060587
0088fe87134b8a8826f237dc69951eba1d1933f74b;1625603076;1.6472736494619135E11;2.4645048047013333E8;2432083.213768361
0089df38fa28a7b21ee74f37869ed1df997f15c028;1625603076;1.6472736494619135E11;1.7767827156215817E8;1753408.3962561789
008a71dac5fcfaf42c74c45cd3aaad058fb948d922;1625603076;1.6472736494619135E11;1.863594513976168E7;183907.814911382
008aaac20888644972b3bb1b210753f9ca50817d39;1625603076;1.6472736494619135E11;1.357788341397306E7;133992.60681753728
008ab7319e3272eee8bf5779939289eef215950d37;1625603076;1.6472736494619135E11;5107821.92824304;50406.26395574548
008b0fa9021b4d5e4e76b863eb58da571cb8bc5042;1625603076;1.6472736494619135E11;6.186376497137188E7;610499.2128251024
008b5870b2e2ce1bf2461a7beaa79234bc0376a0bf;1625603076;1.6472736494619135E11;5.759119902065609E7;568335.6272291983
008b8abc011a2cfaedb8d20a743e2fa6507ae901a4;1625603076;1.6472736494619135E11;1.3053018083628167E8;1288130.0174236884
008bb5aef7a1eb91ca6e9ea276cfdf6271ba73a0b0;1625603076;1.6472736494619135E11;6386016.0;63020.0528999917
008c024fc8ceb706aa08d1378b4a0c2e40b1425664;1625603076;1.6472736494619135E11;3165437.0058013042;31237.94358754966
008c28bf39f42caa606acb4944d84c986fc70290b4;1625603076;1.6472736494619135E11;3062153.538901887;30218.696290377866
008c339a579abc43130f39e614cd3b428380b06eb7;1625603076;1.6472736494619135E11;8.459976003132337E7;834868.1482321062
008c80f5e31067a7617c0c53e2dc8a42a2c76b57fd;1625603076;1.6472736494619135E11;1.6376971782895498E7;161615.2587309123
008ce4ac46d34ed522fa3eea48df2c36b461b34bfe;1625603076;1.6472736494619135E11;1.1017892083333332E7;108729.47107211544
008d3d1df0c6e4d1443d91cc02a403e36d1b225563;1625603076;1.6472736494619135E11;1.9882380503098807E8;1962081.947622822
008d537edae634401fcd00a2b7180ff077a43527ca;1625603076;1.6472736494619135E11;9246218.787515387;91245.80914205614
008df0146c11b18bb474c0917a65cb909a298e8278;1625603076;1.6472736494619135E11;1867185.6724725126;18426.220644189478
008e0774d18e361ef15d17c24d6a799fbf7a667a10;1625603076;1.6472736494619135E11;1.1269796332324713E7;111215.37450504914
008e50a18d1cd826843dba0fe4234e337f19168346;1625603076;1.6472736494619135E11;5.499810661765E7;542745.8353445538
008ef60f792c22d86c63c3cf362e2eebbdee482c3f;1625603076;1.6472736494619135E11;479426.86269014276;4731.198018985522
008fe038c5f7ebba8b6e429b5cee352e9e52351c52;1625603076;1.6472736494619135E11;1.7446483972315017E7;172169.68182575013
0090c55c6f7b632c2b57fc7b38ffbca67560a262e1;1625603076;1.6472736494619135E11;2.686360239481208E8;2651020.047562362
0090c62209b6e5a881fa9658fa29f5a9bfe74507da;1625603076;1.6472736494619135E11;1.3369184732137871E8;1319330.751831956
0092c5792a7552669f35090b7f6dc2f66e1c32fd99;1625603076;1.6472736494619135E11;8.277034530033754E7;816814.6680775386
0092ce530e70b52baf24fdbb95c90f407cd0eaa719;1625603076;1.6472736494619135E11;0.0;0.0
0092ec3baff84fd5f5f7a45350c5c7a72be48a14d8;1625603076;1.6472736494619135E11;5.9884134686738335E7;590963.3386180801
0092fc5b169870d9d56478b8b8ef077e14f22acfe3;1625603076;1.6472736494619135E11;8029537.000938463;79239.0508513575
0093de7b8a76d7a514b522fe0baa3c8461e2781189;1625603076;1.6472736494619135E11;2.299034492756662E8;2268789.732948217
0094182c7d9eb84e5683e75eb47195aae2e9748354;1625603076;1.6472736494619135E11;1.5096266674520215E7;148976.6897578468
00942f6c6f120392d2d3b49bc7e0b23dba0536ca99;1625603076;1.6472736494619135E11;6840373.3713351805;67503.85400181233
009504c1c6b8710e7cbf05104c6778e2eeb734cb52;1625603076;1.6472736494619135E11;1.0669632344604183E7;105292.68870927008
00951233c1edb8a905705f83e47d1a9bd0ce1c04ea;1625603076;1.6472736494619135E11;6816564.158305592;67268.8940730192
00959095b44083c071c9bc578cd9dac2a09c984ec4;1625603076;1.6472736494619135E11;5.90818027500291E7;583045.5693712181
0095b14bfa7b44f73907fe46a96210ba4a64a7ab63;1625603076;1.6472736494619135E11;1.6740269657176767E7;165200.44411968364
0095c0ddbb3a80032e024410b4a2fd3f51d754f0ba;1625603076;1.6472736494619135E11;1.0791778316096114E8;1064980.7961103767
0096399fcc8b88aa236783bb358eb445d4e4dcbc8a;1625603076;1.6472736494619135E11;1.690055465074817E7;166782.20789446039
009669a5e23d4d50f858edcf125a523ef1ec1cd6e3;1625603076;1.6472736494619135E11;1.2320429821197947E7;121583.49416639887
0096e627d12e1d5ccfca8ff78ac02449e3668c3ebb;1625603076;1.6472736494619135E11;1.209777232594233E7;119386.21073810983
00973bbe1778557d99d7dabce6ec8217ce0808b70b;1625603076;1.6472736494619135E11;10432.377790248886;102.9513549941283
0097604cdb055a69f522460b7e2d91f81c4b0c988f;1625603076;1.6472736494619135E11;1.7467187492228227E9;1.7237399339029156E7
00983564123f8f57a65c593d69eca6c521aa90148a;1625603076;1.6472736494619135E11;5.5240011690476194E7;545133.0624492593
00983abd8d9dd3c0bf9195a279d7a22424c0d9852d;1625603076;1.6472736494619135E11;1.4138885793670248E7;139528.8284063241
00986fdaff74d68238d417bb8c0f8fe5e6f2cf251f;1625603076;1.6472736494619135E11;5.1744174076015435E7;510634.5783563448
009990900643298f27edb177d5e8b81ebbde7ffa3c;1625603076;1.6472736494619135E11;4.040503556669639E8;3987349.0433460427
009a015cf857dc0d4275447c704cd9ba33c47536d7;1625603076;1.6472736494619135E11;8397321.57954844;82868.51303870592
009a016a43a36d00df85b4a75a0cea44c9e160fe2d;1625603076;1.6472736494619135E11;1.5694070705579946E7;154876.0864491818
009a0d5bce9d74287eff6868aed231dcef4e3cef1f;1625603076;1.6472736494619135E11;1.0354922977102468E7;102186.9963671148
009a10b43ad264215ebab2a92a40201b13c0b62d0d;1625603076;1.6472736494619135E11;7.951847920084724E9;7.8472380366167E7
009af7d53a9a17587c0b04af596bf619f18bfddd8c;1625603076;1.6472736494619135E11;1.4668501071199505E7;144755.30807792803
009b142a9268a15326188079c7f7f2d86f1231de13;1625603076;1.6472736494619135E11;1.931820632319001E7;190640.6724349561
009b966b1edcee9dd021c98cfb296088a21a201ac5;1625603076;1.6472736494619135E11;1.219084942507884E7;120304.73704799703
009d2e5ae513415892adb225867801faa38f165dc3;1625603076;1.6472736494619135E11;2.5204951305061717E7;248733.69634318238
009d70b474adcbfbff832a67d5e464fcba7fd7f40a;1625603076;1.6472736494619135E11;1.4235211666666666E8;1404794.1506502836
009dd560e0420b6f28965f666b81d22080d533f6db;1625603076;1.6472736494619135E11;3.9065403659537363E8;3855148.1944041066
009df375ee901d99f8a3eee4dba59de9acbb8bd9f6;1625603076;1.6472736494619135E11;4225371.268039564;41697.84742693383
009e1ad336657569acc9ddd2584f81ca72f7afb2b5;1625603076;1.6472736494619135E11;4.8632756788545534E7;479929.72543234617
009e7f984e0b80d7b72cbec77f238c395c37242670;1625603076;1.6472736494619135E11;7.273829795339713E7;717813.9523731924
009ebdd90e6e0a4f7a8cfdc66179d8b3b386badff5;1625603076;1.6472736494619135E11;8.634187913098247E8;8520601.561786259
009ef85210e6e76693649ed08ecb5d036011a743dd;1625603076;1.6472736494619135E11;2.1207583119553404E9;2.0928588498294186E7
009f1b1ae52e1c0287aa656ca0713efc99329dd620;1625603076;1.6472736494619135E11;4.246379082154172E7;419051.6190231501
009facd6d3b7407d9743e73f09e8ad5245eaf0901f;1625603076;1.6472736494619135E11;1.6585454666666666E7;163672.66077375118
009faf479970921eb7595e1a3362df880673d3dad4;1625603076;1.6472736494619135E11;1.1811148917026693E7;116557.68315655673
009fe2ecbcd0073b4afc91f805cbbdcd37f42235d9;1625603076;1.6472736494619135E11;1543490.738943943;15231.854730538504
009fe99ea19d35f382b6091995fcc138deb5e6a32e;1625603076;1.6472736494619135E11;3.582314263584161E7;353518.74219461496
00a05a23518f52534e73545fefb4b180a1959895e7;1625603076;1.6472736494619135E11;6.704740566343294E7;661653.6901437057
00a0d4795404137823f62c9cf2fac3ba50f7dd4c43;1625603076;1.6472736494619135E11;5.3339533139194116E7;526378.2928343544
00a0e4ab4500714e06c4db31814eb145c9e3850a0d;1625603076;1.6472736494619135E11;1.2835024304880376E8;1266617.4194775592
00a0ea7251b606d22fa28c0ebc227b9b45d7315920;1625603076;1.6472736494619135E11;6.100618280314679E7;602036.209661998
00a1074b13fcbc29c219a52d6f12af4d8fddc0b09c;1625603076;1.6472736494619135E11;8.110852200688164E7;800415.0549440874
00a146f5cca89e84dfb701a00ee95519c6ed010882;1625603076;1.6472736494619135E11;1.9410266421813305E7;191549.16253037998
00a14a47eb479014049cfc536a6f43887fb4ddbdbb;1625603076;1.6472736494619135E11;1.8029802508515552E8;1779261.2919589505
00a1867413280e5220f9218f74943f843b203f251a;1625603076;1.6472736494619135E11;4824234.385898802;47607.6956589682
00a1ae0209acc8848013e68be3354cc64a7bbe3977;1625603076;1.6472736494619135E11;2466739.751592231;24342.88758998643
00a1bf93e9ecc06ac98fcf7090ae2dcb3955bd15bb;1625603076;1.6472736494619135E11;5.63403304058089E7;555991.4980759659
00a28862bf5ce379b3dd0e2b65c3247725459f8a5b;1625603076;1.6472736494619135E11;3.3992697175850606E8;3354550.9034670494
00a2bfbd9d9c8aaf65adeb422631ec91cf924e2dc2;1625603076;1.6472736494619135E11;1.466826848325237E8;1447530.127963734
00a2df0b8eba964217008c1b2e54e476fd67362781;1625603076;1.6472736494619135E11;1.0086805536390625E8;995410.9393012266
00a327e0bdf695cc2d749d97bc9fe2ee08ee89e2a9;1625603076;1.6472736494619135E11;1.4977059634702374E10;1.4780030154407284E8
00a561d0208cffc300ff3e8e084a0e903ac73631ce;1625603076;1.6472736494619135E11;5.461560853132391E7;538971.1737034906
00a565524c5479842d692e49a74f94785401952741;1625603076;1.6472736494619135E11;1.2483200650240416E7;123189.7892738386
00a618ffbd39178b90f7c44dd5089ff588818f2e73;1625603076;1.6472736494619135E11;1.3736255803842153E7;135555.4961663031
00a65dc475af4440feb95e47cc36a028463ebab1ff;1625603076;1.6472736494619135E11;5.427623903998233E7;535622.1242653136
00a6d31084268ab9e20811c4b7fdebafb1851be5e5;1625603076;1.6472736494619135E11;1.191935115423783E9;1.1762547107204948E7
00a7a1ed2dc69fe47f46f3c0c08622e86a8ab22476;1625603076;1.6472736494619135E11;1.1532975844826976E7;113812.54726504325
00a7aba4ab460e7dad066220e88bbbd86d31df598b;1625603076;1.6472736494619135E11;5.9727370734634936E7;589416.3220502594
00a7cd3060573227a8673616587be7a5d5407f62e3;1625603076;1.6472736494619135E11;1.424613266078077E7;140587.1883037411
00a83b632f1fa16b752fa69d3498d2e6f542cf298c;1625603076;1.6472736494619135E11;1.257854976454719E7;124130.73684233519
00a90afd1ac71001aed439c5c78b81b8b81648007c;1625603076;1.6472736494619135E11;1.170204301E7;115480.97742445025
00a9b7c1358bf834b85bbece695737fcd41582ad03;1625603076;1.6472736494619135E11;1.2744893583333332E7;125772.29180547484
00ab9f6b4cb7521f29a2914887b71d90957a37cc16;1625603076;1.6472736494619135E11;1.136511825625167E8;1121560.5374675568
00ac88287b451f428df99f694d2a760b19adb9e77b;1625603076;1.6472736494619135E11;246678.75774620578;2434.3359556991595
00acb67deb8768cb62372591efb2cd6c2e2ea75618;1625603076;1.6472736494619135E11;1.8966790449419275E7;187172.74392445304
00ad5db8f0c8726b088ece10794f3eadb48e270e02;1625603076;1.6472736494619135E11;2.2098564599278182E8;2180784.874419974
00add78c95d7769da4a78cd05818ae8550ac33c7c9;1625603076;1.6472736494619135E11;2.148236501176381E8;2119975.5519846585
00ade0c0ac27ed13d3153a93f67a3448532674fb7d;1625603076;1.6472736494619135E11;1.20587297107608E7;119000.92080552995
00ae9d0c61cd4a2e842797b65bec78e7bf659ea642;1625603076;1.6472736494619135E11;1.1709291029627474E7;115552.50411344437
00aeb30f0c95adf763d21227eb0f40b9ee5ac899be;1625603076;1.6472736494619135E11;5164545.290797149;50966.035385824165
00aecaa587bd7b5ad5229a01549f0a971645e45e67;1625603076;1.6472736494619135E11;2.749818726097208E8;2713643.711259631
00aed8e1dc9a1cd9e55c661b52c4b72a697c2dd451;1625603076;1.6472736494619135E11;2302951.5696313884;22726.552790392165
00af30468f11657c54ef9dd6ddaa3e0f326334f1f2;1625603076;1.6472736494619135E11;4.0795089747690864E7;402584.1328865113
00af83d3a69a3cf191d11a252ae9696f6932928904;1625603076;1.6472736494619135E11;2.462754778130835E7;243035.6209528954
00af9ef8da2344028f58fd249d4c3b1f3f6a5482f5;1625603076;1.6472736494619135E11;6.2540947111128174E7;617181.9480813829
00b09ac0eef8be2d5520555fdb142af58846cb20e2;1625603076;1.6472736494619135E11;1.0856902219835706E9;1.0714075132666178E7
00b0ad1e398131a0843105d5dd2efa98f44fde7e5d;1625603076;1.6472736494619135E11;711825.9921372345;7024.616236488852
00b0b064e4880325ad339018265744c2cd8028e969;1625603076;1.6472736494619135E11;722077.432272024;7125.782018033328
00b1ade35c764fae5e8955a8548288f05b4d136c1a;1625603076;1.6472736494619135E11;1.905152984931853E7;188008.99010115612
00b1c98d1b6b0f55c7dc74428f4ed83cd7b08c1269;1625603076;1.6472736494619135E11;8.150876333134252E7;804364.8147693506
00b21737c18facf1dbadd51607296636673a2a9b4c;1625603076;1.6472736494619135E11;1912919.4554830955;18877.542003961153
00b2e5260709aad12ce12fe44d23508064ab844072;1625603076;1.6472736494619135E11;3.5298863062457435E7;348344.9176302769
00b33c83eaa40aa5e9dd699190c4d8f515077b674e;1625603076;1.6472736494619135E11;1.2074772246408517E7;119159.23569938069
00b35c475557dca47664a3436fc6cca48f03a27fe3;1625603076;1.6472736494619135E11;3145740.686339174;31043.571526089338
00b38951b436d5fcdf69b8fab89d91343c623f6806;1625603076;1.6472736494619135E11;1.638704265863878E7;161714.6426225422
00b3c7d72e7f19a8a3de46dfe850ad663ccf80f702;1625603076;1.6472736494619135E11;2.34869005E7;231779.2050578704
00b3e0a7734f2a30f739e1a193511db01d96c37d04;1625603076;1.6472736494619135E11;2.1290091461174395E7;210100.11408190517
00b4aa0d9635ace6a0f75d7251832c13d5cb441e8f;1625603076;1.6472736494619135E11;8.993563785096364E8;8875249.693959776
00b4b756b1ef697f11b324a9c67346e31292eda0df;1625603076;1.6472736494619135E11;2.381866201033388E7;235053.17554767535
00b4ea334212ab90793cf66609f0e3fb50652be010;1625603076;1.6472736494619135E11;373065.4532850328;3681.5762129600284
00b4ea43d2ce9949df03741a757ceab5c6310c2535;1625603076;1.6472736494619135E11;483475.9510968515;4771.156228546464
00b4ef08393daef3506b89499b7cc9e5645b5538ee;1625603076;1.6472736494619135E11;2210397.790673017;21813.1908373293
00b4f0ca31a0cc4e56eb835b5cf729a7dba330ddf5;1625603076;1.6472736494619135E11;5.430577923567822E8;5359136.40086043
00b5787ce59988e97f4eecba542145e079cc09e090;1625603076;1.6472736494619135E11;1.5905105546023583E8;1569586.7233817729
00b5daabf9a664fa3c56e81b8795bfa4bb2a1f446c;1625603076;1.6472736494619135E11;2.2491612115794685E8;2219572.5556332385
00b5ffff62f8d57310260341b5cb3bac9993d39d47;1625603076;1.6472736494619135E11;1.2788854817017205E7;126206.12085825308
00b68eb221da8747ad6f00257ecfb98b00c4425329;1625603076;1.6472736494619135E11;1.641987219862402E7;162038.61915917354
00b74cc6bab60b82db1b9c3ab30c5890d4b90f24bc;1625603076;1.6472736494619135E11;1.2305372923472036E7;121434.90598697735
00b76bb2a448a1a312934d8dae3210b2a87e76976e;1625603076;1.6472736494619135E11;2.3390689519429468E7;230829.75220884607
00b78b3a71a0c68a3328549e0f0de79ba9af063782;1625603076;1.6472736494619135E11;1.2519441302166013E7;123547.42818383842
00b7f1f50232353a573d20dba8e0cf4649bba867d9;1625603076;1.6472736494619135E11;4.603699813082735E7;454313.6217575337
00b87446a29c44c687a9d84defb4e32a0833f2ca19;1625603076;1.6472736494619135E11;1.4874704861160427E7;146790.2190069824
00b878b938b37354bf4d453ad71de96d7b535e3fc6;1625603076;1.6472736494619135E11;3.286210290689034E8;3242978.8205936225
00b90dac72c5ad4b39c8a25ebb5906ffd580984de0;1625603076;1.6472736494619135E11;5.189435215530014E7;512116.60259507847
00b9e0cd10605f7ce71c8fba99c8537abec9a46e19;1625603076;1.6472736494619135E11;5.684060914801402E8;5609284.717381847
00bab91a09d27e81762b529f834fd956b3e0144b7a;1625603076;1.6472736494619135E11;8448067.061197842;83369.29207495962
00bb0be266879971b7eabc5752aaf087cf991af00d;1625603076;1.6472736494619135E11;5.531411694532016E7;545864.366141645
00bb824a607292b2b3bf5fcf7b5190238cf35bcd39;1625603076;1.6472736494619135E11;1.0712852960231204E7;105719.20901288113
00bc65232bd889b7e40e486ea58bf7d59eb391a0a5;1625603076;1.6472736494619135E11;603067.28976053;5951.336874659133
00bd2d60545c98bb267fc9dbb5774a7b2e9766df61;1625603076;1.6472736494619135E11;2.3262382016061264E8;2295635.565635909
00be15cbd68e9147517051d10b92b1dee2a8ba0198;1625603076;1.6472736494619135E11;1.7769756446714003E7;175359.87872436977
00be2512f20d0cb1888fb092489d8fae9f1608c41b;1625603076;1.6472736494619135E11;2.3957032589002043E7;236418.67810630816
00be33473d3969ae619a931af176df9f730607b3a9;1625603076;1.6472736494619135E11;1.198497567075485E7;118273.08305774431
00be773eda360041ff684d943c43f572d414497513;1625603076;1.6472736494619135E11;5.593601746862216E8;5520015.577611187
00bec046271df26d10fdea6a3b877a729a71d83775;1625603076;1.6472736494619135E11;1.4079036410208087E7;138938.2080082829
00bf515c7bc2349e96f80e4921eebe4b81aa94eba7;1625603076;1.6472736494619135E11;1.0255148977761326E7;101202.38206039798
00c02d11f4805cc882aeade494bc67ae1b3c791d21;1625603076;1.6472736494619135E11;2.1378120816040605E8;2109688.27000949
00c02e09264e9429e1fb44c094857cd9bff4020c24;1625603076;1.6472736494619135E11;1.989135638198878E7;196296.77273679242
00c0aa1158cc9718917158977432c0469e9f9bb12f;1625603076;1.6472736494619135E11;1.2414495690504117E7;122511.77810113355
00c0ba1cd12676ddf3befafd665434de75644d780b;1625603076;1.6472736494619135E11;1.1537516647157414E7;113857.35792681933
00c139ff8f7cd73ea7d19f49210839655745af93f6;1625603076;1.6472736494619135E11;1.1740797775056412E9;1.158634267236662E7
00c1533d7112da2a15383d839d243d6d02e2954921;1625603076;1.6472736494619135E11;1.662328590895863E8;1640459.9633860288
00c17ffa6c6d829b5b90d1fea02c6a61c430d30bc5;1625603076;1.6472736494619135E11;2.3745148656581976E7;234327.71299914733
00c30663ad7ef0e2f691d3d3f5f9bab11ed8979b60;1625603076;1.6472736494619135E11;3.829753459322E8;3779371.4516280363
00c3a7159620a092d4fa591c5ad17ae80cddf6e268;1625603076;1.6472736494619135E11;4.979204382062504E8;4913700.866979498
00c3b14a5f66a049ba970d5cc28f0e5dfe19107e62;1625603076;1.6472736494619135E11;1.660801282E7;163895.27468771455
00c4388e201455859a506d93850f8e300e6ce9102e;1625603076;1.6472736494619135E11;2.507472364534613E7;247448.5517390476
00c441c9e6c6855e82647bd659c0bfd70e4f5a297f;1625603076;1.6472736494619135E11;2.337304243516667E7;230655.60291392225
00c447a87c9815429396a1f4672603fdf39dff0730;1625603076;1.6472736494619135E11;1.148234814355627E7;113312.93053807532
00c45a55cf8de7d1ce6dd3a5658fda74c9dc376c22;1625603076;1.6472736494619135E11;1.223491109386111E7;120739.5572391022
00c4c1ad0ecb6b0db9322af0a76502429b8d87ae0c;1625603076;1.6472736494619135E11;3.926952908270762E7;387529.22011939785
00c51ebe02bcdadeac72b8c19b7b19b87a5eab3eaa;1625603076;1.6472736494619135E11;1801441.426198126;17777.42711187106
00c578d6b2994533ea89e8fd90b08a4a8a983f68fb;1625603076;1.6472736494619135E11;1015207.7484018626;10018.52266088385
00c60c1a85efcf3631c0a0dc9fc738c9fdc1818ac8;1625603076;1.6472736494619135E11;9391436.47316879;92678.88200499475
00c71d1b9673625b3d17ec454bb47d2a4d2ba54dbd;1625603076;1.6472736494619135E11;2.0603624023804734E9;2.0332574736920703E7
00c744ad30409887487ae610d0694ac7d67ff2d64f;1625603076;1.6472736494619135E11;5.131784432829334E8;5064273.66339606
00c774fff889a942b555d39d0df927d88cc1da3039;1625603076;1.6472736494619135E11;1.4225078840667395E7;140379.4198206537
00c7915f11747847628884ee036558dcfc0b65d0aa;1625603076;1.6472736494619135E11;1.0013969492171012E7;98822.31537401724
00c7d598e3ffb4bbbcdeb997f32e02e1b5a484d774;1625603076;1.6472736494619135E11;1.946248225398199E8;1920644.5164106926
00c94a1520c04e233eae0e55d08868ca46a6b589d1;1625603076;1.6472736494619135E11;1.865832049343559E7;184128.62487681053
00c950e7d858976e709d22a3c04de052ed13e2c443;1625603076;1.6472736494619135E11;5860377.752099838;57832.82032980597
00c9e4abf7b14fb470c47fd188a3f292fb22589eb6;1625603076;1.6472736494619135E11;5696504.085100189;56215.641925737844
00ca4be5d52674f3fc5048128b111f0b9866375255;1625603076;1.6472736494619135E11;1.2507996296615262E7;123434.4837666542
00ca9db3d5c590cffb9518e1ad1311246a59a8da21;1625603076;1.6472736494619135E11;2.9744238907132115E7;293529.41010443086
00cb940e655ad4df1379826749014b82e52ba5e2b5;1625603076;1.6472736494619135E11;4176450.1122803064;41215.07165188455
00cd1fe739b204551d1a07e0721c598935188486bb;1625603076;1.6472736494619135E11;1.2270693900082728E7;121092.67792357848
00cd5e9f783fcbe37ae2910213aa08822ffb1c3266;1625603076;1.6472736494619135E11;1258928.8590268865;12423.671236213715
00ce9b4a5f03f9569530a782d20f48b582bfb73b4b;1625603076;1.6472736494619135E11;1.6164787035958946E7;159521.3250519937
00cf3ab49abbf6d95b7c5cbb34de69f67a287434e9;1625603076;1.6472736494619135E11;1.7212102401279263E7;169856.6999908383
00cfc8bd7b41a84788de70e842ab6959262fec33ef;1625603076;1.6472736494619135E11;2.502750328952255E7;246982.56021601375
00cfd53c4bdb671689b75699ffc8ad2d2765b191fe;1625603076;1.6472736494619135E11;3.844272531562789E8;3793699.5194041478
00cfd9783430ca486182267435dd6dc6d1a5524d44;1625603076;1.6472736494619135E11;1.3190481970691404E8;1301695.5666402322
00cfeecc6d19cd106c14c04ce533620a2712b3a00c;1625603076;1.6472736494619135E11;7323552.03628073;72272.07647808171
00d0105d2e717229b47b71b82e713fb97a1c143270;1625603076;1.6472736494619135E11;1.2951769798938809E7;127813.83853057031
00d01e90f71e84e5f63d3607f097c43a30b575c816;1625603076;1.6472736494619135E11;6055018.78800227;59753.62484690716
00d0bf77d0f8318355c3677728e64c2f53ec57f939;1625603076;1.6472736494619135E11;1.628140529809995E7;160672.16605352442
00d0d42ed20328110b70cc049c425388b58366d693;1625603076;1.6472736494619135E11;6.875044856396665E7;678460.0767363152
00d12c001dd117c56877593424fe621e42693f7732;1625603076;1.6472736494619135E11;8.6298911030679E7;851636.127808804
00d163d76f4ee87d21c88c5c245577aaa98f7e660f;1625603076;1.6472736494619135E11;0.0;0.0
00d1912d0791256aeff5c22de228d65a09cb58667e;1625603076;1.6472736494619135E11;1.3506536428270373E8;1332885.2295472855
00d206b9c77cd3965f9f298a67629f2fa7f1f71b3b;1625603076;1.6472736494619135E11;1.7445432899322948E8;1721593.0936887532
00d27a028ec882a7282632138198b381648a0aaabb;1625603076;1.6472736494619135E11;1.0307708707645886E7;101721.06490706392
00d3bcaad520cf34b11e951d7e8b647a37f82fe288;1625603076;1.6472736494619135E11;1.1640781877376583E9;1.1487642525630014E7
00d48ca32da7b6f4a03a56f7ca1031b723b61aefa1;1625603076;1.6472736494619135E11;1.1812949096177456E9;1.1657544812697185E7
00d494fd3591fd3d9c0ffc4eaa8c79698917da66c2;1625603076;1.6472736494619135E11;9508167.161411282;93830.83247741673
00d4c2f1385403f7ac748a5a2ba5df56a1473cb1ad;1625603076;1.6472736494619135E11;1219406.139396695;12033.643418894404
00d4cd15f43ee2a9067ce3957f4aec1ab464ae7839;1625603076;1.6472736494619135E11;7.189686702132285E7;709510.3368089641
00d4f5c69d23a1919d4021a3a79769d52a32bc381c;1625603076;1.6472736494619135E11;1350779.1080595797;13330.090442322462
00d52235b604dab92de67da8605b79858ac3a2f218;1625603076;1.6472736494619135E11;7207396.051411289;71125.79743475912
00d555eafd5cc47260b59831ef186e0746361d20d6;1625603076;1.6472736494619135E11;1.1576327708178148E8;1142403.6277970904
00d5abc335c54cfaf7116ebea2132c89115eff6142;1625603076;1.6472736494619135E11;1.787175634182386E7;176366.45916288055
00d5bdcf82749c811edffae84acf943dd722510c94;1625603076;1.6472736494619135E11;1.1276522284503747E7;111281.74919971408
00d72ef3a5a298539780aed09861a7f9d3b7a83dad;1625603076;1.6472736494619135E11;1.0355003465461459E7;102187.79066212462
00d73b71d9b3140493898a07e8d8807bb59bd65289;1625603076;1.6472736494619135E11;1.1894166666666666E7;117376.93932095554
00d82d1af87114ca1d65a446dc599c9c395abfe499;1625603076;1.6472736494619135E11;6.363919410763249E8;6280199.390630777
00d852b81a4311c8e7689aee1d48183d1a11e9e5bb;1625603076;1.6472736494619135E11;1.1557289669154547E7;114052.48692309055
00d86b62452eadae13bf13566dcb9e319ceeee1894;1625603076;1.6472736494619135E11;1.2828359843775924E7;126595.97407442887
00d8de5e00d4dc39eafbfaadbee2ec22a20bb489a3;1625603076;1.6472736494619135E11;3.443555855706054E7;339825.44389283034
00d9b7e9a1b70afc38227df3c2aa2ad8b42f0386a0;1625603076;1.6472736494619135E11;3587213.9373983773;35400.226385031485
00d9e0d62e471bae1d22c8bf69891e018f9b1bb467;1625603076;1.6472736494619135E11;2.222266552167984E7;219303.17067089793
00da020bf4a271401be020e491ea441a9527b2c071;1625603076;1.6472736494619135E11;2697019.8353780215;26615.39412019165
00daabf55e460aab3dacaf339950d5134d2d7e1c54;1625603076;1.6472736494619135E11;1347289.0379621394;13295.648874658777
00dac63fbb760d82c1c05cdf7c5074ed622fcd358d;1625603076;1.6472736494619135E11;2.275903666938981E8;2245963.2028134544
00dae0d98dbbe72eb56a8efbcc957d08dfa817dfbe;1625603076;1.6472736494619135E11;1.7085321295472686E9;1.686055675172194E7
00db4a89cd0231136c59ea80488449877e52a8384d;1625603076;1.6472736494619135E11;1.3271319694948198E7;130967.29936604247
00dba8ea0786edfd8a49409c1ad229ad16a5519b80;1625603076;1.6472736494619135E11;2.0627622646823445E8;2035625.7648021558
00dcf971b2265105e66684ef63b9f734dec4e34a6a;1625603076;1.6472736494619135E11;1.6834108380793627E7;166126.48647949018
00dd4f4e815374cc0eeebfa046d649ef89ddb3e12c;1625603076;1.6472736494619135E11;3.0119031981177498E7;297228.0352492614
00dd51fb618eb72dd50e5850a9a6a2b248cb70c24c;1625603076;1.6472736494619135E11;1.6399999997266665E9;1.618425114167595E7
00dd5889a75c371712c694f13044bbc485798f93e3;1625603076;1.6472736494619135E11;8.218014108585735E7;810990.2697643586
00dd611213e24915ed39104d8540f002056f20be9e;1625603076;1.6472736494619135E11;1.2019827340350995E9;1.1861701487088135E7
00dd8e8efaf383ac92ccbbf10b80e4b3defee9b7a0;1625603076;1.6472736494619135E11;3.5559367666666664E7;350915.69320270844
00de10ecf29b07d150f553de1755bb9582f2f5856c;1625603076;1.6472736494619135E11;1.102441996130656E7;108793.89108221213
00de46c449e045bf90a909d6aa661c72695bd318af;1625603076;1.6472736494619135E11;3902565.0970407166;38512.25221815403
00de53d14bc1811ead882312913ef639cf4a45bcf1;1625603076;1.6472736494619135E11;1.0819719706241274E7;106773.8177058134
00deed6ecc35c5285f376008f6844390eb4f721277;1625603076;1.6472736494619135E11;2.484737614992727E8;2452049.8529825304
00df78980bcf8a4d4a11b17464fe26fc32871ab1a7;1625603076;1.6472736494619135E11;2.245551899921906E7;221601.07259793178
00e01535db644fccbe194a356406b6c5071c405584;1625603076;1.6472736494619135E11;1.2298658840763865E9;1.213686484255425E7
00e037842c74b82774d486dba00150c94f8d19359e;1625603076;1.6472736494619135E11;1218333.788236757;12023.060979572821
00e06f0b314305921db0827e30167309478342f0d6;1625603076;1.6472736494619135E11;5353510.974359369;52830.83299584804
00e0f2f83d361743b236aea3b27f2b9ab29cefcf86;1625603076;1.6472736494619135E11;2.9895833333333332E7;295025.4114859721
00e2a66feb5d154263be9311df2056b22e492946d5;1625603076;1.6472736494619135E11;2.148746010641095E7;212047.8358639376
00e2aa4548e1d4b122832cabcdfca21cc1177614fc;1625603076;1.6472736494619135E11;1.9657852501963356E8;1939924.5234806251
00e2b875c8176d8a4aabf55d996264c4f2dc552083;1625603076;1.6472736494619135E11;7.366195424205089E7;726929.004413834
00e3ce432f24d301fbb4ce706334eccde1edc9249c;1625603076;1.6472736494619135E11;0.0;0.0
00e44c8e1464ec47d90b9d403625c9e58cbe295eea;1625603076;1.6472736494619135E11;1.1613781317290826E7;114609.97169199122
00e46ada75a810bf6ff0f28e47f2c435c6b8ee9ad9;1625603076;1.6472736494619135E11;1.191409914402381E9;1.1757364189380769E7
00e489223627fab44016d39d51b12622baa3740d7f;1625603076;1.6472736494619135E11;1.4659298367573066E7;144664.49169579538
00e4b041adf21c946885d3a6633cb03652c236b129;1625603076;1.6472736494619135E11;0.0;0.0
00e4e6c50539fbb1319183539370f008400c3d7fc6;1625603076;1.6472736494619135E11;2.9708558450652647E8;2931772.9945283965
00e522ea0b460584691c6588acccc5b0203bbcd54c;1625603076;1.6472736494619135E11;4.5331826027140003E8;4473546.690587032
00e526fcf4a28ae3ac2b034792d82694090801e703;1625603076;1.6472736494619135E11;5.284813238963562E7;521528.931161557
00e55aa3a69fdb2105de9a6b5f1c08088f68b2ac50;1625603076;1.6472736494619135E11;8954927.394675158;88371.21581405579
00e6a53d215fafbce407ea14729aec6fdfcc280a8c;1625603076;1.6472736494619135E11;1.7795154085825032E8;1756105.1394988624
00e6a70b4b85e2fd678b5223dae1e701b334d6faf7;1625603076;1.6472736494619135E11;1.7852912E7;176180.4947965831
00e783ac0501fd88ec9444f145ecb8ba2d8dd056cd;1625603076;1.6472736494619135E11;6512547.76979719;64268.72481471106
00e7e18b7b33dc24b9d88158043f6e0a1a69b52f79;1625603076;1.6472736494619135E11;3.3534017332214946E8;3309286.331611797
00e8a99474b9109d58fde61fb675e2f9464d704750;1625603076;1.6472736494619135E11;2.422738299965639E7;239086.61648619504
00e95783aaf01659a4462b069c0024adf307867675;1625603076;1.6472736494619135E11;1.6168212350260673E7;159555.12758059587
00eae26c14b21808e4a9b5c33be9443c92d18097bb;1625603076;1.6472736494619135E11;8.496390310298433E8;8384616.74405426
00eb39fa1b00ac977c93cdd06bd8c6e0b030dfc9df;1625603076;1.6472736494619135E11;1.2129504117974458E9;1.1969935420854215E7
00eb9be72269d40ffc199bc089f35f4faeff024bea;1625603076;1.6472736494619135E11;4.009979245807997E7;395722.6292553742
00ebbc29bca33c7a1c659a546caf60574c4c6c36e0;1625603076;1.6472736494619135E11;1.0753348666666668E7;106118.83869777159
00ebbde1133624b2ee723ec96547b37b40e158e58c;1625603076;1.6472736494619135E11;2.82828E8;2791072.7943053776
00ec90d639f295627e4a4be29cdbd05a726d9402fc;1625603076;1.6472736494619135E11;5648141.407003434;55738.3774572425
00ecb988b7c624f21cb7128033758df32fb54747a7;1625603076;1.6472736494619135E11;2.2942362734423283E7;226405.4636214744
00ed3e0342f724aaa0eb0998388c1b46ecc6f730ab;1625603076;1.6472736494619135E11;2889270.223272475;28512.60665695203
00ed458d9f727b468c4ad042aa18f5a6973d889c67;1625603076;1.6472736494619135E11;1.892374735730107E7;186747.9755019705
00ed6af636838e62de986c3cfbd0001befd95048a6;1625603076;1.6472736494619135E11;2.193947049088676E7;216508.47585309687
00ed7d6295501ae86f1deda943ac05ecde1f0a97b1;1625603076;1.6472736494619135E11;2068351.3316434263;20411.413052509888
00eda7b0f41d0a6e6ddf5723603a49039ced9e76d5;1625603076;1.6472736494619135E11;5.864553189026945E8;5787402.540289487
00edf6c851ed71d03bcc0e7e52df90a8d58236cec1;1625603076;1.6472736494619135E11;2.409795433758285E8;2378093.567470009
00eea6aeb7910576a371adbd01b32ec2a0c4ca7c0c;1625603076;1.6472736494619135E11;6643322.059710807;65559.26380933853
00eec031fab956a8264ee64bbd14883962d2aec0b7;1625603076;1.6472736494619135E11;4.2897121206645995E8;4233279.1645059865
00eecb2100435327cd6e5a57b43faed31040afe05c;1625603076;1.6472736494619135E11;1.2753958939172095E7;125861.75277840636
00ef1799a8a4e9d9f49d601580c26b2c72306c147f;1625603076;1.6472736494619135E11;5.164029068708889E7;509609.4107611522
00ef7a8be9d4bb67f1856ec238c8ae9122b58aaa7c;1625603076;1.6472736494619135E11;2.8119058918455184E8;2774914.0943884715
00f09e30bd1e8711b35742ce923e3732366ebc7fe0;1625603076;1.6472736494619135E11;4685854.833333333;46242.10454191602
00f0e9ff67e35b9e673f7ee87d4ec091edd118ec9d;1625603076;1.6472736494619135E11;8.924628891922202E8;8807221.6681219
00f1233d3a7046f203ff22056a01318b62b71602a9;1625603076;1.6472736494619135E11;1.1841701180469943E7;116859.18651301686
00f21c74882af0c66edafc76758bfb7e8ed4389ab2;1625603076;1.6472736494619135E11;4.663156675536456E7;460181.0900148964
00f2224da26e66314628e7d50c5a2446c8752b350d;1625603076;1.6472736494619135E11;1.3610510929837346E8;1343145.8969007668
00f2a3bf6f35250faab57662b8cf410bd374afda90;1625603076;1.6472736494619135E11;1.5941394553251829E7;157316.78843986135
00f2f757b418ddd41cc74929334f047a388142cfb2;1625603076;1.6472736494619135E11;1.278220542719668E7;126140.50171507489
00f3a778fbcf663e4f0d47b41aa4ec51e0f9d39d60;1625603076;1.6472736494619135E11;2.221962783755726E8;2192731.934497168
00f3dc5417900b23a96c2c8d1826e931211f41343c;1625603076;1.6472736494619135E11;6.835085233497174E7;674516.6830007066
00f3e45a321f4bbf71982963db9b8f02b6423f4216;1625603076;1.6472736494619135E11;1.0190483076586748E7;100564.23011827201
00f50760cc3c263fbfc96c4f078482f3c93106adb7;1625603076;1.6472736494619135E11;1202859.534743027;11870.354147369026
00f545920937d58b8d26071539c9cb6d8bb9ee30b3;1625603076;1.6472736494619135E11;5.4694532746603094E7;539750.0330458388
00f58c1bbbf2b9a06cf6ea0e23701341ace184bf4d;1625603076;1.6472736494619135E11;8264323.966036888;81556.03329561245
00f5b42c979d22d23d65633f10f1c5be3a43041b7f;1625603076;1.6472736494619135E11;1.131900699758999E7;111701.00728897286
00f5ec0728aa1bb85965744d86ef0dd5627b58230e;1625603076;1.6472736494619135E11;870557.9644188061;8591.054104809988
00f5f50f29b54f0c28a6c64ce31acbc9e24f124317;1625603076;1.6472736494619135E11;9.929816552557938E7;979918.5664887379
00f635dcaee8eadf03d9cc0f63c5529a9a3f6111d3;1625603076;1.6472736494619135E11;1.790208132141816E10;1.766657195809916E8
00f63b1a5ff831ce6a8c8cf0419fccf7e8d2a20e95;1625603076;1.6472736494619135E11;1.1953128469895484E9;1.179588006815533E7
00f66b5e6e16b78a0ab30bd24531668d589c7f3f98;1625603076;1.6472736494619135E11;2.4474750656499602E7;241527.75080530823
00f685027dbe0a92b22f7c0e9f5dfcaa32d92ee837;1625603076;1.6472736494619135E11;2.30573100081435E7;227539.81456430914
00f6c13954f07c9cd31c67ebcd0173085492d243de;1625603076;1.6472736494619135E11;2.8946847889577085E8;2856604.000505418
00f6dbe4acecec6b4fb239055e7f80556e493a7071;1625603076;1.6472736494619135E11;1.8132665833333334E8;1789412.3034369764
00f6e5cb01d2bb9d520e01ec7fa522acd3d3110c6b;1625603076;1.6472736494619135E11;3.507800902812625E8;3461654.3155840863
00f79f0f4bbdbc45b9765db725c716c203e69f5c4f;1625603076;1.6472736494619135E11;5.421816512584548E8;5350490.249901138
00f7db7a1ad63e28f77cc893c8d3a1c253c8abb8c4;1625603076;1.6472736494619135E11;9422084.03979348;92981.32585573738
00f84acf77f77252b11b8684518fb08fcce72b05d2;1625603076;1.6472736494619135E11;1.1809116832532339E7;116537.62964082306
00f854d4943716b4e7b75091e58930c5bd1ba1754a;1625603076;1.6472736494619135E11;1.2766658916666668E7;125987.08181822347
00f910caa11b18e223a77662357f40822071610a43;1625603076;1.6472736494619135E11;1.1395210900543991E7;112453.02137652713
00f9629f3f42e0dfaa9fca359e88a2ce622e5017b7;1625603076;1.6472736494619135E11;1.2144891560732592E7;119851.20435370512
00f96b168869db5416759fe61cb0507d38987f2740;1625603076;1.6472736494619135E11;4.7563184038251877E8;4693747.046958031
00f9bbefae773b5a9aec5a01e0005139af1dddf7ed;1625603076;1.6472736494619135E11;1.3018328369122016E9;1.2847066817426266E7
00f9d7d8b228f42a1d148bd132bf3ba092206ad8a2;1625603076;1.6472736494619135E11;3.525765503891518E7;347938.25848261156
00fadb0912153099487ffc49e4b24e4d024f6e64a8;1625603076;1.6472736494619135E11;5154568.156517086;50867.57657674509
00fbebd01d5b00a3687985d46d004c7dc044be9ddf;1625603076;1.6472736494619135E11;4690390.086394603;46286.86044102998
00fc28a78dea16c765b3d5b52f34faa94861d52f9b;1625603076;1.6472736494619135E11;8.965681823229209E8;8847734.53095637
00fcdd97a29405d585b450d52bb5fc4a9c9ffbc1e1;1625603076;1.6472736494619135E11;2.7015380616263792E7;266599.8199112489
00fd562412392806c5d687fdaef05f7e7c2a93a9cf;1625603076;1.6472736494619135E11;5.919637324416454E7;584176.2020851345
00fd79226ee6c4322305758a32ff1c4f7dc2d67894;1625603076;1.6472736494619135E11;3.10969802738E7;306878.8649895137
00fd7e31fdc870320e01f611638446bd623a626deb;1625603076;1.6472736494619135E11;7616312.666666667;75161.16889719821
00fdd3675c42e9a57c6c9ec43e7eee90c3a1fb0062;1625603076;1.6472736494619135E11;0.0;0.0
00fe0813844b18103c12cd2b3448d9060b958d194f;1625603076;1.6472736494619135E11;6.409404138077661E8;6325085.747343568
00fe34a7bc8d4907b46e06cc25f71ba43da2700212;1625603076;1.6472736494619135E11;4.971052323093981E7;490565.60517544794
00fe5f2d17cb74e0be8b673e12cbda5056ecab2fa6;1625603076;1.6472736494619135E11;3208276.9319390086;31660.707077561252
00fe99083a319caf9ceea1d68b1a48ada78da808a6;1625603076;1.6472736494619135E11;1.5740102207797088E7;155330.3458348129
00ff4fc197e9d4b52c9920e3020a0a4b7626886a01;1625603076;1.6472736494619135E11;2.3286659748919195E8;2298031.400549255
00ff581c3520a683a5c1bc301e7699d492b8b042ce;1625603076;1.6472736494619135E11;4.425811115903805E7;436758.77205699
00ff71ded534c1b41dc963e0aea18d994fb79930e9;1625603076;1.6472736494619135E11;2.1416901174666896E7;211351.52886892267
