address;no_blocks;score_m6
00303090471738b78f6fc910e8e06d1b08bc144bd8;4805;0.787704918032787
0031020ab94157055e4dbf826d751472e48397f16f;5889;0.965409836065574
00325b43248386ad6b61e9ae4ff974c5515a68f978;5844;0.958032786885246
0036997527f23a4ddc38e3c7a78a19dbdc30897438;5793;0.949672131147541
0038f20279b127950067cbfb5e08ac74831521ee74;5900;0.967213114754098
00385790e3944be9d9fb3a665e7d227d9889ea9925;5997;0.983114754098361
003a83e0f374fdb6788e2f8e01c55430eb27de53ab;6000;0.983606557377049
003a47250d2dac46dcdfd81fcf1ba434da00645ab7;6083;0.997213114754098
003b550ca8ec20c93f9b57aeb7de1adee573176f5a;5969;0.978524590163934
003b62392f196cc3369d2649f0dceef81210380162;6000;0.983606557377049
003ee3fa369a9fec862be367d491201faa8875e534;5900;0.967213114754098
003f7c99487893feb1e62a0b26969025dc3bbc05e0;5999;0.98344262295082
004006e393c8d4af9c3d2f88d192d3218aba31196b;4400;0.721311475409836
0049c00463b97db1c72797ba4059806aa2d247b23a;5702;0.934754098360656
004b92f8e8e5be575c6d57fefc9b09b852819be082;5908;0.968524590163934
004bb18e20c423acb76b84cdb7c6a43a24be7097a1;1000;0.163934426229508
004b15bef2c6559de77f599e2fd758bc65b653451d;900;0.147540983606557
005053703c4a32a217b9081d5fd620a2a9670e3538;5898;0.966885245901639
005d0873215bd74b030cdf3737f0adf5f51c60ca1d;5899;0.967049180327869
00674cd03a0af9ba19cb2b69e0d768d07d1a3b0e0f;5864;0.961311475409836
0068332380f49ff88c8c17831a880d04282fe7e32c;5899;0.967049180327869
006b5e85264328f0435a8a8f72a470acefc769c1d2;5999;0.98344262295082
006c5c707279939a5fc59e6e4a40f7b1aec95296db;5731;0.939508196721311
006c6546e22aa72b7b2ea90b1ceefe6bb2e0e6f791;6097;0.999508196721312
0073e61dbb60b448d615a3699ccb72de476817c51d;5856;0.96
007a2a9a4eff7cc34bb4150b83c15d5f792d2158aa;5941;0.973934426229508
00803c974202d4dd8db22bd3833b8d123f89ea199b;6099;0.99983606557377
0084edb623a13be32834db996523d9b8191e7f848d;6089;0.998196721311475
00850054fc265ea06507e4055c26b8e8c10cb7285a;6100;1
0086b9b81da108879123f1bdadd12438b2228f1b25;1500;0.245901639344262
008769a4de5e4cd742cc39d7d01cd5789bf79f2f23;6088;0.998032786885246
00888fcb0ac44babd37eec3f356e44f8136449092f;5900;0.967213114754098
0088165dfdd32d3b221e7997d9c982280f9790e14b;4898;0.802950819672131
008d3d1df0c6e4d1443d91cc02a403e36d1b225563;5977;0.97983606557377
00983564123f8f57a65c593d69eca6c521aa90148a;1500;0.245901639344262
009dd560e0420b6f28965f666b81d22080d533f6db;5944;0.974426229508197
009f1b1ae52e1c0287aa656ca0713efc99329dd620;6099;0.99983606557377
00a0ea7251b606d22fa28c0ebc227b9b45d7315920;6000;0.983606557377049
00ab5b9198f329edfd8efb8b8b196cbcde74599b48;5800;0.950819672131147
00add78c95d7769da4a78cd05818ae8550ac33c7c9;6009;0.985081967213115
00b09ac0eef8be2d5520555fdb142af58846cb20e2;5915;0.969672131147541
00b4f0ca31a0cc4e56eb835b5cf729a7dba330ddf5;5717;0.937213114754098
00b5daabf9a664fa3c56e81b8795bfa4bb2a1f446c;5488;0.899672131147541
00b8d4eaf07a2730198c8d6efc88940433e7d26a8d;6082;0.997049180327869
00b9e0cd10605f7ce71c8fba99c8537abec9a46e19;6090;0.998360655737705
00bd2d60545c98bb267fc9dbb5774a7b2e9766df61;5700;0.934426229508197
00c02d11f4805cc882aeade494bc67ae1b3c791d21;6096;0.999344262295082
00c3a7159620a092d4fa591c5ad17ae80cddf6e268;6090;0.998360655737705
00c4c1ad0ecb6b0db9322af0a76502429b8d87ae0c;6100;1
00c744ad30409887487ae610d0694ac7d67ff2d64f;4900;0.80327868852459
00d3bcaad520cf34b11e951d7e8b647a37f82fe288;5989;0.981803278688525
00d48ca32da7b6f4a03a56f7ca1031b723b61aefa1;1100;0.180327868852459
00dae0d98dbbe72eb56a8efbcc957d08dfa817dfbe;6098;0.999672131147541
00e01535db644fccbe194a356406b6c5071c405584;6100;1
00e4e6c50539fbb1319183539370f008400c3d7fc6;5992;0.982295081967213
00e46ada75a810bf6ff0f28e47f2c435c6b8ee9ad9;6000;0.983606557377049
00e7e18b7b33dc24b9d88158043f6e0a1a69b52f79;5899;0.967049180327869
00eae26c14b21808e4a9b5c33be9443c92d18097bb;5890;0.965573770491803
00eda7b0f41d0a6e6ddf5723603a49039ced9e76d5;5899;0.967049180327869
00ef7a8be9d4bb67f1856ec238c8ae9122b58aaa7c;5700;0.934426229508197
00f63b1a5ff831ce6a8c8cf0419fccf7e8d2a20e95;4899;0.803114754098361
00f9bbefae773b5a9aec5a01e0005139af1dddf7ed;5949;0.975245901639344
00fe0813844b18103c12cd2b3448d9060b958d194f;6091;0.998524590163934
00ff4fc197e9d4b52c9920e3020a0a4b7626886a01;5588;0.916065573770492
00032e337076db13fbc19b89b21385f2e1134f146f;6006;0.984590163934426
0003756b37ad7f0d51edb1aa3263d23d352c9eee37;5900;0.967213114754098
0010c669fa9d10bd561d90ded99df8589e1011591a;5993;0.982459016393443
0013153a0218b8df737a0851ccda76fc1f817d18d2;5926;0.971475409836066
0018bcbedac3e9978ade38f666e7b54eb7fe114ad2;6000;0.983606557377049
001d112b141056df59222685dd37dc919f0efa4d59;5844;0.958032786885246
002211b08201dd32ccf0fca91047c84475ee1b8d9a;6098;0.999672131147541
0023d1b568e99095e1d6ebfce8a583efab67ce5968;6000;0.983606557377049
002b905e734975ef780c774f553dec1119a2c13b5f;5999;0.98344262295082
002ca69e438fbdf90074db1908fd6a3ac2ec5a7df5;1185;0.194262295081967
002e418e4ff8ea1c6d2bb197b59e1f0fc2ebf7550c;5993;0.982459016393443
004d8603f590cac4ceb828f1ae24da1f4848065ba2;5698;0.934098360655738
00fc28a78dea16c765b3d5b52f34faa94861d52f9b;5197;0.851967213114754
00645db784d2dffd521d30ab9894f75afbaca01c4a;800;0.131147540983607
0087e83fc9df70ba11b1ffdf8e5d5bcbc2599029da;300;0.0491803278688525
00b4f4d043656c019ad00965c8be3a932e9d601a51;356;0.0583606557377049
001210f372df2094f1e72ef90024e1002cf19d5e32;4638;0.868735655737705
001a53b7275033cbae5172588df246ab8a11e23e92;4900;0.868735655737705
002c30b8822473502012d2598aa75a60d98fe6b558;4301;0.868735655737705
003357f9ed428a04d840e39aa7f63d827617f46ebe;4964;0.868735655737705
003b85237cee0249077fca1d7bc201f5fd7da7a8dd;4634;0.868735655737705
004c2118d2012c41b06f5bafcc1297731afe1a6232;4800;0.868735655737705
005b0b38e19158f341b9a5548724831869d59b1cb4;4800;0.868735655737705
009ef85210e6e76693649ed08ecb5d036011a743dd;4853;0.868735655737705
00a561d0208cffc300ff3e8e084a0e903ac73631ce;4999;0.868735655737705
00c7d598e3ffb4bbbcdeb997f32e02e1b5a484d774;5100;0.868735655737705
00f08ab2ecb39b35e6ead7b4603a3744c46abb1407;4898;0.868735655737705
0006f63457d7d9433974dd146f3c92b84ed5293429;4398;0.868735655737705
006679b71f43483a402f79719f1ba6a9b8a2ced062;400;0.868735655737705
00b1c98d1b6b0f55c7dc74428f4ed83cd7b08c1269;400;0.868735655737705
00cfd53c4bdb671689b75699ffc8ad2d2765b191fe;100;0.868735655737705
00e522ea0b460584691c6588acccc5b0203bbcd54c;252;0.868735655737705
00e761a2804893619f53a109ff04c93e6d6bd03972;300;0.868735655737705
